\relax 
\providecommand\hyper@newdestlabel[2]{}
\bibstyle{ieeetr}
\providecommand\HyperFirstAtBeginDocument{\AtBeginDocument}
\HyperFirstAtBeginDocument{\ifx\hyper@anchor\@undefined
\global\let\oldcontentsline\contentsline
\gdef\contentsline#1#2#3#4{\oldcontentsline{#1}{#2}{#3}}
\global\let\oldnewlabel\newlabel
\gdef\newlabel#1#2{\newlabelxx{#1}#2}
\gdef\newlabelxx#1#2#3#4#5#6{\oldnewlabel{#1}{{#2}{#3}}}
\AtEndDocument{\ifx\hyper@anchor\@undefined
\let\contentsline\oldcontentsline
\let\newlabel\oldnewlabel
\fi}
\fi}
\global\let\hyper@last\relax 
\gdef\HyperFirstAtBeginDocument#1{#1}
\providecommand\HyField@AuxAddToFields[1]{}
\providecommand\HyField@AuxAddToCoFields[2]{}
\@writefile{toc}{\contentsline {section}{\numberline {1} \phantom {}Introduction}{1}{section.1}}
\newlabel{sec:intro}{{1}{1}{}{section.1}{}}
\@writefile{toc}{\contentsline {subsection}{\numberline {1.1} \phantom {}Background}{1}{subsection.1.1}}
\@writefile{lof}{\contentsline {figure}{\numberline {1}{\ignorespaces Taipei 101\relax }}{1}{figure.caption.4}}
\providecommand*\caption@xref[2]{\@setref\relax\@undefined{#1}}
\newlabel{fig:taipei_inside}{{1}{1}{Taipei 101\relax }{figure.caption.4}{}}
\@writefile{lof}{\contentsline {figure}{\numberline {2}{\ignorespaces Tuned mass damper schematic\relax }}{2}{figure.caption.5}}
\newlabel{fig:schematic}{{2}{2}{Tuned mass damper schematic\relax }{figure.caption.5}{}}
\@writefile{toc}{\contentsline {section}{\numberline {2} \phantom {}Analysis}{3}{section.2}}
\@writefile{lof}{\contentsline {figure}{\numberline {3}{\ignorespaces Free body diagram of the TMD\relax }}{3}{figure.caption.6}}
\newlabel{fig:fbd}{{3}{3}{Free body diagram of the TMD\relax }{figure.caption.6}{}}
\@writefile{lot}{\contentsline {table}{\numberline {1}{\ignorespaces Summary of Variables\relax }}{3}{table.caption.7}}
\newlabel{table:variables}{{1}{3}{Summary of Variables\relax }{table.caption.7}{}}
\@writefile{toc}{\contentsline {subsection}{\numberline {2.1} \phantom {}Assumptions}{4}{subsection.2.1}}
\@writefile{toc}{\contentsline {subsection}{\numberline {2.2} \phantom {}Equation of Motion}{4}{subsection.2.2}}
\newlabel{eq:EoM_1}{{1}{4}{}{equation.2.1}{}}
\newlabel{eq:tension}{{2}{4}{}{equation.2.2}{}}
\newlabel{eq:EoM_2}{{3}{4}{}{equation.2.3}{}}
\newlabel{eq:EoM_3}{{4}{5}{}{equation.2.4}{}}
\newlabel{eq:EoM_4}{{5}{5}{}{equation.2.5}{}}
\newlabel{eq:EoM_5}{{6}{5}{}{equation.2.6}{}}
\newlabel{eq:EoM_6}{{7}{5}{}{equation.2.7}{}}
\newlabel{eq:EoM_7}{{8}{5}{}{equation.2.8}{}}
\@writefile{toc}{\contentsline {subsection}{\numberline {2.3} \phantom {}Natural Frequency and Damping Ratio of TMD}{5}{subsection.2.3}}
\newlabel{eq:nat_freq}{{9}{6}{}{equation.2.9}{}}
\newlabel{eq:damping_ratio}{{10}{6}{}{equation.2.10}{}}
\newlabel{eq:damped_nat_freq}{{11}{6}{}{equation.2.11}{}}
\@writefile{toc}{\contentsline {section}{\numberline {3} \phantom {}Total Response}{7}{section.3}}
\@writefile{toc}{\contentsline {subsection}{\numberline {3.1} \phantom {}Homogenous Solution}{7}{subsection.3.1}}
\newlabel{eq:EoM_8}{{12}{7}{}{equation.3.12}{}}
\newlabel{eq:char_eq_1}{{13}{7}{}{equation.3.13}{}}
\newlabel{eq:homo_sol}{{14}{7}{}{equation.3.14}{}}
\@writefile{toc}{\contentsline {subsection}{\numberline {3.2} \phantom {}Particular Solution}{7}{subsection.3.2}}
\newlabel{eq:particular_sol}{{15}{7}{}{equation.3.15}{}}
\newlabel{eq:particular_sol2}{{16}{8}{}{equation.3.16}{}}
\newlabel{eq:particular_sol_cos}{{17}{8}{}{equation.3.17}{}}
\newlabel{eq:particular_sol_sin}{{18}{8}{}{equation.3.18}{}}
\newlabel{eq:particular_sol_B}{{19}{8}{}{equation.3.19}{}}
\newlabel{eq:particular_sol3}{{20}{9}{}{equation.3.20}{}}
\@writefile{toc}{\contentsline {subsection}{\numberline {3.3} \phantom {}Total Solution}{9}{subsection.3.3}}
\newlabel{eq:total_sol}{{21}{9}{}{equation.3.21}{}}
\newlabel{eq:initial_condition_1}{{22}{9}{}{equation.3.22}{}}
\newlabel{eq:first_unknown}{{23}{9}{}{equation.3.23}{}}
\newlabel{eq:initial_condition_2}{{24}{9}{}{equation.3.24}{}}
\newlabel{eq:initial_condition_2.1}{{25}{9}{}{equation.3.25}{}}
\newlabel{eq:first_unknown}{{26}{10}{}{equation.3.26}{}}
\newlabel{eq:total_sol_final}{{27}{10}{}{equation.3.27}{}}
\@writefile{lof}{\contentsline {figure}{\numberline {4}{\ignorespaces Transient response of TMD over two periods\relax }}{11}{figure.caption.8}}
\newlabel{fig:transient}{{4}{11}{Transient response of TMD over two periods\relax }{figure.caption.8}{}}
\@writefile{lof}{\contentsline {figure}{\numberline {5}{\ignorespaces Steady state response of TMD over one period\relax }}{11}{figure.caption.9}}
\newlabel{fig:steady_state}{{5}{11}{Steady state response of TMD over one period\relax }{figure.caption.9}{}}
\@writefile{toc}{\contentsline {section}{\numberline {4} \phantom {}Transmitted Force}{12}{section.4}}
\newlabel{eq:force_trans}{{28}{12}{}{equation.4.28}{}}
\newlabel{eq:forces}{{29}{12}{}{equation.4.29}{}}
\newlabel{eq:force_trans}{{30}{12}{}{equation.4.30}{}}
\@writefile{lof}{\contentsline {figure}{\numberline {6}{\ignorespaces Transmitted force of TMD over two periods\relax }}{13}{figure.caption.10}}
\newlabel{fig:force_full}{{6}{13}{Transmitted force of TMD over two periods\relax }{figure.caption.10}{}}
\newlabel{eq:force_trans_final}{{31}{13}{}{equation.4.31}{}}
\@writefile{lof}{\contentsline {figure}{\numberline {7}{\ignorespaces Transmitted force of TMD over two periods\relax }}{14}{figure.caption.11}}
\newlabel{fig:force_steady}{{7}{14}{Transmitted force of TMD over two periods\relax }{figure.caption.11}{}}
\@writefile{lol}{\contentsline {lstlisting}{images/Project3.m}{15}{lstlisting.-1}}
