\relax 
\providecommand\hyper@newdestlabel[2]{}
\bibstyle{ieeetr}
\providecommand\HyperFirstAtBeginDocument{\AtBeginDocument}
\HyperFirstAtBeginDocument{\ifx\hyper@anchor\@undefined
\global\let\oldcontentsline\contentsline
\gdef\contentsline#1#2#3#4{\oldcontentsline{#1}{#2}{#3}}
\global\let\oldnewlabel\newlabel
\gdef\newlabel#1#2{\newlabelxx{#1}#2}
\gdef\newlabelxx#1#2#3#4#5#6{\oldnewlabel{#1}{{#2}{#3}}}
\AtEndDocument{\ifx\hyper@anchor\@undefined
\let\contentsline\oldcontentsline
\let\newlabel\oldnewlabel
\fi}
\fi}
\global\let\hyper@last\relax 
\gdef\HyperFirstAtBeginDocument#1{#1}
\providecommand\HyField@AuxAddToFields[1]{}
\providecommand\HyField@AuxAddToCoFields[2]{}
\@writefile{toc}{\contentsline {section}{\numberline {1} \phantom {}Q2 b - Assembly Procedure}{1}{section.1}}
\newlabel{sec:q2}{{1}{1}{}{section.1}{}}
\@writefile{toc}{\contentsline {subsection}{\numberline {1.1} \phantom {}Housing Subassembly}{1}{subsection.1.1}}
\@writefile{toc}{\contentsline {subsection}{\numberline {1.2} \phantom {}Shaft Subassembly}{1}{subsection.1.2}}
\@writefile{toc}{\contentsline {subsection}{\numberline {1.3} \phantom {}Final Assembly}{1}{subsection.1.3}}
\@writefile{toc}{\contentsline {section}{\numberline {2} \phantom {}Q3 - Bevel and Spur Gear Set}{2}{section.2}}
\newlabel{sec:q3}{{2}{2}{}{section.2}{}}
\@writefile{toc}{\contentsline {subsection}{\numberline {2.1} \phantom {}Skeleton Diagram}{2}{subsection.2.1}}
\@writefile{lof}{\contentsline {figure}{\numberline {1}{\ignorespaces Skeleton diagram with 2:1 ratio applied\relax }}{2}{figure.caption.1}}
\providecommand*\caption@xref[2]{\@setref\relax\@undefined{#1}}
\newlabel{fig:skeleton}{{1}{2}{Skeleton diagram with 2:1 ratio applied\relax }{figure.caption.1}{}}
\@writefile{toc}{\contentsline {subsection}{\numberline {2.2} \phantom {}Input Shaft}{2}{subsection.2.2}}
\@writefile{toc}{\contentsline {subsection}{\numberline {2.3} \phantom {}Intermediate Shaft}{3}{subsection.2.3}}
\@writefile{toc}{\contentsline {subsection}{\numberline {2.4} \phantom {}Output Shaft}{4}{subsection.2.4}}
\@writefile{toc}{\contentsline {section}{\numberline {3} \phantom {}Peer Reviews}{5}{section.3}}
