\relax 
\providecommand\hyper@newdestlabel[2]{}
\bibstyle{ieeetr}
\providecommand\HyperFirstAtBeginDocument{\AtBeginDocument}
\HyperFirstAtBeginDocument{\ifx\hyper@anchor\@undefined
\global\let\oldcontentsline\contentsline
\gdef\contentsline#1#2#3#4{\oldcontentsline{#1}{#2}{#3}}
\global\let\oldnewlabel\newlabel
\gdef\newlabel#1#2{\newlabelxx{#1}#2}
\gdef\newlabelxx#1#2#3#4#5#6{\oldnewlabel{#1}{{#2}{#3}}}
\AtEndDocument{\ifx\hyper@anchor\@undefined
\let\contentsline\oldcontentsline
\let\newlabel\oldnewlabel
\fi}
\fi}
\global\let\hyper@last\relax 
\gdef\HyperFirstAtBeginDocument#1{#1}
\providecommand\HyField@AuxAddToFields[1]{}
\providecommand\HyField@AuxAddToCoFields[2]{}
\@writefile{toc}{\contentsline {section}{\numberline {1} \phantom {}Problem Details}{1}{section.1}}
\@writefile{lof}{\contentsline {figure}{\numberline {1}{\ignorespaces Full system diagram\relax }}{1}{figure.caption.4}}
\providecommand*\caption@xref[2]{\@setref\relax\@undefined{#1}}
\newlabel{fig:system_diagram}{{1}{1}{Full system diagram\relax }{figure.caption.4}{}}
\@writefile{lof}{\contentsline {figure}{\numberline {2}{\ignorespaces Reducer Diagram\relax }}{1}{figure.caption.5}}
\newlabel{fig:reducer}{{2}{1}{Reducer Diagram\relax }{figure.caption.5}{}}
\citation{ref:textbook}
\citation{ref:textbook}
\citation{ref:textbook}
\@writefile{toc}{\contentsline {section}{\numberline {2} \phantom {}Gear Design}{2}{section.2}}
\newlabel{sec:gear}{{2}{2}{}{section.2}{}}
\@writefile{toc}{\contentsline {subsection}{\numberline {2.1} \phantom {}Gear A (pinion) \& B (gear)}{2}{subsection.2.1}}
\newlabel{eq:torque_gearA}{{1b}{2}{}{equation.2.1b}{}}
\newlabel{eq:trans_power}{{2}{2}{}{equation.2.2}{}}
\newlabel{eq:D_P}{{3}{2}{}{equation.2.3}{}}
\newlabel{eq:N_B}{{4a}{3}{}{equation.2.4a}{}}
\newlabel{eq:D_B}{{4b}{3}{}{equation.2.4b}{}}
\newlabel{eq:torque_gearB}{{5b}{3}{}{equation.2.5b}{}}
\newlabel{eq:center_AB}{{6a}{3}{}{equation.2.6a}{}}
\newlabel{eq:pitch_line_AB}{{6b}{3}{}{equation.2.6b}{}}
\newlabel{eq:face_width_AB}{{7a}{3}{}{equation.2.7a}{}}
\newlabel{eq:tangential_force_AB}{{7b}{3}{}{equation.2.7b}{}}
\@writefile{toc}{\contentsline {subsubsection}{\numberline {2.1.1} \phantom {}Bending Stress}{3}{subsubsection.2.1.1}}
\newlabel{eq:bending_AB}{{8}{3}{}{equation.2.8}{}}
\@writefile{lot}{\contentsline {table}{\numberline {1}{\ignorespaces Gear A \& B Properties\relax }}{4}{table.caption.6}}
\newlabel{table:AB_gear_properties}{{1}{4}{Gear A \& B Properties\relax }{table.caption.6}{}}
\newlabel{eq:loading_factor_AB}{{9}{4}{}{equation.2.9}{}}
\newlabel{eq:alignment_factor_AB}{{10}{4}{}{equation.2.10}{}}
\newlabel{eq:alignment_factor_AB}{{11}{4}{}{equation.2.11}{}}
\@writefile{lot}{\contentsline {table}{\numberline {2}{\ignorespaces Bending Stress Paramters\relax }}{5}{table.caption.7}}
\newlabel{table:AB_bending_param}{{2}{5}{Bending Stress Paramters\relax }{table.caption.7}{}}
\newlabel{eq:bending_AB_P}{{12}{5}{}{equation.2.12}{}}
\newlabel{eq:bending_AB_G}{{13}{5}{}{equation.2.13}{}}
\newlabel{eq:cycles_P}{{14}{6}{}{equation.2.14}{}}
\newlabel{eq:cycles_G}{{15}{6}{}{equation.2.15}{}}
\newlabel{eq:stress_cycle_P}{{16a}{6}{}{equation.2.16a}{}}
\newlabel{eq:stress_cycle_G}{{16b}{6}{}{equation.2.16b}{}}
\newlabel{eq:s_at_AB_P}{{17a}{6}{}{equation.2.17a}{}}
\newlabel{eq:s_at_AB_G}{{17b}{6}{}{equation.2.17b}{}}
\newlabel{eq:bending_hardness_AB_P}{{18a}{6}{}{equation.2.18a}{}}
\newlabel{eq:bending_hardness_AB_G}{{18b}{6}{}{equation.2.18b}{}}
\@writefile{toc}{\contentsline {subsubsection}{\numberline {2.1.2} \phantom {}Contact Stress}{6}{subsubsection.2.1.2}}
\newlabel{eq:contact_stress}{{19}{7}{}{equation.2.19}{}}
\newlabel{eq:contact_stress_calc}{{20}{7}{}{equation.2.20}{}}
\newlabel{eq:stress_cycle_contact_P}{{21a}{7}{}{equation.2.21a}{}}
\newlabel{eq:stress_cycle_contact_G}{{21b}{7}{}{equation.2.21b}{}}
\newlabel{eq:s_ac_AB_P}{{22a}{7}{}{equation.2.22a}{}}
\newlabel{eq:s_ac_AB_G}{{22b}{7}{}{equation.2.22b}{}}
\newlabel{eq:contact_hardness_AB_P}{{23a}{7}{}{equation.2.23a}{}}
\newlabel{eq:contact_hardness_AB_G}{{23b}{7}{}{equation.2.23b}{}}
\citation{ref:textbook}
\@writefile{toc}{\contentsline {subsection}{\numberline {2.2} \phantom {}Gear C (pinion) \& D (gear)}{8}{subsection.2.2}}
\newlabel{eq:trans_power}{{25}{8}{}{equation.2.25}{}}
\newlabel{eq:D_P_CD}{{26}{8}{}{equation.2.26}{}}
\newlabel{eq:N_D}{{27a}{9}{}{equation.2.27a}{}}
\newlabel{eq:D_D}{{27b}{9}{}{equation.2.27b}{}}
\newlabel{eq:torque_gearD}{{28b}{9}{}{equation.2.28b}{}}
\newlabel{eq:center_CD}{{29a}{9}{}{equation.2.29a}{}}
\newlabel{eq:pitch_line_CD}{{29b}{9}{}{equation.2.29b}{}}
\newlabel{eq:face_width_CD}{{30a}{9}{}{equation.2.30a}{}}
\newlabel{eq:trans_torque_CD}{{30b}{9}{}{equation.2.30b}{}}
\@writefile{toc}{\contentsline {subsubsection}{\numberline {2.2.1} \phantom {}Bending Stress}{9}{subsubsection.2.2.1}}
\newlabel{eq:bending_CD}{{31}{9}{}{equation.2.31}{}}
\@writefile{lot}{\contentsline {table}{\numberline {3}{\ignorespaces Gear C \& D Properties\relax }}{10}{table.caption.8}}
\newlabel{table:CD_gear_properties}{{3}{10}{Gear C \& D Properties\relax }{table.caption.8}{}}
\newlabel{eq:loading_factor_CD}{{32}{10}{}{equation.2.32}{}}
\newlabel{eq:alignment_factor_CD}{{33}{10}{}{equation.2.33}{}}
\newlabel{eq:alignment_factor_CD}{{34}{10}{}{equation.2.34}{}}
\@writefile{lot}{\contentsline {table}{\numberline {4}{\ignorespaces Bending Stress Paramters\relax }}{11}{table.caption.9}}
\newlabel{table:CD_bending_param}{{4}{11}{Bending Stress Paramters\relax }{table.caption.9}{}}
\newlabel{eq:bending_CD_P}{{35}{11}{}{equation.2.35}{}}
\newlabel{eq:bending_CD_G}{{36}{11}{}{equation.2.36}{}}
\newlabel{eq:cycles_P_CD}{{37}{12}{}{equation.2.37}{}}
\newlabel{eq:cycles_G_CD}{{38}{12}{}{equation.2.38}{}}
\newlabel{eq:stress_cycle_P_CD}{{39a}{12}{}{equation.2.39a}{}}
\newlabel{eq:stress_cycle_G_CD}{{39b}{12}{}{equation.2.39b}{}}
\newlabel{eq:s_at_CD_P}{{40a}{12}{}{equation.2.40a}{}}
\newlabel{eq:s_at_CD_G}{{40b}{12}{}{equation.2.40b}{}}
\newlabel{eq:bending_hardness_CD_P}{{41a}{12}{}{equation.2.41a}{}}
\newlabel{eq:bending_hardness_CD_G}{{41b}{12}{}{equation.2.41b}{}}
\@writefile{toc}{\contentsline {subsubsection}{\numberline {2.2.2} \phantom {}Contact Stress}{12}{subsubsection.2.2.2}}
\newlabel{eq:contact_stress}{{42}{13}{}{equation.2.42}{}}
\newlabel{eq:contact_stress_calc_CD}{{43}{13}{}{equation.2.43}{}}
\newlabel{eq:stress_cycle_contact_P_CD}{{44a}{13}{}{equation.2.44a}{}}
\newlabel{eq:stress_cycle_contact_G_CD}{{44b}{13}{}{equation.2.44b}{}}
\newlabel{eq:s_ac_CD_P}{{45a}{13}{}{equation.2.45a}{}}
\newlabel{eq:s_ac_CD_G}{{45b}{13}{}{equation.2.45b}{}}
\newlabel{eq:contact_hardness_AB_P}{{46a}{13}{}{equation.2.46a}{}}
\newlabel{eq:contact_hardness_AB_G}{{46b}{13}{}{equation.2.46b}{}}
\citation{ref:textbook}
\@writefile{toc}{\contentsline {section}{\numberline {3} \phantom {}Shaft Design}{15}{section.3}}
\newlabel{sec:shaft design}{{3}{15}{}{section.3}{}}
\@writefile{lot}{\contentsline {table}{\numberline {5}{\ignorespaces SAE 1040 CD Steel Properties\relax }}{15}{table.caption.10}}
\newlabel{table:sae_1040_propeties}{{5}{15}{SAE 1040 CD Steel Properties\relax }{table.caption.10}{}}
\@writefile{lof}{\contentsline {figure}{\numberline {3}{\ignorespaces Input Sheave coupled to the Motor Shaft with a belt drive\relax }}{15}{figure.caption.11}}
\newlabel{fig:input_sheave}{{3}{15}{Input Sheave coupled to the Motor Shaft with a belt drive\relax }{figure.caption.11}{}}
\@writefile{toc}{\contentsline {subsection}{\numberline {3.1} \phantom {}Motor Shaft Force Analysis}{15}{subsection.3.1}}
\newlabel{eq:shaftM_tangential}{{47a}{15}{}{equation.3.47a}{}}
\newlabel{eq:shaftM_torque}{{47b}{15}{}{equation.3.47b}{}}
\newlabel{eq:shaftM_bending_force}{{48}{16}{}{equation.3.48}{}}
\newlabel{eq:shaftM_bending_x}{{49a}{16}{}{equation.3.49a}{}}
\newlabel{eq:shaftM_bending_y}{{49b}{16}{}{equation.3.49b}{}}
\@writefile{toc}{\contentsline {subsection}{\numberline {3.2} \phantom {}Reducer Shaft (Shaft 1) Force Analysis}{16}{subsection.3.2}}
\newlabel{eq:shaft1_forces}{{50}{16}{}{equation.3.50}{}}
\newlabel{eq:shaft1_tangential}{{51a}{16}{}{equation.3.51a}{}}
\newlabel{eq:shaft1_radial}{{51b}{16}{}{equation.3.51b}{}}
\@writefile{lof}{\contentsline {figure}{\numberline {4}{\ignorespaces Shaft 1 Free Body Diagram\relax }}{17}{figure.caption.12}}
\newlabel{fig:shaft1_body_diagram}{{4}{17}{Shaft 1 Free Body Diagram\relax }{figure.caption.12}{}}
\newlabel{eq:shaft1_reaction_x}{{52a}{17}{}{equation.3.52a}{}}
\newlabel{eq:shaft1_forces_x}{{52b}{17}{}{equation.3.52b}{}}
\newlabel{eq:shaft1_reaction_y}{{52c}{17}{}{equation.3.52c}{}}
\newlabel{eq:shaft1_forces_y}{{52d}{17}{}{equation.3.52d}{}}
\@writefile{lof}{\contentsline {figure}{\numberline {5}{\ignorespaces Shaft 1 Torque Diagram\relax }}{17}{figure.caption.13}}
\newlabel{fig:shaft1_body_diagram}{{5}{17}{Shaft 1 Torque Diagram\relax }{figure.caption.13}{}}
\@writefile{lof}{\contentsline {figure}{\numberline {6}{\ignorespaces Shaft 1 Shear and Moment Diagram\relax }}{18}{figure.caption.14}}
\newlabel{fig:shaft1_body_diagram}{{6}{18}{Shaft 1 Shear and Moment Diagram\relax }{figure.caption.14}{}}
\newlabel{eq:shaft1_forces_y}{{53}{18}{}{equation.3.53}{}}
\@writefile{lot}{\contentsline {table}{\numberline {6}{\ignorespaces Combined Shear and Bending Moment Forces\relax }}{18}{table.caption.15}}
\newlabel{table:shaft1_shear_moment_summary}{{6}{18}{Combined Shear and Bending Moment Forces\relax }{table.caption.15}{}}
\@writefile{toc}{\contentsline {subsubsection}{\numberline {3.2.1} \phantom {}Reducer Shaft 1 Arrangement and Specifications}{18}{subsubsection.3.2.1}}
\@writefile{lof}{\contentsline {figure}{\numberline {7}{\ignorespaces Shaft 1 Design\relax }}{19}{figure.caption.16}}
\newlabel{fig:shaft1_design}{{7}{19}{Shaft 1 Design\relax }{figure.caption.16}{}}
\newlabel{eq:adjusted_endurance_strength}{{54}{19}{}{equation.3.54}{}}
\@writefile{lot}{\contentsline {table}{\numberline {7}{\ignorespaces Shared Parameters for all Shafts\relax }}{19}{table.caption.17}}
\newlabel{table:diameter_shared_values}{{7}{19}{Shared Parameters for all Shafts\relax }{table.caption.17}{}}
\newlabel{eq:diam_torque_moment}{{55}{19}{}{equation.3.55}{}}
\newlabel{eq:diam_pure_shear}{{56}{20}{}{equation.3.56}{}}
\@writefile{lot}{\contentsline {table}{\numberline {8}{\ignorespaces Parameters for $D_{1}$\relax }}{20}{table.caption.19}}
\newlabel{table:diameter_D1_values}{{8}{20}{Parameters for $D_{1}$\relax }{table.caption.19}{}}
\newlabel{eq:diam_torque_moment}{{57}{20}{Solving $D_{1}$}{equation.3.57}{}}
\@writefile{lot}{\contentsline {table}{\numberline {9}{\ignorespaces Parameters for $D'_{1}$\relax }}{20}{table.caption.20}}
\newlabel{table:diameter_D1_prime_values}{{9}{20}{Parameters for $D'_{1}$\relax }{table.caption.20}{}}
\newlabel{eq:diam_pure_shear}{{58}{21}{Solving $D_{1}$}{equation.3.58}{}}
\@writefile{lot}{\contentsline {table}{\numberline {10}{\ignorespaces Parameters for $D_{2}$\relax }}{21}{table.caption.22}}
\newlabel{table:diameter_D2_values}{{10}{21}{Parameters for $D_{2}$\relax }{table.caption.22}{}}
\newlabel{eq:diam_torque_moment}{{59}{21}{Solving $D_{2}$}{equation.3.59}{}}
\@writefile{lot}{\contentsline {table}{\numberline {11}{\ignorespaces Parameters for $D_{4}$\relax }}{22}{table.caption.24}}
\newlabel{table:diameter_D4_values}{{11}{22}{Parameters for $D_{4}$\relax }{table.caption.24}{}}
\newlabel{eq:diam_torque_moment}{{60}{22}{Solving $D_{4}$}{equation.3.60}{}}
\@writefile{lot}{\contentsline {table}{\numberline {12}{\ignorespaces Parameters for $D'_{4}$\relax }}{22}{table.caption.25}}
\newlabel{table:diameter_D4_prime_values}{{12}{22}{Parameters for $D'_{4}$\relax }{table.caption.25}{}}
\newlabel{eq:diam_torque_moment}{{61}{22}{Solving $D_{4}$}{equation.3.61}{}}
\@writefile{lot}{\contentsline {table}{\numberline {13}{\ignorespaces Parameters for $D_{5}$\relax }}{23}{table.caption.28}}
\newlabel{table:diameter_D5_prime_values}{{13}{23}{Parameters for $D_{5}$\relax }{table.caption.28}{}}
\@writefile{toc}{\contentsline {subsection}{\numberline {3.3} \phantom {}Reducer Middle Shaft (Shaft 2) Force Analysis}{23}{subsection.3.3}}
\@writefile{lot}{\contentsline {table}{\numberline {14}{\ignorespaces Required Diameters for Shaft 1\relax }}{24}{table.caption.30}}
\newlabel{table:shaft1_diameter_summary}{{14}{24}{Required Diameters for Shaft 1\relax }{table.caption.30}{}}
\newlabel{eq:shaft2_forces}{{63}{24}{Summary}{equation.3.63}{}}
\newlabel{eq:shaft2_tangential_C}{{64a}{24}{Summary}{equation.3.64a}{}}
\newlabel{eq:shaft2_radial_C}{{64b}{24}{Summary}{equation.3.64b}{}}
\@writefile{lof}{\contentsline {figure}{\numberline {8}{\ignorespaces Shaft 2 Free Body Diagram\relax }}{24}{figure.caption.31}}
\newlabel{fig:shaft2_body_diagram}{{8}{24}{Shaft 2 Free Body Diagram\relax }{figure.caption.31}{}}
\newlabel{eq:shaft2_reaction_x}{{65a}{25}{Summary}{equation.3.65a}{}}
\newlabel{eq:shaft2_forces_x}{{65b}{25}{Summary}{equation.3.65b}{}}
\newlabel{eq:shaft2_reaction_y}{{65c}{25}{Summary}{equation.3.65c}{}}
\newlabel{eq:shaft1_forces_y}{{65d}{25}{Summary}{equation.3.65d}{}}
\@writefile{lof}{\contentsline {figure}{\numberline {9}{\ignorespaces Shaft 2 Torque Diagram\relax }}{25}{figure.caption.32}}
\newlabel{fig:shaft2_body_diagram}{{9}{25}{Shaft 2 Torque Diagram\relax }{figure.caption.32}{}}
\newlabel{eq:shaft1_forces_y}{{66}{25}{Summary}{equation.3.66}{}}
\@writefile{lof}{\contentsline {figure}{\numberline {10}{\ignorespaces Shaft 2 Shear and Moment Diagram\relax }}{26}{figure.caption.33}}
\newlabel{fig:shaft2_body_diagram}{{10}{26}{Shaft 2 Shear and Moment Diagram\relax }{figure.caption.33}{}}
\@writefile{lot}{\contentsline {table}{\numberline {15}{\ignorespaces Combined Shear and Bending Moment Forces\relax }}{26}{table.caption.34}}
\newlabel{table:shaft1_shear_moment_summary}{{15}{26}{Combined Shear and Bending Moment Forces\relax }{table.caption.34}{}}
\@writefile{toc}{\contentsline {subsubsection}{\numberline {3.3.1} \phantom {}Reducer Shaft 2 Arrangement and Specifications}{27}{subsubsection.3.3.1}}
\@writefile{lof}{\contentsline {figure}{\numberline {11}{\ignorespaces Shaft 2 Design\relax }}{27}{figure.caption.35}}
\newlabel{fig:shaft2_design}{{11}{27}{Shaft 2 Design\relax }{figure.caption.35}{}}
\@writefile{lot}{\contentsline {table}{\numberline {16}{\ignorespaces Parameters for $D_{1}$\relax }}{27}{table.caption.37}}
\newlabel{table:diameter_D1_prime_values}{{16}{27}{Parameters for $D_{1}$\relax }{table.caption.37}{}}
\newlabel{eq:diam_pure_shear_shaft2}{{67}{27}{Solving $D_{1}$}{equation.3.67}{}}
\@writefile{lot}{\contentsline {table}{\numberline {17}{\ignorespaces Parameters for $D_{2}$\relax }}{28}{table.caption.39}}
\newlabel{table:diameter_D2_values_shaft2}{{17}{28}{Parameters for $D_{2}$\relax }{table.caption.39}{}}
\newlabel{eq:diam_torque_moment_D2_shaft2}{{68}{28}{Solving $D_{2}$}{equation.3.68}{}}
\@writefile{lot}{\contentsline {table}{\numberline {18}{\ignorespaces Parameters for $D'_{2}$\relax }}{28}{table.caption.40}}
\newlabel{table:diameter_D2_values_shaft2}{{18}{28}{Parameters for $D'_{2}$\relax }{table.caption.40}{}}
\newlabel{eq:diam_torque_moment_D2_prime_shaft2}{{69}{28}{Solving $D_{2}$}{equation.3.69}{}}
\@writefile{lot}{\contentsline {table}{\numberline {19}{\ignorespaces Parameters for $D_{4}$\relax }}{29}{table.caption.43}}
\newlabel{table:diameter_D4_values_shaft2}{{19}{29}{Parameters for $D_{4}$\relax }{table.caption.43}{}}
\newlabel{eq:diam_torque_moment_D4_shaft2}{{70}{29}{Solving $D_{4}$}{equation.3.70}{}}
\@writefile{lot}{\contentsline {table}{\numberline {20}{\ignorespaces Parameters for $D'_{4}$\relax }}{29}{table.caption.44}}
\newlabel{table:diameter_D4_values_shaft2}{{20}{29}{Parameters for $D'_{4}$\relax }{table.caption.44}{}}
\newlabel{eq:diam_torque_moment_D2_shaft2}{{71}{30}{Solving $D_{4}$}{equation.3.71}{}}
\@writefile{lot}{\contentsline {table}{\numberline {21}{\ignorespaces Parameters for $D_{5}$\relax }}{30}{table.caption.46}}
\newlabel{table:diameter_D1_prime_values}{{21}{30}{Parameters for $D_{5}$\relax }{table.caption.46}{}}
\newlabel{eq:diam_pure_shear_shaft2}{{72}{30}{Solving $D_{5}$}{equation.3.72}{}}
\@writefile{lot}{\contentsline {table}{\numberline {22}{\ignorespaces Required Diameters for Shaft 2\relax }}{31}{table.caption.48}}
\newlabel{table:shaft2_diameter_summary}{{22}{31}{Required Diameters for Shaft 2\relax }{table.caption.48}{}}
\@writefile{toc}{\contentsline {subsection}{\numberline {3.4} \phantom {}Output Reducer Shaft (Shaft 3) Force Analysis}{31}{subsection.3.4}}
\@writefile{lof}{\contentsline {figure}{\numberline {12}{\ignorespaces Output Gear D coupled to the Conveyor with a chain drive\relax }}{31}{figure.caption.49}}
\newlabel{fig:input_sheave}{{12}{31}{Output Gear D coupled to the Conveyor with a chain drive\relax }{figure.caption.49}{}}
\newlabel{eq:shaft3_forces}{{73}{32}{Summary}{equation.3.73}{}}
\newlabel{eq:shaftM_tangential}{{74}{32}{Summary}{equation.3.74}{}}
\@writefile{lof}{\contentsline {figure}{\numberline {13}{\ignorespaces Shaft 3 Free Body Diagram\relax }}{32}{figure.caption.50}}
\newlabel{fig:shaft3_body_diagram}{{13}{32}{Shaft 3 Free Body Diagram\relax }{figure.caption.50}{}}
\newlabel{eq:shaft3_reaction_x}{{75a}{33}{Summary}{equation.3.75a}{}}
\newlabel{eq:shaft3_forces_x}{{75b}{33}{Summary}{equation.3.75b}{}}
\newlabel{eq:shaft1_reaction_y}{{75c}{33}{Summary}{equation.3.75c}{}}
\newlabel{eq:shaft1_forces_y}{{75d}{33}{Summary}{equation.3.75d}{}}
\@writefile{lof}{\contentsline {figure}{\numberline {14}{\ignorespaces Shaft 3 Torque Diagram\relax }}{33}{figure.caption.51}}
\newlabel{fig:shaft3_body_diagram}{{14}{33}{Shaft 3 Torque Diagram\relax }{figure.caption.51}{}}
\newlabel{eq:shaft3_forces_y}{{76}{33}{Summary}{equation.3.76}{}}
\@writefile{toc}{\contentsline {subsubsection}{\numberline {3.4.1} \phantom {}Reducer Shaft 3 Arrangement and Specifications}{33}{subsubsection.3.4.1}}
\@writefile{lof}{\contentsline {figure}{\numberline {15}{\ignorespaces Shaft 3 Shear and Moment Diagram\relax }}{34}{figure.caption.52}}
\newlabel{fig:shaft3_body_diagram}{{15}{34}{Shaft 3 Shear and Moment Diagram\relax }{figure.caption.52}{}}
\@writefile{lot}{\contentsline {table}{\numberline {23}{\ignorespaces Combined Shear and Bending Moment Forces\relax }}{34}{table.caption.53}}
\newlabel{table:shaft3_shear_moment_summary}{{23}{34}{Combined Shear and Bending Moment Forces\relax }{table.caption.53}{}}
\@writefile{lof}{\contentsline {figure}{\numberline {16}{\ignorespaces Shaft 3 Design\relax }}{34}{figure.caption.54}}
\newlabel{fig:shaft3_design}{{16}{34}{Shaft 3 Design\relax }{figure.caption.54}{}}
\@writefile{lot}{\contentsline {table}{\numberline {24}{\ignorespaces Parameters for $D_{1}$\relax }}{35}{table.caption.56}}
\newlabel{table:diameter_D1_prime_values}{{24}{35}{Parameters for $D_{1}$\relax }{table.caption.56}{}}
\newlabel{eq:diam_pure_shear_shaft3}{{77}{35}{Solving $D_{1}$}{equation.3.77}{}}
\@writefile{lot}{\contentsline {table}{\numberline {25}{\ignorespaces Parameters for $D_{2}$\relax }}{35}{table.caption.58}}
\newlabel{table:diameter_D4_values_shaft3}{{25}{35}{Parameters for $D_{2}$\relax }{table.caption.58}{}}
\newlabel{eq:diam_torque_moment_D4_shaft3}{{78}{36}{Solving $D_{2}$}{equation.3.78}{}}
\@writefile{lot}{\contentsline {table}{\numberline {26}{\ignorespaces Parameters for $D'_{2}$\relax }}{36}{table.caption.59}}
\newlabel{table:diameter_D4_values_shaft3}{{26}{36}{Parameters for $D'_{2}$\relax }{table.caption.59}{}}
\newlabel{eq:diam_torque_moment_D2_shaft2}{{79}{36}{Solving $D_{2}$}{equation.3.79}{}}
\@writefile{lot}{\contentsline {table}{\numberline {27}{\ignorespaces Parameters for $D_{4}$\relax }}{37}{table.caption.61}}
\newlabel{table:diameter_D4_values_shaft3}{{27}{37}{Parameters for $D_{4}$\relax }{table.caption.61}{}}
\newlabel{eq:diam_torque_moment_D2_shaft3}{{80}{37}{Solving $D_{4}$}{equation.3.80}{}}
\@writefile{lot}{\contentsline {table}{\numberline {28}{\ignorespaces Parameters for $D_{5}$\relax }}{37}{table.caption.64}}
\newlabel{table:diameter_D4_values_shaft3}{{28}{37}{Parameters for $D_{5}$\relax }{table.caption.64}{}}
\newlabel{eq:diam_torque_moment_D5_shaft3}{{81}{38}{Solving $D_{5}$}{equation.3.81}{}}
\@writefile{lot}{\contentsline {table}{\numberline {29}{\ignorespaces Parameters for $D'_{5}$\relax }}{38}{table.caption.65}}
\newlabel{table:diameter_D5_prime_values}{{29}{38}{Parameters for $D'_{5}$\relax }{table.caption.65}{}}
\newlabel{eq:diam_pure_shear_shaft3}{{82}{38}{Solving $D_{5}$}{equation.3.82}{}}
\@writefile{lot}{\contentsline {table}{\numberline {30}{\ignorespaces Required Diameters for Shaft 3\relax }}{39}{table.caption.67}}
\newlabel{table:shaft1_diameter_summary}{{30}{39}{Required Diameters for Shaft 3\relax }{table.caption.67}{}}
\@writefile{toc}{\contentsline {section}{\numberline {4} \phantom {}Conclusion}{40}{section.4}}
\newlabel{sec:conclusion}{{4}{40}{Summary}{section.4}{}}
\bibdata{uw-wkrpt-bib}
\bibcite{ref:textbook}{1}
\@writefile{toc}{\contentsline {section}{\hbox to\@tempdima {5\hfil }{ References}}{41}{section*.68}}
