This is BibTeX, Version 0.99d (TeX Live 2016)
Capacity: max_strings=35307, hash_size=35307, hash_prime=30011
The top-level auxiliary file: uw-wkrpt-tron.aux
The style file: ieeetr.bst
Database file #1: ../uw-wkrpt-bib.bib
You've used 1 entry,
            1876 wiz_defined-function locations,
            482 strings with 3571 characters,
and the built_in function-call counts, 168 in all, are:
= -- 14
> -- 4
< -- 0
+ -- 2
- -- 1
* -- 7
:= -- 32
add.period$ -- 2
call.type$ -- 1
change.case$ -- 0
chr.to.int$ -- 0
cite$ -- 1
duplicate$ -- 9
empty$ -- 21
format.name$ -- 1
if$ -- 39
int.to.chr$ -- 0
int.to.str$ -- 1
missing$ -- 2
newline$ -- 7
num.names$ -- 1
pop$ -- 6
preamble$ -- 1
purify$ -- 0
quote$ -- 0
skip$ -- 1
stack$ -- 0
substring$ -- 0
swap$ -- 1
text.length$ -- 0
text.prefix$ -- 0
top$ -- 0
type$ -- 0
warning$ -- 0
while$ -- 1
width$ -- 2
write$ -- 11
