\relax 
\bibstyle{ieeetr}
\newlabel{sec:abstract}{{}{1}}
\@writefile{toc}{\contentsline {section}{\numberline {1} \phantom {}Summary of Analysis}{2}}
\newlabel{sec:analysis}{{1}{2}}
\newlabel{eq:terrain}{{1}{2}}
\newlabel{eq:range}{{2}{2}}
\@writefile{lof}{\contentsline {figure}{\numberline {1}{\ignorespaces Directions of the Terrain\relax }}{2}}
\providecommand*\caption@xref[2]{\@setref\relax\@undefined{#1}}
\newlabel{fig:directions}{{1}{2}}
\@writefile{toc}{\contentsline {subsection}{\numberline {1.1} \phantom {}Part I}{2}}
\newlabel{sec:Part I}{{1.1}{2}}
\@writefile{lof}{\contentsline {figure}{\numberline {2}{\ignorespaces 3D surface plot of the Island - Mountainous Terrain\relax }}{3}}
\newlabel{fig:terrain}{{2}{3}}
\newlabel{eq:gradient}{{3}{3}}
\@writefile{lof}{\contentsline {figure}{\numberline {3}{\ignorespaces Contour Map of the Terrain\relax }}{4}}
\newlabel{fig:contourMap}{{3}{4}}
\newlabel{eq:gradMag}{{4}{4}}
\@writefile{lot}{\contentsline {table}{\numberline {1}{\ignorespaces Critical Point Classification\relax }}{5}}
\newlabel{tab:CPclass}{{1}{5}}
\@writefile{toc}{\contentsline {subsection}{\numberline {1.2} \phantom {}Part II}{5}}
\newlabel{sec:Part II}{{1.2}{5}}
\newlabel{eq:temp}{{5}{5}}
\@writefile{lof}{\contentsline {figure}{\numberline {4}{\ignorespaces Isotherms at point( 4, -0.3)\relax }}{6}}
\newlabel{fig:isotherm}{{4}{6}}
\newlabel{eq:unitV}{{6}{6}}
\newlabel{eq:dirNW}{{7}{6}}
\newlabel{eq:dirNWT}{{8}{7}}
\newlabel{eq:Tdir}{{9}{7}}
\@writefile{lof}{\contentsline {figure}{\numberline {5}{\ignorespaces 3D Terrain Surface Temperature\relax }}{7}}
\newlabel{fig:SurfaceTemp}{{5}{7}}
\@writefile{lof}{\contentsline {figure}{\numberline {6}{\ignorespaces 3D Terrain Surface Temperature\relax }}{8}}
\newlabel{fig:SurfaceTemp1}{{6}{8}}
\@writefile{lof}{\contentsline {figure}{\numberline {7}{\ignorespaces Temperature 3D surface plot\relax }}{9}}
\newlabel{fig:terrainTemp}{{7}{9}}
\newlabel{eq:Lagrange}{{10}{9}}
\@writefile{toc}{\contentsline {section}{\numberline {2} \phantom {}Summary of Results}{10}}
\newlabel{sec:results}{{2}{10}}
\@writefile{toc}{\contentsline {subsection}{\numberline {2.1} \phantom {}Part I}{10}}
\newlabel{sec:PART I Results}{{2.1}{10}}
\@writefile{lot}{\contentsline {table}{\numberline {2}{\ignorespaces Steepest Slope\relax }}{10}}
\newlabel{tab:slope}{{2}{10}}
\@writefile{lot}{\contentsline {table}{\numberline {3}{\ignorespaces Critical Point Classification\relax }}{10}}
\@writefile{toc}{\contentsline {subsection}{\numberline {2.2} \phantom {}Part II}{10}}
\newlabel{sec:PART II Results}{{2.2}{10}}
\@writefile{lot}{\contentsline {table}{\numberline {4}{\ignorespaces Temperature at Extrema of Elevation\relax }}{10}}
\@writefile{lot}{\contentsline {table}{\numberline {5}{\ignorespaces Characteristics of Location (4, -0.3)\relax }}{11}}
\newlabel{tab:Point}{{5}{11}}
\@writefile{lot}{\contentsline {table}{\numberline {6}{\ignorespaces Gradient Changes due to Direction\relax }}{11}}
\newlabel{tab:Point}{{6}{11}}
\@writefile{lot}{\contentsline {table}{\numberline {7}{\ignorespaces Max Temperature on the Island\relax }}{11}}
\newlabel{tab:Point}{{7}{11}}
\@writefile{toc}{\contentsline {section}{\numberline {Appendix A} \phantom {Appendix }MATLAB Code}{12}}
\newlabel{app:code}{{A}{12}}
\@writefile{toc}{\contentsline {subsection}{\numberline {Appendix A.1} \phantom {Appendix }Main Script}{12}}
\newlabel{app:main}{{A.1}{12}}
\@writefile{lol}{\contentsline {lstlisting}{images/main.m}{12}}
\@writefile{toc}{\contentsline {subsection}{\numberline {Appendix A.2} \phantom {Appendix }Functions}{19}}
\newlabel{app:classification}{{A.2}{19}}
\@writefile{lol}{\contentsline {lstlisting}{images/classCritPoint.m}{19}}
\@writefile{toc}{\contentsline {section}{\numberline {Appendix B} \phantom {Appendix }Calculations}{20}}
\newlabel{app:calculations}{{B}{20}}
\newlabel{eq:A}{{11}{20}}
\newlabel{eq:B}{{12}{20}}
\newlabel{eq:C}{{13}{20}}
\newlabel{eq:D}{{14}{20}}
