\contentsline {section}{\numberline {1} \phantom {}Summary of Analysis}{2}
\contentsline {subsection}{\numberline {1.1} \phantom {}Part I}{2}
\contentsline {subsection}{\numberline {1.2} \phantom {}Part II}{5}
\contentsline {section}{\numberline {2} \phantom {}Summary of Results}{10}
\contentsline {subsection}{\numberline {2.1} \phantom {}Part I}{10}
\contentsline {subsection}{\numberline {2.2} \phantom {}Part II}{10}
\contentsline {section}{\numberline {Appendix A} \phantom {Appendix }MATLAB Code}{12}
\contentsline {subsection}{\numberline {Appendix A.1} \phantom {Appendix }Main Script}{12}
\contentsline {subsection}{\numberline {Appendix A.2} \phantom {Appendix }Functions}{19}
\contentsline {section}{\numberline {Appendix B} \phantom {Appendix }Calculations}{20}
