\relax 
\bibstyle{ieeetr}
\newlabel{sec:abstract}{{}{1}}
\@writefile{toc}{\contentsline {section}{\numberline {1} \phantom {}Introduction}{2}}
\newlabel{sec:intro}{{1}{2}}
\@writefile{toc}{\contentsline {subsection}{\numberline {1.1} \phantom {}Background}{2}}
\@writefile{lof}{\contentsline {figure}{\numberline {1}{\ignorespaces Model HT i180 Segway\relax }}{2}}
\providecommand*\caption@xref[2]{\@setref\relax\@undefined{#1}}
\newlabel{fig:hti180}{{1}{2}}
\@writefile{toc}{\contentsline {subsection}{\numberline {1.2} \phantom {}Objective and Method}{3}}
\@writefile{lof}{\contentsline {figure}{\numberline {2}{\ignorespaces Drive Unit Schematic illustrating the stub axle\relax }}{3}}
\newlabel{fig:drive_unit}{{2}{3}}
\@writefile{toc}{\contentsline {section}{\numberline {2} \phantom {}Summary of Results}{4}}
\newlabel{sec:results}{{2}{4}}
\@writefile{toc}{\contentsline {subsection}{\numberline {2.1} \phantom {}Stub Axle Properties and Assumptions}{4}}
\@writefile{lot}{\contentsline {table}{\numberline {1}{\ignorespaces Scaled Segway Stub Axel Properties\relax }}{4}}
\newlabel{table:axle_propertries}{{1}{4}}
\@writefile{toc}{\contentsline {subsection}{\numberline {2.2} \phantom {}Static Loading Analysis}{4}}
\@writefile{lof}{\contentsline {figure}{\numberline {3}{\ignorespaces Loading diagram of the stub axle\relax }}{5}}
\newlabel{fig:loading}{{3}{5}}
\newlabel{eq:Cy}{{1}{5}}
\newlabel{eq:Ay}{{2}{5}}
\newlabel{eq:By}{{3}{5}}
\@writefile{lof}{\contentsline {figure}{\numberline {4}{\ignorespaces Shear force diagram over over axle's length\relax }}{6}}
\newlabel{fig:shear_diagram}{{4}{6}}
\@writefile{lof}{\contentsline {figure}{\numberline {5}{\ignorespaces Bending moment diagram over over axle's length\relax }}{6}}
\newlabel{fig:moment_diagram}{{5}{6}}
\@writefile{lof}{\contentsline {figure}{\numberline {6}{\ignorespaces Stress location on the cross section at B\relax }}{7}}
\newlabel{fig:stress_circle}{{6}{7}}
\newlabel{eq:shear}{{4}{7}}
\newlabel{eq:tensile}{{5}{8}}
\newlabel{eq:principle_axial}{{6}{8}}
\newlabel{eq:SFaxial}{{7}{8}}
\newlabel{eq:principle_shear}{{8}{9}}
\newlabel{eq:SFshear}{{9}{9}}
\@writefile{toc}{\contentsline {subsection}{\numberline {2.3} \phantom {}Dynamic Loading Analysis}{9}}
\newlabel{eq:endurance}{{10}{9}}
\@writefile{lot}{\contentsline {table}{\numberline {2}{\ignorespaces Axle Endurance Material Properties\relax }}{10}}
\newlabel{table:endurance_vals}{{2}{10}}
\@writefile{toc}{\contentsline {section}{\numberline {3} \phantom {}Discussion}{11}}
\newlabel{sec:discussion}{{3}{11}}
\@writefile{toc}{\contentsline {subsection}{\numberline {3.1} \phantom {}Part I}{11}}
\newlabel{sec:PART I Results}{{3.1}{11}}
\@writefile{lot}{\contentsline {table}{\numberline {3}{\ignorespaces Steepest Slope\relax }}{11}}
\newlabel{tab:slope}{{3}{11}}
\@writefile{lot}{\contentsline {table}{\numberline {4}{\ignorespaces Critical Point Classification\relax }}{11}}
\@writefile{toc}{\contentsline {subsection}{\numberline {3.2} \phantom {}Part II}{11}}
\newlabel{sec:PART II Results}{{3.2}{11}}
\@writefile{lot}{\contentsline {table}{\numberline {5}{\ignorespaces Temperature at Extrema of Elevation\relax }}{11}}
\@writefile{lot}{\contentsline {table}{\numberline {6}{\ignorespaces Characteristics of Location (4, -0.3)\relax }}{12}}
\newlabel{tab:Point}{{6}{12}}
\@writefile{lot}{\contentsline {table}{\numberline {7}{\ignorespaces Gradient Changes due to Direction\relax }}{12}}
\newlabel{tab:Point}{{7}{12}}
\@writefile{lot}{\contentsline {table}{\numberline {8}{\ignorespaces Max Temperature on the Island\relax }}{12}}
\newlabel{tab:Point}{{8}{12}}
\bibdata{uw-wkrpt-bib}
\@writefile{toc}{\contentsline {section}{\hbox to\@tempdima {4\hfil }{ References}}{13}}
\@writefile{toc}{\contentsline {section}{\numberline {Appendix A} \phantom {Appendix }MATLAB Code}{14}}
\newlabel{app:code}{{A}{14}}
\@writefile{toc}{\contentsline {subsection}{\numberline {Appendix A.1} \phantom {Appendix }Main Script}{14}}
\newlabel{app:main}{{A.1}{14}}
\@writefile{lol}{\contentsline {lstlisting}{images/main.m}{14}}
\@writefile{toc}{\contentsline {subsection}{\numberline {Appendix A.2} \phantom {Appendix }Functions}{21}}
\newlabel{app:classification}{{A.2}{21}}
\@writefile{lol}{\contentsline {lstlisting}{images/classCritPoint.m}{21}}
\@writefile{toc}{\contentsline {section}{\numberline {Appendix B} \phantom {Appendix }Calculations}{22}}
\newlabel{app:calculations}{{B}{22}}
\newlabel{eq:A}{{11}{22}}
\newlabel{eq:B}{{12}{22}}
\newlabel{eq:C}{{13}{22}}
\newlabel{eq:D}{{14}{22}}
