\relax 
\providecommand\hyper@newdestlabel[2]{}
\bibstyle{ieeetr}
\providecommand\HyperFirstAtBeginDocument{\AtBeginDocument}
\HyperFirstAtBeginDocument{\ifx\hyper@anchor\@undefined
\global\let\oldcontentsline\contentsline
\gdef\contentsline#1#2#3#4{\oldcontentsline{#1}{#2}{#3}}
\global\let\oldnewlabel\newlabel
\gdef\newlabel#1#2{\newlabelxx{#1}#2}
\gdef\newlabelxx#1#2#3#4#5#6{\oldnewlabel{#1}{{#2}{#3}}}
\AtEndDocument{\ifx\hyper@anchor\@undefined
\let\contentsline\oldcontentsline
\let\newlabel\oldnewlabel
\fi}
\fi}
\global\let\hyper@last\relax 
\gdef\HyperFirstAtBeginDocument#1{#1}
\providecommand\HyField@AuxAddToFields[1]{}
\providecommand\HyField@AuxAddToCoFields[2]{}
\newlabel{sec:abstract}{{}{1}{Abstract}{section*.4}{}}
\@writefile{toc}{\contentsline {section}{\numberline {1} \phantom {}Introduction}{2}{section.1}}
\newlabel{sec:intro}{{1}{2}{Abstract}{section.1}{}}
\@writefile{toc}{\contentsline {subsection}{\numberline {1.1} \phantom {}Background}{2}{subsection.1.1}}
\@writefile{lof}{\contentsline {figure}{\numberline {1}{\ignorespaces Model HT i180 Segway\relax }}{2}{figure.caption.5}}
\providecommand*\caption@xref[2]{\@setref\relax\@undefined{#1}}
\newlabel{fig:hti180}{{1}{2}{Model HT i180 Segway\relax }{figure.caption.5}{}}
\@writefile{toc}{\contentsline {subsection}{\numberline {1.2} \phantom {}Objective and Method}{3}{subsection.1.2}}
\@writefile{lof}{\contentsline {figure}{\numberline {2}{\ignorespaces Drive Unit Schematic illustrating the stub axle\relax }}{3}{figure.caption.6}}
\newlabel{fig:drive_unit}{{2}{3}{Drive Unit Schematic illustrating the stub axle\relax }{figure.caption.6}{}}
\@writefile{toc}{\contentsline {section}{\numberline {2} \phantom {}Summary of Results}{4}{section.2}}
\newlabel{sec:results}{{2}{4}{Abstract}{section.2}{}}
\@writefile{toc}{\contentsline {subsection}{\numberline {2.1} \phantom {}Stub Axle Properties and Assumptions}{4}{subsection.2.1}}
\@writefile{lot}{\contentsline {table}{\numberline {1}{\ignorespaces Scaled Segway Stub Axel Properties\relax }}{4}{table.caption.7}}
\newlabel{table:axle_propertries}{{1}{4}{Scaled Segway Stub Axel Properties\relax }{table.caption.7}{}}
\@writefile{toc}{\contentsline {subsection}{\numberline {2.2} \phantom {}Static Loading Analysis}{4}{subsection.2.2}}
\@writefile{lof}{\contentsline {figure}{\numberline {3}{\ignorespaces Loading diagram of the stub axle\relax }}{5}{figure.caption.8}}
\newlabel{fig:loading}{{3}{5}{Loading diagram of the stub axle\relax }{figure.caption.8}{}}
\newlabel{eq:Cy}{{1}{5}{Abstract}{equation.2.1}{}}
\newlabel{eq:Ay}{{2}{5}{Abstract}{equation.2.2}{}}
\newlabel{eq:By}{{3}{5}{Abstract}{equation.2.3}{}}
\@writefile{lof}{\contentsline {figure}{\numberline {4}{\ignorespaces Shear force diagram over axle's length\relax }}{6}{figure.caption.9}}
\newlabel{fig:shear_diagram}{{4}{6}{Shear force diagram over axle's length\relax }{figure.caption.9}{}}
\@writefile{lof}{\contentsline {figure}{\numberline {5}{\ignorespaces Bending moment diagram over axle's length\relax }}{6}{figure.caption.10}}
\newlabel{fig:moment_diagram}{{5}{6}{Bending moment diagram over axle's length\relax }{figure.caption.10}{}}
\@writefile{lof}{\contentsline {figure}{\numberline {6}{\ignorespaces Stress location on the cross section at B\relax }}{7}{figure.caption.11}}
\newlabel{fig:stress_circle}{{6}{7}{Stress location on the cross section at B\relax }{figure.caption.11}{}}
\newlabel{eq:shear}{{4}{7}{Abstract}{equation.2.4}{}}
\newlabel{eq:tensile}{{5}{8}{Abstract}{equation.2.5}{}}
\newlabel{eq:principle_axial}{{6}{8}{Abstract}{equation.2.6}{}}
\newlabel{eq:SFaxial}{{7}{8}{Abstract}{equation.2.7}{}}
\citation{ref:textbook}
\citation{ref:textbook}
\citation{ref:textbook}
\newlabel{eq:principle_shear}{{8}{9}{Abstract}{equation.2.8}{}}
\newlabel{eq:SFshear}{{9}{9}{Abstract}{equation.2.9}{}}
\@writefile{toc}{\contentsline {subsection}{\numberline {2.3} \phantom {}Dynamic Loading Analysis}{9}{subsection.2.3}}
\newlabel{eq:endurance}{{10}{9}{Abstract}{equation.2.10}{}}
\@writefile{lot}{\contentsline {table}{\numberline {2}{\ignorespaces Axle Endurance Material Properties\relax }}{10}{table.caption.12}}
\newlabel{table:endurance_vals}{{2}{10}{Axle Endurance Material Properties\relax }{table.caption.12}{}}
\newlabel{eq:Cs}{{11}{10}{Abstract}{equation.2.11}{}}
\newlabel{eq:endurance_actual}{{12}{10}{Abstract}{equation.2.12}{}}
\newlabel{eq:final_SF_axial}{{13}{10}{Abstract}{equation.2.13}{}}
\newlabel{eq:final_SF_shear}{{14}{10}{Abstract}{equation.2.14}{}}
\@writefile{toc}{\contentsline {section}{\numberline {3} \phantom {}Discussion}{11}{section.3}}
\newlabel{sec:discussion}{{3}{11}{Abstract}{section.3}{}}
\@writefile{toc}{\contentsline {section}{\numberline {4} \phantom {}Conclusion}{12}{section.4}}
\newlabel{sec:conclusion}{{4}{12}{Abstract}{section.4}{}}
\bibdata{uw-wkrpt-bib}
\bibcite{ref:textbook}{1}
\@writefile{toc}{\contentsline {section}{\hbox to\@tempdima {5\hfil }{ References}}{13}{section*.13}}
