\contentsline {figure}{\numberline {1}{\ignorespaces Model HT i180 Segway\relax }}{2}{figure.caption.5}
\contentsline {figure}{\numberline {2}{\ignorespaces Drive Unit Schematic illustrating the stub axle\relax }}{3}{figure.caption.6}
\contentsline {figure}{\numberline {3}{\ignorespaces Loading diagram of the stub axle\relax }}{5}{figure.caption.8}
\contentsline {figure}{\numberline {4}{\ignorespaces Shear force diagram over axle's length\relax }}{6}{figure.caption.9}
\contentsline {figure}{\numberline {5}{\ignorespaces Bending moment diagram over axle's length\relax }}{6}{figure.caption.10}
\contentsline {figure}{\numberline {6}{\ignorespaces Stress location on the cross section at B\relax }}{7}{figure.caption.11}
