%!PS-Adobe-3.0 EPSF-3.0
%%Creator: (MATLAB, The Mathworks, Inc. Version 8.6.0.267246 \(R2015b\). Operating System: Mac OS X)
%%Title: (/Users/pavel-shering/Development/BitBucket/latex/ME-321/Project 3/images/steady_state.eps)
%%CreationDate: 2016-07-28T18:08:41
%%Pages: (atend)
%%BoundingBox: 0 0 560 420
%%LanguageLevel: 2
%%EndComments
%%BeginProlog
%%BeginResource: procset (Apache XML Graphics Std ProcSet) 1.2 0
%%Version: 1.2 0
%%Copyright: (Copyright 2001-2003,2010 The Apache Software Foundation. License terms: http://www.apache.org/licenses/LICENSE-2.0)
/bd{bind def}bind def
/ld{load def}bd
/GR/grestore ld
/M/moveto ld
/LJ/setlinejoin ld
/C/curveto ld
/f/fill ld
/LW/setlinewidth ld
/GC/setgray ld
/t/show ld
/N/newpath ld
/CT/concat ld
/cp/closepath ld
/S/stroke ld
/L/lineto ld
/CC/setcmykcolor ld
/A/ashow ld
/GS/gsave ld
/RC/setrgbcolor ld
/RM/rmoveto ld
/ML/setmiterlimit ld
/re {4 2 roll M
1 index 0 rlineto
0 exch rlineto
neg 0 rlineto
cp } bd
/_ctm matrix def
/_tm matrix def
/BT { _ctm currentmatrix pop matrix _tm copy pop 0 0 moveto } bd
/ET { _ctm setmatrix } bd
/iTm { _ctm setmatrix _tm concat } bd
/Tm { _tm astore pop iTm 0 0 moveto } bd
/ux 0.0 def
/uy 0.0 def
/F {
  /Tp exch def
  /Tf exch def
  Tf findfont Tp scalefont setfont
  /cf Tf def  /cs Tp def
} bd
/ULS {currentpoint /uy exch def /ux exch def} bd
/ULE {
  /Tcx currentpoint pop def
  gsave
  newpath
  cf findfont cs scalefont dup
  /FontMatrix get 0 get /Ts exch def /FontInfo get dup
  /UnderlinePosition get Ts mul /To exch def
  /UnderlineThickness get Ts mul /Tt exch def
  ux uy To add moveto  Tcx uy To add lineto
  Tt setlinewidth stroke
  grestore
} bd
/OLE {
  /Tcx currentpoint pop def
  gsave
  newpath
  cf findfont cs scalefont dup
  /FontMatrix get 0 get /Ts exch def /FontInfo get dup
  /UnderlinePosition get Ts mul /To exch def
  /UnderlineThickness get Ts mul /Tt exch def
  ux uy To add cs add moveto Tcx uy To add cs add lineto
  Tt setlinewidth stroke
  grestore
} bd
/SOE {
  /Tcx currentpoint pop def
  gsave
  newpath
  cf findfont cs scalefont dup
  /FontMatrix get 0 get /Ts exch def /FontInfo get dup
  /UnderlinePosition get Ts mul /To exch def
  /UnderlineThickness get Ts mul /Tt exch def
  ux uy To add cs 10 mul 26 idiv add moveto Tcx uy To add cs 10 mul 26 idiv add lineto
  Tt setlinewidth stroke
  grestore
} bd
/QT {
/Y22 exch store
/X22 exch store
/Y21 exch store
/X21 exch store
currentpoint
/Y21 load 2 mul add 3 div exch
/X21 load 2 mul add 3 div exch
/X21 load 2 mul /X22 load add 3 div
/Y21 load 2 mul /Y22 load add 3 div
/X22 load /Y22 load curveto
} bd
/SSPD {
dup length /d exch dict def
{
/v exch def
/k exch def
currentpagedevice k known {
/cpdv currentpagedevice k get def
v cpdv ne {
/upd false def
/nullv v type /nulltype eq def
/nullcpdv cpdv type /nulltype eq def
nullv nullcpdv or
{
/upd true def
} {
/sametype v type cpdv type eq def
sametype {
v type /arraytype eq {
/vlen v length def
/cpdvlen cpdv length def
vlen cpdvlen eq {
0 1 vlen 1 sub {
/i exch def
/obj v i get def
/cpdobj cpdv i get def
obj cpdobj ne {
/upd true def
exit
} if
} for
} {
/upd true def
} ifelse
} {
v type /dicttype eq {
v {
/dv exch def
/dk exch def
/cpddv cpdv dk get def
dv cpddv ne {
/upd true def
exit
} if
} forall
} {
/upd true def
} ifelse
} ifelse
} if
} ifelse
upd true eq {
d k v put
} if
} if
} if
} forall
d length 0 gt {
d setpagedevice
} if
} bd
%%EndResource
%%BeginResource: procset (Apache XML Graphics EPS ProcSet) 1.0 0
%%Version: 1.0 0
%%Copyright: (Copyright 2002-2003 The Apache Software Foundation. License terms: http://www.apache.org/licenses/LICENSE-2.0)
/BeginEPSF { %def
/b4_Inc_state save def         % Save state for cleanup
/dict_count countdictstack def % Count objects on dict stack
/op_count count 1 sub def      % Count objects on operand stack
userdict begin                 % Push userdict on dict stack
/showpage { } def              % Redefine showpage, { } = null proc
0 setgray 0 setlinecap         % Prepare graphics state
1 setlinewidth 0 setlinejoin
10 setmiterlimit [ ] 0 setdash newpath
/languagelevel where           % If level not equal to 1 then
{pop languagelevel             % set strokeadjust and
1 ne                           % overprint to their defaults.
{false setstrokeadjust false setoverprint
} if
} if
} bd
/EndEPSF { %def
count op_count sub {pop} repeat            % Clean up stacks
countdictstack dict_count sub {end} repeat
b4_Inc_state restore
} bd
%%EndResource
%FOPBeginFontDict
%%IncludeResource: font Courier-Bold
%%IncludeResource: font Helvetica
%%IncludeResource: font Courier-BoldOblique
%%IncludeResource: font Courier-Oblique
%%IncludeResource: font Times-Roman
%%IncludeResource: font Helvetica-BoldOblique
%%IncludeResource: font Helvetica-Bold
%%IncludeResource: font Helvetica-Oblique
%%IncludeResource: font Times-BoldItalic
%%IncludeResource: font Courier
%%IncludeResource: font Times-Italic
%%IncludeResource: font Times-Bold
%%IncludeResource: font Symbol
%%IncludeResource: font ZapfDingbats
%FOPEndFontDict
%%BeginResource: encoding WinAnsiEncoding
/WinAnsiEncoding [
/.notdef /.notdef /.notdef /.notdef /.notdef
/.notdef /.notdef /.notdef /.notdef /.notdef
/.notdef /.notdef /.notdef /.notdef /.notdef
/.notdef /.notdef /.notdef /.notdef /.notdef
/.notdef /.notdef /.notdef /.notdef /.notdef
/.notdef /.notdef /.notdef /.notdef /.notdef
/.notdef /.notdef /space /exclam /quotedbl
/numbersign /dollar /percent /ampersand /quotesingle
/parenleft /parenright /asterisk /plus /comma
/hyphen /period /slash /zero /one
/two /three /four /five /six
/seven /eight /nine /colon /semicolon
/less /equal /greater /question /at
/A /B /C /D /E
/F /G /H /I /J
/K /L /M /N /O
/P /Q /R /S /T
/U /V /W /X /Y
/Z /bracketleft /backslash /bracketright /asciicircum
/underscore /quoteleft /a /b /c
/d /e /f /g /h
/i /j /k /l /m
/n /o /p /q /r
/s /t /u /v /w
/x /y /z /braceleft /bar
/braceright /asciitilde /bullet /Euro /bullet
/quotesinglbase /florin /quotedblbase /ellipsis /dagger
/daggerdbl /circumflex /perthousand /Scaron /guilsinglleft
/OE /bullet /Zcaron /bullet /bullet
/quoteleft /quoteright /quotedblleft /quotedblright /bullet
/endash /emdash /asciitilde /trademark /scaron
/guilsinglright /oe /bullet /zcaron /Ydieresis
/space /exclamdown /cent /sterling /currency
/yen /brokenbar /section /dieresis /copyright
/ordfeminine /guillemotleft /logicalnot /sfthyphen /registered
/macron /degree /plusminus /twosuperior /threesuperior
/acute /mu /paragraph /middot /cedilla
/onesuperior /ordmasculine /guillemotright /onequarter /onehalf
/threequarters /questiondown /Agrave /Aacute /Acircumflex
/Atilde /Adieresis /Aring /AE /Ccedilla
/Egrave /Eacute /Ecircumflex /Edieresis /Igrave
/Iacute /Icircumflex /Idieresis /Eth /Ntilde
/Ograve /Oacute /Ocircumflex /Otilde /Odieresis
/multiply /Oslash /Ugrave /Uacute /Ucircumflex
/Udieresis /Yacute /Thorn /germandbls /agrave
/aacute /acircumflex /atilde /adieresis /aring
/ae /ccedilla /egrave /eacute /ecircumflex
/edieresis /igrave /iacute /icircumflex /idieresis
/eth /ntilde /ograve /oacute /ocircumflex
/otilde /odieresis /divide /oslash /ugrave
/uacute /ucircumflex /udieresis /yacute /thorn
/ydieresis
] def
%%EndResource
%FOPBeginFontReencode
/Courier-Bold findfont
dup length dict begin
  {1 index /FID ne {def} {pop pop} ifelse} forall
  /Encoding WinAnsiEncoding def
  currentdict
end
/Courier-Bold exch definefont pop
/Helvetica findfont
dup length dict begin
  {1 index /FID ne {def} {pop pop} ifelse} forall
  /Encoding WinAnsiEncoding def
  currentdict
end
/Helvetica exch definefont pop
/Courier-BoldOblique findfont
dup length dict begin
  {1 index /FID ne {def} {pop pop} ifelse} forall
  /Encoding WinAnsiEncoding def
  currentdict
end
/Courier-BoldOblique exch definefont pop
/Courier-Oblique findfont
dup length dict begin
  {1 index /FID ne {def} {pop pop} ifelse} forall
  /Encoding WinAnsiEncoding def
  currentdict
end
/Courier-Oblique exch definefont pop
/Times-Roman findfont
dup length dict begin
  {1 index /FID ne {def} {pop pop} ifelse} forall
  /Encoding WinAnsiEncoding def
  currentdict
end
/Times-Roman exch definefont pop
/Helvetica-BoldOblique findfont
dup length dict begin
  {1 index /FID ne {def} {pop pop} ifelse} forall
  /Encoding WinAnsiEncoding def
  currentdict
end
/Helvetica-BoldOblique exch definefont pop
/Helvetica-Bold findfont
dup length dict begin
  {1 index /FID ne {def} {pop pop} ifelse} forall
  /Encoding WinAnsiEncoding def
  currentdict
end
/Helvetica-Bold exch definefont pop
/Helvetica-Oblique findfont
dup length dict begin
  {1 index /FID ne {def} {pop pop} ifelse} forall
  /Encoding WinAnsiEncoding def
  currentdict
end
/Helvetica-Oblique exch definefont pop
/Times-BoldItalic findfont
dup length dict begin
  {1 index /FID ne {def} {pop pop} ifelse} forall
  /Encoding WinAnsiEncoding def
  currentdict
end
/Times-BoldItalic exch definefont pop
/Courier findfont
dup length dict begin
  {1 index /FID ne {def} {pop pop} ifelse} forall
  /Encoding WinAnsiEncoding def
  currentdict
end
/Courier exch definefont pop
/Times-Italic findfont
dup length dict begin
  {1 index /FID ne {def} {pop pop} ifelse} forall
  /Encoding WinAnsiEncoding def
  currentdict
end
/Times-Italic exch definefont pop
/Times-Bold findfont
dup length dict begin
  {1 index /FID ne {def} {pop pop} ifelse} forall
  /Encoding WinAnsiEncoding def
  currentdict
end
/Times-Bold exch definefont pop
%FOPEndFontReencode
%%EndProlog
%%Page: 1 1
%%PageBoundingBox: 0 0 560 420
%%BeginPageSetup
[1 0 0 -1 0 420] CT
%%EndPageSetup
GS
1 GC
N
0 0 560 420 re
f
GR
GS
1 GC
N
0 0 560 420 re
f
GR
GS
1 GC
N
73 374 M
507 374 L
507 31 L
73 31 L
cp
f
GR
GS
0.149 GC
2 setlinecap
1 LJ
0.5 LW
N
73 374 M
507 374 L
S
GR
GS
0.149 GC
2 setlinecap
1 LJ
0.5 LW
N
73 374 M
73 369.66 L
S
GR
GS
0.149 GC
2 setlinecap
1 LJ
0.5 LW
N
116.4 374 M
116.4 369.66 L
S
GR
GS
0.149 GC
2 setlinecap
1 LJ
0.5 LW
N
159.8 374 M
159.8 369.66 L
S
GR
GS
0.149 GC
2 setlinecap
1 LJ
0.5 LW
N
203.2 374 M
203.2 369.66 L
S
GR
GS
0.149 GC
2 setlinecap
1 LJ
0.5 LW
N
246.6 374 M
246.6 369.66 L
S
GR
GS
0.149 GC
2 setlinecap
1 LJ
0.5 LW
N
290 374 M
290 369.66 L
S
GR
GS
0.149 GC
2 setlinecap
1 LJ
0.5 LW
N
333.4 374 M
333.4 369.66 L
S
GR
GS
0.149 GC
2 setlinecap
1 LJ
0.5 LW
N
376.8 374 M
376.8 369.66 L
S
GR
GS
0.149 GC
2 setlinecap
1 LJ
0.5 LW
N
420.2 374 M
420.2 369.66 L
S
GR
GS
0.149 GC
2 setlinecap
1 LJ
0.5 LW
N
463.6 374 M
463.6 369.66 L
S
GR
GS
0.149 GC
2 setlinecap
1 LJ
0.5 LW
N
507 374 M
507 369.66 L
S
GR
GS
[1 0 0 1 73 378] CT
0.149 GC
/Helvetica 10 F
GS
[1 0 0 1 0 0] CT
-3 8 moveto 
1 -1 scale
(0) t 
GR
GR
GS
[1 0 0 1 116.4 378] CT
0.149 GC
/Helvetica 10 F
GS
[1 0 0 1 0 0] CT
-10 8 moveto 
1 -1 scale
(0.05) t 
GR
GR
GS
[1 0 0 1 159.8 378] CT
0.149 GC
/Helvetica 10 F
GS
[1 0 0 1 0 0] CT
-7 8 moveto 
1 -1 scale
(0.1) t 
GR
GR
GS
[1 0 0 1 203.20001 378] CT
0.149 GC
/Helvetica 10 F
GS
[1 0 0 1 0 0] CT
-10 8 moveto 
1 -1 scale
(0.15) t 
GR
GR
GS
[1 0 0 1 246.60001 378] CT
0.149 GC
/Helvetica 10 F
GS
[1 0 0 1 0 0] CT
-7 8 moveto 
1 -1 scale
(0.2) t 
GR
GR
GS
[1 0 0 1 290 378] CT
0.149 GC
/Helvetica 10 F
GS
[1 0 0 1 0 0] CT
-10 8 moveto 
1 -1 scale
(0.25) t 
GR
GR
GS
[1 0 0 1 333.40002 378] CT
0.149 GC
/Helvetica 10 F
GS
[1 0 0 1 0 0] CT
-7 8 moveto 
1 -1 scale
(0.3) t 
GR
GR
GS
[1 0 0 1 376.79999 378] CT
0.149 GC
/Helvetica 10 F
GS
[1 0 0 1 0 0] CT
-10 8 moveto 
1 -1 scale
(0.35) t 
GR
GR
GS
[1 0 0 1 420.20001 378] CT
0.149 GC
/Helvetica 10 F
GS
[1 0 0 1 0 0] CT
-7 8 moveto 
1 -1 scale
(0.4) t 
GR
GR
GS
[1 0 0 1 463.59998 378] CT
0.149 GC
/Helvetica 10 F
GS
[1 0 0 1 0 0] CT
-10 8 moveto 
1 -1 scale
(0.45) t 
GR
GR
GS
[1 0 0 1 507 378] CT
0.149 GC
/Helvetica 10 F
GS
[1 0 0 1 0 0] CT
-7 8 moveto 
1 -1 scale
(0.5) t 
GR
GR
GS
[1 0 0 1 290.00021 390] CT
0.149 GC
/Helvetica 11 F
GS
[1 0 0 1 0 0] CT
-20.5 9 moveto 
1 -1 scale
(Time \(s\)) t 
GR
GR
GS
0.149 GC
2 setlinecap
1 LJ
0.5 LW
N
73 374 M
73 31 L
S
GR
GS
0.149 GC
2 setlinecap
1 LJ
0.5 LW
N
73 374 M
77.34 374 L
S
GR
GS
0.149 GC
2 setlinecap
1 LJ
0.5 LW
N
73 331.125 M
77.34 331.125 L
S
GR
GS
0.149 GC
2 setlinecap
1 LJ
0.5 LW
N
73 288.25 M
77.34 288.25 L
S
GR
GS
0.149 GC
2 setlinecap
1 LJ
0.5 LW
N
73 245.375 M
77.34 245.375 L
S
GR
GS
0.149 GC
2 setlinecap
1 LJ
0.5 LW
N
73 202.5 M
77.34 202.5 L
S
GR
GS
0.149 GC
2 setlinecap
1 LJ
0.5 LW
N
73 159.625 M
77.34 159.625 L
S
GR
GS
0.149 GC
2 setlinecap
1 LJ
0.5 LW
N
73 116.75 M
77.34 116.75 L
S
GR
GS
0.149 GC
2 setlinecap
1 LJ
0.5 LW
N
73 73.875 M
77.34 73.875 L
S
GR
GS
0.149 GC
2 setlinecap
1 LJ
0.5 LW
N
73 31 M
77.34 31 L
S
GR
GS
[1 0 0 1 69 374] CT
0.149 GC
/Helvetica 10 F
GS
[1 0 0 1 0 0] CT
-9 2.5 moveto 
1 -1 scale
(-4) t 
GR
GR
GS
[1 0 0 1 69 331.125] CT
0.149 GC
/Helvetica 10 F
GS
[1 0 0 1 0 0] CT
-9 2.5 moveto 
1 -1 scale
(-3) t 
GR
GR
GS
[1 0 0 1 69 288.25] CT
0.149 GC
/Helvetica 10 F
GS
[1 0 0 1 0 0] CT
-9 2.5 moveto 
1 -1 scale
(-2) t 
GR
GR
GS
[1 0 0 1 69 245.375] CT
0.149 GC
/Helvetica 10 F
GS
[1 0 0 1 0 0] CT
-9 2.5 moveto 
1 -1 scale
(-1) t 
GR
GR
GS
[1 0 0 1 69 202.5] CT
0.149 GC
/Helvetica 10 F
GS
[1 0 0 1 0 0] CT
-6 2.5 moveto 
1 -1 scale
(0) t 
GR
GR
GS
[1 0 0 1 69 159.625] CT
0.149 GC
/Helvetica 10 F
GS
[1 0 0 1 0 0] CT
-6 2.5 moveto 
1 -1 scale
(1) t 
GR
GR
GS
[1 0 0 1 69 116.75] CT
0.149 GC
/Helvetica 10 F
GS
[1 0 0 1 0 0] CT
-6 2.5 moveto 
1 -1 scale
(2) t 
GR
GR
GS
[1 0 0 1 69 73.875] CT
0.149 GC
/Helvetica 10 F
GS
[1 0 0 1 0 0] CT
-6 2.5 moveto 
1 -1 scale
(3) t 
GR
GR
GS
[1 0 0 1 69 31] CT
0.149 GC
/Helvetica 10 F
GS
[1 0 0 1 0 0] CT
-6 2.5 moveto 
1 -1 scale
(4) t 
GR
GR
GS
[0 -1 1 0 57 202.49983] CT
0.149 GC
/Helvetica 11 F
GS
[1 0 0 1 0 0] CT
-69 -3 moveto 
1 -1 scale
(Displacement    z = x - y \(m\)) t 
GR
GR
GS
[1 0 0 1 290.00027 28.25] CT
/Helvetica-Bold 11 F
GS
[1 0 0 1 0 0] CT
-89 -3 moveto 
1 -1 scale
(TMD Steady State Total Response) t 
GR
GR
GS
0 0.447 0.741 RC
1 LJ
0.5 LW
N
73 340.172 M
73.868 340.056 L
74.736 339.917 L
75.604 339.755 L
76.472 339.57 L
77.34 339.362 L
78.208 339.132 L
79.076 338.878 L
79.944 338.602 L
80.812 338.302 L
81.68 337.98 L
82.548 337.636 L
83.416 337.268 L
84.284 336.878 L
85.152 336.466 L
86.02 336.031 L
86.888 335.574 L
87.756 335.094 L
88.624 334.593 L
89.492 334.069 L
90.36 333.523 L
91.228 332.955 L
92.096 332.366 L
92.964 331.754 L
93.832 331.121 L
94.7 330.467 L
95.568 329.791 L
96.436 329.094 L
97.304 328.375 L
98.172 327.635 L
99.04 326.875 L
99.908 326.094 L
100.776 325.291 L
101.644 324.469 L
102.512 323.626 L
103.38 322.762 L
104.248 321.879 L
105.116 320.975 L
105.984 320.052 L
106.852 319.109 L
107.72 318.147 L
108.588 317.165 L
109.456 316.164 L
110.324 315.143 L
111.192 314.104 L
112.06 313.047 L
112.928 311.971 L
113.796 310.876 L
114.664 309.763 L
115.532 308.633 L
S
GR
GS
0 0.447 0.741 RC
1 LJ
0.5 LW
N
114.664 309.763 M
115.532 308.633 L
116.4 307.484 L
117.268 306.318 L
118.136 305.135 L
119.004 303.934 L
119.872 302.717 L
120.74 301.482 L
121.608 300.232 L
122.476 298.964 L
123.344 297.681 L
124.212 296.381 L
125.08 295.066 L
125.948 293.736 L
126.816 292.39 L
127.684 291.029 L
128.552 289.653 L
129.42 288.263 L
130.288 286.858 L
131.156 285.439 L
132.024 284.006 L
132.892 282.56 L
133.76 281.1 L
134.628 279.627 L
135.496 278.141 L
136.364 276.643 L
137.232 275.132 L
138.1 273.609 L
138.968 272.074 L
139.836 270.527 L
140.704 268.969 L
141.572 267.4 L
142.44 265.82 L
143.308 264.229 L
144.176 262.628 L
145.044 261.017 L
145.912 259.396 L
146.78 257.766 L
147.648 256.126 L
148.516 254.477 L
149.384 252.82 L
150.252 251.154 L
151.12 249.48 L
151.988 247.798 L
152.856 246.109 L
153.724 244.412 L
154.592 242.709 L
155.46 240.998 L
156.328 239.281 L
157.196 237.558 L
158.064 235.829 L
158.932 234.095 L
S
GR
GS
0 0.447 0.741 RC
1 LJ
0.5 LW
N
158.064 235.829 M
158.932 234.095 L
159.8 232.355 L
160.668 230.61 L
161.536 228.861 L
162.404 227.107 L
163.272 225.349 L
164.14 223.587 L
165.008 221.822 L
165.876 220.053 L
166.744 218.281 L
167.612 216.507 L
168.48 214.731 L
169.348 212.952 L
170.216 211.172 L
171.084 209.39 L
171.952 207.607 L
172.82 205.823 L
173.688 204.039 L
174.556 202.254 L
175.424 200.47 L
176.292 198.685 L
177.16 196.902 L
178.028 195.119 L
178.896 193.338 L
179.764 191.558 L
180.632 189.78 L
181.5 188.004 L
182.368 186.23 L
183.236 184.459 L
184.104 182.692 L
184.972 180.927 L
185.84 179.166 L
186.708 177.409 L
187.576 175.657 L
188.444 173.908 L
189.312 172.165 L
190.18 170.427 L
191.048 168.694 L
191.916 166.966 L
192.784 165.245 L
193.652 163.53 L
194.52 161.821 L
195.388 160.119 L
196.256 158.425 L
197.124 156.737 L
197.992 155.058 L
198.86 153.386 L
199.728 151.723 L
200.596 150.068 L
201.464 148.421 L
202.332 146.784 L
S
GR
GS
0 0.447 0.741 RC
1 LJ
0.5 LW
N
201.464 148.421 M
202.332 146.784 L
203.2 145.156 L
204.068 143.538 L
204.936 141.93 L
205.804 140.332 L
206.672 138.744 L
207.54 137.167 L
208.408 135.601 L
209.276 134.046 L
210.144 132.502 L
211.012 130.97 L
211.88 129.451 L
212.748 127.943 L
213.616 126.448 L
214.484 124.966 L
215.352 123.496 L
216.22 122.04 L
217.088 120.597 L
217.956 119.169 L
218.824 117.754 L
219.692 116.353 L
220.56 114.966 L
221.428 113.595 L
222.296 112.238 L
223.164 110.896 L
224.032 109.57 L
224.9 108.259 L
225.768 106.964 L
226.636 105.685 L
227.504 104.422 L
228.372 103.176 L
229.24 101.946 L
230.108 100.733 L
230.976 99.537 L
231.844 98.359 L
232.712 97.198 L
233.58 96.054 L
234.448 94.928 L
235.316 93.821 L
236.184 92.731 L
237.052 91.66 L
237.92 90.607 L
238.788 89.574 L
239.656 88.559 L
240.524 87.563 L
241.392 86.586 L
242.26 85.629 L
243.128 84.692 L
243.996 83.774 L
244.864 82.876 L
245.732 81.998 L
S
GR
GS
0 0.447 0.741 RC
1 LJ
0.5 LW
N
244.864 82.876 M
245.732 81.998 L
246.6 81.14 L
247.468 80.303 L
248.336 79.486 L
249.204 78.689 L
250.072 77.914 L
250.94 77.159 L
251.808 76.425 L
252.676 75.712 L
253.544 75.021 L
254.412 74.351 L
255.28 73.702 L
256.148 73.075 L
257.016 72.47 L
257.884 71.886 L
258.752 71.324 L
259.62 70.785 L
260.488 70.267 L
261.356 69.771 L
262.224 69.298 L
263.092 68.847 L
263.96 68.418 L
264.828 68.012 L
265.696 67.628 L
266.564 67.267 L
267.432 66.929 L
268.3 66.613 L
269.168 66.32 L
270.036 66.05 L
270.904 65.803 L
271.772 65.578 L
272.64 65.377 L
273.508 65.198 L
274.376 65.043 L
275.244 64.91 L
276.112 64.801 L
276.98 64.714 L
277.848 64.651 L
278.716 64.61 L
279.584 64.593 L
280.452 64.599 L
281.32 64.628 L
282.188 64.68 L
283.056 64.756 L
283.924 64.854 L
284.792 64.975 L
285.66 65.119 L
286.528 65.287 L
287.396 65.477 L
288.264 65.69 L
289.132 65.927 L
S
GR
GS
0 0.447 0.741 RC
1 LJ
0.5 LW
N
288.264 65.69 M
289.132 65.927 L
290 66.186 L
290.868 66.467 L
291.736 66.772 L
292.604 67.099 L
293.472 67.45 L
294.34 67.822 L
295.208 68.217 L
296.076 68.635 L
296.944 69.075 L
297.812 69.538 L
298.68 70.023 L
299.548 70.53 L
300.416 71.059 L
301.284 71.61 L
302.152 72.183 L
303.02 72.777 L
303.888 73.394 L
304.756 74.032 L
305.624 74.692 L
306.492 75.373 L
307.36 76.075 L
308.228 76.799 L
309.096 77.543 L
309.964 78.309 L
310.832 79.095 L
311.7 79.902 L
312.568 80.729 L
313.436 81.577 L
314.304 82.445 L
315.172 83.334 L
316.04 84.242 L
316.908 85.17 L
317.776 86.117 L
318.644 87.085 L
319.512 88.071 L
320.38 89.077 L
321.248 90.101 L
322.116 91.145 L
322.984 92.207 L
323.852 93.287 L
324.72 94.386 L
325.588 95.503 L
326.456 96.638 L
327.324 97.791 L
328.192 98.961 L
329.06 100.148 L
329.928 101.353 L
330.796 102.575 L
331.664 103.813 L
332.532 105.068 L
S
GR
GS
0 0.447 0.741 RC
1 LJ
0.5 LW
N
331.664 103.813 M
332.532 105.068 L
333.4 106.339 L
334.268 107.626 L
335.136 108.929 L
336.004 110.248 L
336.872 111.582 L
337.74 112.932 L
338.608 114.296 L
339.476 115.675 L
340.344 117.069 L
341.212 118.477 L
342.08 119.9 L
342.948 121.336 L
343.816 122.785 L
344.684 124.248 L
345.552 125.724 L
346.42 127.213 L
347.288 128.715 L
348.156 130.228 L
349.024 131.754 L
349.892 133.292 L
350.76 134.842 L
351.628 136.402 L
352.496 137.974 L
353.364 139.557 L
354.232 141.15 L
355.1 142.753 L
355.968 144.367 L
356.836 145.99 L
357.704 147.623 L
358.572 149.264 L
359.44 150.915 L
360.308 152.575 L
361.176 154.242 L
362.044 155.918 L
362.912 157.602 L
363.78 159.293 L
364.648 160.991 L
365.516 162.697 L
366.384 164.409 L
367.252 166.127 L
368.12 167.851 L
368.988 169.582 L
369.856 171.317 L
370.724 173.058 L
371.592 174.804 L
372.46 176.555 L
373.328 178.31 L
374.196 180.069 L
375.064 181.832 L
375.932 183.598 L
S
GR
GS
0 0.447 0.741 RC
1 LJ
0.5 LW
N
375.064 181.832 M
375.932 183.598 L
376.8 185.367 L
377.668 187.139 L
378.536 188.914 L
379.404 190.691 L
380.272 192.47 L
381.14 194.251 L
382.008 196.033 L
382.876 197.816 L
383.744 199.6 L
384.612 201.385 L
385.48 203.169 L
386.348 204.954 L
387.216 206.738 L
388.084 208.521 L
388.952 210.304 L
389.82 212.085 L
390.688 213.864 L
391.556 215.642 L
392.424 217.417 L
393.292 219.19 L
394.16 220.96 L
395.028 222.727 L
395.896 224.491 L
396.764 226.251 L
397.632 228.007 L
398.5 229.758 L
399.368 231.506 L
400.236 233.248 L
401.104 234.985 L
401.972 236.717 L
402.84 238.443 L
403.708 240.162 L
404.576 241.876 L
405.444 243.583 L
406.312 245.283 L
407.18 246.976 L
408.048 248.662 L
408.916 250.34 L
409.784 252.009 L
410.652 253.671 L
411.52 255.324 L
412.388 256.968 L
413.256 258.603 L
414.124 260.228 L
414.992 261.844 L
415.86 263.45 L
416.728 265.046 L
417.596 266.631 L
418.464 268.206 L
419.332 269.769 L
S
GR
GS
0 0.447 0.741 RC
1 LJ
0.5 LW
N
418.464 268.206 M
419.332 269.769 L
420.2 271.322 L
421.068 272.862 L
421.936 274.391 L
422.804 275.908 L
423.672 277.413 L
424.54 278.905 L
425.408 280.384 L
426.276 281.85 L
427.144 283.303 L
428.012 284.743 L
428.88 286.168 L
429.748 287.58 L
430.616 288.977 L
431.484 290.36 L
432.352 291.729 L
433.22 293.082 L
434.088 294.42 L
434.956 295.743 L
435.824 297.05 L
436.692 298.341 L
437.56 299.616 L
438.428 300.875 L
439.296 302.117 L
440.164 303.343 L
441.032 304.552 L
441.9 305.744 L
442.768 306.918 L
443.636 308.075 L
444.504 309.215 L
445.372 310.336 L
446.24 311.44 L
447.108 312.525 L
447.976 313.591 L
448.844 314.64 L
449.712 315.669 L
450.58 316.679 L
451.448 317.671 L
452.316 318.643 L
453.184 319.595 L
454.052 320.528 L
454.92 321.441 L
455.788 322.334 L
456.656 323.208 L
457.524 324.061 L
458.392 324.893 L
459.26 325.705 L
460.128 326.497 L
460.996 327.267 L
461.864 328.017 L
462.732 328.746 L
S
GR
GS
0 0.447 0.741 RC
1 LJ
0.5 LW
N
461.864 328.017 M
462.732 328.746 L
463.6 329.454 L
464.468 330.14 L
465.336 330.805 L
466.204 331.449 L
467.072 332.071 L
467.94 332.671 L
468.808 333.249 L
469.676 333.806 L
470.544 334.34 L
471.412 334.853 L
472.28 335.343 L
473.148 335.811 L
474.016 336.257 L
474.884 336.68 L
475.752 337.081 L
476.62 337.459 L
477.488 337.815 L
478.356 338.148 L
479.224 338.459 L
480.092 338.746 L
480.96 339.011 L
481.828 339.253 L
482.696 339.472 L
483.564 339.668 L
484.432 339.841 L
485.3 339.991 L
486.168 340.118 L
487.036 340.222 L
487.904 340.303 L
488.772 340.361 L
489.64 340.396 L
490.508 340.407 L
491.376 340.396 L
492.244 340.361 L
493.112 340.304 L
493.98 340.223 L
S
GR
%%Trailer
%%Pages: 1
%%EOF
