%!PS-Adobe-3.0 EPSF-3.0
%%Creator: (MATLAB, The Mathworks, Inc. Version 8.6.0.267246 \(R2015b\). Operating System: Mac OS X)
%%Title: (/Users/pavel-shering/Development/BitBucket/latex/ME-321/Project 3/images/transient.eps)
%%CreationDate: 2016-07-28T18:09:05
%%Pages: (atend)
%%BoundingBox: 0 0 560 420
%%LanguageLevel: 2
%%EndComments
%%BeginProlog
%%BeginResource: procset (Apache XML Graphics Std ProcSet) 1.2 0
%%Version: 1.2 0
%%Copyright: (Copyright 2001-2003,2010 The Apache Software Foundation. License terms: http://www.apache.org/licenses/LICENSE-2.0)
/bd{bind def}bind def
/ld{load def}bd
/GR/grestore ld
/M/moveto ld
/LJ/setlinejoin ld
/C/curveto ld
/f/fill ld
/LW/setlinewidth ld
/GC/setgray ld
/t/show ld
/N/newpath ld
/CT/concat ld
/cp/closepath ld
/S/stroke ld
/L/lineto ld
/CC/setcmykcolor ld
/A/ashow ld
/GS/gsave ld
/RC/setrgbcolor ld
/RM/rmoveto ld
/ML/setmiterlimit ld
/re {4 2 roll M
1 index 0 rlineto
0 exch rlineto
neg 0 rlineto
cp } bd
/_ctm matrix def
/_tm matrix def
/BT { _ctm currentmatrix pop matrix _tm copy pop 0 0 moveto } bd
/ET { _ctm setmatrix } bd
/iTm { _ctm setmatrix _tm concat } bd
/Tm { _tm astore pop iTm 0 0 moveto } bd
/ux 0.0 def
/uy 0.0 def
/F {
  /Tp exch def
  /Tf exch def
  Tf findfont Tp scalefont setfont
  /cf Tf def  /cs Tp def
} bd
/ULS {currentpoint /uy exch def /ux exch def} bd
/ULE {
  /Tcx currentpoint pop def
  gsave
  newpath
  cf findfont cs scalefont dup
  /FontMatrix get 0 get /Ts exch def /FontInfo get dup
  /UnderlinePosition get Ts mul /To exch def
  /UnderlineThickness get Ts mul /Tt exch def
  ux uy To add moveto  Tcx uy To add lineto
  Tt setlinewidth stroke
  grestore
} bd
/OLE {
  /Tcx currentpoint pop def
  gsave
  newpath
  cf findfont cs scalefont dup
  /FontMatrix get 0 get /Ts exch def /FontInfo get dup
  /UnderlinePosition get Ts mul /To exch def
  /UnderlineThickness get Ts mul /Tt exch def
  ux uy To add cs add moveto Tcx uy To add cs add lineto
  Tt setlinewidth stroke
  grestore
} bd
/SOE {
  /Tcx currentpoint pop def
  gsave
  newpath
  cf findfont cs scalefont dup
  /FontMatrix get 0 get /Ts exch def /FontInfo get dup
  /UnderlinePosition get Ts mul /To exch def
  /UnderlineThickness get Ts mul /Tt exch def
  ux uy To add cs 10 mul 26 idiv add moveto Tcx uy To add cs 10 mul 26 idiv add lineto
  Tt setlinewidth stroke
  grestore
} bd
/QT {
/Y22 exch store
/X22 exch store
/Y21 exch store
/X21 exch store
currentpoint
/Y21 load 2 mul add 3 div exch
/X21 load 2 mul add 3 div exch
/X21 load 2 mul /X22 load add 3 div
/Y21 load 2 mul /Y22 load add 3 div
/X22 load /Y22 load curveto
} bd
/SSPD {
dup length /d exch dict def
{
/v exch def
/k exch def
currentpagedevice k known {
/cpdv currentpagedevice k get def
v cpdv ne {
/upd false def
/nullv v type /nulltype eq def
/nullcpdv cpdv type /nulltype eq def
nullv nullcpdv or
{
/upd true def
} {
/sametype v type cpdv type eq def
sametype {
v type /arraytype eq {
/vlen v length def
/cpdvlen cpdv length def
vlen cpdvlen eq {
0 1 vlen 1 sub {
/i exch def
/obj v i get def
/cpdobj cpdv i get def
obj cpdobj ne {
/upd true def
exit
} if
} for
} {
/upd true def
} ifelse
} {
v type /dicttype eq {
v {
/dv exch def
/dk exch def
/cpddv cpdv dk get def
dv cpddv ne {
/upd true def
exit
} if
} forall
} {
/upd true def
} ifelse
} ifelse
} if
} ifelse
upd true eq {
d k v put
} if
} if
} if
} forall
d length 0 gt {
d setpagedevice
} if
} bd
%%EndResource
%%BeginResource: procset (Apache XML Graphics EPS ProcSet) 1.0 0
%%Version: 1.0 0
%%Copyright: (Copyright 2002-2003 The Apache Software Foundation. License terms: http://www.apache.org/licenses/LICENSE-2.0)
/BeginEPSF { %def
/b4_Inc_state save def         % Save state for cleanup
/dict_count countdictstack def % Count objects on dict stack
/op_count count 1 sub def      % Count objects on operand stack
userdict begin                 % Push userdict on dict stack
/showpage { } def              % Redefine showpage, { } = null proc
0 setgray 0 setlinecap         % Prepare graphics state
1 setlinewidth 0 setlinejoin
10 setmiterlimit [ ] 0 setdash newpath
/languagelevel where           % If level not equal to 1 then
{pop languagelevel             % set strokeadjust and
1 ne                           % overprint to their defaults.
{false setstrokeadjust false setoverprint
} if
} if
} bd
/EndEPSF { %def
count op_count sub {pop} repeat            % Clean up stacks
countdictstack dict_count sub {end} repeat
b4_Inc_state restore
} bd
%%EndResource
%FOPBeginFontDict
%%IncludeResource: font Courier-Bold
%%IncludeResource: font Helvetica
%%IncludeResource: font Courier-BoldOblique
%%IncludeResource: font Courier-Oblique
%%IncludeResource: font Times-Roman
%%IncludeResource: font Helvetica-BoldOblique
%%IncludeResource: font Helvetica-Bold
%%IncludeResource: font Helvetica-Oblique
%%IncludeResource: font Times-BoldItalic
%%IncludeResource: font Courier
%%IncludeResource: font Times-Italic
%%IncludeResource: font Times-Bold
%%IncludeResource: font Symbol
%%IncludeResource: font ZapfDingbats
%FOPEndFontDict
%%BeginResource: encoding WinAnsiEncoding
/WinAnsiEncoding [
/.notdef /.notdef /.notdef /.notdef /.notdef
/.notdef /.notdef /.notdef /.notdef /.notdef
/.notdef /.notdef /.notdef /.notdef /.notdef
/.notdef /.notdef /.notdef /.notdef /.notdef
/.notdef /.notdef /.notdef /.notdef /.notdef
/.notdef /.notdef /.notdef /.notdef /.notdef
/.notdef /.notdef /space /exclam /quotedbl
/numbersign /dollar /percent /ampersand /quotesingle
/parenleft /parenright /asterisk /plus /comma
/hyphen /period /slash /zero /one
/two /three /four /five /six
/seven /eight /nine /colon /semicolon
/less /equal /greater /question /at
/A /B /C /D /E
/F /G /H /I /J
/K /L /M /N /O
/P /Q /R /S /T
/U /V /W /X /Y
/Z /bracketleft /backslash /bracketright /asciicircum
/underscore /quoteleft /a /b /c
/d /e /f /g /h
/i /j /k /l /m
/n /o /p /q /r
/s /t /u /v /w
/x /y /z /braceleft /bar
/braceright /asciitilde /bullet /Euro /bullet
/quotesinglbase /florin /quotedblbase /ellipsis /dagger
/daggerdbl /circumflex /perthousand /Scaron /guilsinglleft
/OE /bullet /Zcaron /bullet /bullet
/quoteleft /quoteright /quotedblleft /quotedblright /bullet
/endash /emdash /asciitilde /trademark /scaron
/guilsinglright /oe /bullet /zcaron /Ydieresis
/space /exclamdown /cent /sterling /currency
/yen /brokenbar /section /dieresis /copyright
/ordfeminine /guillemotleft /logicalnot /sfthyphen /registered
/macron /degree /plusminus /twosuperior /threesuperior
/acute /mu /paragraph /middot /cedilla
/onesuperior /ordmasculine /guillemotright /onequarter /onehalf
/threequarters /questiondown /Agrave /Aacute /Acircumflex
/Atilde /Adieresis /Aring /AE /Ccedilla
/Egrave /Eacute /Ecircumflex /Edieresis /Igrave
/Iacute /Icircumflex /Idieresis /Eth /Ntilde
/Ograve /Oacute /Ocircumflex /Otilde /Odieresis
/multiply /Oslash /Ugrave /Uacute /Ucircumflex
/Udieresis /Yacute /Thorn /germandbls /agrave
/aacute /acircumflex /atilde /adieresis /aring
/ae /ccedilla /egrave /eacute /ecircumflex
/edieresis /igrave /iacute /icircumflex /idieresis
/eth /ntilde /ograve /oacute /ocircumflex
/otilde /odieresis /divide /oslash /ugrave
/uacute /ucircumflex /udieresis /yacute /thorn
/ydieresis
] def
%%EndResource
%FOPBeginFontReencode
/Courier-Bold findfont
dup length dict begin
  {1 index /FID ne {def} {pop pop} ifelse} forall
  /Encoding WinAnsiEncoding def
  currentdict
end
/Courier-Bold exch definefont pop
/Helvetica findfont
dup length dict begin
  {1 index /FID ne {def} {pop pop} ifelse} forall
  /Encoding WinAnsiEncoding def
  currentdict
end
/Helvetica exch definefont pop
/Courier-BoldOblique findfont
dup length dict begin
  {1 index /FID ne {def} {pop pop} ifelse} forall
  /Encoding WinAnsiEncoding def
  currentdict
end
/Courier-BoldOblique exch definefont pop
/Courier-Oblique findfont
dup length dict begin
  {1 index /FID ne {def} {pop pop} ifelse} forall
  /Encoding WinAnsiEncoding def
  currentdict
end
/Courier-Oblique exch definefont pop
/Times-Roman findfont
dup length dict begin
  {1 index /FID ne {def} {pop pop} ifelse} forall
  /Encoding WinAnsiEncoding def
  currentdict
end
/Times-Roman exch definefont pop
/Helvetica-BoldOblique findfont
dup length dict begin
  {1 index /FID ne {def} {pop pop} ifelse} forall
  /Encoding WinAnsiEncoding def
  currentdict
end
/Helvetica-BoldOblique exch definefont pop
/Helvetica-Bold findfont
dup length dict begin
  {1 index /FID ne {def} {pop pop} ifelse} forall
  /Encoding WinAnsiEncoding def
  currentdict
end
/Helvetica-Bold exch definefont pop
/Helvetica-Oblique findfont
dup length dict begin
  {1 index /FID ne {def} {pop pop} ifelse} forall
  /Encoding WinAnsiEncoding def
  currentdict
end
/Helvetica-Oblique exch definefont pop
/Times-BoldItalic findfont
dup length dict begin
  {1 index /FID ne {def} {pop pop} ifelse} forall
  /Encoding WinAnsiEncoding def
  currentdict
end
/Times-BoldItalic exch definefont pop
/Courier findfont
dup length dict begin
  {1 index /FID ne {def} {pop pop} ifelse} forall
  /Encoding WinAnsiEncoding def
  currentdict
end
/Courier exch definefont pop
/Times-Italic findfont
dup length dict begin
  {1 index /FID ne {def} {pop pop} ifelse} forall
  /Encoding WinAnsiEncoding def
  currentdict
end
/Times-Italic exch definefont pop
/Times-Bold findfont
dup length dict begin
  {1 index /FID ne {def} {pop pop} ifelse} forall
  /Encoding WinAnsiEncoding def
  currentdict
end
/Times-Bold exch definefont pop
%FOPEndFontReencode
%%EndProlog
%%Page: 1 1
%%PageBoundingBox: 0 0 560 420
%%BeginPageSetup
[1 0 0 -1 0 420] CT
%%EndPageSetup
GS
1 GC
N
0 0 560 420 re
f
GR
GS
1 GC
N
0 0 560 420 re
f
GR
GS
1 GC
N
73 374 M
507 374 L
507 31 L
73 31 L
cp
f
GR
GS
0.149 GC
2 setlinecap
1 LJ
0.5 LW
N
73 374 M
507 374 L
S
GR
GS
0.149 GC
2 setlinecap
1 LJ
0.5 LW
N
73 374 M
73 369.66 L
S
GR
GS
0.149 GC
2 setlinecap
1 LJ
0.5 LW
N
116.4 374 M
116.4 369.66 L
S
GR
GS
0.149 GC
2 setlinecap
1 LJ
0.5 LW
N
159.8 374 M
159.8 369.66 L
S
GR
GS
0.149 GC
2 setlinecap
1 LJ
0.5 LW
N
203.2 374 M
203.2 369.66 L
S
GR
GS
0.149 GC
2 setlinecap
1 LJ
0.5 LW
N
246.6 374 M
246.6 369.66 L
S
GR
GS
0.149 GC
2 setlinecap
1 LJ
0.5 LW
N
290 374 M
290 369.66 L
S
GR
GS
0.149 GC
2 setlinecap
1 LJ
0.5 LW
N
333.4 374 M
333.4 369.66 L
S
GR
GS
0.149 GC
2 setlinecap
1 LJ
0.5 LW
N
376.8 374 M
376.8 369.66 L
S
GR
GS
0.149 GC
2 setlinecap
1 LJ
0.5 LW
N
420.2 374 M
420.2 369.66 L
S
GR
GS
0.149 GC
2 setlinecap
1 LJ
0.5 LW
N
463.6 374 M
463.6 369.66 L
S
GR
GS
0.149 GC
2 setlinecap
1 LJ
0.5 LW
N
507 374 M
507 369.66 L
S
GR
GS
[1 0 0 1 73 378] CT
0.149 GC
/Helvetica 10 F
GS
[1 0 0 1 0 0] CT
-3 8 moveto 
1 -1 scale
(0) t 
GR
GR
GS
[1 0 0 1 116.4 378] CT
0.149 GC
/Helvetica 10 F
GS
[1 0 0 1 0 0] CT
-7 8 moveto 
1 -1 scale
(0.1) t 
GR
GR
GS
[1 0 0 1 159.8 378] CT
0.149 GC
/Helvetica 10 F
GS
[1 0 0 1 0 0] CT
-7 8 moveto 
1 -1 scale
(0.2) t 
GR
GR
GS
[1 0 0 1 203.20001 378] CT
0.149 GC
/Helvetica 10 F
GS
[1 0 0 1 0 0] CT
-7 8 moveto 
1 -1 scale
(0.3) t 
GR
GR
GS
[1 0 0 1 246.60001 378] CT
0.149 GC
/Helvetica 10 F
GS
[1 0 0 1 0 0] CT
-7 8 moveto 
1 -1 scale
(0.4) t 
GR
GR
GS
[1 0 0 1 290 378] CT
0.149 GC
/Helvetica 10 F
GS
[1 0 0 1 0 0] CT
-7 8 moveto 
1 -1 scale
(0.5) t 
GR
GR
GS
[1 0 0 1 333.40002 378] CT
0.149 GC
/Helvetica 10 F
GS
[1 0 0 1 0 0] CT
-7 8 moveto 
1 -1 scale
(0.6) t 
GR
GR
GS
[1 0 0 1 376.79999 378] CT
0.149 GC
/Helvetica 10 F
GS
[1 0 0 1 0 0] CT
-7 8 moveto 
1 -1 scale
(0.7) t 
GR
GR
GS
[1 0 0 1 420.20001 378] CT
0.149 GC
/Helvetica 10 F
GS
[1 0 0 1 0 0] CT
-7 8 moveto 
1 -1 scale
(0.8) t 
GR
GR
GS
[1 0 0 1 463.59998 378] CT
0.149 GC
/Helvetica 10 F
GS
[1 0 0 1 0 0] CT
-7 8 moveto 
1 -1 scale
(0.9) t 
GR
GR
GS
[1 0 0 1 507 378] CT
0.149 GC
/Helvetica 10 F
GS
[1 0 0 1 0 0] CT
-3 8 moveto 
1 -1 scale
(1) t 
GR
GR
GS
[1 0 0 1 290.00021 390] CT
0.149 GC
/Helvetica 11 F
GS
[1 0 0 1 0 0] CT
-20.5 9 moveto 
1 -1 scale
(Time \(s\)) t 
GR
GR
GS
0.149 GC
2 setlinecap
1 LJ
0.5 LW
N
73 374 M
73 31 L
S
GR
GS
0.149 GC
2 setlinecap
1 LJ
0.5 LW
N
73 374 M
77.34 374 L
S
GR
GS
0.149 GC
2 setlinecap
1 LJ
0.5 LW
N
73 339.7 M
77.34 339.7 L
S
GR
GS
0.149 GC
2 setlinecap
1 LJ
0.5 LW
N
73 305.4 M
77.34 305.4 L
S
GR
GS
0.149 GC
2 setlinecap
1 LJ
0.5 LW
N
73 271.1 M
77.34 271.1 L
S
GR
GS
0.149 GC
2 setlinecap
1 LJ
0.5 LW
N
73 236.8 M
77.34 236.8 L
S
GR
GS
0.149 GC
2 setlinecap
1 LJ
0.5 LW
N
73 202.5 M
77.34 202.5 L
S
GR
GS
0.149 GC
2 setlinecap
1 LJ
0.5 LW
N
73 168.2 M
77.34 168.2 L
S
GR
GS
0.149 GC
2 setlinecap
1 LJ
0.5 LW
N
73 133.9 M
77.34 133.9 L
S
GR
GS
0.149 GC
2 setlinecap
1 LJ
0.5 LW
N
73 99.6 M
77.34 99.6 L
S
GR
GS
0.149 GC
2 setlinecap
1 LJ
0.5 LW
N
73 65.3 M
77.34 65.3 L
S
GR
GS
0.149 GC
2 setlinecap
1 LJ
0.5 LW
N
73 31 M
77.34 31 L
S
GR
GS
[1 0 0 1 69 374] CT
0.149 GC
/Helvetica 10 F
GS
[1 0 0 1 0 0] CT
-18 2.5 moveto 
1 -1 scale
(-2.5) t 
GR
GR
GS
[1 0 0 1 69 339.70001] CT
0.149 GC
/Helvetica 10 F
GS
[1 0 0 1 0 0] CT
-9 2.5 moveto 
1 -1 scale
(-2) t 
GR
GR
GS
[1 0 0 1 69 305.39999] CT
0.149 GC
/Helvetica 10 F
GS
[1 0 0 1 0 0] CT
-18 2.5 moveto 
1 -1 scale
(-1.5) t 
GR
GR
GS
[1 0 0 1 69 271.10001] CT
0.149 GC
/Helvetica 10 F
GS
[1 0 0 1 0 0] CT
-9 2.5 moveto 
1 -1 scale
(-1) t 
GR
GR
GS
[1 0 0 1 69 236.8] CT
0.149 GC
/Helvetica 10 F
GS
[1 0 0 1 0 0] CT
-18 2.5 moveto 
1 -1 scale
(-0.5) t 
GR
GR
GS
[1 0 0 1 69 202.5] CT
0.149 GC
/Helvetica 10 F
GS
[1 0 0 1 0 0] CT
-6 2.5 moveto 
1 -1 scale
(0) t 
GR
GR
GS
[1 0 0 1 69 168.2] CT
0.149 GC
/Helvetica 10 F
GS
[1 0 0 1 0 0] CT
-14 2.5 moveto 
1 -1 scale
(0.5) t 
GR
GR
GS
[1 0 0 1 69 133.89999] CT
0.149 GC
/Helvetica 10 F
GS
[1 0 0 1 0 0] CT
-6 2.5 moveto 
1 -1 scale
(1) t 
GR
GR
GS
[1 0 0 1 69 99.6] CT
0.149 GC
/Helvetica 10 F
GS
[1 0 0 1 0 0] CT
-14 2.5 moveto 
1 -1 scale
(1.5) t 
GR
GR
GS
[1 0 0 1 69 65.3] CT
0.149 GC
/Helvetica 10 F
GS
[1 0 0 1 0 0] CT
-6 2.5 moveto 
1 -1 scale
(2) t 
GR
GR
GS
[1 0 0 1 69 31] CT
0.149 GC
/Helvetica 10 F
GS
[1 0 0 1 0 0] CT
-14 2.5 moveto 
1 -1 scale
(2.5) t 
GR
GR
GS
[0 -1 1 0 48 202.49983] CT
0.149 GC
/Helvetica 11 F
GS
[1 0 0 1 0 0] CT
-69 -3 moveto 
1 -1 scale
(Displacement    z = x - y \(m\)) t 
GR
GR
GS
[1 0 0 1 290.00027 28.25] CT
/Helvetica-Bold 11 F
GS
[1 0 0 1 0 0] CT
-81 -3 moveto 
1 -1 scale
(TMD Transient Total Response) t 
GR
GR
GS
0 0.447 0.741 RC
1 LJ
0.5 LW
N
73 202.5 M
73.434 203.164 L
73.868 203.825 L
74.302 204.485 L
74.736 205.141 L
75.17 205.795 L
75.604 206.445 L
76.038 207.092 L
76.472 207.736 L
76.906 208.376 L
77.34 209.012 L
77.774 209.644 L
78.208 210.271 L
78.642 210.895 L
79.076 211.513 L
79.51 212.126 L
79.944 212.734 L
80.378 213.337 L
80.812 213.934 L
81.246 214.526 L
81.68 215.111 L
82.114 215.691 L
82.548 216.264 L
82.982 216.831 L
83.416 217.391 L
83.85 217.944 L
84.284 218.49 L
84.718 219.029 L
85.152 219.561 L
85.586 220.085 L
86.02 220.601 L
86.454 221.109 L
86.888 221.61 L
87.322 222.102 L
87.756 222.586 L
88.19 223.061 L
88.624 223.527 L
89.058 223.985 L
89.492 224.434 L
89.926 224.873 L
90.36 225.303 L
90.794 225.724 L
91.228 226.135 L
91.662 226.537 L
92.096 226.928 L
92.53 227.31 L
92.964 227.681 L
93.398 228.043 L
93.832 228.394 L
94.266 228.734 L
S
GR
GS
0 0.447 0.741 RC
1 LJ
0.5 LW
N
93.832 228.394 M
94.266 228.734 L
94.7 229.064 L
95.134 229.383 L
95.568 229.692 L
96.002 229.989 L
96.436 230.276 L
96.87 230.551 L
97.304 230.815 L
97.738 231.068 L
98.172 231.309 L
98.606 231.539 L
99.04 231.757 L
99.474 231.964 L
99.908 232.159 L
100.342 232.342 L
100.776 232.513 L
101.21 232.672 L
101.644 232.819 L
102.078 232.954 L
102.512 233.077 L
102.946 233.188 L
103.38 233.286 L
103.814 233.373 L
104.248 233.446 L
104.682 233.508 L
105.116 233.557 L
105.55 233.593 L
105.984 233.617 L
106.418 233.629 L
106.852 233.628 L
107.286 233.614 L
107.72 233.588 L
108.154 233.549 L
108.588 233.497 L
109.022 233.433 L
109.456 233.356 L
109.89 233.267 L
110.324 233.165 L
110.758 233.05 L
111.192 232.923 L
111.626 232.783 L
112.06 232.63 L
112.494 232.465 L
112.928 232.288 L
113.362 232.097 L
113.796 231.895 L
114.23 231.68 L
114.664 231.452 L
115.098 231.212 L
115.532 230.96 L
115.966 230.695 L
S
GR
GS
0 0.447 0.741 RC
1 LJ
0.5 LW
N
115.532 230.96 M
115.966 230.695 L
116.4 230.418 L
116.834 230.129 L
117.268 229.828 L
117.702 229.515 L
118.136 229.189 L
118.57 228.852 L
119.004 228.503 L
119.438 228.142 L
119.872 227.769 L
120.306 227.385 L
120.74 226.989 L
121.174 226.582 L
121.608 226.163 L
122.042 225.733 L
122.476 225.291 L
122.91 224.839 L
123.344 224.375 L
123.778 223.901 L
124.212 223.415 L
124.646 222.919 L
125.08 222.413 L
125.514 221.896 L
125.948 221.369 L
126.382 220.831 L
126.816 220.283 L
127.25 219.725 L
127.684 219.158 L
128.118 218.581 L
128.552 217.994 L
128.986 217.397 L
129.42 216.792 L
129.854 216.177 L
130.288 215.553 L
130.722 214.92 L
131.156 214.279 L
131.59 213.629 L
132.024 212.97 L
132.458 212.304 L
132.892 211.629 L
133.326 210.946 L
133.76 210.255 L
134.194 209.557 L
134.628 208.852 L
135.062 208.139 L
135.496 207.419 L
135.93 206.692 L
136.364 205.958 L
136.798 205.218 L
137.232 204.471 L
137.666 203.719 L
S
GR
GS
0 0.447 0.741 RC
1 LJ
0.5 LW
N
137.232 204.471 M
137.666 203.719 L
138.1 202.96 L
138.534 202.195 L
138.968 201.425 L
139.402 200.649 L
139.836 199.868 L
140.27 199.082 L
140.704 198.291 L
141.138 197.495 L
141.572 196.695 L
142.006 195.891 L
142.44 195.082 L
142.874 194.27 L
143.308 193.454 L
143.742 192.634 L
144.176 191.811 L
144.61 190.986 L
145.044 190.157 L
145.478 189.326 L
145.912 188.492 L
146.346 187.656 L
146.78 186.818 L
147.214 185.978 L
147.648 185.137 L
148.082 184.294 L
148.516 183.45 L
148.95 182.606 L
149.384 181.76 L
149.818 180.914 L
150.252 180.068 L
150.686 179.222 L
151.12 178.375 L
151.554 177.53 L
151.988 176.684 L
152.422 175.84 L
152.856 174.997 L
153.29 174.155 L
153.724 173.314 L
154.158 172.475 L
154.592 171.638 L
155.026 170.803 L
155.46 169.971 L
155.894 169.141 L
156.328 168.314 L
156.762 167.49 L
157.196 166.669 L
157.63 165.852 L
158.064 165.038 L
158.498 164.228 L
158.932 163.423 L
159.366 162.621 L
S
GR
GS
0 0.447 0.741 RC
1 LJ
0.5 LW
N
158.932 163.423 M
159.366 162.621 L
159.8 161.825 L
160.234 161.032 L
160.668 160.245 L
161.102 159.464 L
161.536 158.687 L
161.97 157.916 L
162.404 157.151 L
162.838 156.392 L
163.272 155.64 L
163.706 154.893 L
164.14 154.154 L
164.574 153.421 L
165.008 152.696 L
165.442 151.977 L
165.876 151.266 L
166.31 150.563 L
166.744 149.868 L
167.178 149.181 L
167.612 148.502 L
168.046 147.832 L
168.48 147.17 L
168.914 146.517 L
169.348 145.873 L
169.782 145.239 L
170.216 144.614 L
170.65 143.998 L
171.084 143.393 L
171.518 142.797 L
171.952 142.211 L
172.386 141.636 L
172.82 141.072 L
173.254 140.518 L
173.688 139.975 L
174.122 139.443 L
174.556 138.922 L
174.99 138.412 L
175.424 137.914 L
175.858 137.428 L
176.292 136.954 L
176.726 136.492 L
177.16 136.041 L
177.594 135.603 L
178.028 135.178 L
178.462 134.765 L
178.896 134.365 L
179.33 133.978 L
179.764 133.604 L
180.198 133.243 L
180.632 132.895 L
181.066 132.561 L
S
GR
GS
0 0.447 0.741 RC
1 LJ
0.5 LW
N
180.632 132.895 M
181.066 132.561 L
181.5 132.241 L
181.934 131.934 L
182.368 131.641 L
182.802 131.361 L
183.236 131.096 L
183.67 130.845 L
184.104 130.608 L
184.538 130.386 L
184.972 130.178 L
185.406 129.985 L
185.84 129.806 L
186.274 129.642 L
186.708 129.493 L
187.142 129.359 L
187.576 129.24 L
188.01 129.136 L
188.444 129.047 L
188.878 128.974 L
189.312 128.916 L
189.746 128.873 L
190.18 128.846 L
190.614 128.834 L
191.048 128.838 L
191.482 128.858 L
191.916 128.893 L
192.35 128.944 L
192.784 129.011 L
193.218 129.094 L
193.652 129.193 L
194.086 129.307 L
194.52 129.438 L
194.954 129.584 L
195.388 129.747 L
195.822 129.926 L
196.256 130.12 L
196.69 130.331 L
197.124 130.558 L
197.558 130.801 L
197.992 131.06 L
198.426 131.335 L
198.86 131.626 L
199.294 131.933 L
199.728 132.257 L
200.162 132.596 L
200.596 132.952 L
201.03 133.323 L
201.464 133.711 L
201.898 134.114 L
202.332 134.533 L
202.766 134.969 L
S
GR
GS
0 0.447 0.741 RC
1 LJ
0.5 LW
N
202.332 134.533 M
202.766 134.969 L
203.2 135.42 L
203.634 135.887 L
204.068 136.37 L
204.502 136.868 L
204.936 137.383 L
205.37 137.913 L
205.804 138.458 L
206.238 139.019 L
206.672 139.596 L
207.106 140.187 L
207.54 140.794 L
207.974 141.417 L
208.408 142.054 L
208.842 142.707 L
209.276 143.374 L
209.71 144.057 L
210.144 144.754 L
210.578 145.466 L
211.012 146.192 L
211.446 146.933 L
211.88 147.689 L
212.314 148.458 L
212.748 149.242 L
213.182 150.04 L
213.616 150.852 L
214.05 151.677 L
214.484 152.516 L
214.918 153.369 L
215.352 154.235 L
215.786 155.115 L
216.22 156.007 L
216.654 156.913 L
217.088 157.831 L
217.522 158.762 L
217.956 159.706 L
218.39 160.662 L
218.824 161.63 L
219.258 162.61 L
219.692 163.603 L
220.126 164.607 L
220.56 165.622 L
220.994 166.649 L
221.428 167.687 L
221.862 168.736 L
222.296 169.797 L
222.73 170.867 L
223.164 171.949 L
223.598 173.04 L
224.032 174.142 L
224.466 175.253 L
S
GR
GS
0 0.447 0.741 RC
1 LJ
0.5 LW
N
224.032 174.142 M
224.466 175.253 L
224.9 176.375 L
225.334 177.506 L
225.768 178.646 L
226.202 179.795 L
226.636 180.953 L
227.07 182.12 L
227.504 183.296 L
227.938 184.48 L
228.372 185.672 L
228.806 186.871 L
229.24 188.079 L
229.674 189.293 L
230.108 190.515 L
230.542 191.744 L
230.976 192.98 L
231.41 194.222 L
231.844 195.471 L
232.278 196.725 L
232.712 197.985 L
233.146 199.251 L
233.58 200.523 L
234.014 201.799 L
234.448 203.08 L
234.882 204.366 L
235.316 205.656 L
235.75 206.951 L
236.184 208.249 L
236.618 209.551 L
237.052 210.856 L
237.486 212.164 L
237.92 213.476 L
238.354 214.79 L
238.788 216.106 L
239.222 217.424 L
239.656 218.745 L
240.09 220.067 L
240.524 221.39 L
240.958 222.714 L
241.392 224.039 L
241.826 225.365 L
242.26 226.691 L
242.694 228.017 L
243.128 229.343 L
243.562 230.669 L
243.996 231.993 L
244.43 233.317 L
244.864 234.64 L
245.298 235.96 L
245.732 237.28 L
246.166 238.597 L
S
GR
GS
0 0.447 0.741 RC
1 LJ
0.5 LW
N
245.732 237.28 M
246.166 238.597 L
246.6 239.911 L
247.034 241.223 L
247.468 242.533 L
247.902 243.839 L
248.336 245.142 L
248.77 246.441 L
249.204 247.736 L
249.638 249.027 L
250.072 250.313 L
250.506 251.595 L
250.94 252.872 L
251.374 254.144 L
251.808 255.41 L
252.242 256.67 L
252.676 257.925 L
253.11 259.173 L
253.544 260.414 L
253.978 261.649 L
254.412 262.877 L
254.846 264.097 L
255.28 265.31 L
255.714 266.515 L
256.148 267.712 L
256.582 268.9 L
257.016 270.08 L
257.45 271.251 L
257.884 272.413 L
258.318 273.566 L
258.752 274.709 L
259.186 275.842 L
259.62 276.965 L
260.054 278.078 L
260.488 279.18 L
260.922 280.271 L
261.356 281.352 L
261.79 282.421 L
262.224 283.478 L
262.658 284.524 L
263.092 285.558 L
263.526 286.579 L
263.96 287.588 L
264.394 288.585 L
264.828 289.568 L
265.262 290.539 L
265.696 291.496 L
266.13 292.439 L
266.564 293.369 L
266.998 294.285 L
267.432 295.186 L
267.866 296.074 L
S
GR
GS
0 0.447 0.741 RC
1 LJ
0.5 LW
N
267.432 295.186 M
267.866 296.074 L
268.3 296.946 L
268.734 297.804 L
269.168 298.647 L
269.602 299.474 L
270.036 300.286 L
270.47 301.083 L
270.904 301.863 L
271.338 302.628 L
271.772 303.377 L
272.206 304.109 L
272.64 304.825 L
273.074 305.524 L
273.508 306.206 L
273.942 306.871 L
274.376 307.519 L
274.81 308.149 L
275.244 308.762 L
275.678 309.357 L
276.112 309.935 L
276.546 310.494 L
276.98 311.035 L
277.414 311.558 L
277.848 312.062 L
278.282 312.548 L
278.716 313.015 L
279.15 313.464 L
279.584 313.893 L
280.018 314.303 L
280.452 314.694 L
280.886 315.065 L
281.32 315.417 L
281.754 315.75 L
282.188 316.063 L
282.622 316.356 L
283.056 316.629 L
283.49 316.882 L
283.924 317.115 L
284.358 317.328 L
284.792 317.52 L
285.226 317.692 L
285.66 317.844 L
286.094 317.975 L
286.528 318.086 L
286.962 318.176 L
287.396 318.245 L
287.83 318.294 L
288.264 318.322 L
288.698 318.328 L
289.132 318.314 L
289.566 318.279 L
S
GR
GS
0 0.447 0.741 RC
1 LJ
0.5 LW
N
289.132 318.314 M
289.566 318.279 L
290 318.223 L
290.434 318.146 L
290.868 318.048 L
291.302 317.928 L
291.736 317.788 L
292.17 317.626 L
292.604 317.443 L
293.038 317.239 L
293.472 317.014 L
293.906 316.767 L
294.34 316.5 L
294.774 316.211 L
295.208 315.901 L
295.642 315.57 L
296.076 315.217 L
296.51 314.844 L
296.944 314.449 L
297.378 314.033 L
297.812 313.596 L
298.246 313.138 L
298.68 312.659 L
299.114 312.16 L
299.548 311.639 L
299.982 311.097 L
300.416 310.535 L
300.85 309.952 L
301.284 309.348 L
301.718 308.724 L
302.152 308.079 L
302.586 307.413 L
303.02 306.727 L
303.454 306.021 L
303.888 305.295 L
304.322 304.549 L
304.756 303.782 L
305.19 302.996 L
305.624 302.19 L
306.058 301.364 L
306.492 300.518 L
306.926 299.653 L
307.36 298.769 L
307.794 297.865 L
308.228 296.943 L
308.662 296.001 L
309.096 295.04 L
309.53 294.061 L
309.964 293.063 L
310.398 292.047 L
310.832 291.013 L
311.266 289.96 L
S
GR
GS
0 0.447 0.741 RC
1 LJ
0.5 LW
N
310.832 291.013 M
311.266 289.96 L
311.7 288.889 L
312.134 287.801 L
312.568 286.695 L
313.002 285.572 L
313.436 284.431 L
313.87 283.273 L
314.304 282.098 L
314.738 280.906 L
315.172 279.698 L
315.606 278.473 L
316.04 277.232 L
316.474 275.975 L
316.908 274.703 L
317.342 273.414 L
317.776 272.111 L
318.21 270.792 L
318.644 269.458 L
319.078 268.109 L
319.512 266.746 L
319.946 265.368 L
320.38 263.977 L
320.814 262.571 L
321.248 261.152 L
321.682 259.719 L
322.116 258.273 L
322.55 256.814 L
322.984 255.343 L
323.418 253.859 L
323.852 252.363 L
324.286 250.855 L
324.72 249.335 L
325.154 247.803 L
325.588 246.261 L
326.022 244.707 L
326.456 243.143 L
326.89 241.569 L
327.324 239.984 L
327.758 238.389 L
328.192 236.785 L
328.626 235.171 L
329.06 233.548 L
329.494 231.917 L
329.928 230.277 L
330.362 228.629 L
330.796 226.973 L
331.23 225.309 L
331.664 223.638 L
332.098 221.959 L
332.532 220.274 L
332.966 218.583 L
S
GR
GS
0 0.447 0.741 RC
1 LJ
0.5 LW
N
332.532 220.274 M
332.966 218.583 L
333.4 216.885 L
333.834 215.181 L
334.268 213.472 L
334.702 211.757 L
335.136 210.037 L
335.57 208.313 L
336.004 206.584 L
336.438 204.851 L
336.872 203.115 L
337.306 201.375 L
337.74 199.631 L
338.174 197.885 L
338.608 196.136 L
339.042 194.385 L
339.476 192.632 L
339.91 190.877 L
340.344 189.121 L
340.778 187.365 L
341.212 185.607 L
341.646 183.849 L
342.08 182.091 L
342.514 180.333 L
342.948 178.576 L
343.382 176.819 L
343.816 175.064 L
344.25 173.311 L
344.684 171.559 L
345.118 169.809 L
345.552 168.062 L
345.986 166.318 L
346.42 164.576 L
346.854 162.839 L
347.288 161.105 L
347.722 159.375 L
348.156 157.649 L
348.59 155.928 L
349.024 154.212 L
349.458 152.502 L
349.892 150.797 L
350.326 149.098 L
350.76 147.405 L
351.194 145.719 L
351.628 144.04 L
352.062 142.368 L
352.496 140.704 L
352.93 139.047 L
353.364 137.399 L
353.798 135.759 L
354.232 134.128 L
354.666 132.506 L
S
GR
GS
0 0.447 0.741 RC
1 LJ
0.5 LW
N
354.232 134.128 M
354.666 132.506 L
355.1 130.893 L
355.534 129.29 L
355.968 127.697 L
356.402 126.114 L
356.836 124.542 L
357.27 122.981 L
357.704 121.431 L
358.138 119.892 L
358.572 118.365 L
359.006 116.851 L
359.44 115.348 L
359.874 113.858 L
360.308 112.381 L
360.742 110.918 L
361.176 109.467 L
361.61 108.031 L
362.044 106.608 L
362.478 105.2 L
362.912 103.807 L
363.346 102.428 L
363.78 101.065 L
364.214 99.717 L
364.648 98.384 L
365.082 97.068 L
365.516 95.767 L
365.95 94.483 L
366.384 93.216 L
366.818 91.966 L
367.252 90.733 L
367.686 89.517 L
368.12 88.319 L
368.554 87.139 L
368.988 85.977 L
369.422 84.834 L
369.856 83.709 L
370.29 82.603 L
370.724 81.516 L
371.158 80.448 L
371.592 79.4 L
372.026 78.372 L
372.46 77.363 L
372.894 76.375 L
373.328 75.407 L
373.762 74.46 L
374.196 73.533 L
374.63 72.627 L
375.064 71.743 L
375.498 70.879 L
375.932 70.038 L
376.366 69.218 L
S
GR
GS
0 0.447 0.741 RC
1 LJ
0.5 LW
N
375.932 70.038 M
376.366 69.218 L
376.8 68.42 L
377.234 67.644 L
377.668 66.89 L
378.102 66.158 L
378.536 65.449 L
378.97 64.763 L
379.404 64.1 L
379.838 63.459 L
380.272 62.842 L
380.706 62.248 L
381.14 61.677 L
381.574 61.131 L
382.008 60.607 L
382.442 60.108 L
382.876 59.632 L
383.31 59.181 L
383.744 58.754 L
384.178 58.351 L
384.612 57.972 L
385.046 57.618 L
385.48 57.289 L
385.914 56.984 L
386.348 56.704 L
386.782 56.449 L
387.216 56.219 L
387.65 56.013 L
388.084 55.833 L
388.518 55.678 L
388.952 55.549 L
389.386 55.444 L
389.82 55.365 L
390.254 55.311 L
390.688 55.283 L
391.122 55.28 L
391.556 55.302 L
391.99 55.351 L
392.424 55.424 L
392.858 55.523 L
393.292 55.648 L
393.726 55.798 L
394.16 55.974 L
394.594 56.176 L
395.028 56.403 L
395.462 56.656 L
395.896 56.934 L
396.33 57.238 L
396.764 57.568 L
397.198 57.923 L
397.632 58.304 L
398.066 58.71 L
S
GR
GS
0 0.447 0.741 RC
1 LJ
0.5 LW
N
397.632 58.304 M
398.066 58.71 L
398.5 59.141 L
398.934 59.598 L
399.368 60.08 L
399.802 60.588 L
400.236 61.12 L
400.67 61.678 L
401.104 62.261 L
401.538 62.869 L
401.972 63.502 L
402.406 64.16 L
402.84 64.843 L
403.274 65.55 L
403.708 66.283 L
404.142 67.039 L
404.576 67.82 L
405.01 68.625 L
405.444 69.455 L
405.878 70.309 L
406.312 71.186 L
406.746 72.088 L
407.18 73.013 L
407.614 73.962 L
408.048 74.934 L
408.482 75.929 L
408.916 76.948 L
409.35 77.99 L
409.784 79.055 L
410.218 80.142 L
410.652 81.252 L
411.086 82.384 L
411.52 83.538 L
411.954 84.715 L
412.388 85.913 L
412.822 87.133 L
413.256 88.375 L
413.69 89.638 L
414.124 90.922 L
414.558 92.226 L
414.992 93.552 L
415.426 94.898 L
415.86 96.264 L
416.294 97.65 L
416.728 99.057 L
417.162 100.482 L
417.596 101.928 L
418.03 103.392 L
418.464 104.875 L
418.898 106.378 L
419.332 107.898 L
419.766 109.437 L
S
GR
GS
0 0.447 0.741 RC
1 LJ
0.5 LW
N
419.332 107.898 M
419.766 109.437 L
420.2 110.993 L
420.634 112.568 L
421.068 114.16 L
421.502 115.769 L
421.936 117.395 L
422.37 119.038 L
422.804 120.697 L
423.238 122.372 L
423.672 124.063 L
424.106 125.77 L
424.54 127.492 L
424.974 129.229 L
425.408 130.981 L
425.842 132.747 L
426.276 134.528 L
426.71 136.322 L
427.144 138.13 L
427.578 139.952 L
428.012 141.786 L
428.446 143.633 L
428.88 145.492 L
429.314 147.363 L
429.748 149.246 L
430.182 151.141 L
430.616 153.046 L
431.05 154.963 L
431.484 156.89 L
431.918 158.827 L
432.352 160.773 L
432.786 162.73 L
433.22 164.695 L
433.654 166.67 L
434.088 168.652 L
434.522 170.643 L
434.956 172.642 L
435.39 174.648 L
435.824 176.662 L
436.258 178.682 L
436.692 180.709 L
437.126 182.741 L
437.56 184.78 L
437.994 186.824 L
438.428 188.873 L
438.862 190.927 L
439.296 192.985 L
439.73 195.047 L
440.164 197.113 L
440.598 199.182 L
441.032 201.254 L
441.466 203.328 L
S
GR
GS
0 0.447 0.741 RC
1 LJ
0.5 LW
N
441.032 201.254 M
441.466 203.328 L
441.9 205.405 L
442.334 207.484 L
442.768 209.564 L
443.202 211.645 L
443.636 213.728 L
444.07 215.81 L
444.504 217.893 L
444.938 219.975 L
445.372 222.057 L
445.806 224.138 L
446.24 226.217 L
446.674 228.295 L
447.108 230.37 L
447.542 232.443 L
447.976 234.513 L
448.41 236.58 L
448.844 238.644 L
449.278 240.703 L
449.712 242.758 L
450.146 244.809 L
450.58 246.855 L
451.014 248.895 L
451.448 250.929 L
451.882 252.958 L
452.316 254.98 L
452.75 256.995 L
453.184 259.003 L
453.618 261.004 L
454.052 262.997 L
454.486 264.981 L
454.92 266.957 L
455.354 268.924 L
455.788 270.882 L
456.222 272.83 L
456.656 274.768 L
457.09 276.696 L
457.524 278.614 L
457.958 280.52 L
458.392 282.415 L
458.826 284.298 L
459.26 286.169 L
459.694 288.028 L
460.128 289.874 L
460.562 291.708 L
460.996 293.527 L
461.43 295.334 L
461.864 297.126 L
462.298 298.904 L
462.732 300.667 L
463.166 302.415 L
S
GR
GS
0 0.447 0.741 RC
1 LJ
0.5 LW
N
462.732 300.667 M
463.166 302.415 L
463.6 304.148 L
464.034 305.866 L
464.468 307.567 L
464.902 309.252 L
465.336 310.921 L
465.77 312.573 L
466.204 314.208 L
466.638 315.825 L
467.072 317.425 L
467.506 319.006 L
467.94 320.57 L
468.374 322.114 L
468.808 323.64 L
469.242 325.147 L
469.676 326.634 L
470.11 328.101 L
470.544 329.549 L
470.978 330.976 L
471.412 332.383 L
471.846 333.769 L
472.28 335.134 L
472.714 336.477 L
473.148 337.799 L
473.582 339.099 L
474.016 340.378 L
474.45 341.633 L
474.884 342.867 L
475.318 344.077 L
475.752 345.265 L
476.186 346.429 L
476.62 347.57 L
477.054 348.687 L
477.488 349.781 L
477.922 350.85 L
478.356 351.895 L
478.79 352.915 L
479.224 353.911 L
479.658 354.882 L
480.092 355.828 L
480.526 356.749 L
480.96 357.644 L
481.394 358.513 L
481.828 359.357 L
482.262 360.175 L
482.696 360.966 L
483.13 361.732 L
483.564 362.471 L
483.998 363.183 L
484.432 363.868 L
484.866 364.527 L
S
GR
GS
0 0.447 0.741 RC
1 LJ
0.5 LW
N
484.432 363.868 M
484.866 364.527 L
485.3 365.159 L
485.734 365.763 L
486.168 366.34 L
486.602 366.89 L
487.036 367.413 L
487.47 367.907 L
487.904 368.374 L
488.338 368.813 L
488.772 369.224 L
489.206 369.607 L
489.64 369.962 L
490.074 370.289 L
490.508 370.587 L
490.942 370.857 L
491.376 371.099 L
491.81 371.312 L
492.244 371.496 L
492.678 371.652 L
493.112 371.779 L
493.546 371.877 L
493.98 371.947 L
494.414 371.987 L
S
GR
%%Trailer
%%Pages: 1
%%EOF
