\relax 
\bibstyle{ieeetr}
\newlabel{sec:abstract}{{}{1}}
\@writefile{toc}{\contentsline {section}{\numberline {1} \phantom {}Summary of Analysis}{2}}
\newlabel{sec:analysis}{{1}{2}}
\newlabel{eq:volume}{{1}{2}}
\@writefile{lof}{\contentsline {figure}{\numberline {1}{\ignorespaces 3D view of the shell and the tube heat exchanger\relax }}{2}}
\providecommand*\caption@xref[2]{\@setref\relax\@undefined{#1}}
\newlabel{fig:3Dshell}{{1}{2}}
\newlabel{fig:front}{{2a}{2}}
\newlabel{sub@fig:front}{{a}{2}}
\newlabel{fig:top}{{2b}{2}}
\newlabel{sub@fig:top}{{b}{2}}
\@writefile{lof}{\contentsline {figure}{\numberline {2}{\ignorespaces Tube heat exchanger\relax }}{2}}
\newlabel{fig:dim}{{2}{2}}
\newlabel{eq:cylCoord}{{2}{3}}
\@writefile{toc}{\contentsline {subsection}{\numberline {1.1} \phantom {}Volume of Shell}{3}}
\newlabel{sec:Vshell}{{1.1}{3}}
\newlabel{eq:ellipse}{{3}{3}}
\newlabel{eq:ellipseParam}{{4}{3}}
\@writefile{lof}{\contentsline {figure}{\numberline {3}{\ignorespaces 3D Surface Graph of the Heat Exchanger: Case 1\relax }}{4}}
\newlabel{fig:graph}{{3}{4}}
\newlabel{eq:ellipseR}{{5}{4}}
\newlabel{eq:ellipseInt}{{6}{4}}
\@writefile{lof}{\contentsline {figure}{\numberline {4}{\ignorespaces 3D Surface Graph of the Heat Exchanger: Case 2\relax }}{5}}
\newlabel{fig:graph2}{{4}{5}}
\@writefile{toc}{\contentsline {subsection}{\numberline {1.2} \phantom {}Volume of Heat Exchanger Tube}{5}}
\newlabel{sec:Vtube}{{1.2}{5}}
\newlabel{eq:tubeInt}{{7}{6}}
\@writefile{toc}{\contentsline {subsection}{\numberline {1.3} \phantom {}Volume of the Cap}{6}}
\newlabel{sec:Vcap}{{1.3}{6}}
\@writefile{lof}{\contentsline {figure}{\numberline {5}{\ignorespaces Cap volume is the volume of the Tube outside Shell\relax }}{6}}
\newlabel{fig:cap}{{5}{6}}
\newlabel{eq:ellipseX}{{8}{6}}
\newlabel{eq:ellipseXparam}{{9}{7}}
\newlabel{eq:capInt}{{10}{7}}
\@writefile{toc}{\contentsline {subsection}{\numberline {1.4} \phantom {}Total Volume}{7}}
\newlabel{sec:Vtotal}{{1.4}{7}}
\newlabel{eq:Vtotal}{{11}{7}}
\@writefile{toc}{\contentsline {section}{\numberline {2} \phantom {}Summary of Results}{8}}
\newlabel{sec:results}{{2}{8}}
\@writefile{toc}{\contentsline {subsection}{\numberline {2.1} \phantom {}Volume of the Shell}{8}}
\newlabel{sec:Vshell results}{{2.1}{8}}
\newlabel{eq:Vshell results}{{12}{8}}
\@writefile{toc}{\contentsline {subsection}{\numberline {2.2} \phantom {}Volume of the Tube}{8}}
\newlabel{sec:Vtube results}{{2.2}{8}}
\newlabel{eq:Vtube results}{{13}{8}}
\@writefile{toc}{\contentsline {subsection}{\numberline {2.3} \phantom {}Volume of the Cap}{8}}
\newlabel{sec:Vcap results}{{2.3}{8}}
\newlabel{eq:Vcap results}{{14}{8}}
\@writefile{toc}{\contentsline {subsection}{\numberline {2.4} \phantom {}Total Volume}{8}}
\newlabel{sec:Total results}{{2.4}{8}}
\newlabel{eq:Total results}{{15}{8}}
\@writefile{toc}{\contentsline {subsection}{\numberline {2.5} \phantom {}Summary of Calculations}{8}}
\newlabel{sec:calculations}{{2.5}{8}}
\newlabel{tab:dimensions}{{\caption@xref {tab:dimensions}{ on input line 339}}{8}}
\@writefile{lot}{\contentsline {table}{\numberline {1}{\ignorespaces Case Dimensions\relax }}{8}}
\newlabel{tab:results}{{\caption@xref {tab:results}{ on input line 356}}{8}}
\@writefile{lot}{\contentsline {table}{\numberline {2}{\ignorespaces Volume Calculation Results\relax }}{8}}
\@writefile{toc}{\contentsline {section}{\numberline {Appendix A} \phantom {Appendix }MATLAB Code}{9}}
\newlabel{app:code}{{A}{9}}
\@writefile{lol}{\contentsline {lstlisting}{images/main.m}{9}}
