\contentsline {figure}{\numberline {1}{\ignorespaces 3D view of the shell and the tube heat exchanger\relax }}{2}
\contentsline {figure}{\numberline {2}{\ignorespaces Tube heat exchanger\relax }}{2}
\contentsline {figure}{\numberline {3}{\ignorespaces 3D Surface Graph of the Heat Exchanger: Case 1\relax }}{4}
\contentsline {figure}{\numberline {4}{\ignorespaces 3D Surface Graph of the Heat Exchanger: Case 2\relax }}{5}
\contentsline {figure}{\numberline {5}{\ignorespaces Cap volume is the volume of the Tube outside Shell\relax }}{6}
