\relax 
\providecommand\hyper@newdestlabel[2]{}
\bibstyle{ieeetr}
\providecommand\HyperFirstAtBeginDocument{\AtBeginDocument}
\HyperFirstAtBeginDocument{\ifx\hyper@anchor\@undefined
\global\let\oldcontentsline\contentsline
\gdef\contentsline#1#2#3#4{\oldcontentsline{#1}{#2}{#3}}
\global\let\oldnewlabel\newlabel
\gdef\newlabel#1#2{\newlabelxx{#1}#2}
\gdef\newlabelxx#1#2#3#4#5#6{\oldnewlabel{#1}{{#2}{#3}}}
\AtEndDocument{\ifx\hyper@anchor\@undefined
\let\contentsline\oldcontentsline
\let\newlabel\oldnewlabel
\fi}
\fi}
\global\let\hyper@last\relax 
\gdef\HyperFirstAtBeginDocument#1{#1}
\providecommand\HyField@AuxAddToFields[1]{}
\providecommand\HyField@AuxAddToCoFields[2]{}
\providecommand \oddpage@label [2]{}
\@writefile{toc}{\contentsline {section}{Introduction}{i}{Doc-Start}}
\@writefile{lof}{\contentsline {figure}{\numberline {1}{\ignorespaces Domestic washing machine\relax }}{i}{figure.caption.1}}
\providecommand*\caption@xref[2]{\@setref\relax\@undefined{#1}}
\newlabel{fig:washer}{{1}{i}{Domestic washing machine\relax }{figure.caption.1}{}}
\@writefile{lof}{\contentsline {figure}{\numberline {2}{\ignorespaces Schematic of the drum assembly\relax }}{i}{figure.caption.1}}
\newlabel{fig:schematic}{{2}{i}{Schematic of the drum assembly\relax }{figure.caption.1}{}}
\@writefile{lot}{\contentsline {table}{\numberline {1}{\ignorespaces Washing Machine Shaft Design Specifications\relax }}{i}{table.caption.2}}
\newlabel{table:design_spec}{{1}{i}{Washing Machine Shaft Design Specifications\relax }{table.caption.2}{}}
\@writefile{lot}{\contentsline {table}{\numberline {2}{\ignorespaces Specified Distances\relax }}{i}{table.caption.3}}
\newlabel{table:dist}{{2}{i}{Specified Distances\relax }{table.caption.3}{}}
\@writefile{toc}{\contentsline {section}{\numberline {1} \phantom {}FBD and Force Analysis}{1}{section.1}}
\@writefile{lof}{\contentsline {figure}{\numberline {3}{\ignorespaces 3D Free Body Diagram of the Shaft\relax }}{1}{figure.caption.4}}
\newlabel{fig:FBD_3D}{{3}{1}{3D Free Body Diagram of the Shaft\relax }{figure.caption.4}{}}
\@writefile{lof}{\contentsline {figure}{\numberline {4}{\ignorespaces ZX plane with the respective forces, $F_{cf}$ is rotating\relax }}{1}{figure.caption.5}}
\newlabel{fig:FBD_zx_plane}{{4}{1}{ZX plane with the respective forces, $F_{cf}$ is rotating\relax }{figure.caption.5}{}}
\newlabel{eq:zx_plane}{{1a}{1}{}{equation.1.1a}{}}
\newlabel{eq:zy_plane}{{1b}{1}{}{equation.1.1b}{}}
\citation{ref:textbook_322}
\@writefile{lof}{\contentsline {figure}{\numberline {5}{\ignorespaces ZY plane with the respective forces, $F_{cf}$ is rotating\relax }}{2}{figure.caption.6}}
\newlabel{fig:FBD_zy_plane}{{5}{2}{ZY plane with the respective forces, $F_{cf}$ is rotating\relax }{figure.caption.6}{}}
\@writefile{lot}{\contentsline {table}{\numberline {3}{\ignorespaces Calculated Forces\relax }}{2}{table.caption.7}}
\newlabel{table:forces}{{3}{2}{Calculated Forces\relax }{table.caption.7}{}}
\newlabel{eq:diag_eq_horz}{{2}{2}{}{equation.1.2}{}}
\newlabel{eq:diag_eq_vert}{{3}{3}{}{equation.1.3}{}}
\@writefile{lot}{\contentsline {table}{\numberline {4}{\ignorespaces Resolved Constants\relax }}{3}{table.caption.8}}
\newlabel{table:const}{{4}{3}{Resolved Constants\relax }{table.caption.8}{}}
\citation{ref:textbook_322}
\citation{ref:textbook_322}
\citation{ref:textbook_322}
\@writefile{toc}{\contentsline {section}{\numberline {2} \phantom {}Shaft Design}{4}{section.2}}
\@writefile{toc}{\contentsline {subsection}{\numberline {2.1} \phantom {}Design by Fatigue Failure}{4}{subsection.2.1}}
\@writefile{lot}{\contentsline {table}{\numberline {5}{\ignorespaces Moments at Various Points\relax }}{4}{table.caption.9}}
\newlabel{table:const}{{5}{4}{Moments at Various Points\relax }{table.caption.9}{}}
\newlabel{eq:torque_alt}{{4a}{4}{}{equation.2.4a}{}}
\newlabel{eq:torque_mean}{{4b}{4}{}{equation.2.4b}{}}
\newlabel{eq:endurance_lim}{{5}{4}{}{equation.2.5}{}}
\citation{ref:textbook_322}
\@writefile{lot}{\contentsline {table}{\numberline {6}{\ignorespaces Endurance Limit Factors\nobreakspace  {}\cite  {ref:textbook_322}\relax }}{5}{table.caption.10}}
\newlabel{table:factors}{{6}{5}{Endurance Limit Factors~\cite {ref:textbook_322}\relax }{table.caption.10}{}}
\newlabel{eq:sn_prime}{{6}{5}{}{equation.2.6}{}}
\newlabel{eq:K_f}{{7a}{5}{}{equation.2.7a}{}}
\newlabel{eq:K_fs}{{7b}{5}{}{equation.2.7b}{}}
\@writefile{lot}{\contentsline {table}{\numberline {7}{\ignorespaces Stress Concentration Factors\relax }}{5}{table.caption.11}}
\newlabel{table:stress_factors}{{7}{5}{Stress Concentration Factors\relax }{table.caption.11}{}}
\newlabel{eq:inequality}{{8}{5}{}{equation.2.8}{}}
\newlabel{eq:goodman}{{9}{6}{}{equation.2.9}{}}
\@writefile{lot}{\contentsline {table}{\numberline {8}{\ignorespaces Shaft Section Diameters\relax }}{6}{table.caption.12}}
\newlabel{table:diameters}{{8}{6}{Shaft Section Diameters\relax }{table.caption.12}{}}
\@writefile{toc}{\contentsline {subsection}{\numberline {2.2} \phantom {}Design by Rigidity (Deflection)}{6}{subsection.2.2}}
\newlabel{eq:deflect_1}{{10}{6}{}{equation.2.10}{}}
\newlabel{eq:deflect_2}{{11}{6}{}{equation.2.11}{}}
\@writefile{lot}{\contentsline {table}{\numberline {9}{\ignorespaces Rigidity Design Diameters\relax }}{6}{table.caption.13}}
\newlabel{table:rigidity}{{9}{6}{Rigidity Design Diameters\relax }{table.caption.13}{}}
\@writefile{toc}{\contentsline {subsection}{\numberline {2.3} \phantom {}Design by Vibration}{7}{subsection.2.3}}
\@writefile{lot}{\contentsline {table}{\numberline {10}{\ignorespaces Vibration Design Diameters\relax }}{7}{table.caption.14}}
\newlabel{table:vibration}{{10}{7}{Vibration Design Diameters\relax }{table.caption.14}{}}
\newlabel{eq:vibration1}{{12a}{7}{}{equation.2.12a}{}}
\newlabel{eq:vibration2}{{12b}{7}{}{equation.2.12b}{}}
\newlabel{eq:vibration3}{{12c}{7}{}{equation.2.12c}{}}
\@writefile{toc}{\contentsline {subsection}{\numberline {2.4} \phantom {}Final Shaft Diameters}{7}{subsection.2.4}}
\@writefile{lof}{\contentsline {figure}{\numberline {6}{\ignorespaces Final Shaft Diameter Dimensions\relax }}{8}{figure.caption.15}}
\newlabel{fig:diameter_dim}{{6}{8}{Final Shaft Diameter Dimensions\relax }{figure.caption.15}{}}
\@writefile{toc}{\contentsline {section}{\numberline {3} \phantom {}Bearing Selection}{9}{section.3}}
\@writefile{toc}{\contentsline {subsection}{\numberline {3.1} \phantom {}Type of Bearing}{9}{subsection.3.1}}
\@writefile{toc}{\contentsline {subsection}{\numberline {3.2} \phantom {}Bearing Life}{9}{subsection.3.2}}
\newlabel{eq:deflect_1}{{13}{9}{}{equation.3.13}{}}
\@writefile{toc}{\contentsline {subsection}{\numberline {3.3} \phantom {}Bearing Inner Diameter}{9}{subsection.3.3}}
\@writefile{toc}{\contentsline {subsection}{\numberline {3.4} \phantom {}Bearing Outer Diameter}{9}{subsection.3.4}}
\newlabel{eq:static_load}{{14}{9}{}{equation.3.14}{}}
\citation{ref:bearing_cat}
\citation{ref:bearing_cat}
\newlabel{eq:dynamic_load}{{15}{10}{}{equation.3.15}{}}
\@writefile{lot}{\contentsline {table}{\numberline {11}{\ignorespaces Bearing Calculation Results\relax }}{10}{table.caption.16}}
\newlabel{table:bearingcalc}{{11}{10}{Bearing Calculation Results\relax }{table.caption.16}{}}
\@writefile{lot}{\contentsline {table}{\numberline {12}{\ignorespaces Bearing Selection Results\nobreakspace  {}\cite  {ref:bearing_cat}\relax }}{10}{table.caption.17}}
\newlabel{table:bearingselect}{{12}{10}{Bearing Selection Results~\cite {ref:bearing_cat}\relax }{table.caption.17}{}}
\@writefile{toc}{\contentsline {subsection}{\numberline {3.5} \phantom {}Bearing Arrangement and Fit}{10}{subsection.3.5}}
\@writefile{lot}{\contentsline {table}{\numberline {13}{\ignorespaces Tolerances for shaft and housing dimensions\relax }}{10}{table.caption.18}}
\newlabel{table:bearingfit}{{13}{10}{Tolerances for shaft and housing dimensions\relax }{table.caption.18}{}}
\citation{ref:bearing_cat}
\citation{ref:sealings_cat}
\citation{ref:sealings_cat}
\citation{ref:bearing_cat}
\citation{ref:sealings_cat}
\citation{ref:bearing_cat}
\citation{ref:sealings_cat}
\@writefile{toc}{\contentsline {subsection}{\numberline {3.6} \phantom {}Lubrication}{11}{subsection.3.6}}
\@writefile{lot}{\contentsline {table}{\numberline {14}{\ignorespaces Lubrication methods for the shaft bearings\relax }}{11}{table.caption.19}}
\newlabel{table:bearinglube}{{14}{11}{Lubrication methods for the shaft bearings\relax }{table.caption.19}{}}
\@writefile{toc}{\contentsline {subsection}{\numberline {3.7} \phantom {}Sealing}{11}{subsection.3.7}}
\@writefile{lot}{\contentsline {table}{\numberline {15}{\ignorespaces Selected seals for each side of the housing\nobreakspace  {}\cite  {ref:sealings_cat}\relax }}{11}{table.caption.20}}
\newlabel{table:bearingseal}{{15}{11}{Selected seals for each side of the housing~\cite {ref:sealings_cat}\relax }{table.caption.20}{}}
\@writefile{toc}{\contentsline {subsection}{\numberline {3.8} \phantom {}Final Design}{11}{subsection.3.8}}
\@writefile{lot}{\contentsline {table}{\numberline {16}{\ignorespaces Final Bearing\nobreakspace  {}\cite  {ref:bearing_cat} and Seal Selection\nobreakspace  {}\cite  {ref:sealings_cat}\relax }}{12}{table.caption.21}}
\newlabel{table:bearingfinal}{{16}{12}{Final Bearing~\cite {ref:bearing_cat} and Seal Selection~\cite {ref:sealings_cat}\relax }{table.caption.21}{}}
\@writefile{toc}{\contentsline {section}{\numberline {4} \phantom {}Detailed Designs}{13}{section.4}}
\@writefile{toc}{\contentsline {subsection}{\numberline {4.1} \phantom {}Shaft and Housing Design}{13}{subsection.4.1}}
\@writefile{lof}{\contentsline {figure}{\numberline {7}{\ignorespaces Final Shaft Assembly\relax }}{13}{figure.caption.22}}
\newlabel{fig:final_design}{{7}{13}{Final Shaft Assembly\relax }{figure.caption.22}{}}
\@writefile{lof}{\contentsline {figure}{\numberline {8}{\ignorespaces Chamfer Diagram \relax }}{14}{figure.caption.23}}
\newlabel{fig:chamfers}{{8}{14}{Chamfer Diagram \relax }{figure.caption.23}{}}
\@writefile{toc}{\contentsline {subsection}{\numberline {4.2} \phantom {}Re-Evaluate Correction Factors}{14}{subsection.4.2}}
\newlabel{eq:c_s_fact}{{16}{14}{}{equation.4.16}{}}
\@writefile{lot}{\contentsline {table}{\numberline {17}{\ignorespaces Calculated Size Correction Factors\relax }}{14}{table.caption.24}}
\newlabel{table:correction}{{17}{14}{Calculated Size Correction Factors\relax }{table.caption.24}{}}
\@writefile{lot}{\contentsline {table}{\numberline {18}{\ignorespaces Calculated Stress Concentration Factors\relax }}{15}{table.caption.25}}
\newlabel{table:correctionstress}{{18}{15}{Calculated Stress Concentration Factors\relax }{table.caption.25}{}}
\@writefile{toc}{\contentsline {section}{\numberline {5} \phantom {}Assembly / Disassembly Procedure}{16}{section.5}}
\newlabel{sec:assem}{{5}{16}{}{section.5}{}}
\@writefile{toc}{\contentsline {subsection}{\numberline {5.1} \phantom {}Housing and Shaft Assembly}{16}{subsection.5.1}}
\@writefile{toc}{\contentsline {subsection}{\numberline {5.2} \phantom {}Housing and Shaft Disassembly}{16}{subsection.5.2}}
\@writefile{toc}{\contentsline {section}{\numberline {6} \phantom {}Group Member Contributions}{17}{section.6}}
\@writefile{toc}{\contentsline {section}{\numberline {7} \phantom {}Detailed Drawings}{18}{section.7}}
\newlabel{sec:drawings}{{7}{18}{}{section.7}{}}
\bibdata{uw-wkrpt-bib}
\bibcite{ref:textbook_322}{1}
\bibcite{ref:bearing_cat}{2}
\bibcite{ref:sealings_cat}{3}
\@writefile{toc}{\contentsline {section}{\hbox to\@tempdima {8\hfil }{ References}}{29}{section*.26}}
\@writefile{toc}{\contentsline {section}{\numberline {Appendix A} \phantom {Appendix }Shear / Moment / Deflection Angle / Deflection Distance Diagrams}{30}{appendix.A}}
\newlabel{app:diagrams}{{A}{30}{}{appendix.A}{}}
\@writefile{lof}{\contentsline {figure}{\numberline {9}{\ignorespaces Horizontal Direction Diagrams of Alternating X Load, $F_{cf}$ Right\relax }}{31}{figure.caption.27}}
\newlabel{fig:alternating_horz_dir_XR}{{9}{31}{Horizontal Direction Diagrams of Alternating X Load, $F_{cf}$ Right\relax }{figure.caption.27}{}}
\@writefile{lof}{\contentsline {figure}{\numberline {10}{\ignorespaces Horizontal Direction Diagrams of Alternating X Load, $F_{cf}$ Left\relax }}{32}{figure.caption.28}}
\newlabel{fig:alternating_horz_dir_XL}{{10}{32}{Horizontal Direction Diagrams of Alternating X Load, $F_{cf}$ Left\relax }{figure.caption.28}{}}
\@writefile{lof}{\contentsline {figure}{\numberline {11}{\ignorespaces Horizontal Direction Diagram of Mean X Load, $F_{cf}$ in -ve Y\relax }}{33}{figure.caption.29}}
\newlabel{fig:alternating_horz_dir_mean}{{11}{33}{Horizontal Direction Diagram of Mean X Load, $F_{cf}$ in -ve Y\relax }{figure.caption.29}{}}
\@writefile{lof}{\contentsline {figure}{\numberline {12}{\ignorespaces Vertical Shear Diagram of Alternating Y $F_{cf}$ Load Up\relax }}{34}{figure.caption.30}}
\newlabel{fig:alternating_vert_dir_UP}{{12}{34}{Vertical Shear Diagram of Alternating Y $F_{cf}$ Load Up\relax }{figure.caption.30}{}}
\@writefile{lof}{\contentsline {figure}{\numberline {13}{\ignorespaces Vertical Shear Diagram of Alternating Y $F_{cf}$ Load Down\relax }}{35}{figure.caption.31}}
\newlabel{fig:alternating_vert_dir_DOWN}{{13}{35}{Vertical Shear Diagram of Alternating Y $F_{cf}$ Load Down\relax }{figure.caption.31}{}}
\@writefile{lof}{\contentsline {figure}{\numberline {14}{\ignorespaces Vertical Shear Diagram of Mean Y $F_{cf}$ in Horizontal Direction\relax }}{36}{figure.caption.32}}
\newlabel{fig:alternating_vert_dir_mean}{{14}{36}{Vertical Shear Diagram of Mean Y $F_{cf}$ in Horizontal Direction\relax }{figure.caption.32}{}}
\@writefile{toc}{\contentsline {section}{\numberline {Appendix B} \phantom {Appendix }Main MATLAB Script}{37}{appendix.B}}
\newlabel{app:main}{{B}{37}{}{appendix.B}{}}
\@writefile{lol}{\contentsline {lstlisting}{\numberline {1}Main MATLAB Code}{37}{lstlisting.1}}
\@writefile{toc}{\contentsline {section}{\numberline {Appendix C} \phantom {Appendix }Item 1: Computation of Forces, Moments, Deflection Angle and Distance}{40}{appendix.C}}
\@writefile{lol}{\contentsline {lstlisting}{\numberline {2}Code for Item 1 computations in the ZX plane}{40}{lstlisting.2}}
\newlabel{app:item1_hor}{{C}{42}{}{lstnumber.2.71}{}}
\@writefile{lol}{\contentsline {lstlisting}{\numberline {3}Code for Item 1 computations in the ZY plane}{42}{lstlisting.3}}
\newlabel{app:item1_vert}{{C}{45}{}{lstnumber.3.86}{}}
\@writefile{toc}{\contentsline {section}{\numberline {Appendix D} \phantom {Appendix }Item 2: Fatigue, Deflection, and Vibration Calculations}{46}{appendix.D}}
\newlabel{app:item2}{{D}{46}{}{appendix.D}{}}
\@writefile{lol}{\contentsline {lstlisting}{\numberline {4}Code for calculating required minimum diameters for design by fatigue, vibration, and deflation analysis}{46}{lstlisting.4}}
\@writefile{toc}{\contentsline {section}{\numberline {Appendix E} \phantom {Appendix }Item 3: Static and Dynamic Analysis Calculations}{50}{appendix.E}}
\newlabel{app:item3}{{E}{50}{}{appendix.E}{}}
\@writefile{lol}{\contentsline {lstlisting}{\numberline {5}Code for calculating dynamic and static safety factors of the chosen bearings}{50}{lstlisting.5}}
