\relax 
\providecommand\hyper@newdestlabel[2]{}
\bibstyle{ieeetr}
\providecommand\HyperFirstAtBeginDocument{\AtBeginDocument}
\HyperFirstAtBeginDocument{\ifx\hyper@anchor\@undefined
\global\let\oldcontentsline\contentsline
\gdef\contentsline#1#2#3#4{\oldcontentsline{#1}{#2}{#3}}
\global\let\oldnewlabel\newlabel
\gdef\newlabel#1#2{\newlabelxx{#1}#2}
\gdef\newlabelxx#1#2#3#4#5#6{\oldnewlabel{#1}{{#2}{#3}}}
\AtEndDocument{\ifx\hyper@anchor\@undefined
\let\contentsline\oldcontentsline
\let\newlabel\oldnewlabel
\fi}
\fi}
\global\let\hyper@last\relax 
\gdef\HyperFirstAtBeginDocument#1{#1}
\providecommand\HyField@AuxAddToFields[1]{}
\providecommand\HyField@AuxAddToCoFields[2]{}
\providecommand\@newglossary[4]{}
\@newglossary{main}{glg}{gls}{glo}
\@newglossary{acronym}{alg}{acr}{acn}
\providecommand\@glsorder[1]{}
\providecommand\@istfilename[1]{}
\@istfilename{nymi-uw-wkrpt-tron.ist}
\@glsorder{word}
\select@language{english}
\@writefile{toc}{\select@language{english}}
\@writefile{lof}{\select@language{english}}
\@writefile{lot}{\select@language{english}}
\citation{ref:nymi.com}
\citation{ref:tdd-cycle}
\citation{ref:TDD}
\citation{ref:TDD}
\@writefile{toc}{\contentsline {section}{Summary}{v}{section*.3}}
\citation{ref:nymi.com}
\citation{ref:nymi.com}
\citation{ref:nymi.com}
\citation{ref:nymi.com}
\@writefile{toc}{\contentsline {section}{\numberline {1} \phantom {}Introduction}{1}{section.1}}
\@writefile{toc}{\contentsline {subsection}{\numberline {1.1} \phantom {}Background of the Nymi Band}{1}{subsection.1.1}}
\newlabel{sec:background}{{1.1}{1}{}{subsection.1.1}{}}
\@writefile{lof}{\contentsline {figure}{\numberline {1}{\ignorespaces The Nymi Band~\cite  {ref:nymi.com}\relax }}{1}{figure.caption.4}}
\providecommand*\caption@xref[2]{\@setref\relax\@undefined{#1}}
\newlabel{fig:nimyband}{{1}{1}{The Nymi Band~\cite {ref:nymi.com}\relax }{figure.caption.4}{}}
\citation{ref:TDD}
\citation{ref:tdd-cycle}
\citation{ref:tdd-cycle}
\citation{ref:TDD}
\@writefile{toc}{\contentsline {subsection}{\numberline {1.2} \phantom {}Principles of \acrlong {TDD}}{2}{subsection.1.2}}
\newlabel{sec:principles}{{1.2}{2}{}{subsection.1.2}{}}
\@writefile{lof}{\contentsline {figure}{\numberline {2}{\ignorespaces \acrlong {TDD} Workflow~\cite  {ref:tdd-cycle}\relax }}{2}{figure.caption.5}}
\newlabel{fig:workflow}{{2}{2}{\acrlong {TDD} Workflow~\cite {ref:tdd-cycle}\relax }{figure.caption.5}{}}
\citation{ref:TDD}
\citation{ref:TDD}
\citation{ref:TDD}
\citation{ref:TDD}
\@writefile{toc}{\contentsline {subsection}{\numberline {1.3} \phantom {}Importance of \acrlong {TDD}}{3}{subsection.1.3}}
\newlabel{sec:importance of TDD}{{1.3}{3}{}{subsection.1.3}{}}
\@writefile{lof}{\contentsline {figure}{\numberline {3}{\ignorespaces The physics of \acrlong {DLP}~\cite  {ref:TDD}\relax }}{3}{figure.caption.6}}
\newlabel{fig:physicsDLP}{{3}{3}{The physics of \acrlong {DLP}~\cite {ref:TDD}\relax }{figure.caption.6}{}}
\@writefile{lof}{\contentsline {figure}{\numberline {4}{\ignorespaces The physics of \acrlong {TDD}~\cite  {ref:TDD}\relax }}{3}{figure.caption.7}}
\newlabel{fig:physicsTDD}{{4}{3}{The physics of \acrlong {TDD}~\cite {ref:TDD}\relax }{figure.caption.7}{}}
\@writefile{toc}{\contentsline {subsection}{\numberline {1.4} \phantom {}Objective and Method}{4}{subsection.1.4}}
\newlabel{objective}{{1.4}{4}{}{subsection.1.4}{}}
\@writefile{toc}{\contentsline {section}{\numberline {2} \phantom {}Analysis of Unit Testing Framework}{5}{section.2}}
\@writefile{toc}{\contentsline {subsection}{\numberline {2.1} \phantom {}Drawback 1: Structure}{5}{subsection.2.1}}
\@writefile{lof}{\contentsline {figure}{\numberline {5}{\ignorespaces Current Unit Test Framework Structure\relax }}{6}{figure.caption.8}}
\newlabel{fig:currentStructure}{{5}{6}{Current Unit Test Framework Structure\relax }{figure.caption.8}{}}
\@writefile{toc}{\contentsline {subsection}{\numberline {2.2} \phantom {}Drawback 2: Build Target}{6}{subsection.2.2}}
\@writefile{toc}{\contentsline {subsection}{\numberline {2.3} \phantom {}Drawback 3: Uni-platform build}{6}{subsection.2.3}}
\@writefile{toc}{\contentsline {subsection}{\numberline {2.4} \phantom {}Summary of General Unit Test Framework}{7}{subsection.2.4}}
\citation{ref:definition}
\citation{ref:Buildbot}
\@writefile{toc}{\contentsline {section}{\numberline {3} \phantom {}Design Constraints}{8}{section.3}}
\@writefile{toc}{\contentsline {subsection}{\numberline {3.1} \phantom {}Description of Design Constraints}{8}{subsection.3.1}}
\newlabel{sec:designconstraints}{{3.1}{8}{}{subsection.3.1}{}}
\@writefile{toc}{\contentsline {subsubsection}{\numberline {3.1.1} \phantom {}Simplicity}{8}{subsubsection.3.1.1}}
\newlabel{sec:simplicity}{{3.1.1}{8}{}{subsubsection.3.1.1}{}}
\@writefile{toc}{\contentsline {subsubsection}{\numberline {3.1.2} \phantom {}Portability}{8}{subsubsection.3.1.2}}
\newlabel{sec:buildbot}{{3.1.2}{8}{}{subsubsection.3.1.2}{}}
\@writefile{toc}{\contentsline {subsubsection}{\numberline {3.1.3} \phantom {}Product Cost}{9}{subsubsection.3.1.3}}
\newlabel{sec:cost}{{3.1.3}{9}{}{subsubsection.3.1.3}{}}
\@writefile{toc}{\contentsline {subsubsection}{\numberline {3.1.4} \phantom {}Expandability}{9}{subsubsection.3.1.4}}
\@writefile{toc}{\contentsline {subsection}{\numberline {3.2} \phantom {}Structure}{9}{subsection.3.2}}
\@writefile{toc}{\contentsline {subsection}{\numberline {3.3} \phantom {}Weighting of Design Constraints}{9}{subsection.3.3}}
\@writefile{lot}{\contentsline {table}{\numberline {1}{\ignorespaces Weighting of Unit Test Harness design constraints\relax }}{10}{table.caption.9}}
\newlabel{table:weighting}{{1}{10}{Weighting of Unit Test Harness design constraints\relax }{table.caption.9}{}}
\@writefile{toc}{\contentsline {section}{\numberline {4} \phantom {}Design of Unit Test Harness}{11}{section.4}}
\@writefile{lof}{\contentsline {figure}{\numberline {6}{\ignorespaces Integration of Unit Test Framework with the Unit Test Harness\relax }}{11}{figure.caption.10}}
\newlabel{fig:harness_flowchart}{{6}{11}{Integration of Unit Test Framework with the Unit Test Harness\relax }{figure.caption.10}{}}
\@writefile{lot}{\contentsline {table}{\numberline {2}{\ignorespaces Weighting of Unit Test Framework design constraints\relax }}{12}{table.caption.11}}
\newlabel{table:constraints-framework}{{2}{12}{Weighting of Unit Test Framework design constraints\relax }{table.caption.11}{}}
\@writefile{toc}{\contentsline {subsection}{\numberline {4.1} \phantom {}Unit Framework Selection}{12}{subsection.4.1}}
\@writefile{lot}{\contentsline {table}{\numberline {3}{\ignorespaces List of possible Unit Test Frameworks\relax }}{12}{table.caption.12}}
\newlabel{table:framework-selection}{{3}{12}{List of possible Unit Test Frameworks\relax }{table.caption.12}{}}
\gdef \LT@i {\LT@entry 
    {1}{68.39903pt}\LT@entry 
    {1}{52.09625pt}\LT@entry 
    {1}{60.04764pt}\LT@entry 
    {1}{60.04764pt}\LT@entry 
    {1}{44.15091pt}\LT@entry 
    {1}{44.15091pt}\LT@entry 
    {1}{64.02031pt}}
\@writefile{lot}{\contentsline {table}{\numberline {4}{\ignorespaces Decision matrix evaluating the open source unit test frameworks\relax }}{13}{table.4}}
\newlabel{table:framework-eval}{{4}{13}{Decision matrix evaluating the open source unit test frameworks\relax }{table.4}{}}
\@writefile{toc}{\contentsline {subsubsection}{\numberline {4.1.1} \phantom {}Unity}{13}{subsubsection.4.1.1}}
\newlabel{sec:unity-description}{{4.1.1}{13}{}{subsubsection.4.1.1}{}}
\newlabel{lst:test_code}{{1}{13}{Details of TestGroupProductionCode.c}{lstlisting.1}{}}
\@writefile{lol}{\contentsline {lstlisting}{\numberline {1}Details of TestGroupProductionCode.c}{13}{lstlisting.1}}
\@writefile{toc}{\contentsline {subsection}{\numberline {4.2} \phantom {}Unity Test Framework Adaptation}{14}{subsection.4.2}}
\newlabel{lst:makefile_changes}{{2}{15}{Makefile changes for Unity adaptation}{lstlisting.2}{}}
\@writefile{lol}{\contentsline {lstlisting}{\numberline {2}Makefile changes for Unity adaptation}{15}{lstlisting.2}}
\@writefile{lof}{\contentsline {figure}{\numberline {7}{\ignorespaces Unity Framework Structure\relax }}{15}{figure.caption.13}}
\newlabel{fig:unityStructure}{{7}{15}{Unity Framework Structure\relax }{figure.caption.13}{}}
\newlabel{lst:old_main}{{3}{16}{Unity framework test main}{lstlisting.3}{}}
\@writefile{lol}{\contentsline {lstlisting}{\numberline {3}Unity framework test main}{16}{lstlisting.3}}
\@writefile{toc}{\contentsline {subsection}{\numberline {4.3} \phantom {}Unit Test Driver Design}{16}{subsection.4.3}}
\newlabel{sec:driver_design}{{4.3}{16}{}{subsection.4.3}{}}
\newlabel{lst:main_gen}{{4}{16}{Driver test main auto-generation module help output}{lstlisting.4}{}}
\@writefile{lol}{\contentsline {lstlisting}{\numberline {4}Driver test main auto-generation module help output}{16}{lstlisting.4}}
\@writefile{lof}{\contentsline {figure}{\numberline {8}{\ignorespaces The driver part of the Unit Test Harness responsibilities.\relax }}{17}{figure.caption.14}}
\newlabel{fig:driver_flowchart}{{8}{17}{The driver part of the Unit Test Harness responsibilities.\relax }{figure.caption.14}{}}
\@writefile{lof}{\contentsline {figure}{\numberline {9}{\ignorespaces The overview of the main generation module\relax }}{18}{figure.caption.15}}
\newlabel{fig:main_gen_flowchart}{{9}{18}{The overview of the main generation module\relax }{figure.caption.15}{}}
\newlabel{lst:unity_main}{{5}{18}{Auto-generated unity\_main.c}{lstlisting.5}{}}
\@writefile{lol}{\contentsline {lstlisting}{\numberline {5}Auto-generated unity\_main.c}{18}{lstlisting.5}}
\newlabel{lst:suite_setup}{{6}{19}{test\_suite\_setup() function added to unity\_main() for multi platform build}{lstlisting.6}{}}
\@writefile{lol}{\contentsline {lstlisting}{\numberline {6}test\_suite\_setup() function added to unity\_main() for multi platform build}{19}{lstlisting.6}}
\@writefile{lof}{\contentsline {figure}{\numberline {10}{\ignorespaces New Unit Test Harness Structure\relax }}{20}{figure.caption.16}}
\newlabel{fig:new_structure}{{10}{20}{New Unit Test Harness Structure\relax }{figure.caption.16}{}}
\newlabel{lst:report_gen}{{7}{20}{Driver report generation module help output}{lstlisting.7}{}}
\@writefile{lol}{\contentsline {lstlisting}{\numberline {7}Driver report generation module help output}{20}{lstlisting.7}}
\@writefile{lof}{\contentsline {figure}{\numberline {11}{\ignorespaces The overview of the report generation module\relax }}{22}{figure.caption.17}}
\newlabel{fig:report_gen_flowchart}{{11}{22}{The overview of the report generation module\relax }{figure.caption.17}{}}
\@writefile{toc}{\contentsline {section}{\numberline {5} \phantom {}Design Evaluation}{23}{section.5}}
\@writefile{lot}{\contentsline {table}{\numberline {5}{\ignorespaces Decision matrix evaluating the Unit Test Harness Design and the old existing framework against design constraints\relax }}{23}{table.caption.18}}
\newlabel{table:evaluation}{{5}{23}{Decision matrix evaluating the Unit Test Harness Design and the old existing framework against design constraints\relax }{table.caption.18}{}}
\newlabel{lst:expansion}{{8}{24}{Addition of arguments into the module}{lstlisting.8}{}}
\@writefile{lol}{\contentsline {lstlisting}{\numberline {8}Addition of arguments into the module}{24}{lstlisting.8}}
\@writefile{toc}{\contentsline {section}{\numberline {6} \phantom {}Conclusion}{25}{section.6}}
\@writefile{toc}{\contentsline {section}{\numberline {7} \phantom {}Recommendations}{26}{section.7}}
\bibdata{uw-wkrpt-bib}
\bibcite{ref:nymi.com}{1}
\bibcite{ref:tdd-cycle}{2}
\bibcite{ref:TDD}{3}
\bibcite{ref:definition}{4}
\bibcite{ref:Buildbot}{5}
\bibcite{ref:multi-factor}{6}
\bibcite{ref:otp}{7}
\bibcite{ref:spoofing}{8}
\bibcite{ref:strong-auth}{9}
\@writefile{toc}{\contentsline {section}{\hbox to\@tempdima {8\hfil }{References}}{27}{section*.19}}
\citation{ref:multi-factor}
\citation{ref:otp}
\citation{ref:spoofing}
\citation{ref:strong-auth}
\@writefile{toc}{\contentsline {section}{Glossary}{28}{section*.20}}
\@writefile{toc}{\contentsline {section}{\numberline {Appendix A} \phantom {Appendix }List of Assertions for Unity}{29}{appendix.A}}
\newlabel{app:unity_assertions}{{A}{29}{}{appendix.A}{}}
\@writefile{lol}{\contentsline {lstlisting}{\numberline {9}Unity Assertion Summary}{29}{lstlisting.9}}
\@writefile{toc}{\contentsline {section}{\numberline {Appendix B} \phantom {Appendix }Unity Test Output}{33}{appendix.B}}
\newlabel{app:unity_test_output}{{B}{33}{}{appendix.B}{}}
\@writefile{lol}{\contentsline {lstlisting}{\numberline {10}Unity Test Output}{33}{lstlisting.10}}
\@writefile{toc}{\contentsline {section}{\numberline {Appendix C} \phantom {Appendix }Summary Generation}{34}{appendix.C}}
\newlabel{app:summary_gen}{{C}{34}{}{appendix.C}{}}
\@writefile{lol}{\contentsline {lstlisting}{\numberline {11}Summary file output}{34}{lstlisting.11}}
\@writefile{toc}{\contentsline {section}{\numberline {Appendix D} \phantom {Appendix }Report Generation}{35}{appendix.D}}
\newlabel{app:report_gen}{{D}{35}{}{appendix.D}{}}
\@writefile{lol}{\contentsline {lstlisting}{\numberline {12}Report file output}{35}{lstlisting.12}}
