\select@language {english}
\contentsline {figure}{\numberline {1}{\ignorespaces The Nymi Band~\cite {ref:nymi.com}\relax }}{1}{figure.caption.4}
\contentsline {figure}{\numberline {2}{\ignorespaces \acrlong {TDD} Workflow~\cite {ref:tdd-cycle}\relax }}{2}{figure.caption.5}
\contentsline {figure}{\numberline {3}{\ignorespaces The physics of \acrlong {DLP}~\cite {ref:TDD}\relax }}{3}{figure.caption.6}
\contentsline {figure}{\numberline {4}{\ignorespaces The physics of \acrlong {TDD}~\cite {ref:TDD}\relax }}{3}{figure.caption.7}
\contentsline {figure}{\numberline {5}{\ignorespaces Current Unit Test Framework Structure\relax }}{6}{figure.caption.8}
\contentsline {figure}{\numberline {6}{\ignorespaces Integration of Unit Test Framework with the Unit Test Harness\relax }}{11}{figure.caption.10}
\contentsline {figure}{\numberline {7}{\ignorespaces Unity Framework Structure\relax }}{15}{figure.caption.13}
\contentsline {figure}{\numberline {8}{\ignorespaces The driver part of the Unit Test Harness responsibilities.\relax }}{17}{figure.caption.14}
\contentsline {figure}{\numberline {9}{\ignorespaces The overview of the main generation module\relax }}{18}{figure.caption.15}
\contentsline {figure}{\numberline {10}{\ignorespaces New Unit Test Harness Structure\relax }}{20}{figure.caption.16}
\contentsline {figure}{\numberline {11}{\ignorespaces The overview of the report generation module\relax }}{22}{figure.caption.17}
