\select@language {english}
\contentsline {table}{\numberline {1}{\ignorespaces Weighting of Unit Test Harness design constraints\relax }}{10}{table.caption.9}
\contentsline {table}{\numberline {2}{\ignorespaces Weighting of Unit Test Framework design constraints\relax }}{12}{table.caption.11}
\contentsline {table}{\numberline {3}{\ignorespaces List of possible Unit Test Frameworks\relax }}{12}{table.caption.12}
\contentsline {table}{\numberline {4}{\ignorespaces Decision matrix evaluating the open source unit test frameworks\relax }}{13}{table.4}
\contentsline {table}{\numberline {5}{\ignorespaces Decision matrix evaluating the Unit Test Harness Design and the old existing framework against design constraints\relax }}{23}{table.caption.18}
