\relax 
\newlabel{eq:eq1}{{1}{1}}
\newlabel{eq:eq2}{{2}{1}}
\newlabel{eq:eq3}{{3}{1}}
\newlabel{eq:eq4}{{4}{1}}
\newlabel{eq:eq5}{{5}{2}}
\newlabel{eq:eq6}{{6}{2}}
\newlabel{eq:eq7}{{7}{2}}
\newlabel{eq:eq8}{{8}{2}}
\newlabel{eq:eq9}{{9}{2}}
\newlabel{eq:eq10}{{10}{2}}
\newlabel{eq:eq11}{{11}{2}}
\newlabel{eq:eq12}{{12}{3}}
\newlabel{eq:eq13}{{13}{3}}
\newlabel{eq:eq14}{{14}{3}}
\@writefile{lof}{\contentsline {figure}{\numberline {1}{\ignorespaces Overall response of the system for 5 values of forcing function frequency.}}{4}}
\newlabel{fig:partC}{{1}{4}}
\newlabel{eq:eq15}{{15}{4}}
\newlabel{eq:eq16}{{16}{4}}
\newlabel{eq:eq17}{{17}{5}}
\@writefile{lof}{\contentsline {figure}{\numberline {2}{\ignorespaces Overall response of the system when T = 1 such that the frequency of the pings = $\omega _n$ , and when T = 0.5 such that the frequency of pings = $2 \omega _n$.}}{5}}
\newlabel{fig:partE}{{2}{5}}
\@writefile{lol}{\contentsline {lstlisting}{SpringMassDampPartC.m}{6}}
\@writefile{lol}{\contentsline {lstlisting}{SpringMassDampPartE.m}{6}}
