\BOOKMARK [1][-]{section.1}{ Phase I}{}% 1
\BOOKMARK [2][-]{subsection.1.1}{ Software Design}{section.1}% 2
\BOOKMARK [2][-]{subsection.1.2}{ Synchronization Method}{section.1}% 3
\BOOKMARK [2][-]{subsection.1.3}{ Debugging}{section.1}% 4
\BOOKMARK [1][-]{section.2}{ Phase II}{}% 5
\BOOKMARK [2][-]{subsection.2.1}{ Software Specification}{section.2}% 6
\BOOKMARK [2][-]{subsection.2.2}{ Experimental Results and Analysis}{section.2}% 7
\BOOKMARK [2][-]{subsection.2.3}{ Conclusions}{section.2}% 8
\BOOKMARK [1][-]{section.3}{ Contribution and Reflection}{}% 9
