\relax 
\providecommand\hyper@newdestlabel[2]{}
\bibstyle{ieeetr}
\providecommand\HyperFirstAtBeginDocument{\AtBeginDocument}
\HyperFirstAtBeginDocument{\ifx\hyper@anchor\@undefined
\global\let\oldcontentsline\contentsline
\gdef\contentsline#1#2#3#4{\oldcontentsline{#1}{#2}{#3}}
\global\let\oldnewlabel\newlabel
\gdef\newlabel#1#2{\newlabelxx{#1}#2}
\gdef\newlabelxx#1#2#3#4#5#6{\oldnewlabel{#1}{{#2}{#3}}}
\AtEndDocument{\ifx\hyper@anchor\@undefined
\let\contentsline\oldcontentsline
\let\newlabel\oldnewlabel
\fi}
\fi}
\global\let\hyper@last\relax 
\gdef\HyperFirstAtBeginDocument#1{#1}
\providecommand\HyField@AuxAddToFields[1]{}
\providecommand\HyField@AuxAddToCoFields[2]{}
\select@language{english}
\@writefile{toc}{\select@language{english}}
\@writefile{lof}{\select@language{english}}
\@writefile{lot}{\select@language{english}}
\@writefile{toc}{\contentsline {section}{\numberline {1} \phantom {}Phase I}{1}{section.1}}
\@writefile{toc}{\contentsline {subsection}{\numberline {1.1} \phantom {}Software Design}{1}{subsection.1.1}}
\@writefile{toc}{\contentsline {subsection}{\numberline {1.2} \phantom {}Synchronization Method}{1}{subsection.1.2}}
\@writefile{lot}{\contentsline {table}{\numberline {1}{\ignorespaces Tight Polling vs Interrupt Synchronization\relax }}{1}{table.caption.2}}
\newlabel{table:tight_vs_polling}{{1}{1}{Tight Polling vs Interrupt Synchronization\relax }{table.caption.2}{}}
\@writefile{toc}{\contentsline {subsection}{\numberline {1.3} \phantom {}Debugging}{2}{subsection.1.3}}
\@writefile{lof}{\contentsline {figure}{\numberline {1}{\ignorespaces Phase I software design\relax }}{3}{figure.caption.1}}
\providecommand*\caption@xref[2]{\@setref\relax\@undefined{#1}}
\newlabel{fig:phase1_diagram}{{1}{3}{Phase I software design\relax }{figure.caption.1}{}}
\@writefile{toc}{\contentsline {section}{\numberline {2} \phantom {}Phase II}{4}{section.2}}
\@writefile{toc}{\contentsline {subsection}{\numberline {2.1} \phantom {}Software Specification}{4}{subsection.2.1}}
\newlabel{fig:interrupt}{{2a}{4}{Subfigure 2a}{subfigure.2.1}{}}
\newlabel{sub@fig:interrupt}{{(a)}{a}{Subfigure 2a\relax }{subfigure.2.1}{}}
\newlabel{fig:occasional}{{2b}{4}{Subfigure 2b}{subfigure.2.2}{}}
\newlabel{sub@fig:occasional}{{(b)}{b}{Subfigure 2b\relax }{subfigure.2.2}{}}
\@writefile{lof}{\contentsline {figure}{\numberline {2}{\ignorespaces Phase II software design implementation\relax }}{4}{figure.caption.3}}
\@writefile{lof}{\contentsline {subfigure}{\numberline{(a)}{\ignorespaces {Interrupt}}}{4}{subfigure.2.1}}
\@writefile{lof}{\contentsline {subfigure}{\numberline{(b)}{\ignorespaces {Occasional}}}{4}{subfigure.2.2}}
\@writefile{toc}{\contentsline {subsection}{\numberline {2.2} \phantom {}Experimental Results and Analysis}{4}{subsection.2.2}}
\newlabel{fig:P_D_M_I}{{3a}{5}{Subfigure 3a}{subfigure.3.1}{}}
\newlabel{sub@fig:P_D_M_I}{{(a)}{a}{Subfigure 3a\relax }{subfigure.3.1}{}}
\newlabel{fig:P_D_M_O}{{3b}{5}{Subfigure 3b}{subfigure.3.2}{}}
\newlabel{sub@fig:P_D_M_O}{{(b)}{b}{Subfigure 3b\relax }{subfigure.3.2}{}}
\@writefile{lof}{\contentsline {figure}{\numberline {3}{\ignorespaces Period and Duty Cycle vs Missed Pulses\relax }}{5}{figure.caption.4}}
\@writefile{lof}{\contentsline {subfigure}{\numberline{(a)}{\ignorespaces {Interrupt}}}{5}{subfigure.3.1}}
\@writefile{lof}{\contentsline {subfigure}{\numberline{(b)}{\ignorespaces {Occasional}}}{5}{subfigure.3.2}}
\newlabel{fig:duty_small}{{4a}{5}{Subfigure 4a}{subfigure.4.1}{}}
\newlabel{sub@fig:duty_small}{{(a)}{a}{Subfigure 4a\relax }{subfigure.4.1}{}}
\newlabel{fig:duty_large}{{4b}{5}{Subfigure 4b}{subfigure.4.2}{}}
\newlabel{sub@fig:duty_large}{{(b)}{b}{Subfigure 4b\relax }{subfigure.4.2}{}}
\@writefile{lof}{\contentsline {figure}{\numberline {4}{\ignorespaces Occasional Synchronization EGM Pulse (Top) and Response Pulse (Bottom)\relax }}{5}{figure.caption.5}}
\@writefile{lof}{\contentsline {subfigure}{\numberline{(a)}{\ignorespaces {Small Duty Cycle}}}{5}{subfigure.4.1}}
\@writefile{lof}{\contentsline {subfigure}{\numberline{(b)}{\ignorespaces {Large Duty Cycle}}}{5}{subfigure.4.2}}
\newlabel{fig:P_D_L_I}{{5a}{6}{Subfigure 5a}{subfigure.5.1}{}}
\newlabel{sub@fig:P_D_L_I}{{(a)}{a}{Subfigure 5a\relax }{subfigure.5.1}{}}
\newlabel{fig:P_D_L_O}{{5b}{6}{Subfigure 5b}{subfigure.5.2}{}}
\newlabel{sub@fig:P_D_L_O}{{(b)}{b}{Subfigure 5b\relax }{subfigure.5.2}{}}
\@writefile{lof}{\contentsline {figure}{\numberline {5}{\ignorespaces Period and Duty Cycle vs Latency\relax }}{6}{figure.caption.6}}
\@writefile{lof}{\contentsline {subfigure}{\numberline{(a)}{\ignorespaces {Interrupt}}}{6}{subfigure.5.1}}
\@writefile{lof}{\contentsline {subfigure}{\numberline{(b)}{\ignorespaces {Occasional}}}{6}{subfigure.5.2}}
\newlabel{fig:D_G_L_I}{{6a}{7}{Subfigure 6a}{subfigure.6.1}{}}
\newlabel{sub@fig:D_G_L_I}{{(a)}{a}{Subfigure 6a\relax }{subfigure.6.1}{}}
\newlabel{fig:D_G_L_O}{{6b}{7}{Subfigure 6b}{subfigure.6.2}{}}
\newlabel{sub@fig:D_G_L_O}{{(b)}{b}{Subfigure 6b\relax }{subfigure.6.2}{}}
\@writefile{lof}{\contentsline {figure}{\numberline {6}{\ignorespaces Duty Cycle and Granularity vs Latency\relax }}{7}{figure.caption.7}}
\@writefile{lof}{\contentsline {subfigure}{\numberline{(a)}{\ignorespaces {Interrupt}}}{7}{subfigure.6.1}}
\@writefile{lof}{\contentsline {subfigure}{\numberline{(b)}{\ignorespaces {Occasional}}}{7}{subfigure.6.2}}
\@writefile{lof}{\contentsline {figure}{\numberline {7}{\ignorespaces Period and Granularity vs Latency for Occasional\relax }}{7}{figure.caption.8}}
\newlabel{fig:P_G_L_O}{{7}{7}{Period and Granularity vs Latency for Occasional\relax }{figure.caption.8}{}}
\@writefile{toc}{\contentsline {subsection}{\numberline {2.3} \phantom {}Conclusions}{7}{subsection.2.3}}
\newlabel{fig:D_G_M_I}{{8a}{8}{Subfigure 8a}{subfigure.8.1}{}}
\newlabel{sub@fig:D_G_M_I}{{(a)}{a}{Subfigure 8a\relax }{subfigure.8.1}{}}
\newlabel{fig:D_G_M_O}{{8b}{8}{Subfigure 8b}{subfigure.8.2}{}}
\newlabel{sub@fig:D_G_M_O}{{(b)}{b}{Subfigure 8b\relax }{subfigure.8.2}{}}
\@writefile{lof}{\contentsline {figure}{\numberline {8}{\ignorespaces Duty Cycle and Granularity vs Missed Pulses\relax }}{8}{figure.caption.9}}
\@writefile{lof}{\contentsline {subfigure}{\numberline{(a)}{\ignorespaces {Interrupt}}}{8}{subfigure.8.1}}
\@writefile{lof}{\contentsline {subfigure}{\numberline{(b)}{\ignorespaces {Occasional}}}{8}{subfigure.8.2}}
\@writefile{lof}{\contentsline {figure}{\numberline {9}{\ignorespaces Period and Granularity vs Missed Pulses for Occasional\relax }}{8}{figure.caption.10}}
\newlabel{fig:P_G_M_O}{{9}{8}{Period and Granularity vs Missed Pulses for Occasional\relax }{figure.caption.10}{}}
\@writefile{toc}{\contentsline {section}{\numberline {3} \phantom {}Contribution and Reflection}{9}{section.3}}
