\relax 
\bibstyle{ieeetr}
\newlabel{sec:abstract}{{}{1}}
\@writefile{toc}{\contentsline {section}{\numberline {1} \phantom {}Summary of Analysis}{2}}
\newlabel{sec:analysis}{{1}{2}}
\newlabel{eq:terrain}{{1}{2}}
\newlabel{eq:range}{{2}{2}}
\@writefile{toc}{\contentsline {subsection}{\numberline {1.1} \phantom {}Part I}{2}}
\newlabel{sec:Part I}{{1.1}{2}}
\@writefile{lof}{\contentsline {figure}{\numberline {1}{\ignorespaces Directions of the Terrain\relax }}{3}}
\providecommand*\caption@xref[2]{\@setref\relax\@undefined{#1}}
\newlabel{fig:directions}{{1}{3}}
\@writefile{lof}{\contentsline {figure}{\numberline {2}{\ignorespaces 3D surface plot of the Island - Mountainous Terrain\relax }}{4}}
\newlabel{fig:terrain}{{2}{4}}
\newlabel{eq:gradient}{{3}{4}}
\@writefile{lof}{\contentsline {figure}{\numberline {3}{\ignorespaces Contour Map of the Terrain\relax }}{5}}
\newlabel{fig:contourMap}{{3}{5}}
\newlabel{eq:gradMag}{{4}{5}}
\@writefile{lot}{\contentsline {table}{\numberline {1}{\ignorespaces Critical Point Classification\relax }}{6}}
\newlabel{tab:CPclass}{{1}{6}}
\@writefile{toc}{\contentsline {subsection}{\numberline {1.2} \phantom {}Part II}{6}}
\newlabel{sec:Part II}{{1.2}{6}}
\newlabel{eq:temp}{{5}{6}}
\@writefile{lof}{\contentsline {figure}{\numberline {4}{\ignorespaces Isotherms at point( 4, -0.3)\relax }}{7}}
\newlabel{fig:isotherm}{{4}{7}}
\newlabel{eq:unitV}{{6}{7}}
\newlabel{eq:dirNW}{{7}{7}}
\newlabel{eq:dirNWT}{{8}{8}}
\newlabel{eq:Tdir}{{9}{8}}
\@writefile{lof}{\contentsline {figure}{\numberline {5}{\ignorespaces 3D Terrain Surface Temperature\relax }}{8}}
\newlabel{fig:SurfaceTemp}{{5}{8}}
\@writefile{lof}{\contentsline {figure}{\numberline {6}{\ignorespaces 3D Terrain Surface Temperature\relax }}{9}}
\newlabel{fig:SurfaceTemp1}{{6}{9}}
\@writefile{lof}{\contentsline {figure}{\numberline {7}{\ignorespaces Temperature 3D surface plot\relax }}{10}}
\newlabel{fig:terrainTemp}{{7}{10}}
\newlabel{eq:Lagrange}{{10}{10}}
\@writefile{toc}{\contentsline {section}{\numberline {2} \phantom {}Summary of Results}{11}}
\newlabel{sec:results}{{2}{11}}
\@writefile{toc}{\contentsline {subsection}{\numberline {2.1} \phantom {}Part I}{11}}
\newlabel{sec:PART I Results}{{2.1}{11}}
\@writefile{lot}{\contentsline {table}{\numberline {2}{\ignorespaces Steepest Slope\relax }}{11}}
\newlabel{tab:slope}{{2}{11}}
\@writefile{lot}{\contentsline {table}{\numberline {3}{\ignorespaces Critical Point Classification\relax }}{11}}
\@writefile{toc}{\contentsline {subsection}{\numberline {2.2} \phantom {}Part II}{11}}
\newlabel{sec:PART II Results}{{2.2}{11}}
\@writefile{lot}{\contentsline {table}{\numberline {4}{\ignorespaces Temperature at Extrema of Elevation\relax }}{11}}
\@writefile{lot}{\contentsline {table}{\numberline {5}{\ignorespaces Characteristics of Location (4, -0.3)\relax }}{12}}
\newlabel{tab:Point}{{5}{12}}
\@writefile{lot}{\contentsline {table}{\numberline {6}{\ignorespaces Gradient Changes due to Direction\relax }}{12}}
\newlabel{tab:Point}{{6}{12}}
\@writefile{lot}{\contentsline {table}{\numberline {7}{\ignorespaces Max Temperature on the Island\relax }}{12}}
\newlabel{tab:Point}{{7}{12}}
\@writefile{toc}{\contentsline {section}{\numberline {Appendix A} \phantom {Appendix }MATLAB Code}{13}}
\newlabel{app:code}{{A}{13}}
\@writefile{toc}{\contentsline {subsection}{\numberline {Appendix A.1} \phantom {Appendix }Main Script}{13}}
\newlabel{app:main}{{A.1}{13}}
\@writefile{lol}{\contentsline {lstlisting}{images/main.m}{13}}
\@writefile{toc}{\contentsline {subsection}{\numberline {Appendix A.2} \phantom {Appendix }Functions}{20}}
\newlabel{app:classification}{{A.2}{20}}
\@writefile{lol}{\contentsline {lstlisting}{images/classCritPoint.m}{20}}
\@writefile{toc}{\contentsline {section}{\numberline {Appendix B} \phantom {Appendix }Calculations}{21}}
\newlabel{app:calculations}{{B}{21}}
\newlabel{eq:A}{{11}{21}}
\newlabel{eq:B}{{12}{21}}
\newlabel{eq:C}{{13}{21}}
\newlabel{eq:D}{{14}{21}}
