%!PS-Adobe-3.0 EPSF-3.0
%%Creator: (MATLAB, The Mathworks, Inc. Version 8.6.0.267246 \(R2015b\). Operating System: Mac OS X)
%%Title: (/Users/mvanheukelom/Documents/MTE3B/mte322/projects/2/latex/MTE-322/Project 2/images/alternating_horz_dir_XR.eps)
%%CreationDate: 2017-03-16T23:08:17
%%Pages: (atend)
%%BoundingBox: 0 0 1038 1037
%%LanguageLevel: 2
%%EndComments
%%BeginProlog
%%BeginResource: procset (Apache XML Graphics Std ProcSet) 1.2 0
%%Version: 1.2 0
%%Copyright: (Copyright 2001-2003,2010 The Apache Software Foundation. License terms: http://www.apache.org/licenses/LICENSE-2.0)
/bd{bind def}bind def
/ld{load def}bd
/GR/grestore ld
/M/moveto ld
/LJ/setlinejoin ld
/C/curveto ld
/f/fill ld
/LW/setlinewidth ld
/GC/setgray ld
/t/show ld
/N/newpath ld
/CT/concat ld
/cp/closepath ld
/S/stroke ld
/L/lineto ld
/CC/setcmykcolor ld
/A/ashow ld
/GS/gsave ld
/RC/setrgbcolor ld
/RM/rmoveto ld
/ML/setmiterlimit ld
/re {4 2 roll M
1 index 0 rlineto
0 exch rlineto
neg 0 rlineto
cp } bd
/_ctm matrix def
/_tm matrix def
/BT { _ctm currentmatrix pop matrix _tm copy pop 0 0 moveto } bd
/ET { _ctm setmatrix } bd
/iTm { _ctm setmatrix _tm concat } bd
/Tm { _tm astore pop iTm 0 0 moveto } bd
/ux 0.0 def
/uy 0.0 def
/F {
  /Tp exch def
  /Tf exch def
  Tf findfont Tp scalefont setfont
  /cf Tf def  /cs Tp def
} bd
/ULS {currentpoint /uy exch def /ux exch def} bd
/ULE {
  /Tcx currentpoint pop def
  gsave
  newpath
  cf findfont cs scalefont dup
  /FontMatrix get 0 get /Ts exch def /FontInfo get dup
  /UnderlinePosition get Ts mul /To exch def
  /UnderlineThickness get Ts mul /Tt exch def
  ux uy To add moveto  Tcx uy To add lineto
  Tt setlinewidth stroke
  grestore
} bd
/OLE {
  /Tcx currentpoint pop def
  gsave
  newpath
  cf findfont cs scalefont dup
  /FontMatrix get 0 get /Ts exch def /FontInfo get dup
  /UnderlinePosition get Ts mul /To exch def
  /UnderlineThickness get Ts mul /Tt exch def
  ux uy To add cs add moveto Tcx uy To add cs add lineto
  Tt setlinewidth stroke
  grestore
} bd
/SOE {
  /Tcx currentpoint pop def
  gsave
  newpath
  cf findfont cs scalefont dup
  /FontMatrix get 0 get /Ts exch def /FontInfo get dup
  /UnderlinePosition get Ts mul /To exch def
  /UnderlineThickness get Ts mul /Tt exch def
  ux uy To add cs 10 mul 26 idiv add moveto Tcx uy To add cs 10 mul 26 idiv add lineto
  Tt setlinewidth stroke
  grestore
} bd
/QT {
/Y22 exch store
/X22 exch store
/Y21 exch store
/X21 exch store
currentpoint
/Y21 load 2 mul add 3 div exch
/X21 load 2 mul add 3 div exch
/X21 load 2 mul /X22 load add 3 div
/Y21 load 2 mul /Y22 load add 3 div
/X22 load /Y22 load curveto
} bd
/SSPD {
dup length /d exch dict def
{
/v exch def
/k exch def
currentpagedevice k known {
/cpdv currentpagedevice k get def
v cpdv ne {
/upd false def
/nullv v type /nulltype eq def
/nullcpdv cpdv type /nulltype eq def
nullv nullcpdv or
{
/upd true def
} {
/sametype v type cpdv type eq def
sametype {
v type /arraytype eq {
/vlen v length def
/cpdvlen cpdv length def
vlen cpdvlen eq {
0 1 vlen 1 sub {
/i exch def
/obj v i get def
/cpdobj cpdv i get def
obj cpdobj ne {
/upd true def
exit
} if
} for
} {
/upd true def
} ifelse
} {
v type /dicttype eq {
v {
/dv exch def
/dk exch def
/cpddv cpdv dk get def
dv cpddv ne {
/upd true def
exit
} if
} forall
} {
/upd true def
} ifelse
} ifelse
} if
} ifelse
upd true eq {
d k v put
} if
} if
} if
} forall
d length 0 gt {
d setpagedevice
} if
} bd
%%EndResource
%%BeginResource: procset (Apache XML Graphics EPS ProcSet) 1.0 0
%%Version: 1.0 0
%%Copyright: (Copyright 2002-2003 The Apache Software Foundation. License terms: http://www.apache.org/licenses/LICENSE-2.0)
/BeginEPSF { %def
/b4_Inc_state save def         % Save state for cleanup
/dict_count countdictstack def % Count objects on dict stack
/op_count count 1 sub def      % Count objects on operand stack
userdict begin                 % Push userdict on dict stack
/showpage { } def              % Redefine showpage, { } = null proc
0 setgray 0 setlinecap         % Prepare graphics state
1 setlinewidth 0 setlinejoin
10 setmiterlimit [ ] 0 setdash newpath
/languagelevel where           % If level not equal to 1 then
{pop languagelevel             % set strokeadjust and
1 ne                           % overprint to their defaults.
{false setstrokeadjust false setoverprint
} if
} if
} bd
/EndEPSF { %def
count op_count sub {pop} repeat            % Clean up stacks
countdictstack dict_count sub {end} repeat
b4_Inc_state restore
} bd
%%EndResource
%FOPBeginFontDict
%%IncludeResource: font Courier-Bold
%%IncludeResource: font Helvetica
%%IncludeResource: font Courier-BoldOblique
%%IncludeResource: font Courier-Oblique
%%IncludeResource: font Times-Roman
%%IncludeResource: font Helvetica-BoldOblique
%%IncludeResource: font Helvetica-Bold
%%IncludeResource: font Helvetica-Oblique
%%IncludeResource: font Times-BoldItalic
%%IncludeResource: font Courier
%%IncludeResource: font Times-Italic
%%IncludeResource: font Times-Bold
%%IncludeResource: font Symbol
%%IncludeResource: font ZapfDingbats
%FOPEndFontDict
%%BeginResource: encoding WinAnsiEncoding
/WinAnsiEncoding [
/.notdef /.notdef /.notdef /.notdef /.notdef
/.notdef /.notdef /.notdef /.notdef /.notdef
/.notdef /.notdef /.notdef /.notdef /.notdef
/.notdef /.notdef /.notdef /.notdef /.notdef
/.notdef /.notdef /.notdef /.notdef /.notdef
/.notdef /.notdef /.notdef /.notdef /.notdef
/.notdef /.notdef /space /exclam /quotedbl
/numbersign /dollar /percent /ampersand /quotesingle
/parenleft /parenright /asterisk /plus /comma
/hyphen /period /slash /zero /one
/two /three /four /five /six
/seven /eight /nine /colon /semicolon
/less /equal /greater /question /at
/A /B /C /D /E
/F /G /H /I /J
/K /L /M /N /O
/P /Q /R /S /T
/U /V /W /X /Y
/Z /bracketleft /backslash /bracketright /asciicircum
/underscore /quoteleft /a /b /c
/d /e /f /g /h
/i /j /k /l /m
/n /o /p /q /r
/s /t /u /v /w
/x /y /z /braceleft /bar
/braceright /asciitilde /bullet /Euro /bullet
/quotesinglbase /florin /quotedblbase /ellipsis /dagger
/daggerdbl /circumflex /perthousand /Scaron /guilsinglleft
/OE /bullet /Zcaron /bullet /bullet
/quoteleft /quoteright /quotedblleft /quotedblright /bullet
/endash /emdash /asciitilde /trademark /scaron
/guilsinglright /oe /bullet /zcaron /Ydieresis
/space /exclamdown /cent /sterling /currency
/yen /brokenbar /section /dieresis /copyright
/ordfeminine /guillemotleft /logicalnot /sfthyphen /registered
/macron /degree /plusminus /twosuperior /threesuperior
/acute /mu /paragraph /middot /cedilla
/onesuperior /ordmasculine /guillemotright /onequarter /onehalf
/threequarters /questiondown /Agrave /Aacute /Acircumflex
/Atilde /Adieresis /Aring /AE /Ccedilla
/Egrave /Eacute /Ecircumflex /Edieresis /Igrave
/Iacute /Icircumflex /Idieresis /Eth /Ntilde
/Ograve /Oacute /Ocircumflex /Otilde /Odieresis
/multiply /Oslash /Ugrave /Uacute /Ucircumflex
/Udieresis /Yacute /Thorn /germandbls /agrave
/aacute /acircumflex /atilde /adieresis /aring
/ae /ccedilla /egrave /eacute /ecircumflex
/edieresis /igrave /iacute /icircumflex /idieresis
/eth /ntilde /ograve /oacute /ocircumflex
/otilde /odieresis /divide /oslash /ugrave
/uacute /ucircumflex /udieresis /yacute /thorn
/ydieresis
] def
%%EndResource
%FOPBeginFontReencode
/Courier-Bold findfont
dup length dict begin
  {1 index /FID ne {def} {pop pop} ifelse} forall
  /Encoding WinAnsiEncoding def
  currentdict
end
/Courier-Bold exch definefont pop
/Helvetica findfont
dup length dict begin
  {1 index /FID ne {def} {pop pop} ifelse} forall
  /Encoding WinAnsiEncoding def
  currentdict
end
/Helvetica exch definefont pop
/Courier-BoldOblique findfont
dup length dict begin
  {1 index /FID ne {def} {pop pop} ifelse} forall
  /Encoding WinAnsiEncoding def
  currentdict
end
/Courier-BoldOblique exch definefont pop
/Courier-Oblique findfont
dup length dict begin
  {1 index /FID ne {def} {pop pop} ifelse} forall
  /Encoding WinAnsiEncoding def
  currentdict
end
/Courier-Oblique exch definefont pop
/Times-Roman findfont
dup length dict begin
  {1 index /FID ne {def} {pop pop} ifelse} forall
  /Encoding WinAnsiEncoding def
  currentdict
end
/Times-Roman exch definefont pop
/Helvetica-BoldOblique findfont
dup length dict begin
  {1 index /FID ne {def} {pop pop} ifelse} forall
  /Encoding WinAnsiEncoding def
  currentdict
end
/Helvetica-BoldOblique exch definefont pop
/Helvetica-Bold findfont
dup length dict begin
  {1 index /FID ne {def} {pop pop} ifelse} forall
  /Encoding WinAnsiEncoding def
  currentdict
end
/Helvetica-Bold exch definefont pop
/Helvetica-Oblique findfont
dup length dict begin
  {1 index /FID ne {def} {pop pop} ifelse} forall
  /Encoding WinAnsiEncoding def
  currentdict
end
/Helvetica-Oblique exch definefont pop
/Times-BoldItalic findfont
dup length dict begin
  {1 index /FID ne {def} {pop pop} ifelse} forall
  /Encoding WinAnsiEncoding def
  currentdict
end
/Times-BoldItalic exch definefont pop
/Courier findfont
dup length dict begin
  {1 index /FID ne {def} {pop pop} ifelse} forall
  /Encoding WinAnsiEncoding def
  currentdict
end
/Courier exch definefont pop
/Times-Italic findfont
dup length dict begin
  {1 index /FID ne {def} {pop pop} ifelse} forall
  /Encoding WinAnsiEncoding def
  currentdict
end
/Times-Italic exch definefont pop
/Times-Bold findfont
dup length dict begin
  {1 index /FID ne {def} {pop pop} ifelse} forall
  /Encoding WinAnsiEncoding def
  currentdict
end
/Times-Bold exch definefont pop
%FOPEndFontReencode
%%EndProlog
%%Page: 1 1
%%PageBoundingBox: 0 0 1038 1037
%%BeginPageSetup
[1 0 0 -1 0 1037] CT
%%EndPageSetup
GS
1 GC
N
0 0 1038 1037 re
f
GR
GS
1 GC
N
0 0 1038 1037 re
f
GR
GS
1 GC
N
135 241.5 M
939.5 241.5 L
939.5 78 L
135 78 L
cp
f
GR
GS
0.873 GC
1 LJ
0.5 LW
N
135 241.5 M
135 78 L
S
GR
GS
0.873 GC
1 LJ
0.5 LW
N
249.929 241.5 M
249.929 78 L
S
GR
GS
0.873 GC
1 LJ
0.5 LW
N
364.857 241.5 M
364.857 78 L
S
GR
GS
0.873 GC
1 LJ
0.5 LW
N
479.786 241.5 M
479.786 78 L
S
GR
GS
0.873 GC
1 LJ
0.5 LW
N
594.714 241.5 M
594.714 78 L
S
GR
GS
0.873 GC
1 LJ
0.5 LW
N
709.643 241.5 M
709.643 78 L
S
GR
GS
0.873 GC
1 LJ
0.5 LW
N
824.571 241.5 M
824.571 78 L
S
GR
GS
0.873 GC
1 LJ
0.5 LW
N
939.5 241.5 M
939.5 78 L
S
GR
GS
0.873 GC
1 LJ
0.5 LW
N
939.5 241.5 M
135 241.5 L
S
GR
GS
0.873 GC
1 LJ
0.5 LW
N
939.5 214.25 M
135 214.25 L
S
GR
GS
0.873 GC
1 LJ
0.5 LW
N
939.5 187 M
135 187 L
S
GR
GS
0.873 GC
1 LJ
0.5 LW
N
939.5 159.75 M
135 159.75 L
S
GR
GS
0.873 GC
1 LJ
0.5 LW
N
939.5 132.5 M
135 132.5 L
S
GR
GS
0.873 GC
1 LJ
0.5 LW
N
939.5 105.25 M
135 105.25 L
S
GR
GS
0.873 GC
1 LJ
0.5 LW
N
939.5 78 M
135 78 L
S
GR
GS
0.149 GC
2 setlinecap
1 LJ
0.5 LW
N
135 241.5 M
939.5 241.5 L
S
GR
GS
0.149 GC
2 setlinecap
1 LJ
0.5 LW
N
135 78 M
939.5 78 L
S
GR
GS
0.149 GC
2 setlinecap
1 LJ
0.5 LW
N
135 241.5 M
135 233.455 L
S
GR
GS
0.149 GC
2 setlinecap
1 LJ
0.5 LW
N
249.929 241.5 M
249.929 233.455 L
S
GR
GS
0.149 GC
2 setlinecap
1 LJ
0.5 LW
N
364.857 241.5 M
364.857 233.455 L
S
GR
GS
0.149 GC
2 setlinecap
1 LJ
0.5 LW
N
479.786 241.5 M
479.786 233.455 L
S
GR
GS
0.149 GC
2 setlinecap
1 LJ
0.5 LW
N
594.714 241.5 M
594.714 233.455 L
S
GR
GS
0.149 GC
2 setlinecap
1 LJ
0.5 LW
N
709.643 241.5 M
709.643 233.455 L
S
GR
GS
0.149 GC
2 setlinecap
1 LJ
0.5 LW
N
824.571 241.5 M
824.571 233.455 L
S
GR
GS
0.149 GC
2 setlinecap
1 LJ
0.5 LW
N
939.5 241.5 M
939.5 233.455 L
S
GR
GS
0.149 GC
2 setlinecap
1 LJ
0.5 LW
N
135 78 M
135 86.045 L
S
GR
GS
0.149 GC
2 setlinecap
1 LJ
0.5 LW
N
249.929 78 M
249.929 86.045 L
S
GR
GS
0.149 GC
2 setlinecap
1 LJ
0.5 LW
N
364.857 78 M
364.857 86.045 L
S
GR
GS
0.149 GC
2 setlinecap
1 LJ
0.5 LW
N
479.786 78 M
479.786 86.045 L
S
GR
GS
0.149 GC
2 setlinecap
1 LJ
0.5 LW
N
594.714 78 M
594.714 86.045 L
S
GR
GS
0.149 GC
2 setlinecap
1 LJ
0.5 LW
N
709.643 78 M
709.643 86.045 L
S
GR
GS
0.149 GC
2 setlinecap
1 LJ
0.5 LW
N
824.571 78 M
824.571 86.045 L
S
GR
GS
0.149 GC
2 setlinecap
1 LJ
0.5 LW
N
939.5 78 M
939.5 86.045 L
S
GR
GS
[1 0 0 1 135 245.5] CT
0.149 GC
/Helvetica 10 F
GS
[1 0 0 1 0 0] CT
-3 8 moveto 
1 -1 scale
(0) t 
GR
GR
GS
[1 0 0 1 249.92857 245.5] CT
0.149 GC
/Helvetica 10 F
GS
[1 0 0 1 0 0] CT
-10 8 moveto 
1 -1 scale
(0.05) t 
GR
GR
GS
[1 0 0 1 364.85715 245.5] CT
0.149 GC
/Helvetica 10 F
GS
[1 0 0 1 0 0] CT
-7 8 moveto 
1 -1 scale
(0.1) t 
GR
GR
GS
[1 0 0 1 479.78574 245.5] CT
0.149 GC
/Helvetica 10 F
GS
[1 0 0 1 0 0] CT
-10 8 moveto 
1 -1 scale
(0.15) t 
GR
GR
GS
[1 0 0 1 594.71429 245.5] CT
0.149 GC
/Helvetica 10 F
GS
[1 0 0 1 0 0] CT
-7 8 moveto 
1 -1 scale
(0.2) t 
GR
GR
GS
[1 0 0 1 709.64288 245.5] CT
0.149 GC
/Helvetica 10 F
GS
[1 0 0 1 0 0] CT
-10 8 moveto 
1 -1 scale
(0.25) t 
GR
GR
GS
[1 0 0 1 824.57147 245.5] CT
0.149 GC
/Helvetica 10 F
GS
[1 0 0 1 0 0] CT
-7 8 moveto 
1 -1 scale
(0.3) t 
GR
GR
GS
[1 0 0 1 939.5 245.5] CT
0.149 GC
/Helvetica 10 F
GS
[1 0 0 1 0 0] CT
-10 8 moveto 
1 -1 scale
(0.35) t 
GR
GR
GS
[1 0 0 1 537.25037 257] CT
0.149 GC
/Helvetica 11 F
GS
[1 0 0 1 0 0] CT
-27 9 moveto 
1 -1 scale
(Length \(m\)) t 
GR
GR
GS
0.149 GC
2 setlinecap
1 LJ
0.5 LW
N
135 241.5 M
135 78 L
S
GR
GS
0.149 GC
2 setlinecap
1 LJ
0.5 LW
N
939.5 241.5 M
939.5 78 L
S
GR
GS
0.149 GC
2 setlinecap
1 LJ
0.5 LW
N
135 241.5 M
143.045 241.5 L
S
GR
GS
0.149 GC
2 setlinecap
1 LJ
0.5 LW
N
135 214.25 M
143.045 214.25 L
S
GR
GS
0.149 GC
2 setlinecap
1 LJ
0.5 LW
N
135 187 M
143.045 187 L
S
GR
GS
0.149 GC
2 setlinecap
1 LJ
0.5 LW
N
135 159.75 M
143.045 159.75 L
S
GR
GS
0.149 GC
2 setlinecap
1 LJ
0.5 LW
N
135 132.5 M
143.045 132.5 L
S
GR
GS
0.149 GC
2 setlinecap
1 LJ
0.5 LW
N
135 105.25 M
143.045 105.25 L
S
GR
GS
0.149 GC
2 setlinecap
1 LJ
0.5 LW
N
135 78 M
143.045 78 L
S
GR
GS
0.149 GC
2 setlinecap
1 LJ
0.5 LW
N
939.5 241.5 M
931.455 241.5 L
S
GR
GS
0.149 GC
2 setlinecap
1 LJ
0.5 LW
N
939.5 214.25 M
931.455 214.25 L
S
GR
GS
0.149 GC
2 setlinecap
1 LJ
0.5 LW
N
939.5 187 M
931.455 187 L
S
GR
GS
0.149 GC
2 setlinecap
1 LJ
0.5 LW
N
939.5 159.75 M
931.455 159.75 L
S
GR
GS
0.149 GC
2 setlinecap
1 LJ
0.5 LW
N
939.5 132.5 M
931.455 132.5 L
S
GR
GS
0.149 GC
2 setlinecap
1 LJ
0.5 LW
N
939.5 105.25 M
931.455 105.25 L
S
GR
GS
0.149 GC
2 setlinecap
1 LJ
0.5 LW
N
939.5 78 M
931.455 78 L
S
GR
GS
[1 0 0 1 131 241.5] CT
0.149 GC
/Helvetica 10 F
GS
[1 0 0 1 0 0] CT
-26 2.5 moveto 
1 -1 scale
(-2000) t 
GR
GR
GS
[1 0 0 1 131 214.25] CT
0.149 GC
/Helvetica 10 F
GS
[1 0 0 1 0 0] CT
-26 2.5 moveto 
1 -1 scale
(-1500) t 
GR
GR
GS
[1 0 0 1 131 187] CT
0.149 GC
/Helvetica 10 F
GS
[1 0 0 1 0 0] CT
-26 2.5 moveto 
1 -1 scale
(-1000) t 
GR
GR
GS
[1 0 0 1 131 159.75] CT
0.149 GC
/Helvetica 10 F
GS
[1 0 0 1 0 0] CT
-21 2.5 moveto 
1 -1 scale
(-500) t 
GR
GR
GS
[1 0 0 1 131 132.5] CT
0.149 GC
/Helvetica 10 F
GS
[1 0 0 1 0 0] CT
-6 2.5 moveto 
1 -1 scale
(0) t 
GR
GR
GS
[1 0 0 1 131 105.25] CT
0.149 GC
/Helvetica 10 F
GS
[1 0 0 1 0 0] CT
-17 2.5 moveto 
1 -1 scale
(500) t 
GR
GR
GS
[1 0 0 1 131 78] CT
0.149 GC
/Helvetica 10 F
GS
[1 0 0 1 0 0] CT
-23 2.5 moveto 
1 -1 scale
(1000) t 
GR
GR
GS
[0 -1 1 0 102 159.74992] CT
0.149 GC
/Helvetica 11 F
GS
[1 0 0 1 0 0] CT
-24 -3 moveto 
1 -1 scale
(Shear \(N\)) t 
GR
GR
GS
[1 0 0 1 537.25049 76.625] CT
/Helvetica-Bold 11 F
GS
[1 0 0 1 0 0] CT
-190.5 -3 moveto 
1 -1 scale
(Horizontal Shear Diagram of Alternating Load: Fcf in Positive Y Direction) t 
GR
GR
GS
0 0.447 0.741 RC
1 LJ
0.5 LW
N
135 132.5 M
137.299 132.5 L
139.597 132.5 L
141.896 132.5 L
144.195 132.5 L
146.493 132.5 L
148.792 132.5 L
151.091 132.5 L
153.389 132.5 L
155.688 132.5 L
157.986 132.5 L
160.285 132.5 L
162.584 132.5 L
164.882 132.5 L
167.181 132.5 L
169.48 132.5 L
171.778 132.5 L
174.077 132.5 L
176.376 132.5 L
178.674 132.5 L
180.973 132.5 L
183.272 132.5 L
185.57 132.5 L
187.869 132.5 L
190.167 132.5 L
192.466 222.149 L
194.765 222.149 L
197.063 222.149 L
199.362 222.149 L
201.661 222.149 L
203.959 222.149 L
206.258 222.149 L
208.557 222.149 L
210.855 222.149 L
213.154 222.149 L
215.453 222.149 L
217.751 222.149 L
220.05 222.149 L
222.348 222.149 L
224.647 222.149 L
226.946 222.149 L
229.244 222.149 L
231.543 222.149 L
233.842 222.149 L
236.14 222.149 L
238.439 222.149 L
240.738 222.149 L
243.036 222.149 L
245.335 222.149 L
247.634 222.149 L
S
GR
GS
0 0.447 0.741 RC
1 LJ
0.5 LW
N
245.335 222.149 M
247.634 222.149 L
249.932 222.149 L
252.231 222.149 L
254.53 222.149 L
256.828 222.149 L
259.127 222.149 L
261.425 222.149 L
263.724 222.149 L
266.023 222.149 L
268.321 222.149 L
270.62 222.149 L
272.919 222.149 L
275.217 222.149 L
277.516 222.149 L
279.815 222.149 L
282.113 222.149 L
284.412 222.149 L
286.711 222.149 L
289.009 222.149 L
291.308 222.149 L
293.606 222.149 L
295.905 222.149 L
298.204 222.149 L
300.502 222.149 L
302.801 222.149 L
305.1 222.149 L
307.398 222.149 L
309.697 222.149 L
311.996 222.149 L
314.294 222.149 L
316.593 222.149 L
318.892 222.149 L
321.19 222.149 L
323.489 222.149 L
325.787 222.149 L
328.086 222.149 L
330.385 222.149 L
332.683 222.149 L
334.982 222.149 L
337.281 222.149 L
339.579 222.149 L
341.878 222.149 L
344.177 222.149 L
346.475 222.149 L
348.774 222.149 L
351.073 222.149 L
353.371 222.149 L
355.67 222.149 L
357.969 222.149 L
360.267 222.149 L
362.566 222.149 L
S
GR
GS
0 0.447 0.741 RC
1 LJ
0.5 LW
N
360.267 222.149 M
362.566 222.149 L
364.864 222.149 L
367.163 222.149 L
369.462 222.149 L
371.76 222.149 L
374.059 222.149 L
376.358 222.149 L
378.656 222.149 L
380.955 222.149 L
383.254 222.149 L
385.552 222.149 L
387.851 222.149 L
390.15 222.149 L
392.448 222.149 L
394.747 222.149 L
397.045 222.149 L
399.344 92.158 L
401.643 92.158 L
403.941 92.158 L
406.24 92.158 L
408.539 92.158 L
410.837 92.158 L
413.136 92.158 L
415.435 92.158 L
417.733 92.158 L
420.032 92.158 L
422.331 92.158 L
424.629 92.158 L
426.928 92.158 L
429.226 92.158 L
431.525 92.158 L
433.824 92.158 L
436.122 92.158 L
438.421 92.158 L
440.72 92.158 L
443.018 92.158 L
445.317 92.158 L
447.616 92.158 L
449.914 92.158 L
452.213 92.158 L
454.512 92.158 L
456.81 92.158 L
459.109 92.158 L
461.408 92.158 L
463.706 92.158 L
466.005 92.158 L
468.303 92.158 L
470.602 92.158 L
472.901 92.158 L
475.199 92.158 L
477.498 92.158 L
S
GR
GS
0 0.447 0.741 RC
1 LJ
0.5 LW
N
475.199 92.158 M
477.498 92.158 L
479.797 92.158 L
482.095 92.158 L
484.394 92.158 L
486.693 92.158 L
488.991 92.158 L
491.29 92.158 L
493.589 92.158 L
495.887 92.158 L
498.186 92.158 L
500.484 92.158 L
502.783 92.158 L
505.082 92.158 L
507.38 92.158 L
509.679 92.158 L
511.978 92.158 L
514.276 92.158 L
516.575 92.158 L
518.874 92.158 L
521.172 92.158 L
523.471 92.158 L
525.77 92.158 L
528.068 92.158 L
530.367 92.158 L
532.665 92.158 L
534.964 92.158 L
537.263 92.158 L
539.561 92.158 L
541.86 92.158 L
544.159 92.158 L
546.457 92.158 L
548.756 92.158 L
551.055 92.158 L
553.353 92.158 L
555.652 92.158 L
557.951 92.158 L
560.249 92.158 L
562.548 92.158 L
564.846 92.158 L
567.145 92.158 L
569.444 92.158 L
571.742 92.158 L
574.041 92.158 L
576.34 92.158 L
578.638 92.158 L
580.937 92.158 L
583.236 92.158 L
585.534 92.158 L
587.833 92.158 L
590.132 92.158 L
592.43 92.158 L
S
GR
GS
0 0.447 0.741 RC
1 LJ
0.5 LW
N
590.132 92.158 M
592.43 92.158 L
594.729 92.158 L
597.028 92.158 L
599.326 92.158 L
601.625 92.158 L
603.923 92.158 L
606.222 92.158 L
608.521 92.158 L
610.819 92.158 L
613.118 92.158 L
615.417 92.158 L
617.715 92.158 L
620.014 92.158 L
622.313 92.158 L
624.611 92.158 L
626.91 92.158 L
629.209 92.158 L
631.507 92.158 L
633.806 92.158 L
636.104 92.158 L
638.403 92.158 L
640.702 92.158 L
643 92.158 L
645.299 92.158 L
647.598 92.158 L
649.896 92.158 L
652.195 92.158 L
654.494 92.158 L
656.792 92.158 L
659.091 92.158 L
661.39 92.158 L
663.688 92.158 L
665.987 92.158 L
668.286 92.158 L
670.584 92.158 L
672.883 92.158 L
675.181 92.158 L
677.48 92.158 L
679.779 92.158 L
682.077 92.158 L
684.376 92.158 L
686.675 92.158 L
688.973 92.158 L
691.272 92.158 L
693.571 92.158 L
695.869 92.158 L
698.168 92.158 L
700.467 92.158 L
702.765 92.158 L
705.064 92.158 L
707.362 92.158 L
S
GR
GS
0 0.447 0.741 RC
1 LJ
0.5 LW
N
705.064 92.158 M
707.362 92.158 L
709.661 92.158 L
711.96 92.158 L
714.258 92.158 L
716.557 92.158 L
718.856 92.158 L
721.154 92.158 L
723.453 92.158 L
725.752 92.158 L
728.05 92.158 L
730.349 92.158 L
732.648 92.158 L
734.946 92.158 L
737.245 92.158 L
739.544 92.158 L
741.842 92.158 L
744.141 92.158 L
746.439 92.158 L
748.738 92.158 L
751.037 92.158 L
753.335 92.158 L
755.634 92.158 L
757.933 92.158 L
760.231 92.158 L
762.53 92.158 L
764.829 92.158 L
767.127 92.158 L
769.426 92.158 L
771.724 92.158 L
774.023 92.158 L
776.322 92.158 L
778.62 92.158 L
780.919 92.158 L
783.218 92.158 L
785.516 92.158 L
787.815 92.158 L
790.114 92.158 L
792.412 92.158 L
794.711 92.158 L
797.01 92.158 L
799.308 92.158 L
801.607 92.158 L
803.906 92.158 L
806.204 92.158 L
808.503 92.158 L
810.801 92.158 L
813.1 92.158 L
815.399 92.158 L
817.697 92.158 L
819.996 92.158 L
822.295 92.158 L
S
GR
GS
0 0.447 0.741 RC
1 LJ
0.5 LW
N
819.996 92.158 M
822.295 92.158 L
824.593 92.158 L
826.892 92.158 L
829.191 92.158 L
831.489 92.158 L
833.788 92.158 L
836.087 92.158 L
838.385 92.158 L
840.684 92.158 L
842.982 92.158 L
845.281 92.158 L
847.58 92.158 L
849.878 92.158 L
852.177 92.158 L
854.476 92.158 L
856.774 92.158 L
859.073 132.5 L
S
GR
GS
1 GC
N
135 468.5 M
939.5 468.5 L
939.5 305 L
135 305 L
cp
f
GR
GS
0.873 GC
1 LJ
0.5 LW
N
135 468.5 M
135 305 L
S
GR
GS
0.873 GC
1 LJ
0.5 LW
N
249.929 468.5 M
249.929 305 L
S
GR
GS
0.873 GC
1 LJ
0.5 LW
N
364.857 468.5 M
364.857 305 L
S
GR
GS
0.873 GC
1 LJ
0.5 LW
N
479.786 468.5 M
479.786 305 L
S
GR
GS
0.873 GC
1 LJ
0.5 LW
N
594.714 468.5 M
594.714 305 L
S
GR
GS
0.873 GC
1 LJ
0.5 LW
N
709.643 468.5 M
709.643 305 L
S
GR
GS
0.873 GC
1 LJ
0.5 LW
N
824.571 468.5 M
824.571 305 L
S
GR
GS
0.873 GC
1 LJ
0.5 LW
N
939.5 468.5 M
939.5 305 L
S
GR
GS
0.873 GC
1 LJ
0.5 LW
N
939.5 468.5 M
135 468.5 L
S
GR
GS
0.873 GC
1 LJ
0.5 LW
N
939.5 427.625 M
135 427.625 L
S
GR
GS
0.873 GC
1 LJ
0.5 LW
N
939.5 386.75 M
135 386.75 L
S
GR
GS
0.873 GC
1 LJ
0.5 LW
N
939.5 345.875 M
135 345.875 L
S
GR
GS
0.873 GC
1 LJ
0.5 LW
N
939.5 305 M
135 305 L
S
GR
GS
0.149 GC
2 setlinecap
1 LJ
0.5 LW
N
135 468.5 M
939.5 468.5 L
S
GR
GS
0.149 GC
2 setlinecap
1 LJ
0.5 LW
N
135 305 M
939.5 305 L
S
GR
GS
0.149 GC
2 setlinecap
1 LJ
0.5 LW
N
135 468.5 M
135 460.455 L
S
GR
GS
0.149 GC
2 setlinecap
1 LJ
0.5 LW
N
249.929 468.5 M
249.929 460.455 L
S
GR
GS
0.149 GC
2 setlinecap
1 LJ
0.5 LW
N
364.857 468.5 M
364.857 460.455 L
S
GR
GS
0.149 GC
2 setlinecap
1 LJ
0.5 LW
N
479.786 468.5 M
479.786 460.455 L
S
GR
GS
0.149 GC
2 setlinecap
1 LJ
0.5 LW
N
594.714 468.5 M
594.714 460.455 L
S
GR
GS
0.149 GC
2 setlinecap
1 LJ
0.5 LW
N
709.643 468.5 M
709.643 460.455 L
S
GR
GS
0.149 GC
2 setlinecap
1 LJ
0.5 LW
N
824.571 468.5 M
824.571 460.455 L
S
GR
GS
0.149 GC
2 setlinecap
1 LJ
0.5 LW
N
939.5 468.5 M
939.5 460.455 L
S
GR
GS
0.149 GC
2 setlinecap
1 LJ
0.5 LW
N
135 305 M
135 313.045 L
S
GR
GS
0.149 GC
2 setlinecap
1 LJ
0.5 LW
N
249.929 305 M
249.929 313.045 L
S
GR
GS
0.149 GC
2 setlinecap
1 LJ
0.5 LW
N
364.857 305 M
364.857 313.045 L
S
GR
GS
0.149 GC
2 setlinecap
1 LJ
0.5 LW
N
479.786 305 M
479.786 313.045 L
S
GR
GS
0.149 GC
2 setlinecap
1 LJ
0.5 LW
N
594.714 305 M
594.714 313.045 L
S
GR
GS
0.149 GC
2 setlinecap
1 LJ
0.5 LW
N
709.643 305 M
709.643 313.045 L
S
GR
GS
0.149 GC
2 setlinecap
1 LJ
0.5 LW
N
824.571 305 M
824.571 313.045 L
S
GR
GS
0.149 GC
2 setlinecap
1 LJ
0.5 LW
N
939.5 305 M
939.5 313.045 L
S
GR
GS
[1 0 0 1 135 472.5] CT
0.149 GC
/Helvetica 10 F
GS
[1 0 0 1 0 0] CT
-3 8 moveto 
1 -1 scale
(0) t 
GR
GR
GS
[1 0 0 1 249.92857 472.5] CT
0.149 GC
/Helvetica 10 F
GS
[1 0 0 1 0 0] CT
-10 8 moveto 
1 -1 scale
(0.05) t 
GR
GR
GS
[1 0 0 1 364.85715 472.5] CT
0.149 GC
/Helvetica 10 F
GS
[1 0 0 1 0 0] CT
-7 8 moveto 
1 -1 scale
(0.1) t 
GR
GR
GS
[1 0 0 1 479.78574 472.5] CT
0.149 GC
/Helvetica 10 F
GS
[1 0 0 1 0 0] CT
-10 8 moveto 
1 -1 scale
(0.15) t 
GR
GR
GS
[1 0 0 1 594.71429 472.5] CT
0.149 GC
/Helvetica 10 F
GS
[1 0 0 1 0 0] CT
-7 8 moveto 
1 -1 scale
(0.2) t 
GR
GR
GS
[1 0 0 1 709.64288 472.5] CT
0.149 GC
/Helvetica 10 F
GS
[1 0 0 1 0 0] CT
-10 8 moveto 
1 -1 scale
(0.25) t 
GR
GR
GS
[1 0 0 1 824.57147 472.5] CT
0.149 GC
/Helvetica 10 F
GS
[1 0 0 1 0 0] CT
-7 8 moveto 
1 -1 scale
(0.3) t 
GR
GR
GS
[1 0 0 1 939.5 472.5] CT
0.149 GC
/Helvetica 10 F
GS
[1 0 0 1 0 0] CT
-10 8 moveto 
1 -1 scale
(0.35) t 
GR
GR
GS
[1 0 0 1 537.25037 484] CT
0.149 GC
/Helvetica 11 F
GS
[1 0 0 1 0 0] CT
-27 9 moveto 
1 -1 scale
(Length \(m\)) t 
GR
GR
GS
0.149 GC
2 setlinecap
1 LJ
0.5 LW
N
135 468.5 M
135 305 L
S
GR
GS
0.149 GC
2 setlinecap
1 LJ
0.5 LW
N
939.5 468.5 M
939.5 305 L
S
GR
GS
0.149 GC
2 setlinecap
1 LJ
0.5 LW
N
135 468.5 M
143.045 468.5 L
S
GR
GS
0.149 GC
2 setlinecap
1 LJ
0.5 LW
N
135 427.625 M
143.045 427.625 L
S
GR
GS
0.149 GC
2 setlinecap
1 LJ
0.5 LW
N
135 386.75 M
143.045 386.75 L
S
GR
GS
0.149 GC
2 setlinecap
1 LJ
0.5 LW
N
135 345.875 M
143.045 345.875 L
S
GR
GS
0.149 GC
2 setlinecap
1 LJ
0.5 LW
N
135 305 M
143.045 305 L
S
GR
GS
0.149 GC
2 setlinecap
1 LJ
0.5 LW
N
939.5 468.5 M
931.455 468.5 L
S
GR
GS
0.149 GC
2 setlinecap
1 LJ
0.5 LW
N
939.5 427.625 M
931.455 427.625 L
S
GR
GS
0.149 GC
2 setlinecap
1 LJ
0.5 LW
N
939.5 386.75 M
931.455 386.75 L
S
GR
GS
0.149 GC
2 setlinecap
1 LJ
0.5 LW
N
939.5 345.875 M
931.455 345.875 L
S
GR
GS
0.149 GC
2 setlinecap
1 LJ
0.5 LW
N
939.5 305 M
931.455 305 L
S
GR
GS
[1 0 0 1 131 468.5] CT
0.149 GC
/Helvetica 10 F
GS
[1 0 0 1 0 0] CT
-21 2.5 moveto 
1 -1 scale
(-150) t 
GR
GR
GS
[1 0 0 1 131 427.625] CT
0.149 GC
/Helvetica 10 F
GS
[1 0 0 1 0 0] CT
-21 2.5 moveto 
1 -1 scale
(-100) t 
GR
GR
GS
[1 0 0 1 131 386.75] CT
0.149 GC
/Helvetica 10 F
GS
[1 0 0 1 0 0] CT
-15 2.5 moveto 
1 -1 scale
(-50) t 
GR
GR
GS
[1 0 0 1 131 345.875] CT
0.149 GC
/Helvetica 10 F
GS
[1 0 0 1 0 0] CT
-6 2.5 moveto 
1 -1 scale
(0) t 
GR
GR
GS
[1 0 0 1 131 305] CT
0.149 GC
/Helvetica 10 F
GS
[1 0 0 1 0 0] CT
-12 2.5 moveto 
1 -1 scale
(50) t 
GR
GR
GS
[0 -1 1 0 107.5 386.74991] CT
0.149 GC
/Helvetica 11 F
GS
[1 0 0 1 0 0] CT
-34 -3 moveto 
1 -1 scale
(Moment \(Nm\)) t 
GR
GR
GS
[1 0 0 1 537.25049 303.625] CT
/Helvetica-Bold 11 F
GS
[1 0 0 1 0 0] CT
-196.5 -3 moveto 
1 -1 scale
(Horizontal Moment Diagram of Alternating Load: Fcf in Positive Y Direction) t 
GR
GR
GS
0 0.447 0.741 RC
1 LJ
0.5 LW
N
135 345.875 M
137.299 345.875 L
139.597 345.875 L
141.896 345.875 L
144.195 345.875 L
146.493 345.875 L
148.792 345.875 L
151.091 345.875 L
153.389 345.875 L
155.688 345.875 L
157.986 345.875 L
160.285 345.875 L
162.584 345.875 L
164.882 345.875 L
167.181 345.875 L
169.48 345.875 L
171.778 345.875 L
174.077 345.875 L
176.376 345.875 L
178.674 345.875 L
180.973 345.875 L
183.272 345.875 L
185.57 345.875 L
187.869 345.875 L
190.167 345.875 L
192.466 345.876 L
194.765 347.221 L
197.063 348.566 L
199.362 349.91 L
201.661 351.255 L
203.959 352.6 L
206.258 353.945 L
208.557 355.289 L
210.855 356.634 L
213.154 357.979 L
215.453 359.324 L
217.751 360.669 L
220.05 362.013 L
222.348 363.358 L
224.647 364.703 L
226.946 366.048 L
229.244 367.392 L
231.543 368.737 L
233.842 370.082 L
236.14 371.427 L
238.439 372.772 L
240.738 374.116 L
243.036 375.461 L
245.335 376.806 L
247.634 378.151 L
S
GR
GS
0 0.447 0.741 RC
1 LJ
0.5 LW
N
245.335 376.806 M
247.634 378.151 L
249.932 379.495 L
252.231 380.84 L
254.53 382.185 L
256.828 383.53 L
259.127 384.875 L
261.425 386.219 L
263.724 387.564 L
266.023 388.909 L
268.321 390.254 L
270.62 391.598 L
272.919 392.943 L
275.217 394.288 L
277.516 395.633 L
279.815 396.978 L
282.113 398.322 L
284.412 399.667 L
286.711 401.012 L
289.009 402.357 L
291.308 403.701 L
293.606 405.046 L
295.905 406.391 L
298.204 407.736 L
300.502 409.081 L
302.801 410.425 L
305.1 411.77 L
307.398 413.115 L
309.697 414.46 L
311.996 415.804 L
314.294 417.149 L
316.593 418.494 L
318.892 419.839 L
321.19 421.184 L
323.489 422.528 L
325.787 423.873 L
328.086 425.218 L
330.385 426.563 L
332.683 427.907 L
334.982 429.252 L
337.281 430.597 L
339.579 431.942 L
341.878 433.287 L
344.177 434.631 L
346.475 435.976 L
348.774 437.321 L
351.073 438.666 L
353.371 440.01 L
355.67 441.355 L
357.969 442.7 L
360.267 444.045 L
362.566 445.39 L
S
GR
GS
0 0.447 0.741 RC
1 LJ
0.5 LW
N
360.267 444.045 M
362.566 445.39 L
364.864 446.734 L
367.163 448.079 L
369.462 449.424 L
371.76 450.769 L
374.059 452.113 L
376.358 453.458 L
378.656 454.803 L
380.955 456.148 L
383.254 457.492 L
385.552 458.837 L
387.851 460.182 L
390.15 461.527 L
392.448 462.872 L
394.747 464.216 L
397.045 465.561 L
399.344 466.899 L
401.643 466.294 L
403.941 465.689 L
406.24 465.083 L
408.539 464.478 L
410.837 463.873 L
413.136 463.268 L
415.435 462.663 L
417.733 462.058 L
420.032 461.452 L
422.331 460.847 L
424.629 460.242 L
426.928 459.637 L
429.226 459.032 L
431.525 458.427 L
433.824 457.822 L
436.122 457.216 L
438.421 456.611 L
440.72 456.006 L
443.018 455.401 L
445.317 454.796 L
447.616 454.191 L
449.914 453.586 L
452.213 452.98 L
454.512 452.375 L
456.81 451.77 L
459.109 451.165 L
461.408 450.56 L
463.706 449.955 L
466.005 449.349 L
468.303 448.744 L
470.602 448.139 L
472.901 447.534 L
475.199 446.929 L
477.498 446.324 L
S
GR
GS
0 0.447 0.741 RC
1 LJ
0.5 LW
N
475.199 446.929 M
477.498 446.324 L
479.797 445.719 L
482.095 445.113 L
484.394 444.508 L
486.693 443.903 L
488.991 443.298 L
491.29 442.693 L
493.589 442.088 L
495.887 441.483 L
498.186 440.877 L
500.484 440.272 L
502.783 439.667 L
505.082 439.062 L
507.38 438.457 L
509.679 437.852 L
511.978 437.246 L
514.276 436.641 L
516.575 436.036 L
518.874 435.431 L
521.172 434.826 L
523.471 434.221 L
525.77 433.616 L
528.068 433.01 L
530.367 432.405 L
532.665 431.8 L
534.964 431.195 L
537.263 430.59 L
539.561 429.985 L
541.86 429.38 L
544.159 428.774 L
546.457 428.169 L
548.756 427.564 L
551.055 426.959 L
553.353 426.354 L
555.652 425.749 L
557.951 425.144 L
560.249 424.538 L
562.548 423.933 L
564.846 423.328 L
567.145 422.723 L
569.444 422.118 L
571.742 421.513 L
574.041 420.907 L
576.34 420.302 L
578.638 419.697 L
580.937 419.092 L
583.236 418.487 L
585.534 417.882 L
587.833 417.277 L
590.132 416.671 L
592.43 416.066 L
S
GR
GS
0 0.447 0.741 RC
1 LJ
0.5 LW
N
590.132 416.671 M
592.43 416.066 L
594.729 415.461 L
597.028 414.856 L
599.326 414.251 L
601.625 413.646 L
603.923 413.041 L
606.222 412.435 L
608.521 411.83 L
610.819 411.225 L
613.118 410.62 L
615.417 410.015 L
617.715 409.41 L
620.014 408.804 L
622.313 408.199 L
624.611 407.594 L
626.91 406.989 L
629.209 406.384 L
631.507 405.779 L
633.806 405.174 L
636.104 404.568 L
638.403 403.963 L
640.702 403.358 L
643 402.753 L
645.299 402.148 L
647.598 401.543 L
649.896 400.938 L
652.195 400.332 L
654.494 399.727 L
656.792 399.122 L
659.091 398.517 L
661.39 397.912 L
663.688 397.307 L
665.987 396.702 L
668.286 396.096 L
670.584 395.491 L
672.883 394.886 L
675.181 394.281 L
677.48 393.676 L
679.779 393.071 L
682.077 392.465 L
684.376 391.86 L
686.675 391.255 L
688.973 390.65 L
691.272 390.045 L
693.571 389.44 L
695.869 388.835 L
698.168 388.229 L
700.467 387.624 L
702.765 387.019 L
705.064 386.414 L
707.362 385.809 L
S
GR
GS
0 0.447 0.741 RC
1 LJ
0.5 LW
N
705.064 386.414 M
707.362 385.809 L
709.661 385.204 L
711.96 384.599 L
714.258 383.993 L
716.557 383.388 L
718.856 382.783 L
721.154 382.178 L
723.453 381.573 L
725.752 380.968 L
728.05 380.362 L
730.349 379.757 L
732.648 379.152 L
734.946 378.547 L
737.245 377.942 L
739.544 377.337 L
741.842 376.732 L
744.141 376.126 L
746.439 375.521 L
748.738 374.916 L
751.037 374.311 L
753.335 373.706 L
755.634 373.101 L
757.933 372.496 L
760.231 371.89 L
762.53 371.285 L
764.829 370.68 L
767.127 370.075 L
769.426 369.47 L
771.724 368.865 L
774.023 368.259 L
776.322 367.654 L
778.62 367.049 L
780.919 366.444 L
783.218 365.839 L
785.516 365.234 L
787.815 364.629 L
790.114 364.023 L
792.412 363.418 L
794.711 362.813 L
797.01 362.208 L
799.308 361.603 L
801.607 360.998 L
803.906 360.393 L
806.204 359.787 L
808.503 359.182 L
810.801 358.577 L
813.1 357.972 L
815.399 357.367 L
817.697 356.762 L
819.996 356.156 L
822.295 355.551 L
S
GR
GS
0 0.447 0.741 RC
1 LJ
0.5 LW
N
819.996 356.156 M
822.295 355.551 L
824.593 354.946 L
826.892 354.341 L
829.191 353.736 L
831.489 353.131 L
833.788 352.526 L
836.087 351.92 L
838.385 351.315 L
840.684 350.71 L
842.982 350.105 L
845.281 349.5 L
847.58 348.895 L
849.878 348.29 L
852.177 347.684 L
854.476 347.079 L
856.774 346.474 L
859.073 345.875 L
S
GR
GS
1 GC
N
135 695.5 M
939.5 695.5 L
939.5 532 L
135 532 L
cp
f
GR
GS
0.873 GC
1 LJ
0.5 LW
N
135 695.5 M
135 532 L
S
GR
GS
0.873 GC
1 LJ
0.5 LW
N
249.929 695.5 M
249.929 532 L
S
GR
GS
0.873 GC
1 LJ
0.5 LW
N
364.857 695.5 M
364.857 532 L
S
GR
GS
0.873 GC
1 LJ
0.5 LW
N
479.786 695.5 M
479.786 532 L
S
GR
GS
0.873 GC
1 LJ
0.5 LW
N
594.714 695.5 M
594.714 532 L
S
GR
GS
0.873 GC
1 LJ
0.5 LW
N
709.643 695.5 M
709.643 532 L
S
GR
GS
0.873 GC
1 LJ
0.5 LW
N
824.571 695.5 M
824.571 532 L
S
GR
GS
0.873 GC
1 LJ
0.5 LW
N
939.5 695.5 M
939.5 532 L
S
GR
GS
0.873 GC
1 LJ
0.5 LW
N
939.5 695.5 M
135 695.5 L
S
GR
GS
0.873 GC
1 LJ
0.5 LW
N
939.5 662.8 M
135 662.8 L
S
GR
GS
0.873 GC
1 LJ
0.5 LW
N
939.5 630.1 M
135 630.1 L
S
GR
GS
0.873 GC
1 LJ
0.5 LW
N
939.5 597.4 M
135 597.4 L
S
GR
GS
0.873 GC
1 LJ
0.5 LW
N
939.5 564.7 M
135 564.7 L
S
GR
GS
0.873 GC
1 LJ
0.5 LW
N
939.5 532 M
135 532 L
S
GR
GS
0.149 GC
2 setlinecap
1 LJ
0.5 LW
N
135 695.5 M
939.5 695.5 L
S
GR
GS
0.149 GC
2 setlinecap
1 LJ
0.5 LW
N
135 532 M
939.5 532 L
S
GR
GS
0.149 GC
2 setlinecap
1 LJ
0.5 LW
N
135 695.5 M
135 687.455 L
S
GR
GS
0.149 GC
2 setlinecap
1 LJ
0.5 LW
N
249.929 695.5 M
249.929 687.455 L
S
GR
GS
0.149 GC
2 setlinecap
1 LJ
0.5 LW
N
364.857 695.5 M
364.857 687.455 L
S
GR
GS
0.149 GC
2 setlinecap
1 LJ
0.5 LW
N
479.786 695.5 M
479.786 687.455 L
S
GR
GS
0.149 GC
2 setlinecap
1 LJ
0.5 LW
N
594.714 695.5 M
594.714 687.455 L
S
GR
GS
0.149 GC
2 setlinecap
1 LJ
0.5 LW
N
709.643 695.5 M
709.643 687.455 L
S
GR
GS
0.149 GC
2 setlinecap
1 LJ
0.5 LW
N
824.571 695.5 M
824.571 687.455 L
S
GR
GS
0.149 GC
2 setlinecap
1 LJ
0.5 LW
N
939.5 695.5 M
939.5 687.455 L
S
GR
GS
0.149 GC
2 setlinecap
1 LJ
0.5 LW
N
135 532 M
135 540.045 L
S
GR
GS
0.149 GC
2 setlinecap
1 LJ
0.5 LW
N
249.929 532 M
249.929 540.045 L
S
GR
GS
0.149 GC
2 setlinecap
1 LJ
0.5 LW
N
364.857 532 M
364.857 540.045 L
S
GR
GS
0.149 GC
2 setlinecap
1 LJ
0.5 LW
N
479.786 532 M
479.786 540.045 L
S
GR
GS
0.149 GC
2 setlinecap
1 LJ
0.5 LW
N
594.714 532 M
594.714 540.045 L
S
GR
GS
0.149 GC
2 setlinecap
1 LJ
0.5 LW
N
709.643 532 M
709.643 540.045 L
S
GR
GS
0.149 GC
2 setlinecap
1 LJ
0.5 LW
N
824.571 532 M
824.571 540.045 L
S
GR
GS
0.149 GC
2 setlinecap
1 LJ
0.5 LW
N
939.5 532 M
939.5 540.045 L
S
GR
GS
[1 0 0 1 135 699.5] CT
0.149 GC
/Helvetica 10 F
GS
[1 0 0 1 0 0] CT
-3 8 moveto 
1 -1 scale
(0) t 
GR
GR
GS
[1 0 0 1 249.92857 699.5] CT
0.149 GC
/Helvetica 10 F
GS
[1 0 0 1 0 0] CT
-10 8 moveto 
1 -1 scale
(0.05) t 
GR
GR
GS
[1 0 0 1 364.85715 699.5] CT
0.149 GC
/Helvetica 10 F
GS
[1 0 0 1 0 0] CT
-7 8 moveto 
1 -1 scale
(0.1) t 
GR
GR
GS
[1 0 0 1 479.78574 699.5] CT
0.149 GC
/Helvetica 10 F
GS
[1 0 0 1 0 0] CT
-10 8 moveto 
1 -1 scale
(0.15) t 
GR
GR
GS
[1 0 0 1 594.71429 699.5] CT
0.149 GC
/Helvetica 10 F
GS
[1 0 0 1 0 0] CT
-7 8 moveto 
1 -1 scale
(0.2) t 
GR
GR
GS
[1 0 0 1 709.64288 699.5] CT
0.149 GC
/Helvetica 10 F
GS
[1 0 0 1 0 0] CT
-10 8 moveto 
1 -1 scale
(0.25) t 
GR
GR
GS
[1 0 0 1 824.57147 699.5] CT
0.149 GC
/Helvetica 10 F
GS
[1 0 0 1 0 0] CT
-7 8 moveto 
1 -1 scale
(0.3) t 
GR
GR
GS
[1 0 0 1 939.5 699.5] CT
0.149 GC
/Helvetica 10 F
GS
[1 0 0 1 0 0] CT
-10 8 moveto 
1 -1 scale
(0.35) t 
GR
GR
GS
[1 0 0 1 537.25037 711] CT
0.149 GC
/Helvetica 11 F
GS
[1 0 0 1 0 0] CT
-27 9 moveto 
1 -1 scale
(Length \(m\)) t 
GR
GR
GS
0.149 GC
2 setlinecap
1 LJ
0.5 LW
N
135 695.5 M
135 532 L
S
GR
GS
0.149 GC
2 setlinecap
1 LJ
0.5 LW
N
939.5 695.5 M
939.5 532 L
S
GR
GS
0.149 GC
2 setlinecap
1 LJ
0.5 LW
N
135 695.5 M
143.045 695.5 L
S
GR
GS
0.149 GC
2 setlinecap
1 LJ
0.5 LW
N
135 662.8 M
143.045 662.8 L
S
GR
GS
0.149 GC
2 setlinecap
1 LJ
0.5 LW
N
135 630.1 M
143.045 630.1 L
S
GR
GS
0.149 GC
2 setlinecap
1 LJ
0.5 LW
N
135 597.4 M
143.045 597.4 L
S
GR
GS
0.149 GC
2 setlinecap
1 LJ
0.5 LW
N
135 564.7 M
143.045 564.7 L
S
GR
GS
0.149 GC
2 setlinecap
1 LJ
0.5 LW
N
135 532 M
143.045 532 L
S
GR
GS
0.149 GC
2 setlinecap
1 LJ
0.5 LW
N
939.5 695.5 M
931.455 695.5 L
S
GR
GS
0.149 GC
2 setlinecap
1 LJ
0.5 LW
N
939.5 662.8 M
931.455 662.8 L
S
GR
GS
0.149 GC
2 setlinecap
1 LJ
0.5 LW
N
939.5 630.1 M
931.455 630.1 L
S
GR
GS
0.149 GC
2 setlinecap
1 LJ
0.5 LW
N
939.5 597.4 M
931.455 597.4 L
S
GR
GS
0.149 GC
2 setlinecap
1 LJ
0.5 LW
N
939.5 564.7 M
931.455 564.7 L
S
GR
GS
0.149 GC
2 setlinecap
1 LJ
0.5 LW
N
939.5 532 M
931.455 532 L
S
GR
GS
[1 0 0 1 131 695.5] CT
0.149 GC
/Helvetica 10 F
GS
[1 0 0 1 0 0] CT
-15 2.5 moveto 
1 -1 scale
(-25) t 
GR
GR
GS
[1 0 0 1 131 662.79999] CT
0.149 GC
/Helvetica 10 F
GS
[1 0 0 1 0 0] CT
-15 2.5 moveto 
1 -1 scale
(-20) t 
GR
GR
GS
[1 0 0 1 131 630.09998] CT
0.149 GC
/Helvetica 10 F
GS
[1 0 0 1 0 0] CT
-15 2.5 moveto 
1 -1 scale
(-15) t 
GR
GR
GS
[1 0 0 1 131 597.40002] CT
0.149 GC
/Helvetica 10 F
GS
[1 0 0 1 0 0] CT
-15 2.5 moveto 
1 -1 scale
(-10) t 
GR
GR
GS
[1 0 0 1 131 564.70001] CT
0.149 GC
/Helvetica 10 F
GS
[1 0 0 1 0 0] CT
-9 2.5 moveto 
1 -1 scale
(-5) t 
GR
GR
GS
[1 0 0 1 131 532] CT
0.149 GC
/Helvetica 10 F
GS
[1 0 0 1 0 0] CT
-6 2.5 moveto 
1 -1 scale
(0) t 
GR
GR
GS
[0 -1 1 0 113.5 613.74994] CT
0.149 GC
/Helvetica 11 F
GS
[1 0 0 1 0 0] CT
-21.5 -3 moveto 
1 -1 scale
(EI*Angle) t 
GR
GR
GS
[1 0 0 1 537.25049 530.625] CT
/Helvetica-Bold 11 F
GS
[1 0 0 1 0 0] CT
-190.5 -3 moveto 
1 -1 scale
(Horizontal Angular Deflection \(EI*Theta\) Load: Fcf in Positive Y Direction) t 
GR
GR
GS
0 0.447 0.741 RC
1 LJ
0.5 LW
N
135 532 M
137.299 532 L
139.597 532 L
141.896 532 L
144.195 532 L
146.493 532 L
148.792 532 L
151.091 532 L
153.389 532 L
155.688 532 L
157.986 532 L
160.285 532 L
162.584 532 L
164.882 532 L
167.181 532 L
169.48 532 L
171.778 532 L
174.077 532 L
176.376 532 L
178.674 532 L
180.973 532 L
183.272 532 L
185.57 532 L
187.869 532 L
190.167 532 L
192.466 532 L
194.765 532.005 L
197.063 532.022 L
199.362 532.048 L
201.661 532.086 L
203.959 532.135 L
206.258 532.194 L
208.557 532.264 L
210.855 532.344 L
213.154 532.436 L
215.453 532.538 L
217.751 532.651 L
220.05 532.775 L
222.348 532.909 L
224.647 533.054 L
226.946 533.21 L
229.244 533.377 L
231.543 533.555 L
233.842 533.743 L
236.14 533.942 L
238.439 534.152 L
240.738 534.372 L
243.036 534.604 L
245.335 534.846 L
247.634 535.099 L
S
GR
GS
0 0.447 0.741 RC
1 LJ
0.5 LW
N
245.335 534.846 M
247.634 535.099 L
249.932 535.362 L
252.231 535.637 L
254.53 535.922 L
256.828 536.218 L
259.127 536.524 L
261.425 536.842 L
263.724 537.17 L
266.023 537.509 L
268.321 537.858 L
270.62 538.219 L
272.919 538.59 L
275.217 538.972 L
277.516 539.365 L
279.815 539.768 L
282.113 540.182 L
284.412 540.607 L
286.711 541.043 L
289.009 541.489 L
291.308 541.947 L
293.606 542.415 L
295.905 542.893 L
298.204 543.383 L
300.502 543.883 L
302.801 544.394 L
305.1 544.916 L
307.398 545.449 L
309.697 545.992 L
311.996 546.546 L
314.294 547.111 L
316.593 547.686 L
318.892 548.273 L
321.19 548.87 L
323.489 549.478 L
325.787 550.096 L
328.086 550.726 L
330.385 551.366 L
332.683 552.017 L
334.982 552.678 L
337.281 553.351 L
339.579 554.034 L
341.878 554.728 L
344.177 555.433 L
346.475 556.148 L
348.774 556.874 L
351.073 557.611 L
353.371 558.359 L
355.67 559.118 L
357.969 559.887 L
360.267 560.667 L
362.566 561.458 L
S
GR
GS
0 0.447 0.741 RC
1 LJ
0.5 LW
N
360.267 560.667 M
362.566 561.458 L
364.864 562.259 L
367.163 563.071 L
369.462 563.894 L
371.76 564.728 L
374.059 565.573 L
376.358 566.428 L
378.656 567.294 L
380.955 568.171 L
383.254 569.059 L
385.552 569.957 L
387.851 570.866 L
390.15 571.786 L
392.448 572.716 L
394.747 573.658 L
397.045 574.61 L
399.344 575.573 L
401.643 576.539 L
403.941 577.5 L
406.24 578.456 L
408.539 579.407 L
410.837 580.354 L
413.136 581.295 L
415.435 582.232 L
417.733 583.164 L
420.032 584.091 L
422.331 585.013 L
424.629 585.93 L
426.928 586.843 L
429.226 587.751 L
431.525 588.654 L
433.824 589.552 L
436.122 590.445 L
438.421 591.333 L
440.72 592.217 L
443.018 593.095 L
445.317 593.969 L
447.616 594.838 L
449.914 595.702 L
452.213 596.561 L
454.512 597.416 L
456.81 598.266 L
459.109 599.11 L
461.408 599.95 L
463.706 600.785 L
466.005 601.616 L
468.303 602.441 L
470.602 603.261 L
472.901 604.077 L
475.199 604.888 L
477.498 605.694 L
S
GR
GS
0 0.447 0.741 RC
1 LJ
0.5 LW
N
475.199 604.888 M
477.498 605.694 L
479.797 606.495 L
482.095 607.292 L
484.394 608.083 L
486.693 608.87 L
488.991 609.652 L
491.29 610.429 L
493.589 611.201 L
495.887 611.968 L
498.186 612.731 L
500.484 613.488 L
502.783 614.241 L
505.082 614.989 L
507.38 615.732 L
509.679 616.47 L
511.978 617.204 L
514.276 617.932 L
516.575 618.656 L
518.874 619.375 L
521.172 620.089 L
523.471 620.798 L
525.77 621.503 L
528.068 622.202 L
530.367 622.897 L
532.665 623.587 L
534.964 624.272 L
537.263 624.952 L
539.561 625.627 L
541.86 626.298 L
544.159 626.963 L
546.457 627.624 L
548.756 628.28 L
551.055 628.931 L
553.353 629.577 L
555.652 630.219 L
557.951 630.855 L
560.249 631.487 L
562.548 632.114 L
564.846 632.736 L
567.145 633.353 L
569.444 633.966 L
571.742 634.573 L
574.041 635.176 L
576.34 635.774 L
578.638 636.367 L
580.937 636.955 L
583.236 637.538 L
585.534 638.117 L
587.833 638.69 L
590.132 639.259 L
592.43 639.823 L
S
GR
GS
0 0.447 0.741 RC
1 LJ
0.5 LW
N
590.132 639.259 M
592.43 639.823 L
594.729 640.382 L
597.028 640.937 L
599.326 641.486 L
601.625 642.031 L
603.923 642.57 L
606.222 643.105 L
608.521 643.635 L
610.819 644.161 L
613.118 644.681 L
615.417 645.197 L
617.715 645.707 L
620.014 646.213 L
622.313 646.714 L
624.611 647.21 L
626.91 647.702 L
629.209 648.188 L
631.507 648.67 L
633.806 649.147 L
636.104 649.619 L
638.403 650.086 L
640.702 650.548 L
643 651.006 L
645.299 651.458 L
647.598 651.906 L
649.896 652.349 L
652.195 652.787 L
654.494 653.22 L
656.792 653.649 L
659.091 654.072 L
661.39 654.491 L
663.688 654.905 L
665.987 655.314 L
668.286 655.718 L
670.584 656.118 L
672.883 656.512 L
675.181 656.902 L
677.48 657.287 L
679.779 657.667 L
682.077 658.042 L
684.376 658.412 L
686.675 658.778 L
688.973 659.138 L
691.272 659.494 L
693.571 659.845 L
695.869 660.191 L
698.168 660.532 L
700.467 660.869 L
702.765 661.2 L
705.064 661.527 L
707.362 661.849 L
S
GR
GS
0 0.447 0.741 RC
1 LJ
0.5 LW
N
705.064 661.527 M
707.362 661.849 L
709.661 662.166 L
711.96 662.478 L
714.258 662.786 L
716.557 663.088 L
718.856 663.386 L
721.154 663.679 L
723.453 663.967 L
725.752 664.25 L
728.05 664.528 L
730.349 664.802 L
732.648 665.07 L
734.946 665.334 L
737.245 665.593 L
739.544 665.847 L
741.842 666.096 L
744.141 666.341 L
746.439 666.581 L
748.738 666.815 L
751.037 667.045 L
753.335 667.27 L
755.634 667.49 L
757.933 667.706 L
760.231 667.916 L
762.53 668.122 L
764.829 668.323 L
767.127 668.519 L
769.426 668.71 L
771.724 668.897 L
774.023 669.078 L
776.322 669.255 L
778.62 669.427 L
780.919 669.594 L
783.218 669.756 L
785.516 669.913 L
787.815 670.065 L
790.114 670.213 L
792.412 670.356 L
794.711 670.494 L
797.01 670.627 L
799.308 670.755 L
801.607 670.878 L
803.906 670.997 L
806.204 671.111 L
808.503 671.22 L
810.801 671.324 L
813.1 671.423 L
815.399 671.517 L
817.697 671.607 L
819.996 671.691 L
822.295 671.771 L
S
GR
GS
0 0.447 0.741 RC
1 LJ
0.5 LW
N
819.996 671.691 M
822.295 671.771 L
824.593 671.846 L
826.892 671.916 L
829.191 671.982 L
831.489 672.042 L
833.788 672.098 L
836.087 672.149 L
838.385 672.195 L
840.684 672.236 L
842.982 672.272 L
845.281 672.303 L
847.58 672.33 L
849.878 672.352 L
852.177 672.369 L
854.476 672.381 L
856.774 672.388 L
859.073 672.39 L
S
GR
GS
1 GC
N
135 923 M
939.5 923 L
939.5 759.5 L
135 759.5 L
cp
f
GR
GS
0.873 GC
1 LJ
0.5 LW
N
135 923 M
135 759.5 L
S
GR
GS
0.873 GC
1 LJ
0.5 LW
N
249.929 923 M
249.929 759.5 L
S
GR
GS
0.873 GC
1 LJ
0.5 LW
N
364.857 923 M
364.857 759.5 L
S
GR
GS
0.873 GC
1 LJ
0.5 LW
N
479.786 923 M
479.786 759.5 L
S
GR
GS
0.873 GC
1 LJ
0.5 LW
N
594.714 923 M
594.714 759.5 L
S
GR
GS
0.873 GC
1 LJ
0.5 LW
N
709.643 923 M
709.643 759.5 L
S
GR
GS
0.873 GC
1 LJ
0.5 LW
N
824.571 923 M
824.571 759.5 L
S
GR
GS
0.873 GC
1 LJ
0.5 LW
N
939.5 923 M
939.5 759.5 L
S
GR
GS
0.873 GC
1 LJ
0.5 LW
N
939.5 923 M
135 923 L
S
GR
GS
0.873 GC
1 LJ
0.5 LW
N
939.5 902.563 M
135 902.563 L
S
GR
GS
0.873 GC
1 LJ
0.5 LW
N
939.5 882.125 M
135 882.125 L
S
GR
GS
0.873 GC
1 LJ
0.5 LW
N
939.5 861.688 M
135 861.688 L
S
GR
GS
0.873 GC
1 LJ
0.5 LW
N
939.5 841.25 M
135 841.25 L
S
GR
GS
0.873 GC
1 LJ
0.5 LW
N
939.5 820.813 M
135 820.813 L
S
GR
GS
0.873 GC
1 LJ
0.5 LW
N
939.5 800.375 M
135 800.375 L
S
GR
GS
0.873 GC
1 LJ
0.5 LW
N
939.5 779.938 M
135 779.938 L
S
GR
GS
0.873 GC
1 LJ
0.5 LW
N
939.5 759.5 M
135 759.5 L
S
GR
GS
0.149 GC
2 setlinecap
1 LJ
0.5 LW
N
135 923 M
939.5 923 L
S
GR
GS
0.149 GC
2 setlinecap
1 LJ
0.5 LW
N
135 759.5 M
939.5 759.5 L
S
GR
GS
0.149 GC
2 setlinecap
1 LJ
0.5 LW
N
135 923 M
135 914.955 L
S
GR
GS
0.149 GC
2 setlinecap
1 LJ
0.5 LW
N
249.929 923 M
249.929 914.955 L
S
GR
GS
0.149 GC
2 setlinecap
1 LJ
0.5 LW
N
364.857 923 M
364.857 914.955 L
S
GR
GS
0.149 GC
2 setlinecap
1 LJ
0.5 LW
N
479.786 923 M
479.786 914.955 L
S
GR
GS
0.149 GC
2 setlinecap
1 LJ
0.5 LW
N
594.714 923 M
594.714 914.955 L
S
GR
GS
0.149 GC
2 setlinecap
1 LJ
0.5 LW
N
709.643 923 M
709.643 914.955 L
S
GR
GS
0.149 GC
2 setlinecap
1 LJ
0.5 LW
N
824.571 923 M
824.571 914.955 L
S
GR
GS
0.149 GC
2 setlinecap
1 LJ
0.5 LW
N
939.5 923 M
939.5 914.955 L
S
GR
GS
0.149 GC
2 setlinecap
1 LJ
0.5 LW
N
135 759.5 M
135 767.545 L
S
GR
GS
0.149 GC
2 setlinecap
1 LJ
0.5 LW
N
249.929 759.5 M
249.929 767.545 L
S
GR
GS
0.149 GC
2 setlinecap
1 LJ
0.5 LW
N
364.857 759.5 M
364.857 767.545 L
S
GR
GS
0.149 GC
2 setlinecap
1 LJ
0.5 LW
N
479.786 759.5 M
479.786 767.545 L
S
GR
GS
0.149 GC
2 setlinecap
1 LJ
0.5 LW
N
594.714 759.5 M
594.714 767.545 L
S
GR
GS
0.149 GC
2 setlinecap
1 LJ
0.5 LW
N
709.643 759.5 M
709.643 767.545 L
S
GR
GS
0.149 GC
2 setlinecap
1 LJ
0.5 LW
N
824.571 759.5 M
824.571 767.545 L
S
GR
GS
0.149 GC
2 setlinecap
1 LJ
0.5 LW
N
939.5 759.5 M
939.5 767.545 L
S
GR
GS
[1 0 0 1 135 927] CT
0.149 GC
/Helvetica 10 F
GS
[1 0 0 1 0 0] CT
-3 8 moveto 
1 -1 scale
(0) t 
GR
GR
GS
[1 0 0 1 249.92857 927] CT
0.149 GC
/Helvetica 10 F
GS
[1 0 0 1 0 0] CT
-10 8 moveto 
1 -1 scale
(0.05) t 
GR
GR
GS
[1 0 0 1 364.85715 927] CT
0.149 GC
/Helvetica 10 F
GS
[1 0 0 1 0 0] CT
-7 8 moveto 
1 -1 scale
(0.1) t 
GR
GR
GS
[1 0 0 1 479.78574 927] CT
0.149 GC
/Helvetica 10 F
GS
[1 0 0 1 0 0] CT
-10 8 moveto 
1 -1 scale
(0.15) t 
GR
GR
GS
[1 0 0 1 594.71429 927] CT
0.149 GC
/Helvetica 10 F
GS
[1 0 0 1 0 0] CT
-7 8 moveto 
1 -1 scale
(0.2) t 
GR
GR
GS
[1 0 0 1 709.64288 927] CT
0.149 GC
/Helvetica 10 F
GS
[1 0 0 1 0 0] CT
-10 8 moveto 
1 -1 scale
(0.25) t 
GR
GR
GS
[1 0 0 1 824.57147 927] CT
0.149 GC
/Helvetica 10 F
GS
[1 0 0 1 0 0] CT
-7 8 moveto 
1 -1 scale
(0.3) t 
GR
GR
GS
[1 0 0 1 939.5 927] CT
0.149 GC
/Helvetica 10 F
GS
[1 0 0 1 0 0] CT
-10 8 moveto 
1 -1 scale
(0.35) t 
GR
GR
GS
[1 0 0 1 537.25037 938.5] CT
0.149 GC
/Helvetica 11 F
GS
[1 0 0 1 0 0] CT
-27 9 moveto 
1 -1 scale
(Length \(m\)) t 
GR
GR
GS
0.149 GC
2 setlinecap
1 LJ
0.5 LW
N
135 923 M
135 759.5 L
S
GR
GS
0.149 GC
2 setlinecap
1 LJ
0.5 LW
N
939.5 923 M
939.5 759.5 L
S
GR
GS
0.149 GC
2 setlinecap
1 LJ
0.5 LW
N
135 923 M
143.045 923 L
S
GR
GS
0.149 GC
2 setlinecap
1 LJ
0.5 LW
N
135 902.563 M
143.045 902.563 L
S
GR
GS
0.149 GC
2 setlinecap
1 LJ
0.5 LW
N
135 882.125 M
143.045 882.125 L
S
GR
GS
0.149 GC
2 setlinecap
1 LJ
0.5 LW
N
135 861.688 M
143.045 861.688 L
S
GR
GS
0.149 GC
2 setlinecap
1 LJ
0.5 LW
N
135 841.25 M
143.045 841.25 L
S
GR
GS
0.149 GC
2 setlinecap
1 LJ
0.5 LW
N
135 820.813 M
143.045 820.813 L
S
GR
GS
0.149 GC
2 setlinecap
1 LJ
0.5 LW
N
135 800.375 M
143.045 800.375 L
S
GR
GS
0.149 GC
2 setlinecap
1 LJ
0.5 LW
N
135 779.938 M
143.045 779.938 L
S
GR
GS
0.149 GC
2 setlinecap
1 LJ
0.5 LW
N
135 759.5 M
143.045 759.5 L
S
GR
GS
0.149 GC
2 setlinecap
1 LJ
0.5 LW
N
939.5 923 M
931.455 923 L
S
GR
GS
0.149 GC
2 setlinecap
1 LJ
0.5 LW
N
939.5 902.563 M
931.455 902.563 L
S
GR
GS
0.149 GC
2 setlinecap
1 LJ
0.5 LW
N
939.5 882.125 M
931.455 882.125 L
S
GR
GS
0.149 GC
2 setlinecap
1 LJ
0.5 LW
N
939.5 861.688 M
931.455 861.688 L
S
GR
GS
0.149 GC
2 setlinecap
1 LJ
0.5 LW
N
939.5 841.25 M
931.455 841.25 L
S
GR
GS
0.149 GC
2 setlinecap
1 LJ
0.5 LW
N
939.5 820.813 M
931.455 820.813 L
S
GR
GS
0.149 GC
2 setlinecap
1 LJ
0.5 LW
N
939.5 800.375 M
931.455 800.375 L
S
GR
GS
0.149 GC
2 setlinecap
1 LJ
0.5 LW
N
939.5 779.938 M
931.455 779.938 L
S
GR
GS
0.149 GC
2 setlinecap
1 LJ
0.5 LW
N
939.5 759.5 M
931.455 759.5 L
S
GR
GS
[1 0 0 1 131 923] CT
0.149 GC
/Helvetica 10 F
GS
[1 0 0 1 0 0] CT
-9 2.5 moveto 
1 -1 scale
(-4) t 
GR
GR
GS
[1 0 0 1 131 902.5625] CT
0.149 GC
/Helvetica 10 F
GS
[1 0 0 1 0 0] CT
-18 2.5 moveto 
1 -1 scale
(-3.5) t 
GR
GR
GS
[1 0 0 1 131 882.125] CT
0.149 GC
/Helvetica 10 F
GS
[1 0 0 1 0 0] CT
-9 2.5 moveto 
1 -1 scale
(-3) t 
GR
GR
GS
[1 0 0 1 131 861.6875] CT
0.149 GC
/Helvetica 10 F
GS
[1 0 0 1 0 0] CT
-18 2.5 moveto 
1 -1 scale
(-2.5) t 
GR
GR
GS
[1 0 0 1 131 841.25] CT
0.149 GC
/Helvetica 10 F
GS
[1 0 0 1 0 0] CT
-9 2.5 moveto 
1 -1 scale
(-2) t 
GR
GR
GS
[1 0 0 1 131 820.8125] CT
0.149 GC
/Helvetica 10 F
GS
[1 0 0 1 0 0] CT
-18 2.5 moveto 
1 -1 scale
(-1.5) t 
GR
GR
GS
[1 0 0 1 131 800.375] CT
0.149 GC
/Helvetica 10 F
GS
[1 0 0 1 0 0] CT
-9 2.5 moveto 
1 -1 scale
(-1) t 
GR
GR
GS
[1 0 0 1 131 779.9375] CT
0.149 GC
/Helvetica 10 F
GS
[1 0 0 1 0 0] CT
-18 2.5 moveto 
1 -1 scale
(-0.5) t 
GR
GR
GS
[1 0 0 1 131 759.5] CT
0.149 GC
/Helvetica 10 F
GS
[1 0 0 1 0 0] CT
-6 2.5 moveto 
1 -1 scale
(0) t 
GR
GR
GS
[0 -1 1 0 110.5 841.24994] CT
0.149 GC
/Helvetica 11 F
GS
[1 0 0 1 0 0] CT
-20 -3 moveto 
1 -1 scale
(EI*YDef) t 
GR
GR
GS
[1 0 0 1 537.25049 758.125] CT
/Helvetica-Bold 11 F
GS
[1 0 0 1 0 0] CT
-196 -3 moveto 
1 -1 scale
(Horizontal Deflection \(EI*Y\) of Alternating  Load: Fcf in Positive Y Direction) t 
GR
GR
GS
0 0.447 0.741 RC
1 LJ
0.5 LW
N
135 759.5 M
137.299 759.5 L
139.597 759.5 L
141.896 759.5 L
144.195 759.5 L
146.493 759.5 L
148.792 759.5 L
151.091 759.5 L
153.389 759.5 L
155.688 759.5 L
157.986 759.5 L
160.285 759.5 L
162.584 759.5 L
164.882 759.5 L
167.181 759.5 L
169.48 759.5 L
171.778 759.5 L
174.077 759.5 L
176.376 759.5 L
178.674 759.5 L
180.973 759.5 L
183.272 759.5 L
185.57 759.5 L
187.869 759.5 L
190.167 759.5 L
192.466 759.5 L
194.765 759.5 L
197.063 759.5 L
199.362 759.5 L
201.661 759.501 L
203.959 759.501 L
206.258 759.502 L
208.557 759.504 L
210.855 759.506 L
213.154 759.508 L
215.453 759.511 L
217.751 759.515 L
220.05 759.519 L
222.348 759.525 L
224.647 759.531 L
226.946 759.538 L
229.244 759.546 L
231.543 759.555 L
233.842 759.565 L
236.14 759.577 L
238.439 759.59 L
240.738 759.604 L
243.036 759.619 L
245.335 759.636 L
247.634 759.655 L
S
GR
GS
0 0.447 0.741 RC
1 LJ
0.5 LW
N
245.335 759.636 M
247.634 759.655 L
249.932 759.675 L
252.231 759.697 L
254.53 759.721 L
256.828 759.746 L
259.127 759.773 L
261.425 759.803 L
263.724 759.834 L
266.023 759.867 L
268.321 759.903 L
270.62 759.94 L
272.919 759.981 L
275.217 760.023 L
277.516 760.068 L
279.815 760.115 L
282.113 760.165 L
284.412 760.217 L
286.711 760.272 L
289.009 760.33 L
291.308 760.391 L
293.606 760.455 L
295.905 760.521 L
298.204 760.591 L
300.502 760.664 L
302.801 760.74 L
305.1 760.819 L
307.398 760.901 L
309.697 760.987 L
311.996 761.076 L
314.294 761.169 L
316.593 761.265 L
318.892 761.365 L
321.19 761.468 L
323.489 761.576 L
325.787 761.687 L
328.086 761.802 L
330.385 761.921 L
332.683 762.044 L
334.982 762.171 L
337.281 762.302 L
339.579 762.438 L
341.878 762.578 L
344.177 762.722 L
346.475 762.871 L
348.774 763.024 L
351.073 763.182 L
353.371 763.344 L
355.67 763.511 L
357.969 763.683 L
360.267 763.86 L
362.566 764.042 L
S
GR
GS
0 0.447 0.741 RC
1 LJ
0.5 LW
N
360.267 763.86 M
362.566 764.042 L
364.864 764.228 L
367.163 764.42 L
369.462 764.617 L
371.76 764.819 L
374.059 765.026 L
376.358 765.238 L
378.656 765.456 L
380.955 765.679 L
383.254 765.908 L
385.552 766.143 L
387.851 766.383 L
390.15 766.629 L
392.448 766.88 L
394.747 767.138 L
397.045 767.401 L
399.344 767.67 L
401.643 767.946 L
403.941 768.227 L
406.24 768.514 L
408.539 768.808 L
410.837 769.107 L
413.136 769.412 L
415.435 769.723 L
417.733 770.04 L
420.032 770.363 L
422.331 770.691 L
424.629 771.025 L
426.928 771.365 L
429.226 771.711 L
431.525 772.062 L
433.824 772.419 L
436.122 772.782 L
438.421 773.15 L
440.72 773.523 L
443.018 773.902 L
445.317 774.287 L
447.616 774.677 L
449.914 775.073 L
452.213 775.473 L
454.512 775.88 L
456.81 776.291 L
459.109 776.708 L
461.408 777.13 L
463.706 777.557 L
466.005 777.99 L
468.303 778.427 L
470.602 778.87 L
472.901 779.318 L
475.199 779.771 L
477.498 780.229 L
S
GR
GS
0 0.447 0.741 RC
1 LJ
0.5 LW
N
475.199 779.771 M
477.498 780.229 L
479.797 780.693 L
482.095 781.161 L
484.394 781.634 L
486.693 782.112 L
488.991 782.595 L
491.29 783.082 L
493.589 783.575 L
495.887 784.072 L
498.186 784.575 L
500.484 785.081 L
502.783 785.593 L
505.082 786.11 L
507.38 786.631 L
509.679 787.156 L
511.978 787.686 L
514.276 788.221 L
516.575 788.761 L
518.874 789.305 L
521.172 789.853 L
523.471 790.406 L
525.77 790.963 L
528.068 791.524 L
530.367 792.09 L
532.665 792.661 L
534.964 793.235 L
537.263 793.814 L
539.561 794.397 L
541.86 794.984 L
544.159 795.576 L
546.457 796.172 L
548.756 796.771 L
551.055 797.375 L
553.353 797.983 L
555.652 798.595 L
557.951 799.211 L
560.249 799.831 L
562.548 800.454 L
564.846 801.082 L
567.145 801.714 L
569.444 802.349 L
571.742 802.988 L
574.041 803.631 L
576.34 804.278 L
578.638 804.928 L
580.937 805.582 L
583.236 806.24 L
585.534 806.902 L
587.833 807.567 L
590.132 808.235 L
592.43 808.908 L
S
GR
GS
0 0.447 0.741 RC
1 LJ
0.5 LW
N
590.132 808.235 M
592.43 808.908 L
594.729 809.583 L
597.028 810.262 L
599.326 810.945 L
601.625 811.631 L
603.923 812.32 L
606.222 813.013 L
608.521 813.709 L
610.819 814.409 L
613.118 815.111 L
615.417 815.817 L
617.715 816.526 L
620.014 817.239 L
622.313 817.954 L
624.611 818.673 L
626.91 819.394 L
629.209 820.119 L
631.507 820.847 L
633.806 821.577 L
636.104 822.311 L
638.403 823.047 L
640.702 823.787 L
643 824.529 L
645.299 825.275 L
647.598 826.023 L
649.896 826.773 L
652.195 827.527 L
654.494 828.283 L
656.792 829.042 L
659.091 829.804 L
661.39 830.568 L
663.688 831.335 L
665.987 832.105 L
668.286 832.877 L
670.584 833.651 L
672.883 834.428 L
675.181 835.208 L
677.48 835.989 L
679.779 836.774 L
682.077 837.56 L
684.376 838.349 L
686.675 839.141 L
688.973 839.934 L
691.272 840.73 L
693.571 841.528 L
695.869 842.328 L
698.168 843.13 L
700.467 843.935 L
702.765 844.741 L
705.064 845.55 L
707.362 846.36 L
S
GR
GS
0 0.447 0.741 RC
1 LJ
0.5 LW
N
705.064 845.55 M
707.362 846.36 L
709.661 847.173 L
711.96 847.987 L
714.258 848.804 L
716.557 849.622 L
718.856 850.442 L
721.154 851.265 L
723.453 852.089 L
725.752 852.914 L
728.05 853.742 L
730.349 854.571 L
732.648 855.402 L
734.946 856.234 L
737.245 857.068 L
739.544 857.904 L
741.842 858.742 L
744.141 859.58 L
746.439 860.421 L
748.738 861.263 L
751.037 862.106 L
753.335 862.951 L
755.634 863.797 L
757.933 864.645 L
760.231 865.493 L
762.53 866.344 L
764.829 867.195 L
767.127 868.048 L
769.426 868.901 L
771.724 869.757 L
774.023 870.613 L
776.322 871.47 L
778.62 872.328 L
780.919 873.188 L
783.218 874.048 L
785.516 874.91 L
787.815 875.772 L
790.114 876.636 L
792.412 877.5 L
794.711 878.365 L
797.01 879.231 L
799.308 880.098 L
801.607 880.966 L
803.906 881.834 L
806.204 882.703 L
808.503 883.573 L
810.801 884.444 L
813.1 885.315 L
815.399 886.186 L
817.697 887.059 L
819.996 887.932 L
822.295 888.805 L
S
GR
GS
0 0.447 0.741 RC
1 LJ
0.5 LW
N
819.996 887.932 M
822.295 888.805 L
824.593 889.679 L
826.892 890.553 L
829.191 891.428 L
831.489 892.303 L
833.788 893.178 L
836.087 894.054 L
838.385 894.93 L
840.684 895.807 L
842.982 896.683 L
845.281 897.56 L
847.58 898.437 L
849.878 899.314 L
852.177 900.191 L
854.476 901.069 L
856.774 901.946 L
859.073 902.824 L
S
GR
%%Trailer
%%Pages: 1
%%EOF
