%!PS-Adobe-3.0 EPSF-3.0
%%Creator: (MATLAB, The Mathworks, Inc. Version 8.6.0.267246 \(R2015b\). Operating System: Mac OS X)
%%Title: (/Users/mvanheukelom/Documents/MTE3B/mte322/projects/2/latex/MTE-322/Project 2/images/alternating_vert_dir_UP.eps)
%%CreationDate: 2017-03-16T23:04:12
%%Pages: (atend)
%%BoundingBox: 0 0 1037 1039
%%LanguageLevel: 2
%%EndComments
%%BeginProlog
%%BeginResource: procset (Apache XML Graphics Std ProcSet) 1.2 0
%%Version: 1.2 0
%%Copyright: (Copyright 2001-2003,2010 The Apache Software Foundation. License terms: http://www.apache.org/licenses/LICENSE-2.0)
/bd{bind def}bind def
/ld{load def}bd
/GR/grestore ld
/M/moveto ld
/LJ/setlinejoin ld
/C/curveto ld
/f/fill ld
/LW/setlinewidth ld
/GC/setgray ld
/t/show ld
/N/newpath ld
/CT/concat ld
/cp/closepath ld
/S/stroke ld
/L/lineto ld
/CC/setcmykcolor ld
/A/ashow ld
/GS/gsave ld
/RC/setrgbcolor ld
/RM/rmoveto ld
/ML/setmiterlimit ld
/re {4 2 roll M
1 index 0 rlineto
0 exch rlineto
neg 0 rlineto
cp } bd
/_ctm matrix def
/_tm matrix def
/BT { _ctm currentmatrix pop matrix _tm copy pop 0 0 moveto } bd
/ET { _ctm setmatrix } bd
/iTm { _ctm setmatrix _tm concat } bd
/Tm { _tm astore pop iTm 0 0 moveto } bd
/ux 0.0 def
/uy 0.0 def
/F {
  /Tp exch def
  /Tf exch def
  Tf findfont Tp scalefont setfont
  /cf Tf def  /cs Tp def
} bd
/ULS {currentpoint /uy exch def /ux exch def} bd
/ULE {
  /Tcx currentpoint pop def
  gsave
  newpath
  cf findfont cs scalefont dup
  /FontMatrix get 0 get /Ts exch def /FontInfo get dup
  /UnderlinePosition get Ts mul /To exch def
  /UnderlineThickness get Ts mul /Tt exch def
  ux uy To add moveto  Tcx uy To add lineto
  Tt setlinewidth stroke
  grestore
} bd
/OLE {
  /Tcx currentpoint pop def
  gsave
  newpath
  cf findfont cs scalefont dup
  /FontMatrix get 0 get /Ts exch def /FontInfo get dup
  /UnderlinePosition get Ts mul /To exch def
  /UnderlineThickness get Ts mul /Tt exch def
  ux uy To add cs add moveto Tcx uy To add cs add lineto
  Tt setlinewidth stroke
  grestore
} bd
/SOE {
  /Tcx currentpoint pop def
  gsave
  newpath
  cf findfont cs scalefont dup
  /FontMatrix get 0 get /Ts exch def /FontInfo get dup
  /UnderlinePosition get Ts mul /To exch def
  /UnderlineThickness get Ts mul /Tt exch def
  ux uy To add cs 10 mul 26 idiv add moveto Tcx uy To add cs 10 mul 26 idiv add lineto
  Tt setlinewidth stroke
  grestore
} bd
/QT {
/Y22 exch store
/X22 exch store
/Y21 exch store
/X21 exch store
currentpoint
/Y21 load 2 mul add 3 div exch
/X21 load 2 mul add 3 div exch
/X21 load 2 mul /X22 load add 3 div
/Y21 load 2 mul /Y22 load add 3 div
/X22 load /Y22 load curveto
} bd
/SSPD {
dup length /d exch dict def
{
/v exch def
/k exch def
currentpagedevice k known {
/cpdv currentpagedevice k get def
v cpdv ne {
/upd false def
/nullv v type /nulltype eq def
/nullcpdv cpdv type /nulltype eq def
nullv nullcpdv or
{
/upd true def
} {
/sametype v type cpdv type eq def
sametype {
v type /arraytype eq {
/vlen v length def
/cpdvlen cpdv length def
vlen cpdvlen eq {
0 1 vlen 1 sub {
/i exch def
/obj v i get def
/cpdobj cpdv i get def
obj cpdobj ne {
/upd true def
exit
} if
} for
} {
/upd true def
} ifelse
} {
v type /dicttype eq {
v {
/dv exch def
/dk exch def
/cpddv cpdv dk get def
dv cpddv ne {
/upd true def
exit
} if
} forall
} {
/upd true def
} ifelse
} ifelse
} if
} ifelse
upd true eq {
d k v put
} if
} if
} if
} forall
d length 0 gt {
d setpagedevice
} if
} bd
%%EndResource
%%BeginResource: procset (Apache XML Graphics EPS ProcSet) 1.0 0
%%Version: 1.0 0
%%Copyright: (Copyright 2002-2003 The Apache Software Foundation. License terms: http://www.apache.org/licenses/LICENSE-2.0)
/BeginEPSF { %def
/b4_Inc_state save def         % Save state for cleanup
/dict_count countdictstack def % Count objects on dict stack
/op_count count 1 sub def      % Count objects on operand stack
userdict begin                 % Push userdict on dict stack
/showpage { } def              % Redefine showpage, { } = null proc
0 setgray 0 setlinecap         % Prepare graphics state
1 setlinewidth 0 setlinejoin
10 setmiterlimit [ ] 0 setdash newpath
/languagelevel where           % If level not equal to 1 then
{pop languagelevel             % set strokeadjust and
1 ne                           % overprint to their defaults.
{false setstrokeadjust false setoverprint
} if
} if
} bd
/EndEPSF { %def
count op_count sub {pop} repeat            % Clean up stacks
countdictstack dict_count sub {end} repeat
b4_Inc_state restore
} bd
%%EndResource
%FOPBeginFontDict
%%IncludeResource: font Courier-Bold
%%IncludeResource: font Helvetica
%%IncludeResource: font Courier-BoldOblique
%%IncludeResource: font Courier-Oblique
%%IncludeResource: font Times-Roman
%%IncludeResource: font Helvetica-BoldOblique
%%IncludeResource: font Helvetica-Bold
%%IncludeResource: font Helvetica-Oblique
%%IncludeResource: font Times-BoldItalic
%%IncludeResource: font Courier
%%IncludeResource: font Times-Italic
%%IncludeResource: font Times-Bold
%%IncludeResource: font Symbol
%%IncludeResource: font ZapfDingbats
%FOPEndFontDict
%%BeginResource: encoding WinAnsiEncoding
/WinAnsiEncoding [
/.notdef /.notdef /.notdef /.notdef /.notdef
/.notdef /.notdef /.notdef /.notdef /.notdef
/.notdef /.notdef /.notdef /.notdef /.notdef
/.notdef /.notdef /.notdef /.notdef /.notdef
/.notdef /.notdef /.notdef /.notdef /.notdef
/.notdef /.notdef /.notdef /.notdef /.notdef
/.notdef /.notdef /space /exclam /quotedbl
/numbersign /dollar /percent /ampersand /quotesingle
/parenleft /parenright /asterisk /plus /comma
/hyphen /period /slash /zero /one
/two /three /four /five /six
/seven /eight /nine /colon /semicolon
/less /equal /greater /question /at
/A /B /C /D /E
/F /G /H /I /J
/K /L /M /N /O
/P /Q /R /S /T
/U /V /W /X /Y
/Z /bracketleft /backslash /bracketright /asciicircum
/underscore /quoteleft /a /b /c
/d /e /f /g /h
/i /j /k /l /m
/n /o /p /q /r
/s /t /u /v /w
/x /y /z /braceleft /bar
/braceright /asciitilde /bullet /Euro /bullet
/quotesinglbase /florin /quotedblbase /ellipsis /dagger
/daggerdbl /circumflex /perthousand /Scaron /guilsinglleft
/OE /bullet /Zcaron /bullet /bullet
/quoteleft /quoteright /quotedblleft /quotedblright /bullet
/endash /emdash /asciitilde /trademark /scaron
/guilsinglright /oe /bullet /zcaron /Ydieresis
/space /exclamdown /cent /sterling /currency
/yen /brokenbar /section /dieresis /copyright
/ordfeminine /guillemotleft /logicalnot /sfthyphen /registered
/macron /degree /plusminus /twosuperior /threesuperior
/acute /mu /paragraph /middot /cedilla
/onesuperior /ordmasculine /guillemotright /onequarter /onehalf
/threequarters /questiondown /Agrave /Aacute /Acircumflex
/Atilde /Adieresis /Aring /AE /Ccedilla
/Egrave /Eacute /Ecircumflex /Edieresis /Igrave
/Iacute /Icircumflex /Idieresis /Eth /Ntilde
/Ograve /Oacute /Ocircumflex /Otilde /Odieresis
/multiply /Oslash /Ugrave /Uacute /Ucircumflex
/Udieresis /Yacute /Thorn /germandbls /agrave
/aacute /acircumflex /atilde /adieresis /aring
/ae /ccedilla /egrave /eacute /ecircumflex
/edieresis /igrave /iacute /icircumflex /idieresis
/eth /ntilde /ograve /oacute /ocircumflex
/otilde /odieresis /divide /oslash /ugrave
/uacute /ucircumflex /udieresis /yacute /thorn
/ydieresis
] def
%%EndResource
%FOPBeginFontReencode
/Courier-Bold findfont
dup length dict begin
  {1 index /FID ne {def} {pop pop} ifelse} forall
  /Encoding WinAnsiEncoding def
  currentdict
end
/Courier-Bold exch definefont pop
/Helvetica findfont
dup length dict begin
  {1 index /FID ne {def} {pop pop} ifelse} forall
  /Encoding WinAnsiEncoding def
  currentdict
end
/Helvetica exch definefont pop
/Courier-BoldOblique findfont
dup length dict begin
  {1 index /FID ne {def} {pop pop} ifelse} forall
  /Encoding WinAnsiEncoding def
  currentdict
end
/Courier-BoldOblique exch definefont pop
/Courier-Oblique findfont
dup length dict begin
  {1 index /FID ne {def} {pop pop} ifelse} forall
  /Encoding WinAnsiEncoding def
  currentdict
end
/Courier-Oblique exch definefont pop
/Times-Roman findfont
dup length dict begin
  {1 index /FID ne {def} {pop pop} ifelse} forall
  /Encoding WinAnsiEncoding def
  currentdict
end
/Times-Roman exch definefont pop
/Helvetica-BoldOblique findfont
dup length dict begin
  {1 index /FID ne {def} {pop pop} ifelse} forall
  /Encoding WinAnsiEncoding def
  currentdict
end
/Helvetica-BoldOblique exch definefont pop
/Helvetica-Bold findfont
dup length dict begin
  {1 index /FID ne {def} {pop pop} ifelse} forall
  /Encoding WinAnsiEncoding def
  currentdict
end
/Helvetica-Bold exch definefont pop
/Helvetica-Oblique findfont
dup length dict begin
  {1 index /FID ne {def} {pop pop} ifelse} forall
  /Encoding WinAnsiEncoding def
  currentdict
end
/Helvetica-Oblique exch definefont pop
/Times-BoldItalic findfont
dup length dict begin
  {1 index /FID ne {def} {pop pop} ifelse} forall
  /Encoding WinAnsiEncoding def
  currentdict
end
/Times-BoldItalic exch definefont pop
/Courier findfont
dup length dict begin
  {1 index /FID ne {def} {pop pop} ifelse} forall
  /Encoding WinAnsiEncoding def
  currentdict
end
/Courier exch definefont pop
/Times-Italic findfont
dup length dict begin
  {1 index /FID ne {def} {pop pop} ifelse} forall
  /Encoding WinAnsiEncoding def
  currentdict
end
/Times-Italic exch definefont pop
/Times-Bold findfont
dup length dict begin
  {1 index /FID ne {def} {pop pop} ifelse} forall
  /Encoding WinAnsiEncoding def
  currentdict
end
/Times-Bold exch definefont pop
%FOPEndFontReencode
%%EndProlog
%%Page: 1 1
%%PageBoundingBox: 0 0 1037 1039
%%BeginPageSetup
[1 0 0 -1 0 1039] CT
%%EndPageSetup
GS
1 GC
N
0 0 1037 1039 re
f
GR
GS
1 GC
N
0 0 1037 1039 re
f
GR
GS
1 GC
N
135 242 M
938.5 242 L
938.5 78 L
135 78 L
cp
f
GR
GS
0.873 GC
1 LJ
0.5 LW
N
135 242 M
135 78 L
S
GR
GS
0.873 GC
1 LJ
0.5 LW
N
249.786 242 M
249.786 78 L
S
GR
GS
0.873 GC
1 LJ
0.5 LW
N
364.571 242 M
364.571 78 L
S
GR
GS
0.873 GC
1 LJ
0.5 LW
N
479.357 242 M
479.357 78 L
S
GR
GS
0.873 GC
1 LJ
0.5 LW
N
594.143 242 M
594.143 78 L
S
GR
GS
0.873 GC
1 LJ
0.5 LW
N
708.929 242 M
708.929 78 L
S
GR
GS
0.873 GC
1 LJ
0.5 LW
N
823.714 242 M
823.714 78 L
S
GR
GS
0.873 GC
1 LJ
0.5 LW
N
938.5 242 M
938.5 78 L
S
GR
GS
0.873 GC
1 LJ
0.5 LW
N
938.5 242 M
135 242 L
S
GR
GS
0.873 GC
1 LJ
0.5 LW
N
938.5 209.2 M
135 209.2 L
S
GR
GS
0.873 GC
1 LJ
0.5 LW
N
938.5 176.4 M
135 176.4 L
S
GR
GS
0.873 GC
1 LJ
0.5 LW
N
938.5 143.6 M
135 143.6 L
S
GR
GS
0.873 GC
1 LJ
0.5 LW
N
938.5 110.8 M
135 110.8 L
S
GR
GS
0.873 GC
1 LJ
0.5 LW
N
938.5 78 M
135 78 L
S
GR
GS
0.149 GC
2 setlinecap
1 LJ
0.5 LW
N
135 242 M
938.5 242 L
S
GR
GS
0.149 GC
2 setlinecap
1 LJ
0.5 LW
N
135 78 M
938.5 78 L
S
GR
GS
0.149 GC
2 setlinecap
1 LJ
0.5 LW
N
135 242 M
135 233.965 L
S
GR
GS
0.149 GC
2 setlinecap
1 LJ
0.5 LW
N
249.786 242 M
249.786 233.965 L
S
GR
GS
0.149 GC
2 setlinecap
1 LJ
0.5 LW
N
364.571 242 M
364.571 233.965 L
S
GR
GS
0.149 GC
2 setlinecap
1 LJ
0.5 LW
N
479.357 242 M
479.357 233.965 L
S
GR
GS
0.149 GC
2 setlinecap
1 LJ
0.5 LW
N
594.143 242 M
594.143 233.965 L
S
GR
GS
0.149 GC
2 setlinecap
1 LJ
0.5 LW
N
708.929 242 M
708.929 233.965 L
S
GR
GS
0.149 GC
2 setlinecap
1 LJ
0.5 LW
N
823.714 242 M
823.714 233.965 L
S
GR
GS
0.149 GC
2 setlinecap
1 LJ
0.5 LW
N
938.5 242 M
938.5 233.965 L
S
GR
GS
0.149 GC
2 setlinecap
1 LJ
0.5 LW
N
135 78 M
135 86.035 L
S
GR
GS
0.149 GC
2 setlinecap
1 LJ
0.5 LW
N
249.786 78 M
249.786 86.035 L
S
GR
GS
0.149 GC
2 setlinecap
1 LJ
0.5 LW
N
364.571 78 M
364.571 86.035 L
S
GR
GS
0.149 GC
2 setlinecap
1 LJ
0.5 LW
N
479.357 78 M
479.357 86.035 L
S
GR
GS
0.149 GC
2 setlinecap
1 LJ
0.5 LW
N
594.143 78 M
594.143 86.035 L
S
GR
GS
0.149 GC
2 setlinecap
1 LJ
0.5 LW
N
708.929 78 M
708.929 86.035 L
S
GR
GS
0.149 GC
2 setlinecap
1 LJ
0.5 LW
N
823.714 78 M
823.714 86.035 L
S
GR
GS
0.149 GC
2 setlinecap
1 LJ
0.5 LW
N
938.5 78 M
938.5 86.035 L
S
GR
GS
[1 0 0 1 135 246] CT
0.149 GC
/Helvetica 10 F
GS
[1 0 0 1 0 0] CT
-3 8 moveto 
1 -1 scale
(0) t 
GR
GR
GS
[1 0 0 1 249.78572 246] CT
0.149 GC
/Helvetica 10 F
GS
[1 0 0 1 0 0] CT
-10 8 moveto 
1 -1 scale
(0.05) t 
GR
GR
GS
[1 0 0 1 364.57144 246] CT
0.149 GC
/Helvetica 10 F
GS
[1 0 0 1 0 0] CT
-7 8 moveto 
1 -1 scale
(0.1) t 
GR
GR
GS
[1 0 0 1 479.35715 246] CT
0.149 GC
/Helvetica 10 F
GS
[1 0 0 1 0 0] CT
-10 8 moveto 
1 -1 scale
(0.15) t 
GR
GR
GS
[1 0 0 1 594.14288 246] CT
0.149 GC
/Helvetica 10 F
GS
[1 0 0 1 0 0] CT
-7 8 moveto 
1 -1 scale
(0.2) t 
GR
GR
GS
[1 0 0 1 708.92859 246] CT
0.149 GC
/Helvetica 10 F
GS
[1 0 0 1 0 0] CT
-10 8 moveto 
1 -1 scale
(0.25) t 
GR
GR
GS
[1 0 0 1 823.71429 246] CT
0.149 GC
/Helvetica 10 F
GS
[1 0 0 1 0 0] CT
-7 8 moveto 
1 -1 scale
(0.3) t 
GR
GR
GS
[1 0 0 1 938.5 246] CT
0.149 GC
/Helvetica 10 F
GS
[1 0 0 1 0 0] CT
-10 8 moveto 
1 -1 scale
(0.35) t 
GR
GR
GS
[1 0 0 1 536.75037 257.5] CT
0.149 GC
/Helvetica 11 F
GS
[1 0 0 1 0 0] CT
-27 9 moveto 
1 -1 scale
(Length \(m\)) t 
GR
GR
GS
0.149 GC
2 setlinecap
1 LJ
0.5 LW
N
135 242 M
135 78 L
S
GR
GS
0.149 GC
2 setlinecap
1 LJ
0.5 LW
N
938.5 242 M
938.5 78 L
S
GR
GS
0.149 GC
2 setlinecap
1 LJ
0.5 LW
N
135 242 M
143.035 242 L
S
GR
GS
0.149 GC
2 setlinecap
1 LJ
0.5 LW
N
135 209.2 M
143.035 209.2 L
S
GR
GS
0.149 GC
2 setlinecap
1 LJ
0.5 LW
N
135 176.4 M
143.035 176.4 L
S
GR
GS
0.149 GC
2 setlinecap
1 LJ
0.5 LW
N
135 143.6 M
143.035 143.6 L
S
GR
GS
0.149 GC
2 setlinecap
1 LJ
0.5 LW
N
135 110.8 M
143.035 110.8 L
S
GR
GS
0.149 GC
2 setlinecap
1 LJ
0.5 LW
N
135 78 M
143.035 78 L
S
GR
GS
0.149 GC
2 setlinecap
1 LJ
0.5 LW
N
938.5 242 M
930.465 242 L
S
GR
GS
0.149 GC
2 setlinecap
1 LJ
0.5 LW
N
938.5 209.2 M
930.465 209.2 L
S
GR
GS
0.149 GC
2 setlinecap
1 LJ
0.5 LW
N
938.5 176.4 M
930.465 176.4 L
S
GR
GS
0.149 GC
2 setlinecap
1 LJ
0.5 LW
N
938.5 143.6 M
930.465 143.6 L
S
GR
GS
0.149 GC
2 setlinecap
1 LJ
0.5 LW
N
938.5 110.8 M
930.465 110.8 L
S
GR
GS
0.149 GC
2 setlinecap
1 LJ
0.5 LW
N
938.5 78 M
930.465 78 L
S
GR
GS
[1 0 0 1 131 242] CT
0.149 GC
/Helvetica 10 F
GS
[1 0 0 1 0 0] CT
-26 2.5 moveto 
1 -1 scale
(-1000) t 
GR
GR
GS
[1 0 0 1 131 209.2] CT
0.149 GC
/Helvetica 10 F
GS
[1 0 0 1 0 0] CT
-21 2.5 moveto 
1 -1 scale
(-500) t 
GR
GR
GS
[1 0 0 1 131 176.39999] CT
0.149 GC
/Helvetica 10 F
GS
[1 0 0 1 0 0] CT
-6 2.5 moveto 
1 -1 scale
(0) t 
GR
GR
GS
[1 0 0 1 131 143.60001] CT
0.149 GC
/Helvetica 10 F
GS
[1 0 0 1 0 0] CT
-17 2.5 moveto 
1 -1 scale
(500) t 
GR
GR
GS
[1 0 0 1 131 110.8] CT
0.149 GC
/Helvetica 10 F
GS
[1 0 0 1 0 0] CT
-23 2.5 moveto 
1 -1 scale
(1000) t 
GR
GR
GS
[1 0 0 1 131 78] CT
0.149 GC
/Helvetica 10 F
GS
[1 0 0 1 0 0] CT
-23 2.5 moveto 
1 -1 scale
(1500) t 
GR
GR
GS
[0 -1 1 0 102 159.99992] CT
0.149 GC
/Helvetica 11 F
GS
[1 0 0 1 0 0] CT
-24 -3 moveto 
1 -1 scale
(Shear \(N\)) t 
GR
GR
GS
[1 0 0 1 536.75049 76.625] CT
/Helvetica-Bold 11 F
GS
[1 0 0 1 0 0] CT
-185 -3 moveto 
1 -1 scale
(Vertical Shear Diagram of Alternating Load: Fcf in Positive Y Direction.) t 
GR
GR
GS
0 0.447 0.741 RC
1 LJ
0.5 LW
N
135 176.4 M
137.296 215.76 L
139.592 215.76 L
141.887 215.76 L
144.183 215.76 L
146.479 215.76 L
148.775 215.76 L
151.071 215.76 L
153.366 215.76 L
155.662 215.76 L
157.958 215.76 L
160.254 215.76 L
162.549 215.76 L
164.845 215.76 L
167.141 215.76 L
169.437 215.76 L
171.733 215.76 L
174.028 215.76 L
176.324 215.76 L
178.62 215.76 L
180.916 215.76 L
183.212 215.76 L
185.507 215.76 L
187.803 215.76 L
190.099 215.76 L
192.395 92.596 L
194.69 92.596 L
196.986 92.596 L
199.282 92.596 L
201.578 92.596 L
203.874 92.596 L
206.169 92.596 L
208.465 92.596 L
210.761 92.596 L
213.057 92.596 L
215.353 92.596 L
217.648 92.596 L
219.944 92.596 L
222.24 92.596 L
224.536 92.596 L
226.831 92.596 L
229.127 92.596 L
231.423 92.596 L
233.719 92.596 L
236.015 92.596 L
238.31 92.596 L
240.606 92.596 L
242.902 92.596 L
245.198 92.596 L
247.494 92.596 L
S
GR
GS
0 0.447 0.741 RC
1 LJ
0.5 LW
N
245.198 92.596 M
247.494 92.596 L
249.789 92.596 L
252.085 92.596 L
254.381 92.596 L
256.677 92.596 L
258.973 92.596 L
261.268 92.596 L
263.564 92.596 L
265.86 92.596 L
268.156 92.596 L
270.451 92.596 L
272.747 92.596 L
275.043 92.596 L
277.339 92.596 L
279.635 92.596 L
281.93 92.596 L
284.226 92.596 L
286.522 92.596 L
288.818 92.596 L
291.114 92.596 L
293.409 92.596 L
295.705 92.596 L
298.001 92.596 L
300.297 92.596 L
302.592 92.596 L
304.888 92.596 L
307.184 92.596 L
309.48 92.596 L
311.776 92.596 L
314.071 92.596 L
316.367 92.596 L
318.663 92.596 L
320.959 92.596 L
323.255 92.596 L
325.55 92.596 L
327.846 92.596 L
330.142 92.596 L
332.438 92.596 L
334.733 92.596 L
337.029 92.596 L
339.325 92.596 L
341.621 92.596 L
343.917 92.596 L
346.212 92.596 L
348.508 92.596 L
350.804 92.596 L
353.1 92.596 L
355.396 92.596 L
357.691 92.596 L
359.987 92.596 L
362.283 92.596 L
S
GR
GS
0 0.447 0.741 RC
1 LJ
0.5 LW
N
359.987 92.596 M
362.283 92.596 L
364.579 92.596 L
366.875 92.596 L
369.17 92.596 L
371.466 92.596 L
373.762 92.596 L
376.058 92.596 L
378.353 92.596 L
380.649 92.596 L
382.945 92.596 L
385.241 92.596 L
387.537 92.596 L
389.832 92.596 L
392.128 92.596 L
394.424 92.596 L
396.72 92.596 L
399.016 209.192 L
401.311 209.192 L
403.607 209.192 L
405.903 209.192 L
408.199 209.192 L
410.494 209.192 L
412.79 209.192 L
415.086 209.192 L
417.382 209.192 L
419.678 209.192 L
421.973 209.192 L
424.269 209.192 L
426.565 209.192 L
428.861 209.192 L
431.157 209.192 L
433.452 209.192 L
435.748 209.192 L
438.044 209.192 L
440.34 209.192 L
442.635 209.192 L
444.931 209.192 L
447.227 209.192 L
449.523 209.192 L
451.819 209.192 L
454.114 209.192 L
456.41 209.192 L
458.706 209.192 L
461.002 209.192 L
463.298 209.192 L
465.593 209.192 L
467.889 209.192 L
470.185 209.192 L
472.481 209.192 L
474.776 209.192 L
477.072 209.192 L
S
GR
GS
0 0.447 0.741 RC
1 LJ
0.5 LW
N
474.776 209.192 M
477.072 209.192 L
479.368 209.192 L
481.664 209.192 L
483.96 209.192 L
486.255 209.192 L
488.551 209.192 L
490.847 209.192 L
493.143 209.192 L
495.439 209.192 L
497.734 209.192 L
500.03 209.192 L
502.326 209.192 L
504.622 209.192 L
506.918 209.192 L
509.213 209.192 L
511.509 209.192 L
513.805 209.192 L
516.101 209.192 L
518.396 209.192 L
520.692 209.192 L
522.988 209.192 L
525.284 209.192 L
527.58 209.192 L
529.875 209.192 L
532.171 209.192 L
534.467 209.192 L
536.763 209.192 L
539.059 209.192 L
541.354 209.192 L
543.65 209.192 L
545.946 209.192 L
548.242 209.192 L
550.537 209.192 L
552.833 209.192 L
555.129 209.192 L
557.425 209.192 L
559.721 209.192 L
562.016 209.192 L
564.312 209.192 L
566.608 209.192 L
568.904 209.192 L
571.2 209.192 L
573.495 209.192 L
575.791 209.192 L
578.087 209.192 L
580.383 209.192 L
582.679 209.192 L
584.974 209.192 L
587.27 209.192 L
589.566 209.192 L
591.862 209.192 L
S
GR
GS
0 0.447 0.741 RC
1 LJ
0.5 LW
N
589.566 209.192 M
591.862 209.192 L
594.157 209.192 L
596.453 209.192 L
598.749 209.192 L
601.045 209.192 L
603.341 209.192 L
605.636 209.192 L
607.932 209.192 L
610.228 209.192 L
612.524 209.192 L
614.82 209.192 L
617.115 209.192 L
619.411 209.192 L
621.707 209.192 L
624.003 209.192 L
626.298 209.192 L
628.594 209.192 L
630.89 209.192 L
633.186 209.192 L
635.482 209.192 L
637.777 209.192 L
640.073 209.192 L
642.369 209.192 L
644.665 209.192 L
646.961 209.192 L
649.256 209.192 L
651.552 209.192 L
653.848 209.192 L
656.144 209.192 L
658.439 209.192 L
660.735 209.192 L
663.031 209.192 L
665.327 209.192 L
667.623 209.192 L
669.918 209.192 L
672.214 209.192 L
674.51 209.192 L
676.806 209.192 L
679.102 209.192 L
681.397 209.192 L
683.693 209.192 L
685.989 209.192 L
688.285 209.192 L
690.581 209.192 L
692.876 209.192 L
695.172 209.192 L
697.468 209.192 L
699.764 209.192 L
702.059 209.192 L
704.355 209.192 L
706.651 209.192 L
S
GR
GS
0 0.447 0.741 RC
1 LJ
0.5 LW
N
704.355 209.192 M
706.651 209.192 L
708.947 209.192 L
711.243 209.192 L
713.538 209.192 L
715.834 209.192 L
718.13 209.192 L
720.426 209.192 L
722.721 209.192 L
725.017 209.192 L
727.313 209.192 L
729.609 209.192 L
731.905 209.192 L
734.2 209.192 L
736.496 209.192 L
738.792 209.192 L
741.088 209.192 L
743.384 209.192 L
745.679 209.192 L
747.975 209.192 L
750.271 209.192 L
752.567 209.192 L
754.862 209.192 L
757.158 209.192 L
759.454 209.192 L
761.75 209.192 L
764.046 209.192 L
766.341 209.192 L
768.637 209.192 L
770.933 209.192 L
773.229 209.192 L
775.525 209.192 L
777.82 209.192 L
780.116 209.192 L
782.412 209.192 L
784.708 209.192 L
787.004 209.192 L
789.299 209.192 L
791.595 209.192 L
793.891 209.192 L
796.187 209.192 L
798.482 209.192 L
800.778 209.192 L
803.074 209.192 L
805.37 209.192 L
807.666 209.192 L
809.961 209.192 L
812.257 209.192 L
814.553 209.192 L
816.849 209.192 L
819.145 209.192 L
821.44 209.192 L
S
GR
GS
0 0.447 0.741 RC
1 LJ
0.5 LW
N
819.145 209.192 M
821.44 209.192 L
823.736 209.192 L
826.032 209.192 L
828.328 209.192 L
830.624 209.192 L
832.919 209.192 L
835.215 209.192 L
837.511 209.192 L
839.807 209.192 L
842.102 209.192 L
844.398 209.192 L
846.694 209.192 L
848.99 209.192 L
851.286 209.192 L
853.581 209.192 L
855.877 209.192 L
858.173 176.4 L
S
GR
GS
1 GC
N
135 469.5 M
938.5 469.5 L
938.5 305.5 L
135 305.5 L
cp
f
GR
GS
0.873 GC
1 LJ
0.5 LW
N
135 469.5 M
135 305.5 L
S
GR
GS
0.873 GC
1 LJ
0.5 LW
N
249.786 469.5 M
249.786 305.5 L
S
GR
GS
0.873 GC
1 LJ
0.5 LW
N
364.571 469.5 M
364.571 305.5 L
S
GR
GS
0.873 GC
1 LJ
0.5 LW
N
479.357 469.5 M
479.357 305.5 L
S
GR
GS
0.873 GC
1 LJ
0.5 LW
N
594.143 469.5 M
594.143 305.5 L
S
GR
GS
0.873 GC
1 LJ
0.5 LW
N
708.929 469.5 M
708.929 305.5 L
S
GR
GS
0.873 GC
1 LJ
0.5 LW
N
823.714 469.5 M
823.714 305.5 L
S
GR
GS
0.873 GC
1 LJ
0.5 LW
N
938.5 469.5 M
938.5 305.5 L
S
GR
GS
0.873 GC
1 LJ
0.5 LW
N
938.5 469.5 M
135 469.5 L
S
GR
GS
0.873 GC
1 LJ
0.5 LW
N
938.5 442.167 M
135 442.167 L
S
GR
GS
0.873 GC
1 LJ
0.5 LW
N
938.5 414.833 M
135 414.833 L
S
GR
GS
0.873 GC
1 LJ
0.5 LW
N
938.5 387.5 M
135 387.5 L
S
GR
GS
0.873 GC
1 LJ
0.5 LW
N
938.5 360.167 M
135 360.167 L
S
GR
GS
0.873 GC
1 LJ
0.5 LW
N
938.5 332.833 M
135 332.833 L
S
GR
GS
0.873 GC
1 LJ
0.5 LW
N
938.5 305.5 M
135 305.5 L
S
GR
GS
0.149 GC
2 setlinecap
1 LJ
0.5 LW
N
135 469.5 M
938.5 469.5 L
S
GR
GS
0.149 GC
2 setlinecap
1 LJ
0.5 LW
N
135 305.5 M
938.5 305.5 L
S
GR
GS
0.149 GC
2 setlinecap
1 LJ
0.5 LW
N
135 469.5 M
135 461.465 L
S
GR
GS
0.149 GC
2 setlinecap
1 LJ
0.5 LW
N
249.786 469.5 M
249.786 461.465 L
S
GR
GS
0.149 GC
2 setlinecap
1 LJ
0.5 LW
N
364.571 469.5 M
364.571 461.465 L
S
GR
GS
0.149 GC
2 setlinecap
1 LJ
0.5 LW
N
479.357 469.5 M
479.357 461.465 L
S
GR
GS
0.149 GC
2 setlinecap
1 LJ
0.5 LW
N
594.143 469.5 M
594.143 461.465 L
S
GR
GS
0.149 GC
2 setlinecap
1 LJ
0.5 LW
N
708.929 469.5 M
708.929 461.465 L
S
GR
GS
0.149 GC
2 setlinecap
1 LJ
0.5 LW
N
823.714 469.5 M
823.714 461.465 L
S
GR
GS
0.149 GC
2 setlinecap
1 LJ
0.5 LW
N
938.5 469.5 M
938.5 461.465 L
S
GR
GS
0.149 GC
2 setlinecap
1 LJ
0.5 LW
N
135 305.5 M
135 313.535 L
S
GR
GS
0.149 GC
2 setlinecap
1 LJ
0.5 LW
N
249.786 305.5 M
249.786 313.535 L
S
GR
GS
0.149 GC
2 setlinecap
1 LJ
0.5 LW
N
364.571 305.5 M
364.571 313.535 L
S
GR
GS
0.149 GC
2 setlinecap
1 LJ
0.5 LW
N
479.357 305.5 M
479.357 313.535 L
S
GR
GS
0.149 GC
2 setlinecap
1 LJ
0.5 LW
N
594.143 305.5 M
594.143 313.535 L
S
GR
GS
0.149 GC
2 setlinecap
1 LJ
0.5 LW
N
708.929 305.5 M
708.929 313.535 L
S
GR
GS
0.149 GC
2 setlinecap
1 LJ
0.5 LW
N
823.714 305.5 M
823.714 313.535 L
S
GR
GS
0.149 GC
2 setlinecap
1 LJ
0.5 LW
N
938.5 305.5 M
938.5 313.535 L
S
GR
GS
[1 0 0 1 135 473.5] CT
0.149 GC
/Helvetica 10 F
GS
[1 0 0 1 0 0] CT
-3 8 moveto 
1 -1 scale
(0) t 
GR
GR
GS
[1 0 0 1 249.78572 473.5] CT
0.149 GC
/Helvetica 10 F
GS
[1 0 0 1 0 0] CT
-10 8 moveto 
1 -1 scale
(0.05) t 
GR
GR
GS
[1 0 0 1 364.57144 473.5] CT
0.149 GC
/Helvetica 10 F
GS
[1 0 0 1 0 0] CT
-7 8 moveto 
1 -1 scale
(0.1) t 
GR
GR
GS
[1 0 0 1 479.35715 473.5] CT
0.149 GC
/Helvetica 10 F
GS
[1 0 0 1 0 0] CT
-10 8 moveto 
1 -1 scale
(0.15) t 
GR
GR
GS
[1 0 0 1 594.14288 473.5] CT
0.149 GC
/Helvetica 10 F
GS
[1 0 0 1 0 0] CT
-7 8 moveto 
1 -1 scale
(0.2) t 
GR
GR
GS
[1 0 0 1 708.92859 473.5] CT
0.149 GC
/Helvetica 10 F
GS
[1 0 0 1 0 0] CT
-10 8 moveto 
1 -1 scale
(0.25) t 
GR
GR
GS
[1 0 0 1 823.71429 473.5] CT
0.149 GC
/Helvetica 10 F
GS
[1 0 0 1 0 0] CT
-7 8 moveto 
1 -1 scale
(0.3) t 
GR
GR
GS
[1 0 0 1 938.5 473.5] CT
0.149 GC
/Helvetica 10 F
GS
[1 0 0 1 0 0] CT
-10 8 moveto 
1 -1 scale
(0.35) t 
GR
GR
GS
[1 0 0 1 536.75037 485] CT
0.149 GC
/Helvetica 11 F
GS
[1 0 0 1 0 0] CT
-27 9 moveto 
1 -1 scale
(Length \(m\)) t 
GR
GR
GS
0.149 GC
2 setlinecap
1 LJ
0.5 LW
N
135 469.5 M
135 305.5 L
S
GR
GS
0.149 GC
2 setlinecap
1 LJ
0.5 LW
N
938.5 469.5 M
938.5 305.5 L
S
GR
GS
0.149 GC
2 setlinecap
1 LJ
0.5 LW
N
135 469.5 M
143.035 469.5 L
S
GR
GS
0.149 GC
2 setlinecap
1 LJ
0.5 LW
N
135 442.167 M
143.035 442.167 L
S
GR
GS
0.149 GC
2 setlinecap
1 LJ
0.5 LW
N
135 414.833 M
143.035 414.833 L
S
GR
GS
0.149 GC
2 setlinecap
1 LJ
0.5 LW
N
135 387.5 M
143.035 387.5 L
S
GR
GS
0.149 GC
2 setlinecap
1 LJ
0.5 LW
N
135 360.167 M
143.035 360.167 L
S
GR
GS
0.149 GC
2 setlinecap
1 LJ
0.5 LW
N
135 332.833 M
143.035 332.833 L
S
GR
GS
0.149 GC
2 setlinecap
1 LJ
0.5 LW
N
135 305.5 M
143.035 305.5 L
S
GR
GS
0.149 GC
2 setlinecap
1 LJ
0.5 LW
N
938.5 469.5 M
930.465 469.5 L
S
GR
GS
0.149 GC
2 setlinecap
1 LJ
0.5 LW
N
938.5 442.167 M
930.465 442.167 L
S
GR
GS
0.149 GC
2 setlinecap
1 LJ
0.5 LW
N
938.5 414.833 M
930.465 414.833 L
S
GR
GS
0.149 GC
2 setlinecap
1 LJ
0.5 LW
N
938.5 387.5 M
930.465 387.5 L
S
GR
GS
0.149 GC
2 setlinecap
1 LJ
0.5 LW
N
938.5 360.167 M
930.465 360.167 L
S
GR
GS
0.149 GC
2 setlinecap
1 LJ
0.5 LW
N
938.5 332.833 M
930.465 332.833 L
S
GR
GS
0.149 GC
2 setlinecap
1 LJ
0.5 LW
N
938.5 305.5 M
930.465 305.5 L
S
GR
GS
[1 0 0 1 131 469.5] CT
0.149 GC
/Helvetica 10 F
GS
[1 0 0 1 0 0] CT
-15 2.5 moveto 
1 -1 scale
(-20) t 
GR
GR
GS
[1 0 0 1 131 442.16666] CT
0.149 GC
/Helvetica 10 F
GS
[1 0 0 1 0 0] CT
-6 2.5 moveto 
1 -1 scale
(0) t 
GR
GR
GS
[1 0 0 1 131 414.83334] CT
0.149 GC
/Helvetica 10 F
GS
[1 0 0 1 0 0] CT
-12 2.5 moveto 
1 -1 scale
(20) t 
GR
GR
GS
[1 0 0 1 131 387.5] CT
0.149 GC
/Helvetica 10 F
GS
[1 0 0 1 0 0] CT
-12 2.5 moveto 
1 -1 scale
(40) t 
GR
GR
GS
[1 0 0 1 131 360.16666] CT
0.149 GC
/Helvetica 10 F
GS
[1 0 0 1 0 0] CT
-12 2.5 moveto 
1 -1 scale
(60) t 
GR
GR
GS
[1 0 0 1 131 332.83334] CT
0.149 GC
/Helvetica 10 F
GS
[1 0 0 1 0 0] CT
-12 2.5 moveto 
1 -1 scale
(80) t 
GR
GR
GS
[1 0 0 1 131 305.5] CT
0.149 GC
/Helvetica 10 F
GS
[1 0 0 1 0 0] CT
-17 2.5 moveto 
1 -1 scale
(100) t 
GR
GR
GS
[0 -1 1 0 111 387.49991] CT
0.149 GC
/Helvetica 11 F
GS
[1 0 0 1 0 0] CT
-34 -3 moveto 
1 -1 scale
(Moment \(Nm\)) t 
GR
GR
GS
[1 0 0 1 536.75049 304.125] CT
/Helvetica-Bold 11 F
GS
[1 0 0 1 0 0] CT
-191 -3 moveto 
1 -1 scale
(Vertical Moment Diagram of Alternating Load: Fcf in Positive Y Direction.) t 
GR
GR
GS
0 0.447 0.741 RC
1 LJ
0.5 LW
N
135 442.167 M
137.296 442.987 L
139.592 443.807 L
141.887 444.627 L
144.183 445.447 L
146.479 446.267 L
148.775 447.087 L
151.071 447.907 L
153.366 448.727 L
155.662 449.547 L
157.958 450.367 L
160.254 451.187 L
162.549 452.007 L
164.845 452.827 L
167.141 453.647 L
169.437 454.467 L
171.733 455.287 L
174.028 456.107 L
176.324 456.927 L
178.62 457.747 L
180.916 458.567 L
183.212 459.387 L
185.507 460.207 L
187.803 461.027 L
190.099 461.847 L
192.395 462.665 L
194.69 460.919 L
196.986 459.173 L
199.282 457.427 L
201.578 455.681 L
203.874 453.935 L
206.169 452.189 L
208.465 450.443 L
210.761 448.698 L
213.057 446.952 L
215.353 445.206 L
217.648 443.46 L
219.944 441.714 L
222.24 439.968 L
224.536 438.222 L
226.831 436.476 L
229.127 434.73 L
231.423 432.984 L
233.719 431.238 L
236.015 429.492 L
238.31 427.746 L
240.606 426 L
242.902 424.254 L
245.198 422.508 L
247.494 420.762 L
S
GR
GS
0 0.447 0.741 RC
1 LJ
0.5 LW
N
245.198 422.508 M
247.494 420.762 L
249.789 419.016 L
252.085 417.27 L
254.381 415.524 L
256.677 413.778 L
258.973 412.032 L
261.268 410.286 L
263.564 408.54 L
265.86 406.794 L
268.156 405.048 L
270.451 403.302 L
272.747 401.556 L
275.043 399.81 L
277.339 398.064 L
279.635 396.318 L
281.93 394.572 L
284.226 392.826 L
286.522 391.08 L
288.818 389.334 L
291.114 387.588 L
293.409 385.842 L
295.705 384.096 L
298.001 382.351 L
300.297 380.605 L
302.592 378.859 L
304.888 377.113 L
307.184 375.367 L
309.48 373.621 L
311.776 371.875 L
314.071 370.129 L
316.367 368.383 L
318.663 366.637 L
320.959 364.891 L
323.255 363.145 L
325.55 361.399 L
327.846 359.653 L
330.142 357.907 L
332.438 356.161 L
334.733 354.415 L
337.029 352.669 L
339.325 350.923 L
341.621 349.177 L
343.917 347.431 L
346.212 345.685 L
348.508 343.939 L
350.804 342.193 L
353.1 340.447 L
355.396 338.701 L
357.691 336.955 L
359.987 335.209 L
362.283 333.463 L
S
GR
GS
0 0.447 0.741 RC
1 LJ
0.5 LW
N
359.987 335.209 M
362.283 333.463 L
364.579 331.717 L
366.875 329.971 L
369.17 328.225 L
371.466 326.479 L
373.762 324.733 L
376.058 322.987 L
378.353 321.241 L
380.649 319.495 L
382.945 317.75 L
385.241 316.004 L
387.537 314.258 L
389.832 312.512 L
392.128 310.766 L
394.424 309.02 L
396.72 307.274 L
399.016 305.537 L
401.311 306.22 L
403.607 306.903 L
405.903 307.586 L
408.199 308.269 L
410.494 308.952 L
412.79 309.636 L
415.086 310.319 L
417.382 311.002 L
419.678 311.685 L
421.973 312.368 L
424.269 313.052 L
426.565 313.735 L
428.861 314.418 L
431.157 315.101 L
433.452 315.784 L
435.748 316.468 L
438.044 317.151 L
440.34 317.834 L
442.635 318.517 L
444.931 319.2 L
447.227 319.883 L
449.523 320.567 L
451.819 321.25 L
454.114 321.933 L
456.41 322.616 L
458.706 323.299 L
461.002 323.983 L
463.298 324.666 L
465.593 325.349 L
467.889 326.032 L
470.185 326.715 L
472.481 327.398 L
474.776 328.082 L
477.072 328.765 L
S
GR
GS
0 0.447 0.741 RC
1 LJ
0.5 LW
N
474.776 328.082 M
477.072 328.765 L
479.368 329.448 L
481.664 330.131 L
483.96 330.814 L
486.255 331.498 L
488.551 332.181 L
490.847 332.864 L
493.143 333.547 L
495.439 334.23 L
497.734 334.914 L
500.03 335.597 L
502.326 336.28 L
504.622 336.963 L
506.918 337.646 L
509.213 338.329 L
511.509 339.013 L
513.805 339.696 L
516.101 340.379 L
518.396 341.062 L
520.692 341.745 L
522.988 342.429 L
525.284 343.112 L
527.58 343.795 L
529.875 344.478 L
532.171 345.161 L
534.467 345.844 L
536.763 346.528 L
539.059 347.211 L
541.354 347.894 L
543.65 348.577 L
545.946 349.26 L
548.242 349.944 L
550.537 350.627 L
552.833 351.31 L
555.129 351.993 L
557.425 352.676 L
559.721 353.359 L
562.016 354.043 L
564.312 354.726 L
566.608 355.409 L
568.904 356.092 L
571.2 356.775 L
573.495 357.459 L
575.791 358.142 L
578.087 358.825 L
580.383 359.508 L
582.679 360.191 L
584.974 360.875 L
587.27 361.558 L
589.566 362.241 L
591.862 362.924 L
S
GR
GS
0 0.447 0.741 RC
1 LJ
0.5 LW
N
589.566 362.241 M
591.862 362.924 L
594.157 363.607 L
596.453 364.29 L
598.749 364.974 L
601.045 365.657 L
603.341 366.34 L
605.636 367.023 L
607.932 367.706 L
610.228 368.39 L
612.524 369.073 L
614.82 369.756 L
617.115 370.439 L
619.411 371.122 L
621.707 371.805 L
624.003 372.489 L
626.298 373.172 L
628.594 373.855 L
630.89 374.538 L
633.186 375.221 L
635.482 375.905 L
637.777 376.588 L
640.073 377.271 L
642.369 377.954 L
644.665 378.637 L
646.961 379.32 L
649.256 380.004 L
651.552 380.687 L
653.848 381.37 L
656.144 382.053 L
658.439 382.736 L
660.735 383.42 L
663.031 384.103 L
665.327 384.786 L
667.623 385.469 L
669.918 386.152 L
672.214 386.836 L
674.51 387.519 L
676.806 388.202 L
679.102 388.885 L
681.397 389.568 L
683.693 390.251 L
685.989 390.935 L
688.285 391.618 L
690.581 392.301 L
692.876 392.984 L
695.172 393.667 L
697.468 394.351 L
699.764 395.034 L
702.059 395.717 L
704.355 396.4 L
706.651 397.083 L
S
GR
GS
0 0.447 0.741 RC
1 LJ
0.5 LW
N
704.355 396.4 M
706.651 397.083 L
708.947 397.767 L
711.243 398.45 L
713.538 399.133 L
715.834 399.816 L
718.13 400.499 L
720.426 401.182 L
722.721 401.866 L
725.017 402.549 L
727.313 403.232 L
729.609 403.915 L
731.905 404.598 L
734.2 405.282 L
736.496 405.965 L
738.792 406.648 L
741.088 407.331 L
743.384 408.014 L
745.679 408.697 L
747.975 409.381 L
750.271 410.064 L
752.567 410.747 L
754.862 411.43 L
757.158 412.113 L
759.454 412.797 L
761.75 413.48 L
764.046 414.163 L
766.341 414.846 L
768.637 415.529 L
770.933 416.212 L
773.229 416.896 L
775.525 417.579 L
777.82 418.262 L
780.116 418.945 L
782.412 419.628 L
784.708 420.312 L
787.004 420.995 L
789.299 421.678 L
791.595 422.361 L
793.891 423.044 L
796.187 423.728 L
798.482 424.411 L
800.778 425.094 L
803.074 425.777 L
805.37 426.46 L
807.666 427.143 L
809.961 427.827 L
812.257 428.51 L
814.553 429.193 L
816.849 429.876 L
819.145 430.559 L
821.44 431.243 L
S
GR
GS
0 0.447 0.741 RC
1 LJ
0.5 LW
N
819.145 430.559 M
821.44 431.243 L
823.736 431.926 L
826.032 432.609 L
828.328 433.292 L
830.624 433.975 L
832.919 434.658 L
835.215 435.342 L
837.511 436.025 L
839.807 436.708 L
842.102 437.391 L
844.398 438.074 L
846.694 438.758 L
848.99 439.441 L
851.286 440.124 L
853.581 440.807 L
855.877 441.49 L
858.173 442.167 L
S
GR
GS
1 GC
N
135 697 M
938.5 697 L
938.5 533 L
135 533 L
cp
f
GR
GS
0.873 GC
1 LJ
0.5 LW
N
135 697 M
135 533 L
S
GR
GS
0.873 GC
1 LJ
0.5 LW
N
249.786 697 M
249.786 533 L
S
GR
GS
0.873 GC
1 LJ
0.5 LW
N
364.571 697 M
364.571 533 L
S
GR
GS
0.873 GC
1 LJ
0.5 LW
N
479.357 697 M
479.357 533 L
S
GR
GS
0.873 GC
1 LJ
0.5 LW
N
594.143 697 M
594.143 533 L
S
GR
GS
0.873 GC
1 LJ
0.5 LW
N
708.929 697 M
708.929 533 L
S
GR
GS
0.873 GC
1 LJ
0.5 LW
N
823.714 697 M
823.714 533 L
S
GR
GS
0.873 GC
1 LJ
0.5 LW
N
938.5 697 M
938.5 533 L
S
GR
GS
0.873 GC
1 LJ
0.5 LW
N
938.5 697 M
135 697 L
S
GR
GS
0.873 GC
1 LJ
0.5 LW
N
938.5 676.5 M
135 676.5 L
S
GR
GS
0.873 GC
1 LJ
0.5 LW
N
938.5 656 M
135 656 L
S
GR
GS
0.873 GC
1 LJ
0.5 LW
N
938.5 635.5 M
135 635.5 L
S
GR
GS
0.873 GC
1 LJ
0.5 LW
N
938.5 615 M
135 615 L
S
GR
GS
0.873 GC
1 LJ
0.5 LW
N
938.5 594.5 M
135 594.5 L
S
GR
GS
0.873 GC
1 LJ
0.5 LW
N
938.5 574 M
135 574 L
S
GR
GS
0.873 GC
1 LJ
0.5 LW
N
938.5 553.5 M
135 553.5 L
S
GR
GS
0.873 GC
1 LJ
0.5 LW
N
938.5 533 M
135 533 L
S
GR
GS
0.149 GC
2 setlinecap
1 LJ
0.5 LW
N
135 697 M
938.5 697 L
S
GR
GS
0.149 GC
2 setlinecap
1 LJ
0.5 LW
N
135 533 M
938.5 533 L
S
GR
GS
0.149 GC
2 setlinecap
1 LJ
0.5 LW
N
135 697 M
135 688.965 L
S
GR
GS
0.149 GC
2 setlinecap
1 LJ
0.5 LW
N
249.786 697 M
249.786 688.965 L
S
GR
GS
0.149 GC
2 setlinecap
1 LJ
0.5 LW
N
364.571 697 M
364.571 688.965 L
S
GR
GS
0.149 GC
2 setlinecap
1 LJ
0.5 LW
N
479.357 697 M
479.357 688.965 L
S
GR
GS
0.149 GC
2 setlinecap
1 LJ
0.5 LW
N
594.143 697 M
594.143 688.965 L
S
GR
GS
0.149 GC
2 setlinecap
1 LJ
0.5 LW
N
708.929 697 M
708.929 688.965 L
S
GR
GS
0.149 GC
2 setlinecap
1 LJ
0.5 LW
N
823.714 697 M
823.714 688.965 L
S
GR
GS
0.149 GC
2 setlinecap
1 LJ
0.5 LW
N
938.5 697 M
938.5 688.965 L
S
GR
GS
0.149 GC
2 setlinecap
1 LJ
0.5 LW
N
135 533 M
135 541.035 L
S
GR
GS
0.149 GC
2 setlinecap
1 LJ
0.5 LW
N
249.786 533 M
249.786 541.035 L
S
GR
GS
0.149 GC
2 setlinecap
1 LJ
0.5 LW
N
364.571 533 M
364.571 541.035 L
S
GR
GS
0.149 GC
2 setlinecap
1 LJ
0.5 LW
N
479.357 533 M
479.357 541.035 L
S
GR
GS
0.149 GC
2 setlinecap
1 LJ
0.5 LW
N
594.143 533 M
594.143 541.035 L
S
GR
GS
0.149 GC
2 setlinecap
1 LJ
0.5 LW
N
708.929 533 M
708.929 541.035 L
S
GR
GS
0.149 GC
2 setlinecap
1 LJ
0.5 LW
N
823.714 533 M
823.714 541.035 L
S
GR
GS
0.149 GC
2 setlinecap
1 LJ
0.5 LW
N
938.5 533 M
938.5 541.035 L
S
GR
GS
[1 0 0 1 135 701] CT
0.149 GC
/Helvetica 10 F
GS
[1 0 0 1 0 0] CT
-3 8 moveto 
1 -1 scale
(0) t 
GR
GR
GS
[1 0 0 1 249.78572 701] CT
0.149 GC
/Helvetica 10 F
GS
[1 0 0 1 0 0] CT
-10 8 moveto 
1 -1 scale
(0.05) t 
GR
GR
GS
[1 0 0 1 364.57144 701] CT
0.149 GC
/Helvetica 10 F
GS
[1 0 0 1 0 0] CT
-7 8 moveto 
1 -1 scale
(0.1) t 
GR
GR
GS
[1 0 0 1 479.35715 701] CT
0.149 GC
/Helvetica 10 F
GS
[1 0 0 1 0 0] CT
-10 8 moveto 
1 -1 scale
(0.15) t 
GR
GR
GS
[1 0 0 1 594.14288 701] CT
0.149 GC
/Helvetica 10 F
GS
[1 0 0 1 0 0] CT
-7 8 moveto 
1 -1 scale
(0.2) t 
GR
GR
GS
[1 0 0 1 708.92859 701] CT
0.149 GC
/Helvetica 10 F
GS
[1 0 0 1 0 0] CT
-10 8 moveto 
1 -1 scale
(0.25) t 
GR
GR
GS
[1 0 0 1 823.71429 701] CT
0.149 GC
/Helvetica 10 F
GS
[1 0 0 1 0 0] CT
-7 8 moveto 
1 -1 scale
(0.3) t 
GR
GR
GS
[1 0 0 1 938.5 701] CT
0.149 GC
/Helvetica 10 F
GS
[1 0 0 1 0 0] CT
-10 8 moveto 
1 -1 scale
(0.35) t 
GR
GR
GS
[1 0 0 1 536.75037 712.5] CT
0.149 GC
/Helvetica 11 F
GS
[1 0 0 1 0 0] CT
-27 9 moveto 
1 -1 scale
(Length \(m\)) t 
GR
GR
GS
0.149 GC
2 setlinecap
1 LJ
0.5 LW
N
135 697 M
135 533 L
S
GR
GS
0.149 GC
2 setlinecap
1 LJ
0.5 LW
N
938.5 697 M
938.5 533 L
S
GR
GS
0.149 GC
2 setlinecap
1 LJ
0.5 LW
N
135 697 M
143.035 697 L
S
GR
GS
0.149 GC
2 setlinecap
1 LJ
0.5 LW
N
135 676.5 M
143.035 676.5 L
S
GR
GS
0.149 GC
2 setlinecap
1 LJ
0.5 LW
N
135 656 M
143.035 656 L
S
GR
GS
0.149 GC
2 setlinecap
1 LJ
0.5 LW
N
135 635.5 M
143.035 635.5 L
S
GR
GS
0.149 GC
2 setlinecap
1 LJ
0.5 LW
N
135 615 M
143.035 615 L
S
GR
GS
0.149 GC
2 setlinecap
1 LJ
0.5 LW
N
135 594.5 M
143.035 594.5 L
S
GR
GS
0.149 GC
2 setlinecap
1 LJ
0.5 LW
N
135 574 M
143.035 574 L
S
GR
GS
0.149 GC
2 setlinecap
1 LJ
0.5 LW
N
135 553.5 M
143.035 553.5 L
S
GR
GS
0.149 GC
2 setlinecap
1 LJ
0.5 LW
N
135 533 M
143.035 533 L
S
GR
GS
0.149 GC
2 setlinecap
1 LJ
0.5 LW
N
938.5 697 M
930.465 697 L
S
GR
GS
0.149 GC
2 setlinecap
1 LJ
0.5 LW
N
938.5 676.5 M
930.465 676.5 L
S
GR
GS
0.149 GC
2 setlinecap
1 LJ
0.5 LW
N
938.5 656 M
930.465 656 L
S
GR
GS
0.149 GC
2 setlinecap
1 LJ
0.5 LW
N
938.5 635.5 M
930.465 635.5 L
S
GR
GS
0.149 GC
2 setlinecap
1 LJ
0.5 LW
N
938.5 615 M
930.465 615 L
S
GR
GS
0.149 GC
2 setlinecap
1 LJ
0.5 LW
N
938.5 594.5 M
930.465 594.5 L
S
GR
GS
0.149 GC
2 setlinecap
1 LJ
0.5 LW
N
938.5 574 M
930.465 574 L
S
GR
GS
0.149 GC
2 setlinecap
1 LJ
0.5 LW
N
938.5 553.5 M
930.465 553.5 L
S
GR
GS
0.149 GC
2 setlinecap
1 LJ
0.5 LW
N
938.5 533 M
930.465 533 L
S
GR
GS
[1 0 0 1 131 697] CT
0.149 GC
/Helvetica 10 F
GS
[1 0 0 1 0 0] CT
-9 2.5 moveto 
1 -1 scale
(-2) t 
GR
GR
GS
[1 0 0 1 131 676.5] CT
0.149 GC
/Helvetica 10 F
GS
[1 0 0 1 0 0] CT
-6 2.5 moveto 
1 -1 scale
(0) t 
GR
GR
GS
[1 0 0 1 131 656] CT
0.149 GC
/Helvetica 10 F
GS
[1 0 0 1 0 0] CT
-6 2.5 moveto 
1 -1 scale
(2) t 
GR
GR
GS
[1 0 0 1 131 635.5] CT
0.149 GC
/Helvetica 10 F
GS
[1 0 0 1 0 0] CT
-6 2.5 moveto 
1 -1 scale
(4) t 
GR
GR
GS
[1 0 0 1 131 615] CT
0.149 GC
/Helvetica 10 F
GS
[1 0 0 1 0 0] CT
-6 2.5 moveto 
1 -1 scale
(6) t 
GR
GR
GS
[1 0 0 1 131 594.5] CT
0.149 GC
/Helvetica 10 F
GS
[1 0 0 1 0 0] CT
-6 2.5 moveto 
1 -1 scale
(8) t 
GR
GR
GS
[1 0 0 1 131 574] CT
0.149 GC
/Helvetica 10 F
GS
[1 0 0 1 0 0] CT
-12 2.5 moveto 
1 -1 scale
(10) t 
GR
GR
GS
[1 0 0 1 131 553.5] CT
0.149 GC
/Helvetica 10 F
GS
[1 0 0 1 0 0] CT
-12 2.5 moveto 
1 -1 scale
(12) t 
GR
GR
GS
[1 0 0 1 131 533] CT
0.149 GC
/Helvetica 10 F
GS
[1 0 0 1 0 0] CT
-12 2.5 moveto 
1 -1 scale
(14) t 
GR
GR
GS
[0 -1 1 0 114 653] CT
0.149 GC
/Helvetica 11 F
GS
[1 0 0 1 0 0] CT
0 0 moveto 
1 -1 scale
(EI*Theta \(Nm) t 
GR
GR
GS
[0 -1 1 0 109 586] CT
0.149 GC
/Helvetica 8 F
GS
[1 0 0 1 0 0] CT
0 0 moveto 
1 -1 scale
(2) t 
GR
GR
GS
[0 -1 1 0 114 581] CT
0.149 GC
/Helvetica 11 F
GS
[1 0 0 1 0 0] CT
0 0 moveto 
1 -1 scale
(\)) t 
GR
GR
GS
[1 0 0 1 536.75049 531.625] CT
/Helvetica-Bold 11 F
GS
[1 0 0 1 0 0] CT
-222.5 -3 moveto 
1 -1 scale
(Vertical Angular Deflection \(EI*Theta\) of Alternating Load: Fcf in Positive Y Direction.) t 
GR
GR
GS
0 0.447 0.741 RC
1 LJ
0.5 LW
N
135 685.338 M
137.296 685.341 L
139.592 685.35 L
141.887 685.366 L
144.183 685.387 L
146.479 685.415 L
148.775 685.449 L
151.071 685.489 L
153.366 685.535 L
155.662 685.587 L
157.958 685.646 L
160.254 685.71 L
162.549 685.781 L
164.845 685.858 L
167.141 685.941 L
169.437 686.03 L
171.733 686.125 L
174.028 686.227 L
176.324 686.334 L
178.62 686.448 L
180.916 686.568 L
183.212 686.694 L
185.507 686.826 L
187.803 686.965 L
190.099 687.109 L
192.395 687.26 L
194.69 687.407 L
196.986 687.541 L
199.282 687.662 L
201.578 687.77 L
203.874 687.865 L
206.169 687.947 L
208.465 688.015 L
210.761 688.071 L
213.057 688.113 L
215.353 688.143 L
217.648 688.159 L
219.944 688.162 L
222.24 688.152 L
224.536 688.129 L
226.831 688.093 L
229.127 688.044 L
231.423 687.981 L
233.719 687.906 L
236.015 687.818 L
238.31 687.716 L
240.606 687.601 L
242.902 687.473 L
245.198 687.332 L
247.494 687.178 L
S
GR
GS
0 0.447 0.741 RC
1 LJ
0.5 LW
N
245.198 687.332 M
247.494 687.178 L
249.789 687.011 L
252.085 686.831 L
254.381 686.638 L
256.677 686.432 L
258.973 686.212 L
261.268 685.98 L
263.564 685.734 L
265.86 685.475 L
268.156 685.203 L
270.451 684.918 L
272.747 684.62 L
275.043 684.309 L
277.339 683.985 L
279.635 683.648 L
281.93 683.297 L
284.226 682.934 L
286.522 682.557 L
288.818 682.167 L
291.114 681.765 L
293.409 681.349 L
295.705 680.92 L
298.001 680.478 L
300.297 680.022 L
302.592 679.554 L
304.888 679.073 L
307.184 678.578 L
309.48 678.071 L
311.776 677.55 L
314.071 677.016 L
316.367 676.469 L
318.663 675.909 L
320.959 675.336 L
323.255 674.75 L
325.55 674.151 L
327.846 673.539 L
330.142 672.913 L
332.438 672.275 L
334.733 671.623 L
337.029 670.958 L
339.325 670.281 L
341.621 669.59 L
343.917 668.886 L
346.212 668.169 L
348.508 667.439 L
350.804 666.695 L
353.1 665.939 L
355.396 665.169 L
357.691 664.387 L
359.987 663.591 L
362.283 662.782 L
S
GR
GS
0 0.447 0.741 RC
1 LJ
0.5 LW
N
359.987 663.591 M
362.283 662.782 L
364.579 661.961 L
366.875 661.126 L
369.17 660.278 L
371.466 659.416 L
373.762 658.542 L
376.058 657.655 L
378.353 656.755 L
380.649 655.841 L
382.945 654.914 L
385.241 653.975 L
387.537 653.022 L
389.832 652.056 L
392.128 651.077 L
394.424 650.085 L
396.72 649.08 L
399.016 648.061 L
401.311 647.039 L
403.607 646.022 L
405.903 645.01 L
408.199 644.003 L
410.494 643.002 L
412.79 642.005 L
415.086 641.014 L
417.382 640.027 L
419.678 639.046 L
421.973 638.07 L
424.269 637.099 L
426.565 636.133 L
428.861 635.173 L
431.157 634.217 L
433.452 633.266 L
435.748 632.321 L
438.044 631.381 L
440.34 630.446 L
442.635 629.516 L
444.931 628.591 L
447.227 627.671 L
449.523 626.757 L
451.819 625.847 L
454.114 624.943 L
456.41 624.044 L
458.706 623.15 L
461.002 622.261 L
463.298 621.377 L
465.593 620.498 L
467.889 619.625 L
470.185 618.756 L
472.481 617.893 L
474.776 617.034 L
477.072 616.181 L
S
GR
GS
0 0.447 0.741 RC
1 LJ
0.5 LW
N
474.776 617.034 M
477.072 616.181 L
479.368 615.333 L
481.664 614.49 L
483.96 613.653 L
486.255 612.82 L
488.551 611.993 L
490.847 611.17 L
493.143 610.353 L
495.439 609.541 L
497.734 608.734 L
500.03 607.932 L
502.326 607.135 L
504.622 606.344 L
506.918 605.557 L
509.213 604.776 L
511.509 604 L
513.805 603.229 L
516.101 602.463 L
518.396 601.702 L
520.692 600.946 L
522.988 600.195 L
525.284 599.45 L
527.58 598.709 L
529.875 597.974 L
532.171 597.244 L
534.467 596.519 L
536.763 595.799 L
539.059 595.084 L
541.354 594.375 L
543.65 593.67 L
545.946 592.971 L
548.242 592.277 L
550.537 591.588 L
552.833 590.904 L
555.129 590.225 L
557.425 589.551 L
559.721 588.882 L
562.016 588.219 L
564.312 587.56 L
566.608 586.907 L
568.904 586.259 L
571.2 585.616 L
573.495 584.978 L
575.791 584.345 L
578.087 583.718 L
580.383 583.095 L
582.679 582.478 L
584.974 581.865 L
587.27 581.258 L
589.566 580.656 L
591.862 580.059 L
S
GR
GS
0 0.447 0.741 RC
1 LJ
0.5 LW
N
589.566 580.656 M
591.862 580.059 L
594.157 579.468 L
596.453 578.881 L
598.749 578.299 L
601.045 577.723 L
603.341 577.152 L
605.636 576.586 L
607.932 576.025 L
610.228 575.469 L
612.524 574.918 L
614.82 574.372 L
617.115 573.832 L
619.411 573.296 L
621.707 572.766 L
624.003 572.241 L
626.298 571.721 L
628.594 571.206 L
630.89 570.696 L
633.186 570.191 L
635.482 569.692 L
637.777 569.197 L
640.073 568.708 L
642.369 568.224 L
644.665 567.745 L
646.961 567.271 L
649.256 566.802 L
651.552 566.339 L
653.848 565.88 L
656.144 565.427 L
658.439 564.978 L
660.735 564.535 L
663.031 564.097 L
665.327 563.664 L
667.623 563.236 L
669.918 562.814 L
672.214 562.396 L
674.51 561.984 L
676.806 561.576 L
679.102 561.174 L
681.397 560.777 L
683.693 560.385 L
685.989 559.998 L
688.285 559.617 L
690.581 559.24 L
692.876 558.869 L
695.172 558.502 L
697.468 558.141 L
699.764 557.785 L
702.059 557.434 L
704.355 557.088 L
706.651 556.747 L
S
GR
GS
0 0.447 0.741 RC
1 LJ
0.5 LW
N
704.355 557.088 M
706.651 556.747 L
708.947 556.412 L
711.243 556.081 L
713.538 555.756 L
715.834 555.436 L
718.13 555.121 L
720.426 554.811 L
722.721 554.506 L
725.017 554.206 L
727.313 553.912 L
729.609 553.622 L
731.905 553.338 L
734.2 553.059 L
736.496 552.785 L
738.792 552.516 L
741.088 552.252 L
743.384 551.993 L
745.679 551.74 L
747.975 551.491 L
750.271 551.248 L
752.567 551.01 L
754.862 550.776 L
757.158 550.549 L
759.454 550.326 L
761.75 550.108 L
764.046 549.895 L
766.341 549.688 L
768.637 549.486 L
770.933 549.288 L
773.229 549.096 L
775.525 548.909 L
777.82 548.727 L
780.116 548.551 L
782.412 548.379 L
784.708 548.213 L
787.004 548.051 L
789.299 547.895 L
791.595 547.744 L
793.891 547.598 L
796.187 547.457 L
798.482 547.321 L
800.778 547.191 L
803.074 547.065 L
805.37 546.945 L
807.666 546.83 L
809.961 546.719 L
812.257 546.615 L
814.553 546.515 L
816.849 546.42 L
819.145 546.33 L
821.44 546.246 L
S
GR
GS
0 0.447 0.741 RC
1 LJ
0.5 LW
N
819.145 546.33 M
821.44 546.246 L
823.736 546.166 L
826.032 546.092 L
828.328 546.023 L
830.624 545.959 L
832.919 545.9 L
835.215 545.846 L
837.511 545.798 L
839.807 545.754 L
842.102 545.716 L
844.398 545.683 L
846.694 545.655 L
848.99 545.632 L
851.286 545.614 L
853.581 545.601 L
855.877 545.593 L
858.173 545.591 L
S
GR
GS
1 GC
N
135 924.5 M
938.5 924.5 L
938.5 761 L
135 761 L
cp
f
GR
GS
0.873 GC
1 LJ
0.5 LW
N
135 924.5 M
135 761 L
S
GR
GS
0.873 GC
1 LJ
0.5 LW
N
249.786 924.5 M
249.786 761 L
S
GR
GS
0.873 GC
1 LJ
0.5 LW
N
364.571 924.5 M
364.571 761 L
S
GR
GS
0.873 GC
1 LJ
0.5 LW
N
479.357 924.5 M
479.357 761 L
S
GR
GS
0.873 GC
1 LJ
0.5 LW
N
594.143 924.5 M
594.143 761 L
S
GR
GS
0.873 GC
1 LJ
0.5 LW
N
708.929 924.5 M
708.929 761 L
S
GR
GS
0.873 GC
1 LJ
0.5 LW
N
823.714 924.5 M
823.714 761 L
S
GR
GS
0.873 GC
1 LJ
0.5 LW
N
938.5 924.5 M
938.5 761 L
S
GR
GS
0.873 GC
1 LJ
0.5 LW
N
938.5 924.5 M
135 924.5 L
S
GR
GS
0.873 GC
1 LJ
0.5 LW
N
938.5 891.8 M
135 891.8 L
S
GR
GS
0.873 GC
1 LJ
0.5 LW
N
938.5 859.1 M
135 859.1 L
S
GR
GS
0.873 GC
1 LJ
0.5 LW
N
938.5 826.4 M
135 826.4 L
S
GR
GS
0.873 GC
1 LJ
0.5 LW
N
938.5 793.7 M
135 793.7 L
S
GR
GS
0.873 GC
1 LJ
0.5 LW
N
938.5 761 M
135 761 L
S
GR
GS
0.149 GC
2 setlinecap
1 LJ
0.5 LW
N
135 924.5 M
938.5 924.5 L
S
GR
GS
0.149 GC
2 setlinecap
1 LJ
0.5 LW
N
135 761 M
938.5 761 L
S
GR
GS
0.149 GC
2 setlinecap
1 LJ
0.5 LW
N
135 924.5 M
135 916.465 L
S
GR
GS
0.149 GC
2 setlinecap
1 LJ
0.5 LW
N
249.786 924.5 M
249.786 916.465 L
S
GR
GS
0.149 GC
2 setlinecap
1 LJ
0.5 LW
N
364.571 924.5 M
364.571 916.465 L
S
GR
GS
0.149 GC
2 setlinecap
1 LJ
0.5 LW
N
479.357 924.5 M
479.357 916.465 L
S
GR
GS
0.149 GC
2 setlinecap
1 LJ
0.5 LW
N
594.143 924.5 M
594.143 916.465 L
S
GR
GS
0.149 GC
2 setlinecap
1 LJ
0.5 LW
N
708.929 924.5 M
708.929 916.465 L
S
GR
GS
0.149 GC
2 setlinecap
1 LJ
0.5 LW
N
823.714 924.5 M
823.714 916.465 L
S
GR
GS
0.149 GC
2 setlinecap
1 LJ
0.5 LW
N
938.5 924.5 M
938.5 916.465 L
S
GR
GS
0.149 GC
2 setlinecap
1 LJ
0.5 LW
N
135 761 M
135 769.035 L
S
GR
GS
0.149 GC
2 setlinecap
1 LJ
0.5 LW
N
249.786 761 M
249.786 769.035 L
S
GR
GS
0.149 GC
2 setlinecap
1 LJ
0.5 LW
N
364.571 761 M
364.571 769.035 L
S
GR
GS
0.149 GC
2 setlinecap
1 LJ
0.5 LW
N
479.357 761 M
479.357 769.035 L
S
GR
GS
0.149 GC
2 setlinecap
1 LJ
0.5 LW
N
594.143 761 M
594.143 769.035 L
S
GR
GS
0.149 GC
2 setlinecap
1 LJ
0.5 LW
N
708.929 761 M
708.929 769.035 L
S
GR
GS
0.149 GC
2 setlinecap
1 LJ
0.5 LW
N
823.714 761 M
823.714 769.035 L
S
GR
GS
0.149 GC
2 setlinecap
1 LJ
0.5 LW
N
938.5 761 M
938.5 769.035 L
S
GR
GS
[1 0 0 1 135 928.5] CT
0.149 GC
/Helvetica 10 F
GS
[1 0 0 1 0 0] CT
-3 8 moveto 
1 -1 scale
(0) t 
GR
GR
GS
[1 0 0 1 249.78572 928.5] CT
0.149 GC
/Helvetica 10 F
GS
[1 0 0 1 0 0] CT
-10 8 moveto 
1 -1 scale
(0.05) t 
GR
GR
GS
[1 0 0 1 364.57144 928.5] CT
0.149 GC
/Helvetica 10 F
GS
[1 0 0 1 0 0] CT
-7 8 moveto 
1 -1 scale
(0.1) t 
GR
GR
GS
[1 0 0 1 479.35715 928.5] CT
0.149 GC
/Helvetica 10 F
GS
[1 0 0 1 0 0] CT
-10 8 moveto 
1 -1 scale
(0.15) t 
GR
GR
GS
[1 0 0 1 594.14288 928.5] CT
0.149 GC
/Helvetica 10 F
GS
[1 0 0 1 0 0] CT
-7 8 moveto 
1 -1 scale
(0.2) t 
GR
GR
GS
[1 0 0 1 708.92859 928.5] CT
0.149 GC
/Helvetica 10 F
GS
[1 0 0 1 0 0] CT
-10 8 moveto 
1 -1 scale
(0.25) t 
GR
GR
GS
[1 0 0 1 823.71429 928.5] CT
0.149 GC
/Helvetica 10 F
GS
[1 0 0 1 0 0] CT
-7 8 moveto 
1 -1 scale
(0.3) t 
GR
GR
GS
[1 0 0 1 938.5 928.5] CT
0.149 GC
/Helvetica 10 F
GS
[1 0 0 1 0 0] CT
-10 8 moveto 
1 -1 scale
(0.35) t 
GR
GR
GS
[1 0 0 1 536.75037 940] CT
0.149 GC
/Helvetica 11 F
GS
[1 0 0 1 0 0] CT
-27 9 moveto 
1 -1 scale
(Length \(m\)) t 
GR
GR
GS
0.149 GC
2 setlinecap
1 LJ
0.5 LW
N
135 924.5 M
135 761 L
S
GR
GS
0.149 GC
2 setlinecap
1 LJ
0.5 LW
N
938.5 924.5 M
938.5 761 L
S
GR
GS
0.149 GC
2 setlinecap
1 LJ
0.5 LW
N
135 924.5 M
143.035 924.5 L
S
GR
GS
0.149 GC
2 setlinecap
1 LJ
0.5 LW
N
135 891.8 M
143.035 891.8 L
S
GR
GS
0.149 GC
2 setlinecap
1 LJ
0.5 LW
N
135 859.1 M
143.035 859.1 L
S
GR
GS
0.149 GC
2 setlinecap
1 LJ
0.5 LW
N
135 826.4 M
143.035 826.4 L
S
GR
GS
0.149 GC
2 setlinecap
1 LJ
0.5 LW
N
135 793.7 M
143.035 793.7 L
S
GR
GS
0.149 GC
2 setlinecap
1 LJ
0.5 LW
N
135 761 M
143.035 761 L
S
GR
GS
0.149 GC
2 setlinecap
1 LJ
0.5 LW
N
938.5 924.5 M
930.465 924.5 L
S
GR
GS
0.149 GC
2 setlinecap
1 LJ
0.5 LW
N
938.5 891.8 M
930.465 891.8 L
S
GR
GS
0.149 GC
2 setlinecap
1 LJ
0.5 LW
N
938.5 859.1 M
930.465 859.1 L
S
GR
GS
0.149 GC
2 setlinecap
1 LJ
0.5 LW
N
938.5 826.4 M
930.465 826.4 L
S
GR
GS
0.149 GC
2 setlinecap
1 LJ
0.5 LW
N
938.5 793.7 M
930.465 793.7 L
S
GR
GS
0.149 GC
2 setlinecap
1 LJ
0.5 LW
N
938.5 761 M
930.465 761 L
S
GR
GS
[1 0 0 1 131 924.5] CT
0.149 GC
/Helvetica 10 F
GS
[1 0 0 1 0 0] CT
-18 2.5 moveto 
1 -1 scale
(-0.5) t 
GR
GR
GS
[1 0 0 1 131 891.79999] CT
0.149 GC
/Helvetica 10 F
GS
[1 0 0 1 0 0] CT
-6 2.5 moveto 
1 -1 scale
(0) t 
GR
GR
GS
[1 0 0 1 131 859.09998] CT
0.149 GC
/Helvetica 10 F
GS
[1 0 0 1 0 0] CT
-14 2.5 moveto 
1 -1 scale
(0.5) t 
GR
GR
GS
[1 0 0 1 131 826.40002] CT
0.149 GC
/Helvetica 10 F
GS
[1 0 0 1 0 0] CT
-6 2.5 moveto 
1 -1 scale
(1) t 
GR
GR
GS
[1 0 0 1 131 793.70001] CT
0.149 GC
/Helvetica 10 F
GS
[1 0 0 1 0 0] CT
-14 2.5 moveto 
1 -1 scale
(1.5) t 
GR
GR
GS
[1 0 0 1 131 761] CT
0.149 GC
/Helvetica 10 F
GS
[1 0 0 1 0 0] CT
-6 2.5 moveto 
1 -1 scale
(2) t 
GR
GR
GS
[0 -1 1 0 108 892] CT
0.149 GC
/Helvetica 11 F
GS
[1 0 0 1 0 0] CT
0 0 moveto 
1 -1 scale
(EI*Deflection \(Nm) t 
GR
GR
GS
[0 -1 1 0 103 804] CT
0.149 GC
/Helvetica 8 F
GS
[1 0 0 1 0 0] CT
0 0 moveto 
1 -1 scale
(3) t 
GR
GR
GS
[0 -1 1 0 108 799] CT
0.149 GC
/Helvetica 11 F
GS
[1 0 0 1 0 0] CT
0 0 moveto 
1 -1 scale
(\)) t 
GR
GR
GS
[1 0 0 1 536.75049 759.625] CT
/Helvetica-Bold 11 F
GS
[1 0 0 1 0 0] CT
-189 -3 moveto 
1 -1 scale
(Vertical Deflection \(EI*Y\) of Alternating Load: Fcf in Positive Y Direction.) t 
GR
GR
GS
0 0.447 0.741 RC
1 LJ
0.5 LW
N
135 890.288 M
137.296 890.344 L
139.592 890.401 L
141.887 890.457 L
144.183 890.514 L
146.479 890.571 L
148.775 890.628 L
151.071 890.685 L
153.366 890.742 L
155.662 890.8 L
157.958 890.858 L
160.254 890.917 L
162.549 890.976 L
164.845 891.035 L
167.141 891.095 L
169.437 891.156 L
171.733 891.217 L
174.028 891.279 L
176.324 891.341 L
178.62 891.404 L
180.916 891.468 L
183.212 891.533 L
185.507 891.598 L
187.803 891.665 L
190.099 891.732 L
192.395 891.8 L
194.69 891.869 L
196.986 891.939 L
199.282 892.01 L
201.578 892.082 L
203.874 892.154 L
206.169 892.227 L
208.465 892.3 L
210.761 892.374 L
213.057 892.448 L
215.353 892.522 L
217.648 892.596 L
219.944 892.67 L
222.24 892.745 L
224.536 892.819 L
226.831 892.893 L
229.127 892.967 L
231.423 893.04 L
233.719 893.114 L
236.015 893.186 L
238.31 893.258 L
240.606 893.329 L
242.902 893.4 L
245.198 893.469 L
247.494 893.538 L
S
GR
GS
0 0.447 0.741 RC
1 LJ
0.5 LW
N
245.198 893.469 M
247.494 893.538 L
249.789 893.605 L
252.085 893.672 L
254.381 893.737 L
256.677 893.801 L
258.973 893.864 L
261.268 893.925 L
263.564 893.985 L
265.86 894.043 L
268.156 894.099 L
270.451 894.154 L
272.747 894.207 L
275.043 894.258 L
277.339 894.306 L
279.635 894.353 L
281.93 894.398 L
284.226 894.44 L
286.522 894.48 L
288.818 894.517 L
291.114 894.552 L
293.409 894.584 L
295.705 894.614 L
298.001 894.641 L
300.297 894.664 L
302.592 894.685 L
304.888 894.703 L
307.184 894.718 L
309.48 894.73 L
311.776 894.738 L
314.071 894.743 L
316.367 894.745 L
318.663 894.743 L
320.959 894.737 L
323.255 894.728 L
325.55 894.715 L
327.846 894.698 L
330.142 894.677 L
332.438 894.652 L
334.733 894.623 L
337.029 894.59 L
339.325 894.552 L
341.621 894.511 L
343.917 894.464 L
346.212 894.413 L
348.508 894.358 L
350.804 894.298 L
353.1 894.233 L
355.396 894.163 L
357.691 894.088 L
359.987 894.008 L
362.283 893.923 L
S
GR
GS
0 0.447 0.741 RC
1 LJ
0.5 LW
N
359.987 894.008 M
362.283 893.923 L
364.579 893.833 L
366.875 893.738 L
369.17 893.637 L
371.466 893.531 L
373.762 893.419 L
376.058 893.302 L
378.353 893.178 L
380.649 893.05 L
382.945 892.915 L
385.241 892.774 L
387.537 892.627 L
389.832 892.474 L
392.128 892.315 L
394.424 892.15 L
396.72 891.978 L
399.016 891.8 L
401.311 891.615 L
403.607 891.424 L
405.903 891.226 L
408.199 891.022 L
410.494 890.812 L
412.79 890.595 L
415.086 890.371 L
417.382 890.142 L
419.678 889.906 L
421.973 889.664 L
424.269 889.416 L
426.565 889.161 L
428.861 888.901 L
431.157 888.634 L
433.452 888.361 L
435.748 888.082 L
438.044 887.797 L
440.34 887.506 L
442.635 887.209 L
444.931 886.907 L
447.227 886.598 L
449.523 886.284 L
451.819 885.963 L
454.114 885.637 L
456.41 885.305 L
458.706 884.968 L
461.002 884.625 L
463.298 884.276 L
465.593 883.921 L
467.889 883.561 L
470.185 883.195 L
472.481 882.824 L
474.776 882.447 L
477.072 882.065 L
S
GR
GS
0 0.447 0.741 RC
1 LJ
0.5 LW
N
474.776 882.447 M
477.072 882.065 L
479.368 881.678 L
481.664 881.285 L
483.96 880.886 L
486.255 880.483 L
488.551 880.074 L
490.847 879.659 L
493.143 879.24 L
495.439 878.815 L
497.734 878.386 L
500.03 877.951 L
502.326 877.511 L
504.622 877.065 L
506.918 876.615 L
509.213 876.16 L
511.509 875.7 L
513.805 875.235 L
516.101 874.765 L
518.396 874.29 L
520.692 873.81 L
522.988 873.326 L
525.284 872.837 L
527.58 872.343 L
529.875 871.844 L
532.171 871.341 L
534.467 870.833 L
536.763 870.32 L
539.059 869.803 L
541.354 869.281 L
543.65 868.755 L
545.946 868.224 L
548.242 867.689 L
550.537 867.149 L
552.833 866.605 L
555.129 866.057 L
557.425 865.504 L
559.721 864.947 L
562.016 864.386 L
564.312 863.821 L
566.608 863.251 L
568.904 862.677 L
571.2 862.1 L
573.495 861.518 L
575.791 860.932 L
578.087 860.342 L
580.383 859.748 L
582.679 859.15 L
584.974 858.548 L
587.27 857.942 L
589.566 857.332 L
591.862 856.719 L
S
GR
GS
0 0.447 0.741 RC
1 LJ
0.5 LW
N
589.566 857.332 M
591.862 856.719 L
594.157 856.102 L
596.453 855.481 L
598.749 854.856 L
601.045 854.227 L
603.341 853.595 L
605.636 852.96 L
607.932 852.32 L
610.228 851.677 L
612.524 851.031 L
614.82 850.381 L
617.115 849.728 L
619.411 849.071 L
621.707 848.411 L
624.003 847.747 L
626.298 847.08 L
628.594 846.41 L
630.89 845.737 L
633.186 845.06 L
635.482 844.38 L
637.777 843.697 L
640.073 843.011 L
642.369 842.321 L
644.665 841.629 L
646.961 840.933 L
649.256 840.235 L
651.552 839.534 L
653.848 838.829 L
656.144 838.122 L
658.439 837.412 L
660.735 836.699 L
663.031 835.983 L
665.327 835.264 L
667.623 834.543 L
669.918 833.819 L
672.214 833.092 L
674.51 832.363 L
676.806 831.631 L
679.102 830.896 L
681.397 830.159 L
683.693 829.419 L
685.989 828.677 L
688.285 827.933 L
690.581 827.186 L
692.876 826.436 L
695.172 825.685 L
697.468 824.931 L
699.764 824.174 L
702.059 823.416 L
704.355 822.655 L
706.651 821.892 L
S
GR
GS
0 0.447 0.741 RC
1 LJ
0.5 LW
N
704.355 822.655 M
706.651 821.892 L
708.947 821.127 L
711.243 820.359 L
713.538 819.59 L
715.834 818.818 L
718.13 818.045 L
720.426 817.269 L
722.721 816.492 L
725.017 815.713 L
727.313 814.931 L
729.609 814.148 L
731.905 813.363 L
734.2 812.577 L
736.496 811.788 L
738.792 810.998 L
741.088 810.206 L
743.384 809.412 L
745.679 808.617 L
747.975 807.82 L
750.271 807.022 L
752.567 806.222 L
754.862 805.42 L
757.158 804.617 L
759.454 803.813 L
761.75 803.007 L
764.046 802.2 L
766.341 801.392 L
768.637 800.582 L
770.933 799.771 L
773.229 798.958 L
775.525 798.145 L
777.82 797.33 L
780.116 796.514 L
782.412 795.697 L
784.708 794.879 L
787.004 794.06 L
789.299 793.24 L
791.595 792.419 L
793.891 791.597 L
796.187 790.774 L
798.482 789.95 L
800.778 789.126 L
803.074 788.3 L
805.37 787.474 L
807.666 786.647 L
809.961 785.819 L
812.257 784.991 L
814.553 784.162 L
816.849 783.332 L
819.145 782.502 L
821.44 781.671 L
S
GR
GS
0 0.447 0.741 RC
1 LJ
0.5 LW
N
819.145 782.502 M
821.44 781.671 L
823.736 780.839 L
826.032 780.008 L
828.328 779.175 L
830.624 778.343 L
832.919 777.509 L
835.215 776.676 L
837.511 775.842 L
839.807 775.008 L
842.102 774.174 L
844.398 773.339 L
846.694 772.504 L
848.99 771.669 L
851.286 770.834 L
853.581 769.999 L
855.877 769.164 L
858.173 768.328 L
S
GR
%%Trailer
%%Pages: 1
%%EOF
