%!PS-Adobe-3.0 EPSF-3.0
%%Creator: (MATLAB, The Mathworks, Inc. Version 8.6.0.267246 \(R2015b\). Operating System: Mac OS X)
%%Title: (/Users/mvanheukelom/Documents/MTE3B/mte322/projects/2/latex/MTE-322/Project 2/images/alternating_horz_dir_XL.eps)
%%CreationDate: 2017-03-16T23:07:36
%%Pages: (atend)
%%BoundingBox: 0 0 1039 1038
%%LanguageLevel: 2
%%EndComments
%%BeginProlog
%%BeginResource: procset (Apache XML Graphics Std ProcSet) 1.2 0
%%Version: 1.2 0
%%Copyright: (Copyright 2001-2003,2010 The Apache Software Foundation. License terms: http://www.apache.org/licenses/LICENSE-2.0)
/bd{bind def}bind def
/ld{load def}bd
/GR/grestore ld
/M/moveto ld
/LJ/setlinejoin ld
/C/curveto ld
/f/fill ld
/LW/setlinewidth ld
/GC/setgray ld
/t/show ld
/N/newpath ld
/CT/concat ld
/cp/closepath ld
/S/stroke ld
/L/lineto ld
/CC/setcmykcolor ld
/A/ashow ld
/GS/gsave ld
/RC/setrgbcolor ld
/RM/rmoveto ld
/ML/setmiterlimit ld
/re {4 2 roll M
1 index 0 rlineto
0 exch rlineto
neg 0 rlineto
cp } bd
/_ctm matrix def
/_tm matrix def
/BT { _ctm currentmatrix pop matrix _tm copy pop 0 0 moveto } bd
/ET { _ctm setmatrix } bd
/iTm { _ctm setmatrix _tm concat } bd
/Tm { _tm astore pop iTm 0 0 moveto } bd
/ux 0.0 def
/uy 0.0 def
/F {
  /Tp exch def
  /Tf exch def
  Tf findfont Tp scalefont setfont
  /cf Tf def  /cs Tp def
} bd
/ULS {currentpoint /uy exch def /ux exch def} bd
/ULE {
  /Tcx currentpoint pop def
  gsave
  newpath
  cf findfont cs scalefont dup
  /FontMatrix get 0 get /Ts exch def /FontInfo get dup
  /UnderlinePosition get Ts mul /To exch def
  /UnderlineThickness get Ts mul /Tt exch def
  ux uy To add moveto  Tcx uy To add lineto
  Tt setlinewidth stroke
  grestore
} bd
/OLE {
  /Tcx currentpoint pop def
  gsave
  newpath
  cf findfont cs scalefont dup
  /FontMatrix get 0 get /Ts exch def /FontInfo get dup
  /UnderlinePosition get Ts mul /To exch def
  /UnderlineThickness get Ts mul /Tt exch def
  ux uy To add cs add moveto Tcx uy To add cs add lineto
  Tt setlinewidth stroke
  grestore
} bd
/SOE {
  /Tcx currentpoint pop def
  gsave
  newpath
  cf findfont cs scalefont dup
  /FontMatrix get 0 get /Ts exch def /FontInfo get dup
  /UnderlinePosition get Ts mul /To exch def
  /UnderlineThickness get Ts mul /Tt exch def
  ux uy To add cs 10 mul 26 idiv add moveto Tcx uy To add cs 10 mul 26 idiv add lineto
  Tt setlinewidth stroke
  grestore
} bd
/QT {
/Y22 exch store
/X22 exch store
/Y21 exch store
/X21 exch store
currentpoint
/Y21 load 2 mul add 3 div exch
/X21 load 2 mul add 3 div exch
/X21 load 2 mul /X22 load add 3 div
/Y21 load 2 mul /Y22 load add 3 div
/X22 load /Y22 load curveto
} bd
/SSPD {
dup length /d exch dict def
{
/v exch def
/k exch def
currentpagedevice k known {
/cpdv currentpagedevice k get def
v cpdv ne {
/upd false def
/nullv v type /nulltype eq def
/nullcpdv cpdv type /nulltype eq def
nullv nullcpdv or
{
/upd true def
} {
/sametype v type cpdv type eq def
sametype {
v type /arraytype eq {
/vlen v length def
/cpdvlen cpdv length def
vlen cpdvlen eq {
0 1 vlen 1 sub {
/i exch def
/obj v i get def
/cpdobj cpdv i get def
obj cpdobj ne {
/upd true def
exit
} if
} for
} {
/upd true def
} ifelse
} {
v type /dicttype eq {
v {
/dv exch def
/dk exch def
/cpddv cpdv dk get def
dv cpddv ne {
/upd true def
exit
} if
} forall
} {
/upd true def
} ifelse
} ifelse
} if
} ifelse
upd true eq {
d k v put
} if
} if
} if
} forall
d length 0 gt {
d setpagedevice
} if
} bd
%%EndResource
%%BeginResource: procset (Apache XML Graphics EPS ProcSet) 1.0 0
%%Version: 1.0 0
%%Copyright: (Copyright 2002-2003 The Apache Software Foundation. License terms: http://www.apache.org/licenses/LICENSE-2.0)
/BeginEPSF { %def
/b4_Inc_state save def         % Save state for cleanup
/dict_count countdictstack def % Count objects on dict stack
/op_count count 1 sub def      % Count objects on operand stack
userdict begin                 % Push userdict on dict stack
/showpage { } def              % Redefine showpage, { } = null proc
0 setgray 0 setlinecap         % Prepare graphics state
1 setlinewidth 0 setlinejoin
10 setmiterlimit [ ] 0 setdash newpath
/languagelevel where           % If level not equal to 1 then
{pop languagelevel             % set strokeadjust and
1 ne                           % overprint to their defaults.
{false setstrokeadjust false setoverprint
} if
} if
} bd
/EndEPSF { %def
count op_count sub {pop} repeat            % Clean up stacks
countdictstack dict_count sub {end} repeat
b4_Inc_state restore
} bd
%%EndResource
%FOPBeginFontDict
%%IncludeResource: font Courier-Bold
%%IncludeResource: font Helvetica
%%IncludeResource: font Courier-BoldOblique
%%IncludeResource: font Courier-Oblique
%%IncludeResource: font Times-Roman
%%IncludeResource: font Helvetica-BoldOblique
%%IncludeResource: font Helvetica-Bold
%%IncludeResource: font Helvetica-Oblique
%%IncludeResource: font Times-BoldItalic
%%IncludeResource: font Courier
%%IncludeResource: font Times-Italic
%%IncludeResource: font Times-Bold
%%IncludeResource: font Symbol
%%IncludeResource: font ZapfDingbats
%FOPEndFontDict
%%BeginResource: encoding WinAnsiEncoding
/WinAnsiEncoding [
/.notdef /.notdef /.notdef /.notdef /.notdef
/.notdef /.notdef /.notdef /.notdef /.notdef
/.notdef /.notdef /.notdef /.notdef /.notdef
/.notdef /.notdef /.notdef /.notdef /.notdef
/.notdef /.notdef /.notdef /.notdef /.notdef
/.notdef /.notdef /.notdef /.notdef /.notdef
/.notdef /.notdef /space /exclam /quotedbl
/numbersign /dollar /percent /ampersand /quotesingle
/parenleft /parenright /asterisk /plus /comma
/hyphen /period /slash /zero /one
/two /three /four /five /six
/seven /eight /nine /colon /semicolon
/less /equal /greater /question /at
/A /B /C /D /E
/F /G /H /I /J
/K /L /M /N /O
/P /Q /R /S /T
/U /V /W /X /Y
/Z /bracketleft /backslash /bracketright /asciicircum
/underscore /quoteleft /a /b /c
/d /e /f /g /h
/i /j /k /l /m
/n /o /p /q /r
/s /t /u /v /w
/x /y /z /braceleft /bar
/braceright /asciitilde /bullet /Euro /bullet
/quotesinglbase /florin /quotedblbase /ellipsis /dagger
/daggerdbl /circumflex /perthousand /Scaron /guilsinglleft
/OE /bullet /Zcaron /bullet /bullet
/quoteleft /quoteright /quotedblleft /quotedblright /bullet
/endash /emdash /asciitilde /trademark /scaron
/guilsinglright /oe /bullet /zcaron /Ydieresis
/space /exclamdown /cent /sterling /currency
/yen /brokenbar /section /dieresis /copyright
/ordfeminine /guillemotleft /logicalnot /sfthyphen /registered
/macron /degree /plusminus /twosuperior /threesuperior
/acute /mu /paragraph /middot /cedilla
/onesuperior /ordmasculine /guillemotright /onequarter /onehalf
/threequarters /questiondown /Agrave /Aacute /Acircumflex
/Atilde /Adieresis /Aring /AE /Ccedilla
/Egrave /Eacute /Ecircumflex /Edieresis /Igrave
/Iacute /Icircumflex /Idieresis /Eth /Ntilde
/Ograve /Oacute /Ocircumflex /Otilde /Odieresis
/multiply /Oslash /Ugrave /Uacute /Ucircumflex
/Udieresis /Yacute /Thorn /germandbls /agrave
/aacute /acircumflex /atilde /adieresis /aring
/ae /ccedilla /egrave /eacute /ecircumflex
/edieresis /igrave /iacute /icircumflex /idieresis
/eth /ntilde /ograve /oacute /ocircumflex
/otilde /odieresis /divide /oslash /ugrave
/uacute /ucircumflex /udieresis /yacute /thorn
/ydieresis
] def
%%EndResource
%FOPBeginFontReencode
/Courier-Bold findfont
dup length dict begin
  {1 index /FID ne {def} {pop pop} ifelse} forall
  /Encoding WinAnsiEncoding def
  currentdict
end
/Courier-Bold exch definefont pop
/Helvetica findfont
dup length dict begin
  {1 index /FID ne {def} {pop pop} ifelse} forall
  /Encoding WinAnsiEncoding def
  currentdict
end
/Helvetica exch definefont pop
/Courier-BoldOblique findfont
dup length dict begin
  {1 index /FID ne {def} {pop pop} ifelse} forall
  /Encoding WinAnsiEncoding def
  currentdict
end
/Courier-BoldOblique exch definefont pop
/Courier-Oblique findfont
dup length dict begin
  {1 index /FID ne {def} {pop pop} ifelse} forall
  /Encoding WinAnsiEncoding def
  currentdict
end
/Courier-Oblique exch definefont pop
/Times-Roman findfont
dup length dict begin
  {1 index /FID ne {def} {pop pop} ifelse} forall
  /Encoding WinAnsiEncoding def
  currentdict
end
/Times-Roman exch definefont pop
/Helvetica-BoldOblique findfont
dup length dict begin
  {1 index /FID ne {def} {pop pop} ifelse} forall
  /Encoding WinAnsiEncoding def
  currentdict
end
/Helvetica-BoldOblique exch definefont pop
/Helvetica-Bold findfont
dup length dict begin
  {1 index /FID ne {def} {pop pop} ifelse} forall
  /Encoding WinAnsiEncoding def
  currentdict
end
/Helvetica-Bold exch definefont pop
/Helvetica-Oblique findfont
dup length dict begin
  {1 index /FID ne {def} {pop pop} ifelse} forall
  /Encoding WinAnsiEncoding def
  currentdict
end
/Helvetica-Oblique exch definefont pop
/Times-BoldItalic findfont
dup length dict begin
  {1 index /FID ne {def} {pop pop} ifelse} forall
  /Encoding WinAnsiEncoding def
  currentdict
end
/Times-BoldItalic exch definefont pop
/Courier findfont
dup length dict begin
  {1 index /FID ne {def} {pop pop} ifelse} forall
  /Encoding WinAnsiEncoding def
  currentdict
end
/Courier exch definefont pop
/Times-Italic findfont
dup length dict begin
  {1 index /FID ne {def} {pop pop} ifelse} forall
  /Encoding WinAnsiEncoding def
  currentdict
end
/Times-Italic exch definefont pop
/Times-Bold findfont
dup length dict begin
  {1 index /FID ne {def} {pop pop} ifelse} forall
  /Encoding WinAnsiEncoding def
  currentdict
end
/Times-Bold exch definefont pop
%FOPEndFontReencode
%%EndProlog
%%Page: 1 1
%%PageBoundingBox: 0 0 1039 1038
%%BeginPageSetup
[1 0 0 -1 0 1038] CT
%%EndPageSetup
GS
1 GC
N
0 0 1039 1038 re
f
GR
GS
1 GC
N
0 0 1039 1038 re
f
GR
GS
1 GC
N
135 241.5 M
940.5 241.5 L
940.5 78 L
135 78 L
cp
f
GR
GS
0.873 GC
1 LJ
0.5 LW
N
135 241.5 M
135 78 L
S
GR
GS
0.873 GC
1 LJ
0.5 LW
N
250.071 241.5 M
250.071 78 L
S
GR
GS
0.873 GC
1 LJ
0.5 LW
N
365.143 241.5 M
365.143 78 L
S
GR
GS
0.873 GC
1 LJ
0.5 LW
N
480.214 241.5 M
480.214 78 L
S
GR
GS
0.873 GC
1 LJ
0.5 LW
N
595.286 241.5 M
595.286 78 L
S
GR
GS
0.873 GC
1 LJ
0.5 LW
N
710.357 241.5 M
710.357 78 L
S
GR
GS
0.873 GC
1 LJ
0.5 LW
N
825.429 241.5 M
825.429 78 L
S
GR
GS
0.873 GC
1 LJ
0.5 LW
N
940.5 241.5 M
940.5 78 L
S
GR
GS
0.873 GC
1 LJ
0.5 LW
N
940.5 241.5 M
135 241.5 L
S
GR
GS
0.873 GC
1 LJ
0.5 LW
N
940.5 214.25 M
135 214.25 L
S
GR
GS
0.873 GC
1 LJ
0.5 LW
N
940.5 187 M
135 187 L
S
GR
GS
0.873 GC
1 LJ
0.5 LW
N
940.5 159.75 M
135 159.75 L
S
GR
GS
0.873 GC
1 LJ
0.5 LW
N
940.5 132.5 M
135 132.5 L
S
GR
GS
0.873 GC
1 LJ
0.5 LW
N
940.5 105.25 M
135 105.25 L
S
GR
GS
0.873 GC
1 LJ
0.5 LW
N
940.5 78 M
135 78 L
S
GR
GS
0.149 GC
2 setlinecap
1 LJ
0.5 LW
N
135 241.5 M
940.5 241.5 L
S
GR
GS
0.149 GC
2 setlinecap
1 LJ
0.5 LW
N
135 78 M
940.5 78 L
S
GR
GS
0.149 GC
2 setlinecap
1 LJ
0.5 LW
N
135 241.5 M
135 233.445 L
S
GR
GS
0.149 GC
2 setlinecap
1 LJ
0.5 LW
N
250.071 241.5 M
250.071 233.445 L
S
GR
GS
0.149 GC
2 setlinecap
1 LJ
0.5 LW
N
365.143 241.5 M
365.143 233.445 L
S
GR
GS
0.149 GC
2 setlinecap
1 LJ
0.5 LW
N
480.214 241.5 M
480.214 233.445 L
S
GR
GS
0.149 GC
2 setlinecap
1 LJ
0.5 LW
N
595.286 241.5 M
595.286 233.445 L
S
GR
GS
0.149 GC
2 setlinecap
1 LJ
0.5 LW
N
710.357 241.5 M
710.357 233.445 L
S
GR
GS
0.149 GC
2 setlinecap
1 LJ
0.5 LW
N
825.429 241.5 M
825.429 233.445 L
S
GR
GS
0.149 GC
2 setlinecap
1 LJ
0.5 LW
N
940.5 241.5 M
940.5 233.445 L
S
GR
GS
0.149 GC
2 setlinecap
1 LJ
0.5 LW
N
135 78 M
135 86.055 L
S
GR
GS
0.149 GC
2 setlinecap
1 LJ
0.5 LW
N
250.071 78 M
250.071 86.055 L
S
GR
GS
0.149 GC
2 setlinecap
1 LJ
0.5 LW
N
365.143 78 M
365.143 86.055 L
S
GR
GS
0.149 GC
2 setlinecap
1 LJ
0.5 LW
N
480.214 78 M
480.214 86.055 L
S
GR
GS
0.149 GC
2 setlinecap
1 LJ
0.5 LW
N
595.286 78 M
595.286 86.055 L
S
GR
GS
0.149 GC
2 setlinecap
1 LJ
0.5 LW
N
710.357 78 M
710.357 86.055 L
S
GR
GS
0.149 GC
2 setlinecap
1 LJ
0.5 LW
N
825.429 78 M
825.429 86.055 L
S
GR
GS
0.149 GC
2 setlinecap
1 LJ
0.5 LW
N
940.5 78 M
940.5 86.055 L
S
GR
GS
[1 0 0 1 135 245.5] CT
0.149 GC
/Helvetica 10 F
GS
[1 0 0 1 0 0] CT
-3 8 moveto 
1 -1 scale
(0) t 
GR
GR
GS
[1 0 0 1 250.07143 245.5] CT
0.149 GC
/Helvetica 10 F
GS
[1 0 0 1 0 0] CT
-10 8 moveto 
1 -1 scale
(0.05) t 
GR
GR
GS
[1 0 0 1 365.14285 245.5] CT
0.149 GC
/Helvetica 10 F
GS
[1 0 0 1 0 0] CT
-7 8 moveto 
1 -1 scale
(0.1) t 
GR
GR
GS
[1 0 0 1 480.21429 245.5] CT
0.149 GC
/Helvetica 10 F
GS
[1 0 0 1 0 0] CT
-10 8 moveto 
1 -1 scale
(0.15) t 
GR
GR
GS
[1 0 0 1 595.28571 245.5] CT
0.149 GC
/Helvetica 10 F
GS
[1 0 0 1 0 0] CT
-7 8 moveto 
1 -1 scale
(0.2) t 
GR
GR
GS
[1 0 0 1 710.35712 245.5] CT
0.149 GC
/Helvetica 10 F
GS
[1 0 0 1 0 0] CT
-10 8 moveto 
1 -1 scale
(0.25) t 
GR
GR
GS
[1 0 0 1 825.42859 245.5] CT
0.149 GC
/Helvetica 10 F
GS
[1 0 0 1 0 0] CT
-7 8 moveto 
1 -1 scale
(0.3) t 
GR
GR
GS
[1 0 0 1 940.5 245.5] CT
0.149 GC
/Helvetica 10 F
GS
[1 0 0 1 0 0] CT
-10 8 moveto 
1 -1 scale
(0.35) t 
GR
GR
GS
[1 0 0 1 537.75037 257] CT
0.149 GC
/Helvetica 11 F
GS
[1 0 0 1 0 0] CT
-27 9 moveto 
1 -1 scale
(Length \(m\)) t 
GR
GR
GS
0.149 GC
2 setlinecap
1 LJ
0.5 LW
N
135 241.5 M
135 78 L
S
GR
GS
0.149 GC
2 setlinecap
1 LJ
0.5 LW
N
940.5 241.5 M
940.5 78 L
S
GR
GS
0.149 GC
2 setlinecap
1 LJ
0.5 LW
N
135 241.5 M
143.055 241.5 L
S
GR
GS
0.149 GC
2 setlinecap
1 LJ
0.5 LW
N
135 214.25 M
143.055 214.25 L
S
GR
GS
0.149 GC
2 setlinecap
1 LJ
0.5 LW
N
135 187 M
143.055 187 L
S
GR
GS
0.149 GC
2 setlinecap
1 LJ
0.5 LW
N
135 159.75 M
143.055 159.75 L
S
GR
GS
0.149 GC
2 setlinecap
1 LJ
0.5 LW
N
135 132.5 M
143.055 132.5 L
S
GR
GS
0.149 GC
2 setlinecap
1 LJ
0.5 LW
N
135 105.25 M
143.055 105.25 L
S
GR
GS
0.149 GC
2 setlinecap
1 LJ
0.5 LW
N
135 78 M
143.055 78 L
S
GR
GS
0.149 GC
2 setlinecap
1 LJ
0.5 LW
N
940.5 241.5 M
932.445 241.5 L
S
GR
GS
0.149 GC
2 setlinecap
1 LJ
0.5 LW
N
940.5 214.25 M
932.445 214.25 L
S
GR
GS
0.149 GC
2 setlinecap
1 LJ
0.5 LW
N
940.5 187 M
932.445 187 L
S
GR
GS
0.149 GC
2 setlinecap
1 LJ
0.5 LW
N
940.5 159.75 M
932.445 159.75 L
S
GR
GS
0.149 GC
2 setlinecap
1 LJ
0.5 LW
N
940.5 132.5 M
932.445 132.5 L
S
GR
GS
0.149 GC
2 setlinecap
1 LJ
0.5 LW
N
940.5 105.25 M
932.445 105.25 L
S
GR
GS
0.149 GC
2 setlinecap
1 LJ
0.5 LW
N
940.5 78 M
932.445 78 L
S
GR
GS
[1 0 0 1 131 241.5] CT
0.149 GC
/Helvetica 10 F
GS
[1 0 0 1 0 0] CT
-26 2.5 moveto 
1 -1 scale
(-1000) t 
GR
GR
GS
[1 0 0 1 131 214.25] CT
0.149 GC
/Helvetica 10 F
GS
[1 0 0 1 0 0] CT
-21 2.5 moveto 
1 -1 scale
(-500) t 
GR
GR
GS
[1 0 0 1 131 187] CT
0.149 GC
/Helvetica 10 F
GS
[1 0 0 1 0 0] CT
-6 2.5 moveto 
1 -1 scale
(0) t 
GR
GR
GS
[1 0 0 1 131 159.75] CT
0.149 GC
/Helvetica 10 F
GS
[1 0 0 1 0 0] CT
-17 2.5 moveto 
1 -1 scale
(500) t 
GR
GR
GS
[1 0 0 1 131 132.5] CT
0.149 GC
/Helvetica 10 F
GS
[1 0 0 1 0 0] CT
-23 2.5 moveto 
1 -1 scale
(1000) t 
GR
GR
GS
[1 0 0 1 131 105.25] CT
0.149 GC
/Helvetica 10 F
GS
[1 0 0 1 0 0] CT
-23 2.5 moveto 
1 -1 scale
(1500) t 
GR
GR
GS
[1 0 0 1 131 78] CT
0.149 GC
/Helvetica 10 F
GS
[1 0 0 1 0 0] CT
-23 2.5 moveto 
1 -1 scale
(2000) t 
GR
GR
GS
[0 -1 1 0 102 159.74992] CT
0.149 GC
/Helvetica 11 F
GS
[1 0 0 1 0 0] CT
-24 -3 moveto 
1 -1 scale
(Shear \(N\)) t 
GR
GR
GS
[1 0 0 1 537.75049 76.625] CT
/Helvetica-Bold 11 F
GS
[1 0 0 1 0 0] CT
-190.5 -3 moveto 
1 -1 scale
(Horizontal Shear Diagram of Alternating Load: Fcf in Positive Y Direction) t 
GR
GR
GS
0 0.447 0.741 RC
1 LJ
0.5 LW
N
135 187 M
137.301 187 L
139.603 187 L
141.905 187 L
144.206 187 L
146.508 187 L
148.809 187 L
151.111 187 L
153.412 187 L
155.714 187 L
158.015 187 L
160.317 187 L
162.618 187 L
164.92 187 L
167.221 187 L
169.523 187 L
171.824 187 L
174.126 187 L
176.427 187 L
178.729 187 L
181.03 187 L
183.332 187 L
185.633 187 L
187.935 187 L
190.236 187 L
192.538 97.351 L
194.839 97.351 L
197.141 97.351 L
199.442 97.351 L
201.744 97.351 L
204.045 97.351 L
206.347 97.351 L
208.648 97.351 L
210.95 97.351 L
213.251 97.351 L
215.553 97.351 L
217.854 97.351 L
220.156 97.351 L
222.457 97.351 L
224.759 97.351 L
227.06 97.351 L
229.362 97.351 L
231.663 97.351 L
233.965 97.351 L
236.266 97.351 L
238.568 97.351 L
240.869 97.351 L
243.171 97.351 L
245.472 97.351 L
247.774 97.351 L
S
GR
GS
0 0.447 0.741 RC
1 LJ
0.5 LW
N
245.472 97.351 M
247.774 97.351 L
250.075 97.351 L
252.377 97.351 L
254.678 97.351 L
256.98 97.351 L
259.281 97.351 L
261.583 97.351 L
263.884 97.351 L
266.186 97.351 L
268.487 97.351 L
270.789 97.351 L
273.09 97.351 L
275.392 97.351 L
277.693 97.351 L
279.995 97.351 L
282.296 97.351 L
284.598 97.351 L
286.899 97.351 L
289.201 97.351 L
291.502 97.351 L
293.804 97.351 L
296.105 97.351 L
298.407 97.351 L
300.708 97.351 L
303.01 97.351 L
305.311 97.351 L
307.613 97.351 L
309.914 97.351 L
312.216 97.351 L
314.517 97.351 L
316.819 97.351 L
319.12 97.351 L
321.422 97.351 L
323.723 97.351 L
326.025 97.351 L
328.326 97.351 L
330.628 97.351 L
332.929 97.351 L
335.231 97.351 L
337.532 97.351 L
339.834 97.351 L
342.135 97.351 L
344.437 97.351 L
346.738 97.351 L
349.04 97.351 L
351.341 97.351 L
353.643 97.351 L
355.944 97.351 L
358.246 97.351 L
360.547 97.351 L
362.849 97.351 L
S
GR
GS
0 0.447 0.741 RC
1 LJ
0.5 LW
N
360.547 97.351 M
362.849 97.351 L
365.15 97.351 L
367.452 97.351 L
369.753 97.351 L
372.055 97.351 L
374.356 97.351 L
376.658 97.351 L
378.959 97.351 L
381.261 97.351 L
383.562 97.351 L
385.864 97.351 L
388.165 97.351 L
390.467 97.351 L
392.768 97.351 L
395.07 97.351 L
397.371 97.351 L
399.673 227.342 L
401.974 227.342 L
404.276 227.342 L
406.577 227.342 L
408.879 227.342 L
411.18 227.342 L
413.482 227.342 L
415.783 227.342 L
418.085 227.342 L
420.386 227.342 L
422.688 227.342 L
424.989 227.342 L
427.291 227.342 L
429.592 227.342 L
431.894 227.342 L
434.195 227.342 L
436.497 227.342 L
438.798 227.342 L
441.1 227.342 L
443.401 227.342 L
445.703 227.342 L
448.004 227.342 L
450.306 227.342 L
452.607 227.342 L
454.909 227.342 L
457.21 227.342 L
459.512 227.342 L
461.813 227.342 L
464.115 227.342 L
466.416 227.342 L
468.718 227.342 L
471.019 227.342 L
473.321 227.342 L
475.622 227.342 L
477.924 227.342 L
S
GR
GS
0 0.447 0.741 RC
1 LJ
0.5 LW
N
475.622 227.342 M
477.924 227.342 L
480.225 227.342 L
482.527 227.342 L
484.828 227.342 L
487.13 227.342 L
489.431 227.342 L
491.733 227.342 L
494.034 227.342 L
496.336 227.342 L
498.637 227.342 L
500.939 227.342 L
503.24 227.342 L
505.542 227.342 L
507.843 227.342 L
510.145 227.342 L
512.446 227.342 L
514.748 227.342 L
517.049 227.342 L
519.351 227.342 L
521.652 227.342 L
523.954 227.342 L
526.255 227.342 L
528.557 227.342 L
530.858 227.342 L
533.16 227.342 L
535.461 227.342 L
537.763 227.342 L
540.064 227.342 L
542.366 227.342 L
544.667 227.342 L
546.969 227.342 L
549.27 227.342 L
551.572 227.342 L
553.873 227.342 L
556.175 227.342 L
558.476 227.342 L
560.778 227.342 L
563.079 227.342 L
565.381 227.342 L
567.682 227.342 L
569.984 227.342 L
572.285 227.342 L
574.587 227.342 L
576.888 227.342 L
579.19 227.342 L
581.491 227.342 L
583.793 227.342 L
586.094 227.342 L
588.396 227.342 L
590.697 227.342 L
592.999 227.342 L
S
GR
GS
0 0.447 0.741 RC
1 LJ
0.5 LW
N
590.697 227.342 M
592.999 227.342 L
595.3 227.342 L
597.602 227.342 L
599.903 227.342 L
602.205 227.342 L
604.506 227.342 L
606.808 227.342 L
609.109 227.342 L
611.411 227.342 L
613.712 227.342 L
616.014 227.342 L
618.315 227.342 L
620.617 227.342 L
622.918 227.342 L
625.22 227.342 L
627.521 227.342 L
629.823 227.342 L
632.124 227.342 L
634.426 227.342 L
636.727 227.342 L
639.029 227.342 L
641.33 227.342 L
643.632 227.342 L
645.933 227.342 L
648.235 227.342 L
650.536 227.342 L
652.838 227.342 L
655.139 227.342 L
657.441 227.342 L
659.742 227.342 L
662.044 227.342 L
664.345 227.342 L
666.647 227.342 L
668.948 227.342 L
671.25 227.342 L
673.551 227.342 L
675.853 227.342 L
678.154 227.342 L
680.456 227.342 L
682.757 227.342 L
685.059 227.342 L
687.36 227.342 L
689.662 227.342 L
691.963 227.342 L
694.265 227.342 L
696.566 227.342 L
698.868 227.342 L
701.169 227.342 L
703.471 227.342 L
705.772 227.342 L
708.074 227.342 L
S
GR
GS
0 0.447 0.741 RC
1 LJ
0.5 LW
N
705.772 227.342 M
708.074 227.342 L
710.375 227.342 L
712.677 227.342 L
714.978 227.342 L
717.28 227.342 L
719.581 227.342 L
721.883 227.342 L
724.184 227.342 L
726.486 227.342 L
728.787 227.342 L
731.089 227.342 L
733.39 227.342 L
735.692 227.342 L
737.993 227.342 L
740.295 227.342 L
742.596 227.342 L
744.898 227.342 L
747.199 227.342 L
749.501 227.342 L
751.802 227.342 L
754.104 227.342 L
756.405 227.342 L
758.707 227.342 L
761.008 227.342 L
763.31 227.342 L
765.611 227.342 L
767.913 227.342 L
770.214 227.342 L
772.516 227.342 L
774.817 227.342 L
777.119 227.342 L
779.42 227.342 L
781.722 227.342 L
784.023 227.342 L
786.325 227.342 L
788.626 227.342 L
790.928 227.342 L
793.229 227.342 L
795.531 227.342 L
797.832 227.342 L
800.134 227.342 L
802.435 227.342 L
804.737 227.342 L
807.038 227.342 L
809.34 227.342 L
811.641 227.342 L
813.943 227.342 L
816.244 227.342 L
818.546 227.342 L
820.847 227.342 L
823.149 227.342 L
S
GR
GS
0 0.447 0.741 RC
1 LJ
0.5 LW
N
820.847 227.342 M
823.149 227.342 L
825.451 227.342 L
827.752 227.342 L
830.053 227.342 L
832.355 227.342 L
834.656 227.342 L
836.958 227.342 L
839.259 227.342 L
841.561 227.342 L
843.862 227.342 L
846.164 227.342 L
848.466 227.342 L
850.767 227.342 L
853.068 227.342 L
855.37 227.342 L
857.672 227.342 L
859.973 187 L
S
GR
GS
1 GC
N
135 469 M
940.5 469 L
940.5 305.5 L
135 305.5 L
cp
f
GR
GS
0.873 GC
1 LJ
0.5 LW
N
135 469 M
135 305.5 L
S
GR
GS
0.873 GC
1 LJ
0.5 LW
N
250.071 469 M
250.071 305.5 L
S
GR
GS
0.873 GC
1 LJ
0.5 LW
N
365.143 469 M
365.143 305.5 L
S
GR
GS
0.873 GC
1 LJ
0.5 LW
N
480.214 469 M
480.214 305.5 L
S
GR
GS
0.873 GC
1 LJ
0.5 LW
N
595.286 469 M
595.286 305.5 L
S
GR
GS
0.873 GC
1 LJ
0.5 LW
N
710.357 469 M
710.357 305.5 L
S
GR
GS
0.873 GC
1 LJ
0.5 LW
N
825.429 469 M
825.429 305.5 L
S
GR
GS
0.873 GC
1 LJ
0.5 LW
N
940.5 469 M
940.5 305.5 L
S
GR
GS
0.873 GC
1 LJ
0.5 LW
N
940.5 469 M
135 469 L
S
GR
GS
0.873 GC
1 LJ
0.5 LW
N
940.5 428.125 M
135 428.125 L
S
GR
GS
0.873 GC
1 LJ
0.5 LW
N
940.5 387.25 M
135 387.25 L
S
GR
GS
0.873 GC
1 LJ
0.5 LW
N
940.5 346.375 M
135 346.375 L
S
GR
GS
0.873 GC
1 LJ
0.5 LW
N
940.5 305.5 M
135 305.5 L
S
GR
GS
0.149 GC
2 setlinecap
1 LJ
0.5 LW
N
135 469 M
940.5 469 L
S
GR
GS
0.149 GC
2 setlinecap
1 LJ
0.5 LW
N
135 305.5 M
940.5 305.5 L
S
GR
GS
0.149 GC
2 setlinecap
1 LJ
0.5 LW
N
135 469 M
135 460.945 L
S
GR
GS
0.149 GC
2 setlinecap
1 LJ
0.5 LW
N
250.071 469 M
250.071 460.945 L
S
GR
GS
0.149 GC
2 setlinecap
1 LJ
0.5 LW
N
365.143 469 M
365.143 460.945 L
S
GR
GS
0.149 GC
2 setlinecap
1 LJ
0.5 LW
N
480.214 469 M
480.214 460.945 L
S
GR
GS
0.149 GC
2 setlinecap
1 LJ
0.5 LW
N
595.286 469 M
595.286 460.945 L
S
GR
GS
0.149 GC
2 setlinecap
1 LJ
0.5 LW
N
710.357 469 M
710.357 460.945 L
S
GR
GS
0.149 GC
2 setlinecap
1 LJ
0.5 LW
N
825.429 469 M
825.429 460.945 L
S
GR
GS
0.149 GC
2 setlinecap
1 LJ
0.5 LW
N
940.5 469 M
940.5 460.945 L
S
GR
GS
0.149 GC
2 setlinecap
1 LJ
0.5 LW
N
135 305.5 M
135 313.555 L
S
GR
GS
0.149 GC
2 setlinecap
1 LJ
0.5 LW
N
250.071 305.5 M
250.071 313.555 L
S
GR
GS
0.149 GC
2 setlinecap
1 LJ
0.5 LW
N
365.143 305.5 M
365.143 313.555 L
S
GR
GS
0.149 GC
2 setlinecap
1 LJ
0.5 LW
N
480.214 305.5 M
480.214 313.555 L
S
GR
GS
0.149 GC
2 setlinecap
1 LJ
0.5 LW
N
595.286 305.5 M
595.286 313.555 L
S
GR
GS
0.149 GC
2 setlinecap
1 LJ
0.5 LW
N
710.357 305.5 M
710.357 313.555 L
S
GR
GS
0.149 GC
2 setlinecap
1 LJ
0.5 LW
N
825.429 305.5 M
825.429 313.555 L
S
GR
GS
0.149 GC
2 setlinecap
1 LJ
0.5 LW
N
940.5 305.5 M
940.5 313.555 L
S
GR
GS
[1 0 0 1 135 473] CT
0.149 GC
/Helvetica 10 F
GS
[1 0 0 1 0 0] CT
-3 8 moveto 
1 -1 scale
(0) t 
GR
GR
GS
[1 0 0 1 250.07143 473] CT
0.149 GC
/Helvetica 10 F
GS
[1 0 0 1 0 0] CT
-10 8 moveto 
1 -1 scale
(0.05) t 
GR
GR
GS
[1 0 0 1 365.14285 473] CT
0.149 GC
/Helvetica 10 F
GS
[1 0 0 1 0 0] CT
-7 8 moveto 
1 -1 scale
(0.1) t 
GR
GR
GS
[1 0 0 1 480.21429 473] CT
0.149 GC
/Helvetica 10 F
GS
[1 0 0 1 0 0] CT
-10 8 moveto 
1 -1 scale
(0.15) t 
GR
GR
GS
[1 0 0 1 595.28571 473] CT
0.149 GC
/Helvetica 10 F
GS
[1 0 0 1 0 0] CT
-7 8 moveto 
1 -1 scale
(0.2) t 
GR
GR
GS
[1 0 0 1 710.35712 473] CT
0.149 GC
/Helvetica 10 F
GS
[1 0 0 1 0 0] CT
-10 8 moveto 
1 -1 scale
(0.25) t 
GR
GR
GS
[1 0 0 1 825.42859 473] CT
0.149 GC
/Helvetica 10 F
GS
[1 0 0 1 0 0] CT
-7 8 moveto 
1 -1 scale
(0.3) t 
GR
GR
GS
[1 0 0 1 940.5 473] CT
0.149 GC
/Helvetica 10 F
GS
[1 0 0 1 0 0] CT
-10 8 moveto 
1 -1 scale
(0.35) t 
GR
GR
GS
[1 0 0 1 537.75037 484.5] CT
0.149 GC
/Helvetica 11 F
GS
[1 0 0 1 0 0] CT
-27 9 moveto 
1 -1 scale
(Length \(m\)) t 
GR
GR
GS
0.149 GC
2 setlinecap
1 LJ
0.5 LW
N
135 469 M
135 305.5 L
S
GR
GS
0.149 GC
2 setlinecap
1 LJ
0.5 LW
N
940.5 469 M
940.5 305.5 L
S
GR
GS
0.149 GC
2 setlinecap
1 LJ
0.5 LW
N
135 469 M
143.055 469 L
S
GR
GS
0.149 GC
2 setlinecap
1 LJ
0.5 LW
N
135 428.125 M
143.055 428.125 L
S
GR
GS
0.149 GC
2 setlinecap
1 LJ
0.5 LW
N
135 387.25 M
143.055 387.25 L
S
GR
GS
0.149 GC
2 setlinecap
1 LJ
0.5 LW
N
135 346.375 M
143.055 346.375 L
S
GR
GS
0.149 GC
2 setlinecap
1 LJ
0.5 LW
N
135 305.5 M
143.055 305.5 L
S
GR
GS
0.149 GC
2 setlinecap
1 LJ
0.5 LW
N
940.5 469 M
932.445 469 L
S
GR
GS
0.149 GC
2 setlinecap
1 LJ
0.5 LW
N
940.5 428.125 M
932.445 428.125 L
S
GR
GS
0.149 GC
2 setlinecap
1 LJ
0.5 LW
N
940.5 387.25 M
932.445 387.25 L
S
GR
GS
0.149 GC
2 setlinecap
1 LJ
0.5 LW
N
940.5 346.375 M
932.445 346.375 L
S
GR
GS
0.149 GC
2 setlinecap
1 LJ
0.5 LW
N
940.5 305.5 M
932.445 305.5 L
S
GR
GS
[1 0 0 1 131 469] CT
0.149 GC
/Helvetica 10 F
GS
[1 0 0 1 0 0] CT
-15 2.5 moveto 
1 -1 scale
(-50) t 
GR
GR
GS
[1 0 0 1 131 428.125] CT
0.149 GC
/Helvetica 10 F
GS
[1 0 0 1 0 0] CT
-6 2.5 moveto 
1 -1 scale
(0) t 
GR
GR
GS
[1 0 0 1 131 387.25] CT
0.149 GC
/Helvetica 10 F
GS
[1 0 0 1 0 0] CT
-12 2.5 moveto 
1 -1 scale
(50) t 
GR
GR
GS
[1 0 0 1 131 346.375] CT
0.149 GC
/Helvetica 10 F
GS
[1 0 0 1 0 0] CT
-17 2.5 moveto 
1 -1 scale
(100) t 
GR
GR
GS
[1 0 0 1 131 305.5] CT
0.149 GC
/Helvetica 10 F
GS
[1 0 0 1 0 0] CT
-17 2.5 moveto 
1 -1 scale
(150) t 
GR
GR
GS
[0 -1 1 0 111 387.24991] CT
0.149 GC
/Helvetica 11 F
GS
[1 0 0 1 0 0] CT
-34 -3 moveto 
1 -1 scale
(Moment \(Nm\)) t 
GR
GR
GS
[1 0 0 1 537.75049 304.125] CT
/Helvetica-Bold 11 F
GS
[1 0 0 1 0 0] CT
-196.5 -3 moveto 
1 -1 scale
(Horizontal Moment Diagram of Alternating Load: Fcf in Positive Y Direction) t 
GR
GR
GS
0 0.447 0.741 RC
1 LJ
0.5 LW
N
135 428.125 M
137.301 428.125 L
139.603 428.125 L
141.905 428.125 L
144.206 428.125 L
146.508 428.125 L
148.809 428.125 L
151.111 428.125 L
153.412 428.125 L
155.714 428.125 L
158.015 428.125 L
160.317 428.125 L
162.618 428.125 L
164.92 428.125 L
167.221 428.125 L
169.523 428.125 L
171.824 428.125 L
174.126 428.125 L
176.427 428.125 L
178.729 428.125 L
181.03 428.125 L
183.332 428.125 L
185.633 428.125 L
187.935 428.125 L
190.236 428.125 L
192.538 428.124 L
194.839 426.779 L
197.141 425.434 L
199.442 424.09 L
201.744 422.745 L
204.045 421.4 L
206.347 420.055 L
208.648 418.711 L
210.95 417.366 L
213.251 416.021 L
215.553 414.676 L
217.854 413.331 L
220.156 411.987 L
222.457 410.642 L
224.759 409.297 L
227.06 407.952 L
229.362 406.608 L
231.663 405.263 L
233.965 403.918 L
236.266 402.573 L
238.568 401.228 L
240.869 399.884 L
243.171 398.539 L
245.472 397.194 L
247.774 395.849 L
S
GR
GS
0 0.447 0.741 RC
1 LJ
0.5 LW
N
245.472 397.194 M
247.774 395.849 L
250.075 394.505 L
252.377 393.16 L
254.678 391.815 L
256.98 390.47 L
259.281 389.125 L
261.583 387.781 L
263.884 386.436 L
266.186 385.091 L
268.487 383.746 L
270.789 382.402 L
273.09 381.057 L
275.392 379.712 L
277.693 378.367 L
279.995 377.022 L
282.296 375.678 L
284.598 374.333 L
286.899 372.988 L
289.201 371.643 L
291.502 370.299 L
293.804 368.954 L
296.105 367.609 L
298.407 366.264 L
300.708 364.919 L
303.01 363.575 L
305.311 362.23 L
307.613 360.885 L
309.914 359.54 L
312.216 358.196 L
314.517 356.851 L
316.819 355.506 L
319.12 354.161 L
321.422 352.816 L
323.723 351.472 L
326.025 350.127 L
328.326 348.782 L
330.628 347.437 L
332.929 346.093 L
335.231 344.748 L
337.532 343.403 L
339.834 342.058 L
342.135 340.713 L
344.437 339.369 L
346.738 338.024 L
349.04 336.679 L
351.341 335.334 L
353.643 333.99 L
355.944 332.645 L
358.246 331.3 L
360.547 329.955 L
362.849 328.61 L
S
GR
GS
0 0.447 0.741 RC
1 LJ
0.5 LW
N
360.547 329.955 M
362.849 328.61 L
365.15 327.266 L
367.452 325.921 L
369.753 324.576 L
372.055 323.231 L
374.356 321.887 L
376.658 320.542 L
378.959 319.197 L
381.261 317.852 L
383.562 316.508 L
385.864 315.163 L
388.165 313.818 L
390.467 312.473 L
392.768 311.128 L
395.07 309.784 L
397.371 308.439 L
399.673 307.101 L
401.974 307.706 L
404.276 308.311 L
406.577 308.917 L
408.879 309.522 L
411.18 310.127 L
413.482 310.732 L
415.783 311.337 L
418.085 311.942 L
420.386 312.548 L
422.688 313.153 L
424.989 313.758 L
427.291 314.363 L
429.592 314.968 L
431.894 315.573 L
434.195 316.178 L
436.497 316.784 L
438.798 317.389 L
441.1 317.994 L
443.401 318.599 L
445.703 319.204 L
448.004 319.809 L
450.306 320.414 L
452.607 321.02 L
454.909 321.625 L
457.21 322.23 L
459.512 322.835 L
461.813 323.44 L
464.115 324.045 L
466.416 324.651 L
468.718 325.256 L
471.019 325.861 L
473.321 326.466 L
475.622 327.071 L
477.924 327.676 L
S
GR
GS
0 0.447 0.741 RC
1 LJ
0.5 LW
N
475.622 327.071 M
477.924 327.676 L
480.225 328.281 L
482.527 328.887 L
484.828 329.492 L
487.13 330.097 L
489.431 330.702 L
491.733 331.307 L
494.034 331.912 L
496.336 332.517 L
498.637 333.123 L
500.939 333.728 L
503.24 334.333 L
505.542 334.938 L
507.843 335.543 L
510.145 336.148 L
512.446 336.754 L
514.748 337.359 L
517.049 337.964 L
519.351 338.569 L
521.652 339.174 L
523.954 339.779 L
526.255 340.384 L
528.557 340.99 L
530.858 341.595 L
533.16 342.2 L
535.461 342.805 L
537.763 343.41 L
540.064 344.015 L
542.366 344.62 L
544.667 345.226 L
546.969 345.831 L
549.27 346.436 L
551.572 347.041 L
553.873 347.646 L
556.175 348.251 L
558.476 348.856 L
560.778 349.462 L
563.079 350.067 L
565.381 350.672 L
567.682 351.277 L
569.984 351.882 L
572.285 352.487 L
574.587 353.093 L
576.888 353.698 L
579.19 354.303 L
581.491 354.908 L
583.793 355.513 L
586.094 356.118 L
588.396 356.723 L
590.697 357.329 L
592.999 357.934 L
S
GR
GS
0 0.447 0.741 RC
1 LJ
0.5 LW
N
590.697 357.329 M
592.999 357.934 L
595.3 358.539 L
597.602 359.144 L
599.903 359.749 L
602.205 360.354 L
604.506 360.959 L
606.808 361.565 L
609.109 362.17 L
611.411 362.775 L
613.712 363.38 L
616.014 363.985 L
618.315 364.59 L
620.617 365.196 L
622.918 365.801 L
625.22 366.406 L
627.521 367.011 L
629.823 367.616 L
632.124 368.221 L
634.426 368.826 L
636.727 369.432 L
639.029 370.037 L
641.33 370.642 L
643.632 371.247 L
645.933 371.852 L
648.235 372.457 L
650.536 373.062 L
652.838 373.668 L
655.139 374.273 L
657.441 374.878 L
659.742 375.483 L
662.044 376.088 L
664.345 376.693 L
666.647 377.298 L
668.948 377.904 L
671.25 378.509 L
673.551 379.114 L
675.853 379.719 L
678.154 380.324 L
680.456 380.929 L
682.757 381.535 L
685.059 382.14 L
687.36 382.745 L
689.662 383.35 L
691.963 383.955 L
694.265 384.56 L
696.566 385.165 L
698.868 385.771 L
701.169 386.376 L
703.471 386.981 L
705.772 387.586 L
708.074 388.191 L
S
GR
GS
0 0.447 0.741 RC
1 LJ
0.5 LW
N
705.772 387.586 M
708.074 388.191 L
710.375 388.796 L
712.677 389.401 L
714.978 390.007 L
717.28 390.612 L
719.581 391.217 L
721.883 391.822 L
724.184 392.427 L
726.486 393.032 L
728.787 393.638 L
731.089 394.243 L
733.39 394.848 L
735.692 395.453 L
737.993 396.058 L
740.295 396.663 L
742.596 397.268 L
744.898 397.874 L
747.199 398.479 L
749.501 399.084 L
751.802 399.689 L
754.104 400.294 L
756.405 400.899 L
758.707 401.504 L
761.008 402.11 L
763.31 402.715 L
765.611 403.32 L
767.913 403.925 L
770.214 404.53 L
772.516 405.135 L
774.817 405.741 L
777.119 406.346 L
779.42 406.951 L
781.722 407.556 L
784.023 408.161 L
786.325 408.766 L
788.626 409.371 L
790.928 409.977 L
793.229 410.582 L
795.531 411.187 L
797.832 411.792 L
800.134 412.397 L
802.435 413.002 L
804.737 413.607 L
807.038 414.213 L
809.34 414.818 L
811.641 415.423 L
813.943 416.028 L
816.244 416.633 L
818.546 417.238 L
820.847 417.844 L
823.149 418.449 L
S
GR
GS
0 0.447 0.741 RC
1 LJ
0.5 LW
N
820.847 417.844 M
823.149 418.449 L
825.451 419.054 L
827.752 419.659 L
830.053 420.264 L
832.355 420.869 L
834.656 421.474 L
836.958 422.08 L
839.259 422.685 L
841.561 423.29 L
843.862 423.895 L
846.164 424.5 L
848.466 425.105 L
850.767 425.71 L
853.068 426.316 L
855.37 426.921 L
857.672 427.526 L
859.973 428.125 L
S
GR
GS
1 GC
N
135 696.5 M
940.5 696.5 L
940.5 532.5 L
135 532.5 L
cp
f
GR
GS
0.873 GC
1 LJ
0.5 LW
N
135 696.5 M
135 532.5 L
S
GR
GS
0.873 GC
1 LJ
0.5 LW
N
250.071 696.5 M
250.071 532.5 L
S
GR
GS
0.873 GC
1 LJ
0.5 LW
N
365.143 696.5 M
365.143 532.5 L
S
GR
GS
0.873 GC
1 LJ
0.5 LW
N
480.214 696.5 M
480.214 532.5 L
S
GR
GS
0.873 GC
1 LJ
0.5 LW
N
595.286 696.5 M
595.286 532.5 L
S
GR
GS
0.873 GC
1 LJ
0.5 LW
N
710.357 696.5 M
710.357 532.5 L
S
GR
GS
0.873 GC
1 LJ
0.5 LW
N
825.429 696.5 M
825.429 532.5 L
S
GR
GS
0.873 GC
1 LJ
0.5 LW
N
940.5 696.5 M
940.5 532.5 L
S
GR
GS
0.873 GC
1 LJ
0.5 LW
N
940.5 696.5 M
135 696.5 L
S
GR
GS
0.873 GC
1 LJ
0.5 LW
N
940.5 663.7 M
135 663.7 L
S
GR
GS
0.873 GC
1 LJ
0.5 LW
N
940.5 630.9 M
135 630.9 L
S
GR
GS
0.873 GC
1 LJ
0.5 LW
N
940.5 598.1 M
135 598.1 L
S
GR
GS
0.873 GC
1 LJ
0.5 LW
N
940.5 565.3 M
135 565.3 L
S
GR
GS
0.873 GC
1 LJ
0.5 LW
N
940.5 532.5 M
135 532.5 L
S
GR
GS
0.149 GC
2 setlinecap
1 LJ
0.5 LW
N
135 696.5 M
940.5 696.5 L
S
GR
GS
0.149 GC
2 setlinecap
1 LJ
0.5 LW
N
135 532.5 M
940.5 532.5 L
S
GR
GS
0.149 GC
2 setlinecap
1 LJ
0.5 LW
N
135 696.5 M
135 688.445 L
S
GR
GS
0.149 GC
2 setlinecap
1 LJ
0.5 LW
N
250.071 696.5 M
250.071 688.445 L
S
GR
GS
0.149 GC
2 setlinecap
1 LJ
0.5 LW
N
365.143 696.5 M
365.143 688.445 L
S
GR
GS
0.149 GC
2 setlinecap
1 LJ
0.5 LW
N
480.214 696.5 M
480.214 688.445 L
S
GR
GS
0.149 GC
2 setlinecap
1 LJ
0.5 LW
N
595.286 696.5 M
595.286 688.445 L
S
GR
GS
0.149 GC
2 setlinecap
1 LJ
0.5 LW
N
710.357 696.5 M
710.357 688.445 L
S
GR
GS
0.149 GC
2 setlinecap
1 LJ
0.5 LW
N
825.429 696.5 M
825.429 688.445 L
S
GR
GS
0.149 GC
2 setlinecap
1 LJ
0.5 LW
N
940.5 696.5 M
940.5 688.445 L
S
GR
GS
0.149 GC
2 setlinecap
1 LJ
0.5 LW
N
135 532.5 M
135 540.555 L
S
GR
GS
0.149 GC
2 setlinecap
1 LJ
0.5 LW
N
250.071 532.5 M
250.071 540.555 L
S
GR
GS
0.149 GC
2 setlinecap
1 LJ
0.5 LW
N
365.143 532.5 M
365.143 540.555 L
S
GR
GS
0.149 GC
2 setlinecap
1 LJ
0.5 LW
N
480.214 532.5 M
480.214 540.555 L
S
GR
GS
0.149 GC
2 setlinecap
1 LJ
0.5 LW
N
595.286 532.5 M
595.286 540.555 L
S
GR
GS
0.149 GC
2 setlinecap
1 LJ
0.5 LW
N
710.357 532.5 M
710.357 540.555 L
S
GR
GS
0.149 GC
2 setlinecap
1 LJ
0.5 LW
N
825.429 532.5 M
825.429 540.555 L
S
GR
GS
0.149 GC
2 setlinecap
1 LJ
0.5 LW
N
940.5 532.5 M
940.5 540.555 L
S
GR
GS
[1 0 0 1 135 700.5] CT
0.149 GC
/Helvetica 10 F
GS
[1 0 0 1 0 0] CT
-3 8 moveto 
1 -1 scale
(0) t 
GR
GR
GS
[1 0 0 1 250.07143 700.5] CT
0.149 GC
/Helvetica 10 F
GS
[1 0 0 1 0 0] CT
-10 8 moveto 
1 -1 scale
(0.05) t 
GR
GR
GS
[1 0 0 1 365.14285 700.5] CT
0.149 GC
/Helvetica 10 F
GS
[1 0 0 1 0 0] CT
-7 8 moveto 
1 -1 scale
(0.1) t 
GR
GR
GS
[1 0 0 1 480.21429 700.5] CT
0.149 GC
/Helvetica 10 F
GS
[1 0 0 1 0 0] CT
-10 8 moveto 
1 -1 scale
(0.15) t 
GR
GR
GS
[1 0 0 1 595.28571 700.5] CT
0.149 GC
/Helvetica 10 F
GS
[1 0 0 1 0 0] CT
-7 8 moveto 
1 -1 scale
(0.2) t 
GR
GR
GS
[1 0 0 1 710.35712 700.5] CT
0.149 GC
/Helvetica 10 F
GS
[1 0 0 1 0 0] CT
-10 8 moveto 
1 -1 scale
(0.25) t 
GR
GR
GS
[1 0 0 1 825.42859 700.5] CT
0.149 GC
/Helvetica 10 F
GS
[1 0 0 1 0 0] CT
-7 8 moveto 
1 -1 scale
(0.3) t 
GR
GR
GS
[1 0 0 1 940.5 700.5] CT
0.149 GC
/Helvetica 10 F
GS
[1 0 0 1 0 0] CT
-10 8 moveto 
1 -1 scale
(0.35) t 
GR
GR
GS
[1 0 0 1 537.75037 712] CT
0.149 GC
/Helvetica 11 F
GS
[1 0 0 1 0 0] CT
-27 9 moveto 
1 -1 scale
(Length \(m\)) t 
GR
GR
GS
0.149 GC
2 setlinecap
1 LJ
0.5 LW
N
135 696.5 M
135 532.5 L
S
GR
GS
0.149 GC
2 setlinecap
1 LJ
0.5 LW
N
940.5 696.5 M
940.5 532.5 L
S
GR
GS
0.149 GC
2 setlinecap
1 LJ
0.5 LW
N
135 696.5 M
143.055 696.5 L
S
GR
GS
0.149 GC
2 setlinecap
1 LJ
0.5 LW
N
135 663.7 M
143.055 663.7 L
S
GR
GS
0.149 GC
2 setlinecap
1 LJ
0.5 LW
N
135 630.9 M
143.055 630.9 L
S
GR
GS
0.149 GC
2 setlinecap
1 LJ
0.5 LW
N
135 598.1 M
143.055 598.1 L
S
GR
GS
0.149 GC
2 setlinecap
1 LJ
0.5 LW
N
135 565.3 M
143.055 565.3 L
S
GR
GS
0.149 GC
2 setlinecap
1 LJ
0.5 LW
N
135 532.5 M
143.055 532.5 L
S
GR
GS
0.149 GC
2 setlinecap
1 LJ
0.5 LW
N
940.5 696.5 M
932.445 696.5 L
S
GR
GS
0.149 GC
2 setlinecap
1 LJ
0.5 LW
N
940.5 663.7 M
932.445 663.7 L
S
GR
GS
0.149 GC
2 setlinecap
1 LJ
0.5 LW
N
940.5 630.9 M
932.445 630.9 L
S
GR
GS
0.149 GC
2 setlinecap
1 LJ
0.5 LW
N
940.5 598.1 M
932.445 598.1 L
S
GR
GS
0.149 GC
2 setlinecap
1 LJ
0.5 LW
N
940.5 565.3 M
932.445 565.3 L
S
GR
GS
0.149 GC
2 setlinecap
1 LJ
0.5 LW
N
940.5 532.5 M
932.445 532.5 L
S
GR
GS
[1 0 0 1 131 696.5] CT
0.149 GC
/Helvetica 10 F
GS
[1 0 0 1 0 0] CT
-6 2.5 moveto 
1 -1 scale
(0) t 
GR
GR
GS
[1 0 0 1 131 663.70001] CT
0.149 GC
/Helvetica 10 F
GS
[1 0 0 1 0 0] CT
-6 2.5 moveto 
1 -1 scale
(5) t 
GR
GR
GS
[1 0 0 1 131 630.90002] CT
0.149 GC
/Helvetica 10 F
GS
[1 0 0 1 0 0] CT
-12 2.5 moveto 
1 -1 scale
(10) t 
GR
GR
GS
[1 0 0 1 131 598.09998] CT
0.149 GC
/Helvetica 10 F
GS
[1 0 0 1 0 0] CT
-12 2.5 moveto 
1 -1 scale
(15) t 
GR
GR
GS
[1 0 0 1 131 565.29999] CT
0.149 GC
/Helvetica 10 F
GS
[1 0 0 1 0 0] CT
-12 2.5 moveto 
1 -1 scale
(20) t 
GR
GR
GS
[1 0 0 1 131 532.5] CT
0.149 GC
/Helvetica 10 F
GS
[1 0 0 1 0 0] CT
-12 2.5 moveto 
1 -1 scale
(25) t 
GR
GR
GS
[0 -1 1 0 116.5 614.49994] CT
0.149 GC
/Helvetica 11 F
GS
[1 0 0 1 0 0] CT
-21.5 -3 moveto 
1 -1 scale
(EI*Angle) t 
GR
GR
GS
[1 0 0 1 537.75049 531.125] CT
/Helvetica-Bold 11 F
GS
[1 0 0 1 0 0] CT
-190.5 -3 moveto 
1 -1 scale
(Horizontal Angular Deflection \(EI*Theta\) Load: Fcf in Positive Y Direction) t 
GR
GR
GS
0 0.447 0.741 RC
1 LJ
0.5 LW
N
135 696.5 M
137.301 696.5 L
139.603 696.5 L
141.905 696.5 L
144.206 696.5 L
146.508 696.5 L
148.809 696.5 L
151.111 696.5 L
153.412 696.5 L
155.714 696.5 L
158.015 696.5 L
160.317 696.5 L
162.618 696.5 L
164.92 696.5 L
167.221 696.5 L
169.523 696.5 L
171.824 696.5 L
174.126 696.5 L
176.427 696.5 L
178.729 696.5 L
181.03 696.5 L
183.332 696.5 L
185.633 696.5 L
187.935 696.5 L
190.236 696.5 L
192.538 696.5 L
194.839 696.495 L
197.141 696.478 L
199.442 696.451 L
201.744 696.414 L
204.045 696.365 L
206.347 696.306 L
208.648 696.236 L
210.95 696.155 L
213.251 696.063 L
215.553 695.96 L
217.854 695.847 L
220.156 695.723 L
222.457 695.588 L
224.759 695.442 L
227.06 695.286 L
229.362 695.119 L
231.663 694.94 L
233.965 694.752 L
236.266 694.552 L
238.568 694.342 L
240.869 694.12 L
243.171 693.888 L
245.472 693.645 L
247.774 693.392 L
S
GR
GS
0 0.447 0.741 RC
1 LJ
0.5 LW
N
245.472 693.645 M
247.774 693.392 L
250.075 693.127 L
252.377 692.852 L
254.678 692.566 L
256.98 692.27 L
259.281 691.962 L
261.583 691.644 L
263.884 691.314 L
266.186 690.974 L
268.487 690.624 L
270.789 690.262 L
273.09 689.89 L
275.392 689.507 L
277.693 689.113 L
279.995 688.708 L
282.296 688.293 L
284.598 687.867 L
286.899 687.429 L
289.201 686.982 L
291.502 686.523 L
293.804 686.054 L
296.105 685.573 L
298.407 685.082 L
300.708 684.58 L
303.01 684.068 L
305.311 683.544 L
307.613 683.01 L
309.914 682.465 L
312.216 681.909 L
314.517 681.343 L
316.819 680.766 L
319.12 680.177 L
321.422 679.579 L
323.723 678.969 L
326.025 678.348 L
328.326 677.717 L
330.628 677.075 L
332.929 676.422 L
335.231 675.758 L
337.532 675.084 L
339.834 674.399 L
342.135 673.703 L
344.437 672.996 L
346.738 672.278 L
349.04 671.55 L
351.341 670.81 L
353.643 670.06 L
355.944 669.3 L
358.246 668.528 L
360.547 667.746 L
362.849 666.952 L
S
GR
GS
0 0.447 0.741 RC
1 LJ
0.5 LW
N
360.547 667.746 M
362.849 666.952 L
365.15 666.148 L
367.452 665.334 L
369.753 664.508 L
372.055 663.672 L
374.356 662.825 L
376.658 661.967 L
378.959 661.098 L
381.261 660.218 L
383.562 659.328 L
385.864 658.427 L
388.165 657.515 L
390.467 656.592 L
392.768 655.659 L
395.07 654.715 L
397.371 653.76 L
399.673 652.794 L
401.974 651.825 L
404.276 650.861 L
406.577 649.902 L
408.879 648.948 L
411.18 647.999 L
413.482 647.054 L
415.783 646.115 L
418.085 645.18 L
420.386 644.25 L
422.688 643.325 L
424.989 642.405 L
427.291 641.489 L
429.592 640.579 L
431.894 639.673 L
434.195 638.772 L
436.497 637.877 L
438.798 636.985 L
441.1 636.099 L
443.401 635.218 L
445.703 634.341 L
448.004 633.47 L
450.306 632.603 L
452.607 631.741 L
454.909 630.884 L
457.21 630.032 L
459.512 629.185 L
461.813 628.342 L
464.115 627.504 L
466.416 626.672 L
468.718 625.844 L
471.019 625.021 L
473.321 624.202 L
475.622 623.389 L
477.924 622.581 L
S
GR
GS
0 0.447 0.741 RC
1 LJ
0.5 LW
N
475.622 623.389 M
477.924 622.581 L
480.225 621.777 L
482.527 620.978 L
484.828 620.184 L
487.13 619.395 L
489.431 618.611 L
491.733 617.831 L
494.034 617.057 L
496.336 616.287 L
498.637 615.523 L
500.939 614.763 L
503.24 614.008 L
505.542 613.257 L
507.843 612.512 L
510.145 611.771 L
512.446 611.036 L
514.748 610.305 L
517.049 609.579 L
519.351 608.858 L
521.652 608.142 L
523.954 607.43 L
526.255 606.724 L
528.557 606.022 L
530.858 605.325 L
533.16 604.633 L
535.461 603.946 L
537.763 603.264 L
540.064 602.587 L
542.366 601.914 L
544.667 601.246 L
546.969 600.584 L
549.27 599.926 L
551.572 599.273 L
553.873 598.624 L
556.175 597.981 L
558.476 597.342 L
560.778 596.709 L
563.079 596.08 L
565.381 595.456 L
567.682 594.837 L
569.984 594.223 L
572.285 593.613 L
574.587 593.009 L
576.888 592.409 L
579.19 591.814 L
581.491 591.224 L
583.793 590.639 L
586.094 590.059 L
588.396 589.483 L
590.697 588.913 L
592.999 588.347 L
S
GR
GS
0 0.447 0.741 RC
1 LJ
0.5 LW
N
590.697 588.913 M
592.999 588.347 L
595.3 587.786 L
597.602 587.23 L
599.903 586.679 L
602.205 586.133 L
604.506 585.591 L
606.808 585.055 L
609.109 584.523 L
611.411 583.996 L
613.712 583.474 L
616.014 582.957 L
618.315 582.445 L
620.617 581.938 L
622.918 581.435 L
625.22 580.937 L
627.521 580.444 L
629.823 579.956 L
632.124 579.473 L
634.426 578.995 L
636.727 578.522 L
639.029 578.053 L
641.33 577.589 L
643.632 577.13 L
645.933 576.676 L
648.235 576.227 L
650.536 575.783 L
652.838 575.344 L
655.139 574.909 L
657.441 574.479 L
659.742 574.054 L
662.044 573.634 L
664.345 573.219 L
666.647 572.809 L
668.948 572.404 L
671.25 572.003 L
673.551 571.607 L
675.853 571.216 L
678.154 570.83 L
680.456 570.449 L
682.757 570.073 L
685.059 569.701 L
687.36 569.335 L
689.662 568.973 L
691.963 568.616 L
694.265 568.264 L
696.566 567.917 L
698.868 567.575 L
701.169 567.237 L
703.471 566.905 L
705.772 566.577 L
708.074 566.254 L
S
GR
GS
0 0.447 0.741 RC
1 LJ
0.5 LW
N
705.772 566.577 M
708.074 566.254 L
710.375 565.936 L
712.677 565.623 L
714.978 565.314 L
717.28 565.011 L
719.581 564.712 L
721.883 564.419 L
724.184 564.13 L
726.486 563.846 L
728.787 563.567 L
731.089 563.292 L
733.39 563.023 L
735.692 562.758 L
737.993 562.498 L
740.295 562.243 L
742.596 561.993 L
744.898 561.748 L
747.199 561.508 L
749.501 561.272 L
751.802 561.042 L
754.104 560.816 L
756.405 560.595 L
758.707 560.379 L
761.008 560.168 L
763.31 559.962 L
765.611 559.76 L
767.913 559.563 L
770.214 559.372 L
772.516 559.185 L
774.817 559.003 L
777.119 558.826 L
779.42 558.653 L
781.722 558.486 L
784.023 558.323 L
786.325 558.165 L
788.626 558.012 L
790.928 557.864 L
793.229 557.721 L
795.531 557.583 L
797.832 557.449 L
800.134 557.321 L
802.435 557.197 L
804.737 557.078 L
807.038 556.964 L
809.34 556.855 L
811.641 556.75 L
813.943 556.651 L
816.244 556.556 L
818.546 556.466 L
820.847 556.381 L
823.149 556.301 L
S
GR
GS
0 0.447 0.741 RC
1 LJ
0.5 LW
N
820.847 556.381 M
823.149 556.301 L
825.451 556.226 L
827.752 556.156 L
830.053 556.09 L
832.355 556.03 L
834.656 555.974 L
836.958 555.923 L
839.259 555.877 L
841.561 555.836 L
843.862 555.799 L
846.164 555.768 L
848.466 555.741 L
850.767 555.719 L
853.068 555.702 L
855.37 555.69 L
857.672 555.683 L
859.973 555.68 L
S
GR
GS
1 GC
N
135 924 M
940.5 924 L
940.5 760 L
135 760 L
cp
f
GR
GS
0.873 GC
1 LJ
0.5 LW
N
135 924 M
135 760 L
S
GR
GS
0.873 GC
1 LJ
0.5 LW
N
250.071 924 M
250.071 760 L
S
GR
GS
0.873 GC
1 LJ
0.5 LW
N
365.143 924 M
365.143 760 L
S
GR
GS
0.873 GC
1 LJ
0.5 LW
N
480.214 924 M
480.214 760 L
S
GR
GS
0.873 GC
1 LJ
0.5 LW
N
595.286 924 M
595.286 760 L
S
GR
GS
0.873 GC
1 LJ
0.5 LW
N
710.357 924 M
710.357 760 L
S
GR
GS
0.873 GC
1 LJ
0.5 LW
N
825.429 924 M
825.429 760 L
S
GR
GS
0.873 GC
1 LJ
0.5 LW
N
940.5 924 M
940.5 760 L
S
GR
GS
0.873 GC
1 LJ
0.5 LW
N
940.5 924 M
135 924 L
S
GR
GS
0.873 GC
1 LJ
0.5 LW
N
940.5 903.5 M
135 903.5 L
S
GR
GS
0.873 GC
1 LJ
0.5 LW
N
940.5 883 M
135 883 L
S
GR
GS
0.873 GC
1 LJ
0.5 LW
N
940.5 862.5 M
135 862.5 L
S
GR
GS
0.873 GC
1 LJ
0.5 LW
N
940.5 842 M
135 842 L
S
GR
GS
0.873 GC
1 LJ
0.5 LW
N
940.5 821.5 M
135 821.5 L
S
GR
GS
0.873 GC
1 LJ
0.5 LW
N
940.5 801 M
135 801 L
S
GR
GS
0.873 GC
1 LJ
0.5 LW
N
940.5 780.5 M
135 780.5 L
S
GR
GS
0.873 GC
1 LJ
0.5 LW
N
940.5 760 M
135 760 L
S
GR
GS
0.149 GC
2 setlinecap
1 LJ
0.5 LW
N
135 924 M
940.5 924 L
S
GR
GS
0.149 GC
2 setlinecap
1 LJ
0.5 LW
N
135 760 M
940.5 760 L
S
GR
GS
0.149 GC
2 setlinecap
1 LJ
0.5 LW
N
135 924 M
135 915.945 L
S
GR
GS
0.149 GC
2 setlinecap
1 LJ
0.5 LW
N
250.071 924 M
250.071 915.945 L
S
GR
GS
0.149 GC
2 setlinecap
1 LJ
0.5 LW
N
365.143 924 M
365.143 915.945 L
S
GR
GS
0.149 GC
2 setlinecap
1 LJ
0.5 LW
N
480.214 924 M
480.214 915.945 L
S
GR
GS
0.149 GC
2 setlinecap
1 LJ
0.5 LW
N
595.286 924 M
595.286 915.945 L
S
GR
GS
0.149 GC
2 setlinecap
1 LJ
0.5 LW
N
710.357 924 M
710.357 915.945 L
S
GR
GS
0.149 GC
2 setlinecap
1 LJ
0.5 LW
N
825.429 924 M
825.429 915.945 L
S
GR
GS
0.149 GC
2 setlinecap
1 LJ
0.5 LW
N
940.5 924 M
940.5 915.945 L
S
GR
GS
0.149 GC
2 setlinecap
1 LJ
0.5 LW
N
135 760 M
135 768.055 L
S
GR
GS
0.149 GC
2 setlinecap
1 LJ
0.5 LW
N
250.071 760 M
250.071 768.055 L
S
GR
GS
0.149 GC
2 setlinecap
1 LJ
0.5 LW
N
365.143 760 M
365.143 768.055 L
S
GR
GS
0.149 GC
2 setlinecap
1 LJ
0.5 LW
N
480.214 760 M
480.214 768.055 L
S
GR
GS
0.149 GC
2 setlinecap
1 LJ
0.5 LW
N
595.286 760 M
595.286 768.055 L
S
GR
GS
0.149 GC
2 setlinecap
1 LJ
0.5 LW
N
710.357 760 M
710.357 768.055 L
S
GR
GS
0.149 GC
2 setlinecap
1 LJ
0.5 LW
N
825.429 760 M
825.429 768.055 L
S
GR
GS
0.149 GC
2 setlinecap
1 LJ
0.5 LW
N
940.5 760 M
940.5 768.055 L
S
GR
GS
[1 0 0 1 135 928] CT
0.149 GC
/Helvetica 10 F
GS
[1 0 0 1 0 0] CT
-3 8 moveto 
1 -1 scale
(0) t 
GR
GR
GS
[1 0 0 1 250.07143 928] CT
0.149 GC
/Helvetica 10 F
GS
[1 0 0 1 0 0] CT
-10 8 moveto 
1 -1 scale
(0.05) t 
GR
GR
GS
[1 0 0 1 365.14285 928] CT
0.149 GC
/Helvetica 10 F
GS
[1 0 0 1 0 0] CT
-7 8 moveto 
1 -1 scale
(0.1) t 
GR
GR
GS
[1 0 0 1 480.21429 928] CT
0.149 GC
/Helvetica 10 F
GS
[1 0 0 1 0 0] CT
-10 8 moveto 
1 -1 scale
(0.15) t 
GR
GR
GS
[1 0 0 1 595.28571 928] CT
0.149 GC
/Helvetica 10 F
GS
[1 0 0 1 0 0] CT
-7 8 moveto 
1 -1 scale
(0.2) t 
GR
GR
GS
[1 0 0 1 710.35712 928] CT
0.149 GC
/Helvetica 10 F
GS
[1 0 0 1 0 0] CT
-10 8 moveto 
1 -1 scale
(0.25) t 
GR
GR
GS
[1 0 0 1 825.42859 928] CT
0.149 GC
/Helvetica 10 F
GS
[1 0 0 1 0 0] CT
-7 8 moveto 
1 -1 scale
(0.3) t 
GR
GR
GS
[1 0 0 1 940.5 928] CT
0.149 GC
/Helvetica 10 F
GS
[1 0 0 1 0 0] CT
-10 8 moveto 
1 -1 scale
(0.35) t 
GR
GR
GS
[1 0 0 1 537.75037 939.5] CT
0.149 GC
/Helvetica 11 F
GS
[1 0 0 1 0 0] CT
-27 9 moveto 
1 -1 scale
(Length \(m\)) t 
GR
GR
GS
0.149 GC
2 setlinecap
1 LJ
0.5 LW
N
135 924 M
135 760 L
S
GR
GS
0.149 GC
2 setlinecap
1 LJ
0.5 LW
N
940.5 924 M
940.5 760 L
S
GR
GS
0.149 GC
2 setlinecap
1 LJ
0.5 LW
N
135 924 M
143.055 924 L
S
GR
GS
0.149 GC
2 setlinecap
1 LJ
0.5 LW
N
135 903.5 M
143.055 903.5 L
S
GR
GS
0.149 GC
2 setlinecap
1 LJ
0.5 LW
N
135 883 M
143.055 883 L
S
GR
GS
0.149 GC
2 setlinecap
1 LJ
0.5 LW
N
135 862.5 M
143.055 862.5 L
S
GR
GS
0.149 GC
2 setlinecap
1 LJ
0.5 LW
N
135 842 M
143.055 842 L
S
GR
GS
0.149 GC
2 setlinecap
1 LJ
0.5 LW
N
135 821.5 M
143.055 821.5 L
S
GR
GS
0.149 GC
2 setlinecap
1 LJ
0.5 LW
N
135 801 M
143.055 801 L
S
GR
GS
0.149 GC
2 setlinecap
1 LJ
0.5 LW
N
135 780.5 M
143.055 780.5 L
S
GR
GS
0.149 GC
2 setlinecap
1 LJ
0.5 LW
N
135 760 M
143.055 760 L
S
GR
GS
0.149 GC
2 setlinecap
1 LJ
0.5 LW
N
940.5 924 M
932.445 924 L
S
GR
GS
0.149 GC
2 setlinecap
1 LJ
0.5 LW
N
940.5 903.5 M
932.445 903.5 L
S
GR
GS
0.149 GC
2 setlinecap
1 LJ
0.5 LW
N
940.5 883 M
932.445 883 L
S
GR
GS
0.149 GC
2 setlinecap
1 LJ
0.5 LW
N
940.5 862.5 M
932.445 862.5 L
S
GR
GS
0.149 GC
2 setlinecap
1 LJ
0.5 LW
N
940.5 842 M
932.445 842 L
S
GR
GS
0.149 GC
2 setlinecap
1 LJ
0.5 LW
N
940.5 821.5 M
932.445 821.5 L
S
GR
GS
0.149 GC
2 setlinecap
1 LJ
0.5 LW
N
940.5 801 M
932.445 801 L
S
GR
GS
0.149 GC
2 setlinecap
1 LJ
0.5 LW
N
940.5 780.5 M
932.445 780.5 L
S
GR
GS
0.149 GC
2 setlinecap
1 LJ
0.5 LW
N
940.5 760 M
932.445 760 L
S
GR
GS
[1 0 0 1 131 924] CT
0.149 GC
/Helvetica 10 F
GS
[1 0 0 1 0 0] CT
-6 2.5 moveto 
1 -1 scale
(0) t 
GR
GR
GS
[1 0 0 1 131 903.5] CT
0.149 GC
/Helvetica 10 F
GS
[1 0 0 1 0 0] CT
-14 2.5 moveto 
1 -1 scale
(0.5) t 
GR
GR
GS
[1 0 0 1 131 883] CT
0.149 GC
/Helvetica 10 F
GS
[1 0 0 1 0 0] CT
-6 2.5 moveto 
1 -1 scale
(1) t 
GR
GR
GS
[1 0 0 1 131 862.5] CT
0.149 GC
/Helvetica 10 F
GS
[1 0 0 1 0 0] CT
-14 2.5 moveto 
1 -1 scale
(1.5) t 
GR
GR
GS
[1 0 0 1 131 842] CT
0.149 GC
/Helvetica 10 F
GS
[1 0 0 1 0 0] CT
-6 2.5 moveto 
1 -1 scale
(2) t 
GR
GR
GS
[1 0 0 1 131 821.5] CT
0.149 GC
/Helvetica 10 F
GS
[1 0 0 1 0 0] CT
-14 2.5 moveto 
1 -1 scale
(2.5) t 
GR
GR
GS
[1 0 0 1 131 801] CT
0.149 GC
/Helvetica 10 F
GS
[1 0 0 1 0 0] CT
-6 2.5 moveto 
1 -1 scale
(3) t 
GR
GR
GS
[1 0 0 1 131 780.5] CT
0.149 GC
/Helvetica 10 F
GS
[1 0 0 1 0 0] CT
-14 2.5 moveto 
1 -1 scale
(3.5) t 
GR
GR
GS
[1 0 0 1 131 760] CT
0.149 GC
/Helvetica 10 F
GS
[1 0 0 1 0 0] CT
-6 2.5 moveto 
1 -1 scale
(4) t 
GR
GR
GS
[0 -1 1 0 114 841.99994] CT
0.149 GC
/Helvetica 11 F
GS
[1 0 0 1 0 0] CT
-20 -3 moveto 
1 -1 scale
(EI*YDef) t 
GR
GR
GS
[1 0 0 1 537.75049 758.625] CT
/Helvetica-Bold 11 F
GS
[1 0 0 1 0 0] CT
-196 -3 moveto 
1 -1 scale
(Horizontal Deflection \(EI*Y\) of Alternating  Load: Fcf in Positive Y Direction) t 
GR
GR
GS
0 0.447 0.741 RC
1 LJ
0.5 LW
N
135 924 M
137.301 924 L
139.603 924 L
141.905 924 L
144.206 924 L
146.508 924 L
148.809 924 L
151.111 924 L
153.412 924 L
155.714 924 L
158.015 924 L
160.317 924 L
162.618 924 L
164.92 924 L
167.221 924 L
169.523 924 L
171.824 924 L
174.126 924 L
176.427 924 L
178.729 924 L
181.03 924 L
183.332 924 L
185.633 924 L
187.935 924 L
190.236 924 L
192.538 924 L
194.839 924 L
197.141 924 L
199.442 924 L
201.744 923.999 L
204.045 923.999 L
206.347 923.998 L
208.648 923.996 L
210.95 923.994 L
213.251 923.992 L
215.553 923.989 L
217.854 923.985 L
220.156 923.981 L
222.457 923.975 L
224.759 923.969 L
227.06 923.962 L
229.362 923.954 L
231.663 923.945 L
233.965 923.934 L
236.266 923.923 L
238.568 923.91 L
240.869 923.896 L
243.171 923.88 L
245.472 923.863 L
247.774 923.845 L
S
GR
GS
0 0.447 0.741 RC
1 LJ
0.5 LW
N
245.472 923.863 M
247.774 923.845 L
250.075 923.824 L
252.377 923.802 L
254.678 923.779 L
256.98 923.753 L
259.281 923.726 L
261.583 923.696 L
263.884 923.665 L
266.186 923.632 L
268.487 923.596 L
270.789 923.558 L
273.09 923.518 L
275.392 923.475 L
277.693 923.431 L
279.995 923.383 L
282.296 923.333 L
284.598 923.281 L
286.899 923.225 L
289.201 923.167 L
291.502 923.106 L
293.804 923.042 L
296.105 922.976 L
298.407 922.906 L
300.708 922.833 L
303.01 922.757 L
305.311 922.677 L
307.613 922.595 L
309.914 922.509 L
312.216 922.419 L
314.517 922.326 L
316.819 922.23 L
319.12 922.13 L
321.422 922.026 L
323.723 921.918 L
326.025 921.807 L
328.326 921.691 L
330.628 921.572 L
332.929 921.448 L
335.231 921.321 L
337.532 921.189 L
339.834 921.053 L
342.135 920.913 L
344.437 920.768 L
346.738 920.619 L
349.04 920.465 L
351.341 920.307 L
353.643 920.144 L
355.944 919.976 L
358.246 919.804 L
360.547 919.627 L
362.849 919.445 L
S
GR
GS
0 0.447 0.741 RC
1 LJ
0.5 LW
N
360.547 919.627 M
362.849 919.445 L
365.15 919.257 L
367.452 919.065 L
369.753 918.868 L
372.055 918.665 L
374.356 918.457 L
376.658 918.244 L
378.959 918.026 L
381.261 917.802 L
383.562 917.572 L
385.864 917.337 L
388.165 917.096 L
390.467 916.85 L
392.768 916.597 L
395.07 916.339 L
397.371 916.075 L
399.673 915.805 L
401.974 915.529 L
404.276 915.246 L
406.577 914.958 L
408.879 914.664 L
411.18 914.364 L
413.482 914.058 L
415.783 913.746 L
418.085 913.428 L
420.386 913.104 L
422.688 912.775 L
424.989 912.439 L
427.291 912.098 L
429.592 911.752 L
431.894 911.399 L
434.195 911.041 L
436.497 910.678 L
438.798 910.309 L
441.1 909.934 L
443.401 909.554 L
445.703 909.168 L
448.004 908.777 L
450.306 908.38 L
452.607 907.978 L
454.909 907.57 L
457.21 907.158 L
459.512 906.74 L
461.813 906.316 L
464.115 905.888 L
466.416 905.454 L
468.718 905.015 L
471.019 904.57 L
473.321 904.121 L
475.622 903.667 L
477.924 903.207 L
S
GR
GS
0 0.447 0.741 RC
1 LJ
0.5 LW
N
475.622 903.667 M
477.924 903.207 L
480.225 902.743 L
482.527 902.273 L
484.828 901.799 L
487.13 901.319 L
489.431 900.835 L
491.733 900.346 L
494.034 899.851 L
496.336 899.353 L
498.637 898.849 L
500.939 898.34 L
503.24 897.827 L
505.542 897.309 L
507.843 896.786 L
510.145 896.259 L
512.446 895.727 L
514.748 895.191 L
517.049 894.65 L
519.351 894.104 L
521.652 893.554 L
523.954 893 L
526.255 892.441 L
528.557 891.878 L
530.858 891.31 L
533.16 890.738 L
535.461 890.162 L
537.763 889.581 L
540.064 888.996 L
542.366 888.407 L
544.667 887.814 L
546.969 887.216 L
549.27 886.615 L
551.572 886.009 L
553.873 885.399 L
556.175 884.786 L
558.476 884.168 L
560.778 883.546 L
563.079 882.92 L
565.381 882.291 L
567.682 881.657 L
569.984 881.02 L
572.285 880.379 L
574.587 879.734 L
576.888 879.085 L
579.19 878.433 L
581.491 877.777 L
583.793 877.117 L
586.094 876.453 L
588.396 875.786 L
590.697 875.116 L
592.999 874.441 L
S
GR
GS
0 0.447 0.741 RC
1 LJ
0.5 LW
N
590.697 875.116 M
592.999 874.441 L
595.3 873.764 L
597.602 873.082 L
599.903 872.398 L
602.205 871.71 L
604.506 871.018 L
606.808 870.323 L
609.109 869.625 L
611.411 868.923 L
613.712 868.219 L
616.014 867.511 L
618.315 866.799 L
620.617 866.085 L
622.918 865.367 L
625.22 864.647 L
627.521 863.923 L
629.823 863.196 L
632.124 862.466 L
634.426 861.733 L
636.727 860.997 L
639.029 860.258 L
641.33 859.516 L
643.632 858.772 L
645.933 858.024 L
648.235 857.274 L
650.536 856.521 L
652.838 855.765 L
655.139 855.006 L
657.441 854.245 L
659.742 853.481 L
662.044 852.714 L
664.345 851.945 L
666.647 851.173 L
668.948 850.399 L
671.25 849.622 L
673.551 848.843 L
675.853 848.061 L
678.154 847.277 L
680.456 846.49 L
682.757 845.701 L
685.059 844.91 L
687.36 844.116 L
689.662 843.32 L
691.963 842.522 L
694.265 841.721 L
696.566 840.919 L
698.868 840.114 L
701.169 839.307 L
703.471 838.498 L
705.772 837.687 L
708.074 836.874 L
S
GR
GS
0 0.447 0.741 RC
1 LJ
0.5 LW
N
705.772 837.687 M
708.074 836.874 L
710.375 836.059 L
712.677 835.242 L
714.978 834.423 L
717.28 833.602 L
719.581 832.779 L
721.883 831.955 L
724.184 831.128 L
726.486 830.3 L
728.787 829.47 L
731.089 828.638 L
733.39 827.805 L
735.692 826.97 L
737.993 826.133 L
740.295 825.295 L
742.596 824.455 L
744.898 823.613 L
747.199 822.771 L
749.501 821.926 L
751.802 821.08 L
754.104 820.233 L
756.405 819.384 L
758.707 818.534 L
761.008 817.682 L
763.31 816.83 L
765.611 815.976 L
767.913 815.12 L
770.214 814.264 L
772.516 813.406 L
774.817 812.547 L
777.119 811.688 L
779.42 810.826 L
781.722 809.964 L
784.023 809.101 L
786.325 808.237 L
788.626 807.372 L
790.928 806.506 L
793.229 805.639 L
795.531 804.771 L
797.832 803.903 L
800.134 803.033 L
802.435 802.163 L
804.737 801.292 L
807.038 800.42 L
809.34 799.547 L
811.641 798.674 L
813.943 797.801 L
816.244 796.926 L
818.546 796.051 L
820.847 795.176 L
823.149 794.3 L
S
GR
GS
0 0.447 0.741 RC
1 LJ
0.5 LW
N
820.847 795.176 M
823.149 794.3 L
825.451 793.423 L
827.752 792.546 L
830.053 791.669 L
832.355 790.791 L
834.656 789.913 L
836.958 789.034 L
839.259 788.156 L
841.561 787.277 L
843.862 786.397 L
846.164 785.518 L
848.466 784.638 L
850.767 783.758 L
853.068 782.878 L
855.37 781.998 L
857.672 781.118 L
859.973 780.238 L
S
GR
%%Trailer
%%Pages: 1
%%EOF
