%!PS-Adobe-3.0 EPSF-3.0
%%Creator: (MATLAB, The Mathworks, Inc. Version 8.6.0.267246 \(R2015b\). Operating System: Mac OS X)
%%Title: (/Users/mvanheukelom/Documents/MTE3B/mte322/projects/2/latex/MTE-322/Project 2/images/alternating_horz_dir_mean.eps)
%%CreationDate: 2017-03-16T23:08:43
%%Pages: (atend)
%%BoundingBox: 0 0 1041 1036
%%LanguageLevel: 2
%%EndComments
%%BeginProlog
%%BeginResource: procset (Apache XML Graphics Std ProcSet) 1.2 0
%%Version: 1.2 0
%%Copyright: (Copyright 2001-2003,2010 The Apache Software Foundation. License terms: http://www.apache.org/licenses/LICENSE-2.0)
/bd{bind def}bind def
/ld{load def}bd
/GR/grestore ld
/M/moveto ld
/LJ/setlinejoin ld
/C/curveto ld
/f/fill ld
/LW/setlinewidth ld
/GC/setgray ld
/t/show ld
/N/newpath ld
/CT/concat ld
/cp/closepath ld
/S/stroke ld
/L/lineto ld
/CC/setcmykcolor ld
/A/ashow ld
/GS/gsave ld
/RC/setrgbcolor ld
/RM/rmoveto ld
/ML/setmiterlimit ld
/re {4 2 roll M
1 index 0 rlineto
0 exch rlineto
neg 0 rlineto
cp } bd
/_ctm matrix def
/_tm matrix def
/BT { _ctm currentmatrix pop matrix _tm copy pop 0 0 moveto } bd
/ET { _ctm setmatrix } bd
/iTm { _ctm setmatrix _tm concat } bd
/Tm { _tm astore pop iTm 0 0 moveto } bd
/ux 0.0 def
/uy 0.0 def
/F {
  /Tp exch def
  /Tf exch def
  Tf findfont Tp scalefont setfont
  /cf Tf def  /cs Tp def
} bd
/ULS {currentpoint /uy exch def /ux exch def} bd
/ULE {
  /Tcx currentpoint pop def
  gsave
  newpath
  cf findfont cs scalefont dup
  /FontMatrix get 0 get /Ts exch def /FontInfo get dup
  /UnderlinePosition get Ts mul /To exch def
  /UnderlineThickness get Ts mul /Tt exch def
  ux uy To add moveto  Tcx uy To add lineto
  Tt setlinewidth stroke
  grestore
} bd
/OLE {
  /Tcx currentpoint pop def
  gsave
  newpath
  cf findfont cs scalefont dup
  /FontMatrix get 0 get /Ts exch def /FontInfo get dup
  /UnderlinePosition get Ts mul /To exch def
  /UnderlineThickness get Ts mul /Tt exch def
  ux uy To add cs add moveto Tcx uy To add cs add lineto
  Tt setlinewidth stroke
  grestore
} bd
/SOE {
  /Tcx currentpoint pop def
  gsave
  newpath
  cf findfont cs scalefont dup
  /FontMatrix get 0 get /Ts exch def /FontInfo get dup
  /UnderlinePosition get Ts mul /To exch def
  /UnderlineThickness get Ts mul /Tt exch def
  ux uy To add cs 10 mul 26 idiv add moveto Tcx uy To add cs 10 mul 26 idiv add lineto
  Tt setlinewidth stroke
  grestore
} bd
/QT {
/Y22 exch store
/X22 exch store
/Y21 exch store
/X21 exch store
currentpoint
/Y21 load 2 mul add 3 div exch
/X21 load 2 mul add 3 div exch
/X21 load 2 mul /X22 load add 3 div
/Y21 load 2 mul /Y22 load add 3 div
/X22 load /Y22 load curveto
} bd
/SSPD {
dup length /d exch dict def
{
/v exch def
/k exch def
currentpagedevice k known {
/cpdv currentpagedevice k get def
v cpdv ne {
/upd false def
/nullv v type /nulltype eq def
/nullcpdv cpdv type /nulltype eq def
nullv nullcpdv or
{
/upd true def
} {
/sametype v type cpdv type eq def
sametype {
v type /arraytype eq {
/vlen v length def
/cpdvlen cpdv length def
vlen cpdvlen eq {
0 1 vlen 1 sub {
/i exch def
/obj v i get def
/cpdobj cpdv i get def
obj cpdobj ne {
/upd true def
exit
} if
} for
} {
/upd true def
} ifelse
} {
v type /dicttype eq {
v {
/dv exch def
/dk exch def
/cpddv cpdv dk get def
dv cpddv ne {
/upd true def
exit
} if
} forall
} {
/upd true def
} ifelse
} ifelse
} if
} ifelse
upd true eq {
d k v put
} if
} if
} if
} forall
d length 0 gt {
d setpagedevice
} if
} bd
%%EndResource
%%BeginResource: procset (Apache XML Graphics EPS ProcSet) 1.0 0
%%Version: 1.0 0
%%Copyright: (Copyright 2002-2003 The Apache Software Foundation. License terms: http://www.apache.org/licenses/LICENSE-2.0)
/BeginEPSF { %def
/b4_Inc_state save def         % Save state for cleanup
/dict_count countdictstack def % Count objects on dict stack
/op_count count 1 sub def      % Count objects on operand stack
userdict begin                 % Push userdict on dict stack
/showpage { } def              % Redefine showpage, { } = null proc
0 setgray 0 setlinecap         % Prepare graphics state
1 setlinewidth 0 setlinejoin
10 setmiterlimit [ ] 0 setdash newpath
/languagelevel where           % If level not equal to 1 then
{pop languagelevel             % set strokeadjust and
1 ne                           % overprint to their defaults.
{false setstrokeadjust false setoverprint
} if
} if
} bd
/EndEPSF { %def
count op_count sub {pop} repeat            % Clean up stacks
countdictstack dict_count sub {end} repeat
b4_Inc_state restore
} bd
%%EndResource
%FOPBeginFontDict
%%IncludeResource: font Courier-Bold
%%IncludeResource: font Helvetica
%%IncludeResource: font Courier-BoldOblique
%%IncludeResource: font Courier-Oblique
%%IncludeResource: font Times-Roman
%%IncludeResource: font Helvetica-BoldOblique
%%IncludeResource: font Helvetica-Bold
%%IncludeResource: font Helvetica-Oblique
%%IncludeResource: font Times-BoldItalic
%%IncludeResource: font Courier
%%IncludeResource: font Times-Italic
%%IncludeResource: font Times-Bold
%%IncludeResource: font Symbol
%%IncludeResource: font ZapfDingbats
%FOPEndFontDict
%%BeginResource: encoding WinAnsiEncoding
/WinAnsiEncoding [
/.notdef /.notdef /.notdef /.notdef /.notdef
/.notdef /.notdef /.notdef /.notdef /.notdef
/.notdef /.notdef /.notdef /.notdef /.notdef
/.notdef /.notdef /.notdef /.notdef /.notdef
/.notdef /.notdef /.notdef /.notdef /.notdef
/.notdef /.notdef /.notdef /.notdef /.notdef
/.notdef /.notdef /space /exclam /quotedbl
/numbersign /dollar /percent /ampersand /quotesingle
/parenleft /parenright /asterisk /plus /comma
/hyphen /period /slash /zero /one
/two /three /four /five /six
/seven /eight /nine /colon /semicolon
/less /equal /greater /question /at
/A /B /C /D /E
/F /G /H /I /J
/K /L /M /N /O
/P /Q /R /S /T
/U /V /W /X /Y
/Z /bracketleft /backslash /bracketright /asciicircum
/underscore /quoteleft /a /b /c
/d /e /f /g /h
/i /j /k /l /m
/n /o /p /q /r
/s /t /u /v /w
/x /y /z /braceleft /bar
/braceright /asciitilde /bullet /Euro /bullet
/quotesinglbase /florin /quotedblbase /ellipsis /dagger
/daggerdbl /circumflex /perthousand /Scaron /guilsinglleft
/OE /bullet /Zcaron /bullet /bullet
/quoteleft /quoteright /quotedblleft /quotedblright /bullet
/endash /emdash /asciitilde /trademark /scaron
/guilsinglright /oe /bullet /zcaron /Ydieresis
/space /exclamdown /cent /sterling /currency
/yen /brokenbar /section /dieresis /copyright
/ordfeminine /guillemotleft /logicalnot /sfthyphen /registered
/macron /degree /plusminus /twosuperior /threesuperior
/acute /mu /paragraph /middot /cedilla
/onesuperior /ordmasculine /guillemotright /onequarter /onehalf
/threequarters /questiondown /Agrave /Aacute /Acircumflex
/Atilde /Adieresis /Aring /AE /Ccedilla
/Egrave /Eacute /Ecircumflex /Edieresis /Igrave
/Iacute /Icircumflex /Idieresis /Eth /Ntilde
/Ograve /Oacute /Ocircumflex /Otilde /Odieresis
/multiply /Oslash /Ugrave /Uacute /Ucircumflex
/Udieresis /Yacute /Thorn /germandbls /agrave
/aacute /acircumflex /atilde /adieresis /aring
/ae /ccedilla /egrave /eacute /ecircumflex
/edieresis /igrave /iacute /icircumflex /idieresis
/eth /ntilde /ograve /oacute /ocircumflex
/otilde /odieresis /divide /oslash /ugrave
/uacute /ucircumflex /udieresis /yacute /thorn
/ydieresis
] def
%%EndResource
%FOPBeginFontReencode
/Courier-Bold findfont
dup length dict begin
  {1 index /FID ne {def} {pop pop} ifelse} forall
  /Encoding WinAnsiEncoding def
  currentdict
end
/Courier-Bold exch definefont pop
/Helvetica findfont
dup length dict begin
  {1 index /FID ne {def} {pop pop} ifelse} forall
  /Encoding WinAnsiEncoding def
  currentdict
end
/Helvetica exch definefont pop
/Courier-BoldOblique findfont
dup length dict begin
  {1 index /FID ne {def} {pop pop} ifelse} forall
  /Encoding WinAnsiEncoding def
  currentdict
end
/Courier-BoldOblique exch definefont pop
/Courier-Oblique findfont
dup length dict begin
  {1 index /FID ne {def} {pop pop} ifelse} forall
  /Encoding WinAnsiEncoding def
  currentdict
end
/Courier-Oblique exch definefont pop
/Times-Roman findfont
dup length dict begin
  {1 index /FID ne {def} {pop pop} ifelse} forall
  /Encoding WinAnsiEncoding def
  currentdict
end
/Times-Roman exch definefont pop
/Helvetica-BoldOblique findfont
dup length dict begin
  {1 index /FID ne {def} {pop pop} ifelse} forall
  /Encoding WinAnsiEncoding def
  currentdict
end
/Helvetica-BoldOblique exch definefont pop
/Helvetica-Bold findfont
dup length dict begin
  {1 index /FID ne {def} {pop pop} ifelse} forall
  /Encoding WinAnsiEncoding def
  currentdict
end
/Helvetica-Bold exch definefont pop
/Helvetica-Oblique findfont
dup length dict begin
  {1 index /FID ne {def} {pop pop} ifelse} forall
  /Encoding WinAnsiEncoding def
  currentdict
end
/Helvetica-Oblique exch definefont pop
/Times-BoldItalic findfont
dup length dict begin
  {1 index /FID ne {def} {pop pop} ifelse} forall
  /Encoding WinAnsiEncoding def
  currentdict
end
/Times-BoldItalic exch definefont pop
/Courier findfont
dup length dict begin
  {1 index /FID ne {def} {pop pop} ifelse} forall
  /Encoding WinAnsiEncoding def
  currentdict
end
/Courier exch definefont pop
/Times-Italic findfont
dup length dict begin
  {1 index /FID ne {def} {pop pop} ifelse} forall
  /Encoding WinAnsiEncoding def
  currentdict
end
/Times-Italic exch definefont pop
/Times-Bold findfont
dup length dict begin
  {1 index /FID ne {def} {pop pop} ifelse} forall
  /Encoding WinAnsiEncoding def
  currentdict
end
/Times-Bold exch definefont pop
%FOPEndFontReencode
%%EndProlog
%%Page: 1 1
%%PageBoundingBox: 0 0 1041 1036
%%BeginPageSetup
[1 0 0 -1 0 1036] CT
%%EndPageSetup
GS
1 GC
N
0 0 1041 1036 re
f
GR
GS
1 GC
N
0 0 1041 1036 re
f
GR
GS
1 GC
N
135.5 241 M
942 241 L
942 77.5 L
135.5 77.5 L
cp
f
GR
GS
0.873 GC
1 LJ
0.5 LW
N
135.5 241 M
135.5 77.5 L
S
GR
GS
0.873 GC
1 LJ
0.5 LW
N
250.714 241 M
250.714 77.5 L
S
GR
GS
0.873 GC
1 LJ
0.5 LW
N
365.929 241 M
365.929 77.5 L
S
GR
GS
0.873 GC
1 LJ
0.5 LW
N
481.143 241 M
481.143 77.5 L
S
GR
GS
0.873 GC
1 LJ
0.5 LW
N
596.357 241 M
596.357 77.5 L
S
GR
GS
0.873 GC
1 LJ
0.5 LW
N
711.571 241 M
711.571 77.5 L
S
GR
GS
0.873 GC
1 LJ
0.5 LW
N
826.786 241 M
826.786 77.5 L
S
GR
GS
0.873 GC
1 LJ
0.5 LW
N
942 241 M
942 77.5 L
S
GR
GS
0.873 GC
1 LJ
0.5 LW
N
942 241 M
135.5 241 L
S
GR
GS
0.873 GC
1 LJ
0.5 LW
N
942 200.125 M
135.5 200.125 L
S
GR
GS
0.873 GC
1 LJ
0.5 LW
N
942 159.25 M
135.5 159.25 L
S
GR
GS
0.873 GC
1 LJ
0.5 LW
N
942 118.375 M
135.5 118.375 L
S
GR
GS
0.873 GC
1 LJ
0.5 LW
N
942 77.5 M
135.5 77.5 L
S
GR
GS
0.149 GC
2 setlinecap
1 LJ
0.5 LW
N
135.5 241 M
942 241 L
S
GR
GS
0.149 GC
2 setlinecap
1 LJ
0.5 LW
N
135.5 77.5 M
942 77.5 L
S
GR
GS
0.149 GC
2 setlinecap
1 LJ
0.5 LW
N
135.5 241 M
135.5 232.935 L
S
GR
GS
0.149 GC
2 setlinecap
1 LJ
0.5 LW
N
250.714 241 M
250.714 232.935 L
S
GR
GS
0.149 GC
2 setlinecap
1 LJ
0.5 LW
N
365.929 241 M
365.929 232.935 L
S
GR
GS
0.149 GC
2 setlinecap
1 LJ
0.5 LW
N
481.143 241 M
481.143 232.935 L
S
GR
GS
0.149 GC
2 setlinecap
1 LJ
0.5 LW
N
596.357 241 M
596.357 232.935 L
S
GR
GS
0.149 GC
2 setlinecap
1 LJ
0.5 LW
N
711.571 241 M
711.571 232.935 L
S
GR
GS
0.149 GC
2 setlinecap
1 LJ
0.5 LW
N
826.786 241 M
826.786 232.935 L
S
GR
GS
0.149 GC
2 setlinecap
1 LJ
0.5 LW
N
942 241 M
942 232.935 L
S
GR
GS
0.149 GC
2 setlinecap
1 LJ
0.5 LW
N
135.5 77.5 M
135.5 85.565 L
S
GR
GS
0.149 GC
2 setlinecap
1 LJ
0.5 LW
N
250.714 77.5 M
250.714 85.565 L
S
GR
GS
0.149 GC
2 setlinecap
1 LJ
0.5 LW
N
365.929 77.5 M
365.929 85.565 L
S
GR
GS
0.149 GC
2 setlinecap
1 LJ
0.5 LW
N
481.143 77.5 M
481.143 85.565 L
S
GR
GS
0.149 GC
2 setlinecap
1 LJ
0.5 LW
N
596.357 77.5 M
596.357 85.565 L
S
GR
GS
0.149 GC
2 setlinecap
1 LJ
0.5 LW
N
711.571 77.5 M
711.571 85.565 L
S
GR
GS
0.149 GC
2 setlinecap
1 LJ
0.5 LW
N
826.786 77.5 M
826.786 85.565 L
S
GR
GS
0.149 GC
2 setlinecap
1 LJ
0.5 LW
N
942 77.5 M
942 85.565 L
S
GR
GS
[1 0 0 1 135.5 245] CT
0.149 GC
/Helvetica 10 F
GS
[1 0 0 1 0 0] CT
-3 8 moveto 
1 -1 scale
(0) t 
GR
GR
GS
[1 0 0 1 250.71429 245] CT
0.149 GC
/Helvetica 10 F
GS
[1 0 0 1 0 0] CT
-10 8 moveto 
1 -1 scale
(0.05) t 
GR
GR
GS
[1 0 0 1 365.92859 245] CT
0.149 GC
/Helvetica 10 F
GS
[1 0 0 1 0 0] CT
-7 8 moveto 
1 -1 scale
(0.1) t 
GR
GR
GS
[1 0 0 1 481.14288 245] CT
0.149 GC
/Helvetica 10 F
GS
[1 0 0 1 0 0] CT
-10 8 moveto 
1 -1 scale
(0.15) t 
GR
GR
GS
[1 0 0 1 596.35718 245] CT
0.149 GC
/Helvetica 10 F
GS
[1 0 0 1 0 0] CT
-7 8 moveto 
1 -1 scale
(0.2) t 
GR
GR
GS
[1 0 0 1 711.57141 245] CT
0.149 GC
/Helvetica 10 F
GS
[1 0 0 1 0 0] CT
-10 8 moveto 
1 -1 scale
(0.25) t 
GR
GR
GS
[1 0 0 1 826.78577 245] CT
0.149 GC
/Helvetica 10 F
GS
[1 0 0 1 0 0] CT
-7 8 moveto 
1 -1 scale
(0.3) t 
GR
GR
GS
[1 0 0 1 942 245] CT
0.149 GC
/Helvetica 10 F
GS
[1 0 0 1 0 0] CT
-10 8 moveto 
1 -1 scale
(0.35) t 
GR
GR
GS
[1 0 0 1 538.75037 256.5] CT
0.149 GC
/Helvetica 11 F
GS
[1 0 0 1 0 0] CT
-27 9 moveto 
1 -1 scale
(Length \(m\)) t 
GR
GR
GS
0.149 GC
2 setlinecap
1 LJ
0.5 LW
N
135.5 241 M
135.5 77.5 L
S
GR
GS
0.149 GC
2 setlinecap
1 LJ
0.5 LW
N
942 241 M
942 77.5 L
S
GR
GS
0.149 GC
2 setlinecap
1 LJ
0.5 LW
N
135.5 241 M
143.565 241 L
S
GR
GS
0.149 GC
2 setlinecap
1 LJ
0.5 LW
N
135.5 200.125 M
143.565 200.125 L
S
GR
GS
0.149 GC
2 setlinecap
1 LJ
0.5 LW
N
135.5 159.25 M
143.565 159.25 L
S
GR
GS
0.149 GC
2 setlinecap
1 LJ
0.5 LW
N
135.5 118.375 M
143.565 118.375 L
S
GR
GS
0.149 GC
2 setlinecap
1 LJ
0.5 LW
N
135.5 77.5 M
143.565 77.5 L
S
GR
GS
0.149 GC
2 setlinecap
1 LJ
0.5 LW
N
942 241 M
933.935 241 L
S
GR
GS
0.149 GC
2 setlinecap
1 LJ
0.5 LW
N
942 200.125 M
933.935 200.125 L
S
GR
GS
0.149 GC
2 setlinecap
1 LJ
0.5 LW
N
942 159.25 M
933.935 159.25 L
S
GR
GS
0.149 GC
2 setlinecap
1 LJ
0.5 LW
N
942 118.375 M
933.935 118.375 L
S
GR
GS
0.149 GC
2 setlinecap
1 LJ
0.5 LW
N
942 77.5 M
933.935 77.5 L
S
GR
GS
[1 0 0 1 131.5 241] CT
0.149 GC
/Helvetica 10 F
GS
[1 0 0 1 0 0] CT
-9 2.5 moveto 
1 -1 scale
(-1) t 
GR
GR
GS
[1 0 0 1 131.5 200.125] CT
0.149 GC
/Helvetica 10 F
GS
[1 0 0 1 0 0] CT
-18 2.5 moveto 
1 -1 scale
(-0.5) t 
GR
GR
GS
[1 0 0 1 131.5 159.25] CT
0.149 GC
/Helvetica 10 F
GS
[1 0 0 1 0 0] CT
-6 2.5 moveto 
1 -1 scale
(0) t 
GR
GR
GS
[1 0 0 1 131.5 118.375] CT
0.149 GC
/Helvetica 10 F
GS
[1 0 0 1 0 0] CT
-14 2.5 moveto 
1 -1 scale
(0.5) t 
GR
GR
GS
[1 0 0 1 131.5 77.5] CT
0.149 GC
/Helvetica 10 F
GS
[1 0 0 1 0 0] CT
-6 2.5 moveto 
1 -1 scale
(1) t 
GR
GR
GS
[0 -1 1 0 111 159.24992] CT
0.149 GC
/Helvetica 11 F
GS
[1 0 0 1 0 0] CT
-24 -3 moveto 
1 -1 scale
(Shear \(N\)) t 
GR
GR
GS
[1 0 0 1 538.75049 76.125] CT
/Helvetica-Bold 11 F
GS
[1 0 0 1 0 0] CT
-216 -3 moveto 
1 -1 scale
(Horizontal Shear Diagram of Alternating Load: Mean Load, Fcf in Vertical Direction) t 
GR
GR
GS
0 0.447 0.741 RC
1 LJ
0.5 LW
N
135.5 159.25 M
137.804 159.25 L
140.109 159.25 L
142.413 159.25 L
144.717 159.25 L
147.022 159.25 L
149.326 159.25 L
151.631 159.25 L
153.935 159.25 L
156.239 159.25 L
158.544 159.25 L
160.848 159.25 L
163.152 159.25 L
165.457 159.25 L
167.761 159.25 L
170.065 159.25 L
172.37 159.25 L
174.674 159.25 L
176.978 159.25 L
179.283 159.25 L
181.587 159.25 L
183.892 159.25 L
186.196 159.25 L
188.5 159.25 L
190.805 159.25 L
193.109 159.25 L
195.413 159.25 L
197.718 159.25 L
200.022 159.25 L
202.326 159.25 L
204.631 159.25 L
206.935 159.25 L
209.239 159.25 L
211.544 159.25 L
213.848 159.25 L
216.153 159.25 L
218.457 159.25 L
220.761 159.25 L
223.066 159.25 L
225.37 159.25 L
227.674 159.25 L
229.979 159.25 L
232.283 159.25 L
234.587 159.25 L
236.892 159.25 L
239.196 159.25 L
241.501 159.25 L
243.805 159.25 L
246.109 159.25 L
248.414 159.25 L
S
GR
GS
0 0.447 0.741 RC
1 LJ
0.5 LW
N
246.109 159.25 M
248.414 159.25 L
250.718 159.25 L
253.022 159.25 L
255.327 159.25 L
257.631 159.25 L
259.935 159.25 L
262.24 159.25 L
264.544 159.25 L
266.848 159.25 L
269.153 159.25 L
271.457 159.25 L
273.762 159.25 L
276.066 159.25 L
278.37 159.25 L
280.675 159.25 L
282.979 159.25 L
285.283 159.25 L
287.588 159.25 L
289.892 159.25 L
292.196 159.25 L
294.501 159.25 L
296.805 159.25 L
299.109 159.25 L
301.414 159.25 L
303.718 159.25 L
306.023 159.25 L
308.327 159.25 L
310.631 159.25 L
312.936 159.25 L
315.24 159.25 L
317.544 159.25 L
319.849 159.25 L
322.153 159.25 L
324.457 159.25 L
326.762 159.25 L
329.066 159.25 L
331.371 159.25 L
333.675 159.25 L
335.979 159.25 L
338.284 159.25 L
340.588 159.25 L
342.892 159.25 L
345.197 159.25 L
347.501 159.25 L
349.805 159.25 L
352.11 159.25 L
354.414 159.25 L
356.718 159.25 L
359.023 159.25 L
361.327 159.25 L
363.632 159.25 L
S
GR
GS
0 0.447 0.741 RC
1 LJ
0.5 LW
N
361.327 159.25 M
363.632 159.25 L
365.936 159.25 L
368.24 159.25 L
370.545 159.25 L
372.849 159.25 L
375.153 159.25 L
377.458 159.25 L
379.762 159.25 L
382.066 159.25 L
384.371 159.25 L
386.675 159.25 L
388.979 159.25 L
391.284 159.25 L
393.588 159.25 L
395.893 159.25 L
398.197 159.25 L
400.501 159.25 L
402.806 159.25 L
405.11 159.25 L
407.414 159.25 L
409.719 159.25 L
412.023 159.25 L
414.327 159.25 L
416.632 159.25 L
418.936 159.25 L
421.241 159.25 L
423.545 159.25 L
425.849 159.25 L
428.154 159.25 L
430.458 159.25 L
432.762 159.25 L
435.067 159.25 L
437.371 159.25 L
439.675 159.25 L
441.98 159.25 L
444.284 159.25 L
446.588 159.25 L
448.893 159.25 L
451.197 159.25 L
453.502 159.25 L
455.806 159.25 L
458.11 159.25 L
460.415 159.25 L
462.719 159.25 L
465.023 159.25 L
467.328 159.25 L
469.632 159.25 L
471.936 159.25 L
474.241 159.25 L
476.545 159.25 L
478.849 159.25 L
S
GR
GS
0 0.447 0.741 RC
1 LJ
0.5 LW
N
476.545 159.25 M
478.849 159.25 L
481.154 159.25 L
483.458 159.25 L
485.763 159.25 L
488.067 159.25 L
490.371 159.25 L
492.676 159.25 L
494.98 159.25 L
497.284 159.25 L
499.589 159.25 L
501.893 159.25 L
504.197 159.25 L
506.502 159.25 L
508.806 159.25 L
511.111 159.25 L
513.415 159.25 L
515.719 159.25 L
518.024 159.25 L
520.328 159.25 L
522.632 159.25 L
524.937 159.25 L
527.241 159.25 L
529.545 159.25 L
531.85 159.25 L
534.154 159.25 L
536.458 159.25 L
538.763 159.25 L
541.067 159.25 L
543.372 159.25 L
545.676 159.25 L
547.98 159.25 L
550.285 159.25 L
552.589 159.25 L
554.893 159.25 L
557.198 159.25 L
559.502 159.25 L
561.806 159.25 L
564.111 159.25 L
566.415 159.25 L
568.719 159.25 L
571.024 159.25 L
573.328 159.25 L
575.633 159.25 L
577.937 159.25 L
580.241 159.25 L
582.546 159.25 L
584.85 159.25 L
587.154 159.25 L
589.459 159.25 L
591.763 159.25 L
594.067 159.25 L
S
GR
GS
0 0.447 0.741 RC
1 LJ
0.5 LW
N
591.763 159.25 M
594.067 159.25 L
596.372 159.25 L
598.676 159.25 L
600.98 159.25 L
603.285 159.25 L
605.589 159.25 L
607.894 159.25 L
610.198 159.25 L
612.502 159.25 L
614.807 159.25 L
617.111 159.25 L
619.415 159.25 L
621.72 159.25 L
624.024 159.25 L
626.328 159.25 L
628.633 159.25 L
630.937 159.25 L
633.242 159.25 L
635.546 159.25 L
637.85 159.25 L
640.155 159.25 L
642.459 159.25 L
644.763 159.25 L
647.068 159.25 L
649.372 159.25 L
651.676 159.25 L
653.981 159.25 L
656.285 159.25 L
658.589 159.25 L
660.894 159.25 L
663.198 159.25 L
665.503 159.25 L
667.807 159.25 L
670.111 159.25 L
672.416 159.25 L
674.72 159.25 L
677.024 159.25 L
679.329 159.25 L
681.633 159.25 L
683.937 159.25 L
686.242 159.25 L
688.546 159.25 L
690.851 159.25 L
693.155 159.25 L
695.459 159.25 L
697.764 159.25 L
700.068 159.25 L
702.372 159.25 L
704.677 159.25 L
706.981 159.25 L
709.285 159.25 L
S
GR
GS
0 0.447 0.741 RC
1 LJ
0.5 LW
N
706.981 159.25 M
709.285 159.25 L
711.59 159.25 L
713.894 159.25 L
716.198 159.25 L
718.503 159.25 L
720.807 159.25 L
723.112 159.25 L
725.416 159.25 L
727.72 159.25 L
730.025 159.25 L
732.329 159.25 L
734.633 159.25 L
736.938 159.25 L
739.242 159.25 L
741.546 159.25 L
743.851 159.25 L
746.155 159.25 L
748.459 159.25 L
750.764 159.25 L
753.068 159.25 L
755.373 159.25 L
757.677 159.25 L
759.981 159.25 L
762.286 159.25 L
764.59 159.25 L
766.894 159.25 L
769.199 159.25 L
771.503 159.25 L
773.807 159.25 L
776.112 159.25 L
778.416 159.25 L
780.72 159.25 L
783.025 159.25 L
785.329 159.25 L
787.634 159.25 L
789.938 159.25 L
792.242 159.25 L
794.547 159.25 L
796.851 159.25 L
799.155 159.25 L
801.46 159.25 L
803.764 159.25 L
806.068 159.25 L
808.373 159.25 L
810.677 159.25 L
812.982 159.25 L
815.286 159.25 L
817.59 159.25 L
819.895 159.25 L
822.199 159.25 L
824.503 159.25 L
S
GR
GS
0 0.447 0.741 RC
1 LJ
0.5 LW
N
822.199 159.25 M
824.503 159.25 L
826.808 159.25 L
829.112 159.25 L
831.416 159.25 L
833.721 159.25 L
836.025 159.25 L
838.329 159.25 L
840.634 159.25 L
842.938 159.25 L
845.242 159.25 L
847.547 159.25 L
849.851 159.25 L
852.156 159.25 L
854.46 159.25 L
856.764 159.25 L
859.069 159.25 L
861.373 159.25 L
S
GR
GS
1 GC
N
135.5 468 M
942 468 L
942 304.5 L
135.5 304.5 L
cp
f
GR
GS
0.873 GC
1 LJ
0.5 LW
N
135.5 468 M
135.5 304.5 L
S
GR
GS
0.873 GC
1 LJ
0.5 LW
N
250.714 468 M
250.714 304.5 L
S
GR
GS
0.873 GC
1 LJ
0.5 LW
N
365.929 468 M
365.929 304.5 L
S
GR
GS
0.873 GC
1 LJ
0.5 LW
N
481.143 468 M
481.143 304.5 L
S
GR
GS
0.873 GC
1 LJ
0.5 LW
N
596.357 468 M
596.357 304.5 L
S
GR
GS
0.873 GC
1 LJ
0.5 LW
N
711.571 468 M
711.571 304.5 L
S
GR
GS
0.873 GC
1 LJ
0.5 LW
N
826.786 468 M
826.786 304.5 L
S
GR
GS
0.873 GC
1 LJ
0.5 LW
N
942 468 M
942 304.5 L
S
GR
GS
0.873 GC
1 LJ
0.5 LW
N
942 468 M
135.5 468 L
S
GR
GS
0.873 GC
1 LJ
0.5 LW
N
942 427.125 M
135.5 427.125 L
S
GR
GS
0.873 GC
1 LJ
0.5 LW
N
942 386.25 M
135.5 386.25 L
S
GR
GS
0.873 GC
1 LJ
0.5 LW
N
942 345.375 M
135.5 345.375 L
S
GR
GS
0.873 GC
1 LJ
0.5 LW
N
942 304.5 M
135.5 304.5 L
S
GR
GS
0.149 GC
2 setlinecap
1 LJ
0.5 LW
N
135.5 468 M
942 468 L
S
GR
GS
0.149 GC
2 setlinecap
1 LJ
0.5 LW
N
135.5 304.5 M
942 304.5 L
S
GR
GS
0.149 GC
2 setlinecap
1 LJ
0.5 LW
N
135.5 468 M
135.5 459.935 L
S
GR
GS
0.149 GC
2 setlinecap
1 LJ
0.5 LW
N
250.714 468 M
250.714 459.935 L
S
GR
GS
0.149 GC
2 setlinecap
1 LJ
0.5 LW
N
365.929 468 M
365.929 459.935 L
S
GR
GS
0.149 GC
2 setlinecap
1 LJ
0.5 LW
N
481.143 468 M
481.143 459.935 L
S
GR
GS
0.149 GC
2 setlinecap
1 LJ
0.5 LW
N
596.357 468 M
596.357 459.935 L
S
GR
GS
0.149 GC
2 setlinecap
1 LJ
0.5 LW
N
711.571 468 M
711.571 459.935 L
S
GR
GS
0.149 GC
2 setlinecap
1 LJ
0.5 LW
N
826.786 468 M
826.786 459.935 L
S
GR
GS
0.149 GC
2 setlinecap
1 LJ
0.5 LW
N
942 468 M
942 459.935 L
S
GR
GS
0.149 GC
2 setlinecap
1 LJ
0.5 LW
N
135.5 304.5 M
135.5 312.565 L
S
GR
GS
0.149 GC
2 setlinecap
1 LJ
0.5 LW
N
250.714 304.5 M
250.714 312.565 L
S
GR
GS
0.149 GC
2 setlinecap
1 LJ
0.5 LW
N
365.929 304.5 M
365.929 312.565 L
S
GR
GS
0.149 GC
2 setlinecap
1 LJ
0.5 LW
N
481.143 304.5 M
481.143 312.565 L
S
GR
GS
0.149 GC
2 setlinecap
1 LJ
0.5 LW
N
596.357 304.5 M
596.357 312.565 L
S
GR
GS
0.149 GC
2 setlinecap
1 LJ
0.5 LW
N
711.571 304.5 M
711.571 312.565 L
S
GR
GS
0.149 GC
2 setlinecap
1 LJ
0.5 LW
N
826.786 304.5 M
826.786 312.565 L
S
GR
GS
0.149 GC
2 setlinecap
1 LJ
0.5 LW
N
942 304.5 M
942 312.565 L
S
GR
GS
[1 0 0 1 135.5 472] CT
0.149 GC
/Helvetica 10 F
GS
[1 0 0 1 0 0] CT
-3 8 moveto 
1 -1 scale
(0) t 
GR
GR
GS
[1 0 0 1 250.71429 472] CT
0.149 GC
/Helvetica 10 F
GS
[1 0 0 1 0 0] CT
-10 8 moveto 
1 -1 scale
(0.05) t 
GR
GR
GS
[1 0 0 1 365.92859 472] CT
0.149 GC
/Helvetica 10 F
GS
[1 0 0 1 0 0] CT
-7 8 moveto 
1 -1 scale
(0.1) t 
GR
GR
GS
[1 0 0 1 481.14288 472] CT
0.149 GC
/Helvetica 10 F
GS
[1 0 0 1 0 0] CT
-10 8 moveto 
1 -1 scale
(0.15) t 
GR
GR
GS
[1 0 0 1 596.35718 472] CT
0.149 GC
/Helvetica 10 F
GS
[1 0 0 1 0 0] CT
-7 8 moveto 
1 -1 scale
(0.2) t 
GR
GR
GS
[1 0 0 1 711.57141 472] CT
0.149 GC
/Helvetica 10 F
GS
[1 0 0 1 0 0] CT
-10 8 moveto 
1 -1 scale
(0.25) t 
GR
GR
GS
[1 0 0 1 826.78577 472] CT
0.149 GC
/Helvetica 10 F
GS
[1 0 0 1 0 0] CT
-7 8 moveto 
1 -1 scale
(0.3) t 
GR
GR
GS
[1 0 0 1 942 472] CT
0.149 GC
/Helvetica 10 F
GS
[1 0 0 1 0 0] CT
-10 8 moveto 
1 -1 scale
(0.35) t 
GR
GR
GS
[1 0 0 1 538.75037 483.5] CT
0.149 GC
/Helvetica 11 F
GS
[1 0 0 1 0 0] CT
-27 9 moveto 
1 -1 scale
(Length \(m\)) t 
GR
GR
GS
0.149 GC
2 setlinecap
1 LJ
0.5 LW
N
135.5 468 M
135.5 304.5 L
S
GR
GS
0.149 GC
2 setlinecap
1 LJ
0.5 LW
N
942 468 M
942 304.5 L
S
GR
GS
0.149 GC
2 setlinecap
1 LJ
0.5 LW
N
135.5 468 M
143.565 468 L
S
GR
GS
0.149 GC
2 setlinecap
1 LJ
0.5 LW
N
135.5 427.125 M
143.565 427.125 L
S
GR
GS
0.149 GC
2 setlinecap
1 LJ
0.5 LW
N
135.5 386.25 M
143.565 386.25 L
S
GR
GS
0.149 GC
2 setlinecap
1 LJ
0.5 LW
N
135.5 345.375 M
143.565 345.375 L
S
GR
GS
0.149 GC
2 setlinecap
1 LJ
0.5 LW
N
135.5 304.5 M
143.565 304.5 L
S
GR
GS
0.149 GC
2 setlinecap
1 LJ
0.5 LW
N
942 468 M
933.935 468 L
S
GR
GS
0.149 GC
2 setlinecap
1 LJ
0.5 LW
N
942 427.125 M
933.935 427.125 L
S
GR
GS
0.149 GC
2 setlinecap
1 LJ
0.5 LW
N
942 386.25 M
933.935 386.25 L
S
GR
GS
0.149 GC
2 setlinecap
1 LJ
0.5 LW
N
942 345.375 M
933.935 345.375 L
S
GR
GS
0.149 GC
2 setlinecap
1 LJ
0.5 LW
N
942 304.5 M
933.935 304.5 L
S
GR
GS
[1 0 0 1 131.5 468] CT
0.149 GC
/Helvetica 10 F
GS
[1 0 0 1 0 0] CT
-9 2.5 moveto 
1 -1 scale
(-1) t 
GR
GR
GS
[1 0 0 1 131.5 427.125] CT
0.149 GC
/Helvetica 10 F
GS
[1 0 0 1 0 0] CT
-18 2.5 moveto 
1 -1 scale
(-0.5) t 
GR
GR
GS
[1 0 0 1 131.5 386.25] CT
0.149 GC
/Helvetica 10 F
GS
[1 0 0 1 0 0] CT
-6 2.5 moveto 
1 -1 scale
(0) t 
GR
GR
GS
[1 0 0 1 131.5 345.375] CT
0.149 GC
/Helvetica 10 F
GS
[1 0 0 1 0 0] CT
-14 2.5 moveto 
1 -1 scale
(0.5) t 
GR
GR
GS
[1 0 0 1 131.5 304.5] CT
0.149 GC
/Helvetica 10 F
GS
[1 0 0 1 0 0] CT
-6 2.5 moveto 
1 -1 scale
(1) t 
GR
GR
GS
[0 -1 1 0 111 386.24991] CT
0.149 GC
/Helvetica 11 F
GS
[1 0 0 1 0 0] CT
-34 -3 moveto 
1 -1 scale
(Moment \(Nm\)) t 
GR
GR
GS
[1 0 0 1 538.75049 303.125] CT
/Helvetica-Bold 11 F
GS
[1 0 0 1 0 0] CT
-222 -3 moveto 
1 -1 scale
(Horizontal Moment Diagram of Alternating Load: Mean Load, Fcf in Vertical Direction) t 
GR
GR
GS
0 0.447 0.741 RC
1 LJ
0.5 LW
N
135.5 386.25 M
137.804 386.25 L
140.109 386.25 L
142.413 386.25 L
144.717 386.25 L
147.022 386.25 L
149.326 386.25 L
151.631 386.25 L
153.935 386.25 L
156.239 386.25 L
158.544 386.25 L
160.848 386.25 L
163.152 386.25 L
165.457 386.25 L
167.761 386.25 L
170.065 386.25 L
172.37 386.25 L
174.674 386.25 L
176.978 386.25 L
179.283 386.25 L
181.587 386.25 L
183.892 386.25 L
186.196 386.25 L
188.5 386.25 L
190.805 386.25 L
193.109 386.25 L
195.413 386.25 L
197.718 386.25 L
200.022 386.25 L
202.326 386.25 L
204.631 386.25 L
206.935 386.25 L
209.239 386.25 L
211.544 386.25 L
213.848 386.25 L
216.153 386.25 L
218.457 386.25 L
220.761 386.25 L
223.066 386.25 L
225.37 386.25 L
227.674 386.25 L
229.979 386.25 L
232.283 386.25 L
234.587 386.25 L
236.892 386.25 L
239.196 386.25 L
241.501 386.25 L
243.805 386.25 L
246.109 386.25 L
248.414 386.25 L
S
GR
GS
0 0.447 0.741 RC
1 LJ
0.5 LW
N
246.109 386.25 M
248.414 386.25 L
250.718 386.25 L
253.022 386.25 L
255.327 386.25 L
257.631 386.25 L
259.935 386.25 L
262.24 386.25 L
264.544 386.25 L
266.848 386.25 L
269.153 386.25 L
271.457 386.25 L
273.762 386.25 L
276.066 386.25 L
278.37 386.25 L
280.675 386.25 L
282.979 386.25 L
285.283 386.25 L
287.588 386.25 L
289.892 386.25 L
292.196 386.25 L
294.501 386.25 L
296.805 386.25 L
299.109 386.25 L
301.414 386.25 L
303.718 386.25 L
306.023 386.25 L
308.327 386.25 L
310.631 386.25 L
312.936 386.25 L
315.24 386.25 L
317.544 386.25 L
319.849 386.25 L
322.153 386.25 L
324.457 386.25 L
326.762 386.25 L
329.066 386.25 L
331.371 386.25 L
333.675 386.25 L
335.979 386.25 L
338.284 386.25 L
340.588 386.25 L
342.892 386.25 L
345.197 386.25 L
347.501 386.25 L
349.805 386.25 L
352.11 386.25 L
354.414 386.25 L
356.718 386.25 L
359.023 386.25 L
361.327 386.25 L
363.632 386.25 L
S
GR
GS
0 0.447 0.741 RC
1 LJ
0.5 LW
N
361.327 386.25 M
363.632 386.25 L
365.936 386.25 L
368.24 386.25 L
370.545 386.25 L
372.849 386.25 L
375.153 386.25 L
377.458 386.25 L
379.762 386.25 L
382.066 386.25 L
384.371 386.25 L
386.675 386.25 L
388.979 386.25 L
391.284 386.25 L
393.588 386.25 L
395.893 386.25 L
398.197 386.25 L
400.501 386.25 L
402.806 386.25 L
405.11 386.25 L
407.414 386.25 L
409.719 386.25 L
412.023 386.25 L
414.327 386.25 L
416.632 386.25 L
418.936 386.25 L
421.241 386.25 L
423.545 386.25 L
425.849 386.25 L
428.154 386.25 L
430.458 386.25 L
432.762 386.25 L
435.067 386.25 L
437.371 386.25 L
439.675 386.25 L
441.98 386.25 L
444.284 386.25 L
446.588 386.25 L
448.893 386.25 L
451.197 386.25 L
453.502 386.25 L
455.806 386.25 L
458.11 386.25 L
460.415 386.25 L
462.719 386.25 L
465.023 386.25 L
467.328 386.25 L
469.632 386.25 L
471.936 386.25 L
474.241 386.25 L
476.545 386.25 L
478.849 386.25 L
S
GR
GS
0 0.447 0.741 RC
1 LJ
0.5 LW
N
476.545 386.25 M
478.849 386.25 L
481.154 386.25 L
483.458 386.25 L
485.763 386.25 L
488.067 386.25 L
490.371 386.25 L
492.676 386.25 L
494.98 386.25 L
497.284 386.25 L
499.589 386.25 L
501.893 386.25 L
504.197 386.25 L
506.502 386.25 L
508.806 386.25 L
511.111 386.25 L
513.415 386.25 L
515.719 386.25 L
518.024 386.25 L
520.328 386.25 L
522.632 386.25 L
524.937 386.25 L
527.241 386.25 L
529.545 386.25 L
531.85 386.25 L
534.154 386.25 L
536.458 386.25 L
538.763 386.25 L
541.067 386.25 L
543.372 386.25 L
545.676 386.25 L
547.98 386.25 L
550.285 386.25 L
552.589 386.25 L
554.893 386.25 L
557.198 386.25 L
559.502 386.25 L
561.806 386.25 L
564.111 386.25 L
566.415 386.25 L
568.719 386.25 L
571.024 386.25 L
573.328 386.25 L
575.633 386.25 L
577.937 386.25 L
580.241 386.25 L
582.546 386.25 L
584.85 386.25 L
587.154 386.25 L
589.459 386.25 L
591.763 386.25 L
594.067 386.25 L
S
GR
GS
0 0.447 0.741 RC
1 LJ
0.5 LW
N
591.763 386.25 M
594.067 386.25 L
596.372 386.25 L
598.676 386.25 L
600.98 386.25 L
603.285 386.25 L
605.589 386.25 L
607.894 386.25 L
610.198 386.25 L
612.502 386.25 L
614.807 386.25 L
617.111 386.25 L
619.415 386.25 L
621.72 386.25 L
624.024 386.25 L
626.328 386.25 L
628.633 386.25 L
630.937 386.25 L
633.242 386.25 L
635.546 386.25 L
637.85 386.25 L
640.155 386.25 L
642.459 386.25 L
644.763 386.25 L
647.068 386.25 L
649.372 386.25 L
651.676 386.25 L
653.981 386.25 L
656.285 386.25 L
658.589 386.25 L
660.894 386.25 L
663.198 386.25 L
665.503 386.25 L
667.807 386.25 L
670.111 386.25 L
672.416 386.25 L
674.72 386.25 L
677.024 386.25 L
679.329 386.25 L
681.633 386.25 L
683.937 386.25 L
686.242 386.25 L
688.546 386.25 L
690.851 386.25 L
693.155 386.25 L
695.459 386.25 L
697.764 386.25 L
700.068 386.25 L
702.372 386.25 L
704.677 386.25 L
706.981 386.25 L
709.285 386.25 L
S
GR
GS
0 0.447 0.741 RC
1 LJ
0.5 LW
N
706.981 386.25 M
709.285 386.25 L
711.59 386.25 L
713.894 386.25 L
716.198 386.25 L
718.503 386.25 L
720.807 386.25 L
723.112 386.25 L
725.416 386.25 L
727.72 386.25 L
730.025 386.25 L
732.329 386.25 L
734.633 386.25 L
736.938 386.25 L
739.242 386.25 L
741.546 386.25 L
743.851 386.25 L
746.155 386.25 L
748.459 386.25 L
750.764 386.25 L
753.068 386.25 L
755.373 386.25 L
757.677 386.25 L
759.981 386.25 L
762.286 386.25 L
764.59 386.25 L
766.894 386.25 L
769.199 386.25 L
771.503 386.25 L
773.807 386.25 L
776.112 386.25 L
778.416 386.25 L
780.72 386.25 L
783.025 386.25 L
785.329 386.25 L
787.634 386.25 L
789.938 386.25 L
792.242 386.25 L
794.547 386.25 L
796.851 386.25 L
799.155 386.25 L
801.46 386.25 L
803.764 386.25 L
806.068 386.25 L
808.373 386.25 L
810.677 386.25 L
812.982 386.25 L
815.286 386.25 L
817.59 386.25 L
819.895 386.25 L
822.199 386.25 L
824.503 386.25 L
S
GR
GS
0 0.447 0.741 RC
1 LJ
0.5 LW
N
822.199 386.25 M
824.503 386.25 L
826.808 386.25 L
829.112 386.25 L
831.416 386.25 L
833.721 386.25 L
836.025 386.25 L
838.329 386.25 L
840.634 386.25 L
842.938 386.25 L
845.242 386.25 L
847.547 386.25 L
849.851 386.25 L
852.156 386.25 L
854.46 386.25 L
856.764 386.25 L
859.069 386.25 L
861.373 386.25 L
S
GR
GS
1 GC
N
135.5 695 M
942 695 L
942 531.5 L
135.5 531.5 L
cp
f
GR
GS
0.873 GC
1 LJ
0.5 LW
N
135.5 695 M
135.5 531.5 L
S
GR
GS
0.873 GC
1 LJ
0.5 LW
N
250.714 695 M
250.714 531.5 L
S
GR
GS
0.873 GC
1 LJ
0.5 LW
N
365.929 695 M
365.929 531.5 L
S
GR
GS
0.873 GC
1 LJ
0.5 LW
N
481.143 695 M
481.143 531.5 L
S
GR
GS
0.873 GC
1 LJ
0.5 LW
N
596.357 695 M
596.357 531.5 L
S
GR
GS
0.873 GC
1 LJ
0.5 LW
N
711.571 695 M
711.571 531.5 L
S
GR
GS
0.873 GC
1 LJ
0.5 LW
N
826.786 695 M
826.786 531.5 L
S
GR
GS
0.873 GC
1 LJ
0.5 LW
N
942 695 M
942 531.5 L
S
GR
GS
0.873 GC
1 LJ
0.5 LW
N
942 695 M
135.5 695 L
S
GR
GS
0.873 GC
1 LJ
0.5 LW
N
942 654.125 M
135.5 654.125 L
S
GR
GS
0.873 GC
1 LJ
0.5 LW
N
942 613.25 M
135.5 613.25 L
S
GR
GS
0.873 GC
1 LJ
0.5 LW
N
942 572.375 M
135.5 572.375 L
S
GR
GS
0.873 GC
1 LJ
0.5 LW
N
942 531.5 M
135.5 531.5 L
S
GR
GS
0.149 GC
2 setlinecap
1 LJ
0.5 LW
N
135.5 695 M
942 695 L
S
GR
GS
0.149 GC
2 setlinecap
1 LJ
0.5 LW
N
135.5 531.5 M
942 531.5 L
S
GR
GS
0.149 GC
2 setlinecap
1 LJ
0.5 LW
N
135.5 695 M
135.5 686.935 L
S
GR
GS
0.149 GC
2 setlinecap
1 LJ
0.5 LW
N
250.714 695 M
250.714 686.935 L
S
GR
GS
0.149 GC
2 setlinecap
1 LJ
0.5 LW
N
365.929 695 M
365.929 686.935 L
S
GR
GS
0.149 GC
2 setlinecap
1 LJ
0.5 LW
N
481.143 695 M
481.143 686.935 L
S
GR
GS
0.149 GC
2 setlinecap
1 LJ
0.5 LW
N
596.357 695 M
596.357 686.935 L
S
GR
GS
0.149 GC
2 setlinecap
1 LJ
0.5 LW
N
711.571 695 M
711.571 686.935 L
S
GR
GS
0.149 GC
2 setlinecap
1 LJ
0.5 LW
N
826.786 695 M
826.786 686.935 L
S
GR
GS
0.149 GC
2 setlinecap
1 LJ
0.5 LW
N
942 695 M
942 686.935 L
S
GR
GS
0.149 GC
2 setlinecap
1 LJ
0.5 LW
N
135.5 531.5 M
135.5 539.565 L
S
GR
GS
0.149 GC
2 setlinecap
1 LJ
0.5 LW
N
250.714 531.5 M
250.714 539.565 L
S
GR
GS
0.149 GC
2 setlinecap
1 LJ
0.5 LW
N
365.929 531.5 M
365.929 539.565 L
S
GR
GS
0.149 GC
2 setlinecap
1 LJ
0.5 LW
N
481.143 531.5 M
481.143 539.565 L
S
GR
GS
0.149 GC
2 setlinecap
1 LJ
0.5 LW
N
596.357 531.5 M
596.357 539.565 L
S
GR
GS
0.149 GC
2 setlinecap
1 LJ
0.5 LW
N
711.571 531.5 M
711.571 539.565 L
S
GR
GS
0.149 GC
2 setlinecap
1 LJ
0.5 LW
N
826.786 531.5 M
826.786 539.565 L
S
GR
GS
0.149 GC
2 setlinecap
1 LJ
0.5 LW
N
942 531.5 M
942 539.565 L
S
GR
GS
[1 0 0 1 135.5 699] CT
0.149 GC
/Helvetica 10 F
GS
[1 0 0 1 0 0] CT
-3 8 moveto 
1 -1 scale
(0) t 
GR
GR
GS
[1 0 0 1 250.71429 699] CT
0.149 GC
/Helvetica 10 F
GS
[1 0 0 1 0 0] CT
-10 8 moveto 
1 -1 scale
(0.05) t 
GR
GR
GS
[1 0 0 1 365.92859 699] CT
0.149 GC
/Helvetica 10 F
GS
[1 0 0 1 0 0] CT
-7 8 moveto 
1 -1 scale
(0.1) t 
GR
GR
GS
[1 0 0 1 481.14288 699] CT
0.149 GC
/Helvetica 10 F
GS
[1 0 0 1 0 0] CT
-10 8 moveto 
1 -1 scale
(0.15) t 
GR
GR
GS
[1 0 0 1 596.35718 699] CT
0.149 GC
/Helvetica 10 F
GS
[1 0 0 1 0 0] CT
-7 8 moveto 
1 -1 scale
(0.2) t 
GR
GR
GS
[1 0 0 1 711.57141 699] CT
0.149 GC
/Helvetica 10 F
GS
[1 0 0 1 0 0] CT
-10 8 moveto 
1 -1 scale
(0.25) t 
GR
GR
GS
[1 0 0 1 826.78577 699] CT
0.149 GC
/Helvetica 10 F
GS
[1 0 0 1 0 0] CT
-7 8 moveto 
1 -1 scale
(0.3) t 
GR
GR
GS
[1 0 0 1 942 699] CT
0.149 GC
/Helvetica 10 F
GS
[1 0 0 1 0 0] CT
-10 8 moveto 
1 -1 scale
(0.35) t 
GR
GR
GS
[1 0 0 1 538.75037 710.5] CT
0.149 GC
/Helvetica 11 F
GS
[1 0 0 1 0 0] CT
-27 9 moveto 
1 -1 scale
(Length \(m\)) t 
GR
GR
GS
0.149 GC
2 setlinecap
1 LJ
0.5 LW
N
135.5 695 M
135.5 531.5 L
S
GR
GS
0.149 GC
2 setlinecap
1 LJ
0.5 LW
N
942 695 M
942 531.5 L
S
GR
GS
0.149 GC
2 setlinecap
1 LJ
0.5 LW
N
135.5 695 M
143.565 695 L
S
GR
GS
0.149 GC
2 setlinecap
1 LJ
0.5 LW
N
135.5 654.125 M
143.565 654.125 L
S
GR
GS
0.149 GC
2 setlinecap
1 LJ
0.5 LW
N
135.5 613.25 M
143.565 613.25 L
S
GR
GS
0.149 GC
2 setlinecap
1 LJ
0.5 LW
N
135.5 572.375 M
143.565 572.375 L
S
GR
GS
0.149 GC
2 setlinecap
1 LJ
0.5 LW
N
135.5 531.5 M
143.565 531.5 L
S
GR
GS
0.149 GC
2 setlinecap
1 LJ
0.5 LW
N
942 695 M
933.935 695 L
S
GR
GS
0.149 GC
2 setlinecap
1 LJ
0.5 LW
N
942 654.125 M
933.935 654.125 L
S
GR
GS
0.149 GC
2 setlinecap
1 LJ
0.5 LW
N
942 613.25 M
933.935 613.25 L
S
GR
GS
0.149 GC
2 setlinecap
1 LJ
0.5 LW
N
942 572.375 M
933.935 572.375 L
S
GR
GS
0.149 GC
2 setlinecap
1 LJ
0.5 LW
N
942 531.5 M
933.935 531.5 L
S
GR
GS
[1 0 0 1 131.5 695] CT
0.149 GC
/Helvetica 10 F
GS
[1 0 0 1 0 0] CT
-9 2.5 moveto 
1 -1 scale
(-1) t 
GR
GR
GS
[1 0 0 1 131.5 654.125] CT
0.149 GC
/Helvetica 10 F
GS
[1 0 0 1 0 0] CT
-18 2.5 moveto 
1 -1 scale
(-0.5) t 
GR
GR
GS
[1 0 0 1 131.5 613.25] CT
0.149 GC
/Helvetica 10 F
GS
[1 0 0 1 0 0] CT
-6 2.5 moveto 
1 -1 scale
(0) t 
GR
GR
GS
[1 0 0 1 131.5 572.375] CT
0.149 GC
/Helvetica 10 F
GS
[1 0 0 1 0 0] CT
-14 2.5 moveto 
1 -1 scale
(0.5) t 
GR
GR
GS
[1 0 0 1 131.5 531.5] CT
0.149 GC
/Helvetica 10 F
GS
[1 0 0 1 0 0] CT
-6 2.5 moveto 
1 -1 scale
(1) t 
GR
GR
GS
[0 -1 1 0 111 613.24994] CT
0.149 GC
/Helvetica 11 F
GS
[1 0 0 1 0 0] CT
-21.5 -3 moveto 
1 -1 scale
(EI*Angle) t 
GR
GR
GS
[1 0 0 1 538.75049 530.125] CT
/Helvetica-Bold 11 F
GS
[1 0 0 1 0 0] CT
-216 -3 moveto 
1 -1 scale
(Horizontal Angular Deflection \(EI*Theta\) Load: Mean Load, Fcf in Vertical Direction) t 
GR
GR
GS
0 0.447 0.741 RC
1 LJ
0.5 LW
N
135.5 613.25 M
137.804 613.25 L
140.109 613.25 L
142.413 613.25 L
144.717 613.25 L
147.022 613.25 L
149.326 613.25 L
151.631 613.25 L
153.935 613.25 L
156.239 613.25 L
158.544 613.25 L
160.848 613.25 L
163.152 613.25 L
165.457 613.25 L
167.761 613.25 L
170.065 613.25 L
172.37 613.25 L
174.674 613.25 L
176.978 613.25 L
179.283 613.25 L
181.587 613.25 L
183.892 613.25 L
186.196 613.25 L
188.5 613.25 L
190.805 613.25 L
193.109 613.25 L
195.413 613.25 L
197.718 613.25 L
200.022 613.25 L
202.326 613.25 L
204.631 613.25 L
206.935 613.25 L
209.239 613.25 L
211.544 613.25 L
213.848 613.25 L
216.153 613.25 L
218.457 613.25 L
220.761 613.25 L
223.066 613.25 L
225.37 613.25 L
227.674 613.25 L
229.979 613.25 L
232.283 613.25 L
234.587 613.25 L
236.892 613.25 L
239.196 613.25 L
241.501 613.25 L
243.805 613.25 L
246.109 613.25 L
248.414 613.25 L
S
GR
GS
0 0.447 0.741 RC
1 LJ
0.5 LW
N
246.109 613.25 M
248.414 613.25 L
250.718 613.25 L
253.022 613.25 L
255.327 613.25 L
257.631 613.25 L
259.935 613.25 L
262.24 613.25 L
264.544 613.25 L
266.848 613.25 L
269.153 613.25 L
271.457 613.25 L
273.762 613.25 L
276.066 613.25 L
278.37 613.25 L
280.675 613.25 L
282.979 613.25 L
285.283 613.25 L
287.588 613.25 L
289.892 613.25 L
292.196 613.25 L
294.501 613.25 L
296.805 613.25 L
299.109 613.25 L
301.414 613.25 L
303.718 613.25 L
306.023 613.25 L
308.327 613.25 L
310.631 613.25 L
312.936 613.25 L
315.24 613.25 L
317.544 613.25 L
319.849 613.25 L
322.153 613.25 L
324.457 613.25 L
326.762 613.25 L
329.066 613.25 L
331.371 613.25 L
333.675 613.25 L
335.979 613.25 L
338.284 613.25 L
340.588 613.25 L
342.892 613.25 L
345.197 613.25 L
347.501 613.25 L
349.805 613.25 L
352.11 613.25 L
354.414 613.25 L
356.718 613.25 L
359.023 613.25 L
361.327 613.25 L
363.632 613.25 L
S
GR
GS
0 0.447 0.741 RC
1 LJ
0.5 LW
N
361.327 613.25 M
363.632 613.25 L
365.936 613.25 L
368.24 613.25 L
370.545 613.25 L
372.849 613.25 L
375.153 613.25 L
377.458 613.25 L
379.762 613.25 L
382.066 613.25 L
384.371 613.25 L
386.675 613.25 L
388.979 613.25 L
391.284 613.25 L
393.588 613.25 L
395.893 613.25 L
398.197 613.25 L
400.501 613.25 L
402.806 613.25 L
405.11 613.25 L
407.414 613.25 L
409.719 613.25 L
412.023 613.25 L
414.327 613.25 L
416.632 613.25 L
418.936 613.25 L
421.241 613.25 L
423.545 613.25 L
425.849 613.25 L
428.154 613.25 L
430.458 613.25 L
432.762 613.25 L
435.067 613.25 L
437.371 613.25 L
439.675 613.25 L
441.98 613.25 L
444.284 613.25 L
446.588 613.25 L
448.893 613.25 L
451.197 613.25 L
453.502 613.25 L
455.806 613.25 L
458.11 613.25 L
460.415 613.25 L
462.719 613.25 L
465.023 613.25 L
467.328 613.25 L
469.632 613.25 L
471.936 613.25 L
474.241 613.25 L
476.545 613.25 L
478.849 613.25 L
S
GR
GS
0 0.447 0.741 RC
1 LJ
0.5 LW
N
476.545 613.25 M
478.849 613.25 L
481.154 613.25 L
483.458 613.25 L
485.763 613.25 L
488.067 613.25 L
490.371 613.25 L
492.676 613.25 L
494.98 613.25 L
497.284 613.25 L
499.589 613.25 L
501.893 613.25 L
504.197 613.25 L
506.502 613.25 L
508.806 613.25 L
511.111 613.25 L
513.415 613.25 L
515.719 613.25 L
518.024 613.25 L
520.328 613.25 L
522.632 613.25 L
524.937 613.25 L
527.241 613.25 L
529.545 613.25 L
531.85 613.25 L
534.154 613.25 L
536.458 613.25 L
538.763 613.25 L
541.067 613.25 L
543.372 613.25 L
545.676 613.25 L
547.98 613.25 L
550.285 613.25 L
552.589 613.25 L
554.893 613.25 L
557.198 613.25 L
559.502 613.25 L
561.806 613.25 L
564.111 613.25 L
566.415 613.25 L
568.719 613.25 L
571.024 613.25 L
573.328 613.25 L
575.633 613.25 L
577.937 613.25 L
580.241 613.25 L
582.546 613.25 L
584.85 613.25 L
587.154 613.25 L
589.459 613.25 L
591.763 613.25 L
594.067 613.25 L
S
GR
GS
0 0.447 0.741 RC
1 LJ
0.5 LW
N
591.763 613.25 M
594.067 613.25 L
596.372 613.25 L
598.676 613.25 L
600.98 613.25 L
603.285 613.25 L
605.589 613.25 L
607.894 613.25 L
610.198 613.25 L
612.502 613.25 L
614.807 613.25 L
617.111 613.25 L
619.415 613.25 L
621.72 613.25 L
624.024 613.25 L
626.328 613.25 L
628.633 613.25 L
630.937 613.25 L
633.242 613.25 L
635.546 613.25 L
637.85 613.25 L
640.155 613.25 L
642.459 613.25 L
644.763 613.25 L
647.068 613.25 L
649.372 613.25 L
651.676 613.25 L
653.981 613.25 L
656.285 613.25 L
658.589 613.25 L
660.894 613.25 L
663.198 613.25 L
665.503 613.25 L
667.807 613.25 L
670.111 613.25 L
672.416 613.25 L
674.72 613.25 L
677.024 613.25 L
679.329 613.25 L
681.633 613.25 L
683.937 613.25 L
686.242 613.25 L
688.546 613.25 L
690.851 613.25 L
693.155 613.25 L
695.459 613.25 L
697.764 613.25 L
700.068 613.25 L
702.372 613.25 L
704.677 613.25 L
706.981 613.25 L
709.285 613.25 L
S
GR
GS
0 0.447 0.741 RC
1 LJ
0.5 LW
N
706.981 613.25 M
709.285 613.25 L
711.59 613.25 L
713.894 613.25 L
716.198 613.25 L
718.503 613.25 L
720.807 613.25 L
723.112 613.25 L
725.416 613.25 L
727.72 613.25 L
730.025 613.25 L
732.329 613.25 L
734.633 613.25 L
736.938 613.25 L
739.242 613.25 L
741.546 613.25 L
743.851 613.25 L
746.155 613.25 L
748.459 613.25 L
750.764 613.25 L
753.068 613.25 L
755.373 613.25 L
757.677 613.25 L
759.981 613.25 L
762.286 613.25 L
764.59 613.25 L
766.894 613.25 L
769.199 613.25 L
771.503 613.25 L
773.807 613.25 L
776.112 613.25 L
778.416 613.25 L
780.72 613.25 L
783.025 613.25 L
785.329 613.25 L
787.634 613.25 L
789.938 613.25 L
792.242 613.25 L
794.547 613.25 L
796.851 613.25 L
799.155 613.25 L
801.46 613.25 L
803.764 613.25 L
806.068 613.25 L
808.373 613.25 L
810.677 613.25 L
812.982 613.25 L
815.286 613.25 L
817.59 613.25 L
819.895 613.25 L
822.199 613.25 L
824.503 613.25 L
S
GR
GS
0 0.447 0.741 RC
1 LJ
0.5 LW
N
822.199 613.25 M
824.503 613.25 L
826.808 613.25 L
829.112 613.25 L
831.416 613.25 L
833.721 613.25 L
836.025 613.25 L
838.329 613.25 L
840.634 613.25 L
842.938 613.25 L
845.242 613.25 L
847.547 613.25 L
849.851 613.25 L
852.156 613.25 L
854.46 613.25 L
856.764 613.25 L
859.069 613.25 L
861.373 613.25 L
S
GR
GS
1 GC
N
135.5 922 M
942 922 L
942 758.5 L
135.5 758.5 L
cp
f
GR
GS
0.873 GC
1 LJ
0.5 LW
N
135.5 922 M
135.5 758.5 L
S
GR
GS
0.873 GC
1 LJ
0.5 LW
N
250.714 922 M
250.714 758.5 L
S
GR
GS
0.873 GC
1 LJ
0.5 LW
N
365.929 922 M
365.929 758.5 L
S
GR
GS
0.873 GC
1 LJ
0.5 LW
N
481.143 922 M
481.143 758.5 L
S
GR
GS
0.873 GC
1 LJ
0.5 LW
N
596.357 922 M
596.357 758.5 L
S
GR
GS
0.873 GC
1 LJ
0.5 LW
N
711.571 922 M
711.571 758.5 L
S
GR
GS
0.873 GC
1 LJ
0.5 LW
N
826.786 922 M
826.786 758.5 L
S
GR
GS
0.873 GC
1 LJ
0.5 LW
N
942 922 M
942 758.5 L
S
GR
GS
0.873 GC
1 LJ
0.5 LW
N
942 922 M
135.5 922 L
S
GR
GS
0.873 GC
1 LJ
0.5 LW
N
942 881.125 M
135.5 881.125 L
S
GR
GS
0.873 GC
1 LJ
0.5 LW
N
942 840.25 M
135.5 840.25 L
S
GR
GS
0.873 GC
1 LJ
0.5 LW
N
942 799.375 M
135.5 799.375 L
S
GR
GS
0.873 GC
1 LJ
0.5 LW
N
942 758.5 M
135.5 758.5 L
S
GR
GS
0.149 GC
2 setlinecap
1 LJ
0.5 LW
N
135.5 922 M
942 922 L
S
GR
GS
0.149 GC
2 setlinecap
1 LJ
0.5 LW
N
135.5 758.5 M
942 758.5 L
S
GR
GS
0.149 GC
2 setlinecap
1 LJ
0.5 LW
N
135.5 922 M
135.5 913.935 L
S
GR
GS
0.149 GC
2 setlinecap
1 LJ
0.5 LW
N
250.714 922 M
250.714 913.935 L
S
GR
GS
0.149 GC
2 setlinecap
1 LJ
0.5 LW
N
365.929 922 M
365.929 913.935 L
S
GR
GS
0.149 GC
2 setlinecap
1 LJ
0.5 LW
N
481.143 922 M
481.143 913.935 L
S
GR
GS
0.149 GC
2 setlinecap
1 LJ
0.5 LW
N
596.357 922 M
596.357 913.935 L
S
GR
GS
0.149 GC
2 setlinecap
1 LJ
0.5 LW
N
711.571 922 M
711.571 913.935 L
S
GR
GS
0.149 GC
2 setlinecap
1 LJ
0.5 LW
N
826.786 922 M
826.786 913.935 L
S
GR
GS
0.149 GC
2 setlinecap
1 LJ
0.5 LW
N
942 922 M
942 913.935 L
S
GR
GS
0.149 GC
2 setlinecap
1 LJ
0.5 LW
N
135.5 758.5 M
135.5 766.565 L
S
GR
GS
0.149 GC
2 setlinecap
1 LJ
0.5 LW
N
250.714 758.5 M
250.714 766.565 L
S
GR
GS
0.149 GC
2 setlinecap
1 LJ
0.5 LW
N
365.929 758.5 M
365.929 766.565 L
S
GR
GS
0.149 GC
2 setlinecap
1 LJ
0.5 LW
N
481.143 758.5 M
481.143 766.565 L
S
GR
GS
0.149 GC
2 setlinecap
1 LJ
0.5 LW
N
596.357 758.5 M
596.357 766.565 L
S
GR
GS
0.149 GC
2 setlinecap
1 LJ
0.5 LW
N
711.571 758.5 M
711.571 766.565 L
S
GR
GS
0.149 GC
2 setlinecap
1 LJ
0.5 LW
N
826.786 758.5 M
826.786 766.565 L
S
GR
GS
0.149 GC
2 setlinecap
1 LJ
0.5 LW
N
942 758.5 M
942 766.565 L
S
GR
GS
[1 0 0 1 135.5 926] CT
0.149 GC
/Helvetica 10 F
GS
[1 0 0 1 0 0] CT
-3 8 moveto 
1 -1 scale
(0) t 
GR
GR
GS
[1 0 0 1 250.71429 926] CT
0.149 GC
/Helvetica 10 F
GS
[1 0 0 1 0 0] CT
-10 8 moveto 
1 -1 scale
(0.05) t 
GR
GR
GS
[1 0 0 1 365.92859 926] CT
0.149 GC
/Helvetica 10 F
GS
[1 0 0 1 0 0] CT
-7 8 moveto 
1 -1 scale
(0.1) t 
GR
GR
GS
[1 0 0 1 481.14288 926] CT
0.149 GC
/Helvetica 10 F
GS
[1 0 0 1 0 0] CT
-10 8 moveto 
1 -1 scale
(0.15) t 
GR
GR
GS
[1 0 0 1 596.35718 926] CT
0.149 GC
/Helvetica 10 F
GS
[1 0 0 1 0 0] CT
-7 8 moveto 
1 -1 scale
(0.2) t 
GR
GR
GS
[1 0 0 1 711.57141 926] CT
0.149 GC
/Helvetica 10 F
GS
[1 0 0 1 0 0] CT
-10 8 moveto 
1 -1 scale
(0.25) t 
GR
GR
GS
[1 0 0 1 826.78577 926] CT
0.149 GC
/Helvetica 10 F
GS
[1 0 0 1 0 0] CT
-7 8 moveto 
1 -1 scale
(0.3) t 
GR
GR
GS
[1 0 0 1 942 926] CT
0.149 GC
/Helvetica 10 F
GS
[1 0 0 1 0 0] CT
-10 8 moveto 
1 -1 scale
(0.35) t 
GR
GR
GS
[1 0 0 1 538.75037 937.5] CT
0.149 GC
/Helvetica 11 F
GS
[1 0 0 1 0 0] CT
-27 9 moveto 
1 -1 scale
(Length \(m\)) t 
GR
GR
GS
0.149 GC
2 setlinecap
1 LJ
0.5 LW
N
135.5 922 M
135.5 758.5 L
S
GR
GS
0.149 GC
2 setlinecap
1 LJ
0.5 LW
N
942 922 M
942 758.5 L
S
GR
GS
0.149 GC
2 setlinecap
1 LJ
0.5 LW
N
135.5 922 M
143.565 922 L
S
GR
GS
0.149 GC
2 setlinecap
1 LJ
0.5 LW
N
135.5 881.125 M
143.565 881.125 L
S
GR
GS
0.149 GC
2 setlinecap
1 LJ
0.5 LW
N
135.5 840.25 M
143.565 840.25 L
S
GR
GS
0.149 GC
2 setlinecap
1 LJ
0.5 LW
N
135.5 799.375 M
143.565 799.375 L
S
GR
GS
0.149 GC
2 setlinecap
1 LJ
0.5 LW
N
135.5 758.5 M
143.565 758.5 L
S
GR
GS
0.149 GC
2 setlinecap
1 LJ
0.5 LW
N
942 922 M
933.935 922 L
S
GR
GS
0.149 GC
2 setlinecap
1 LJ
0.5 LW
N
942 881.125 M
933.935 881.125 L
S
GR
GS
0.149 GC
2 setlinecap
1 LJ
0.5 LW
N
942 840.25 M
933.935 840.25 L
S
GR
GS
0.149 GC
2 setlinecap
1 LJ
0.5 LW
N
942 799.375 M
933.935 799.375 L
S
GR
GS
0.149 GC
2 setlinecap
1 LJ
0.5 LW
N
942 758.5 M
933.935 758.5 L
S
GR
GS
[1 0 0 1 131.5 922] CT
0.149 GC
/Helvetica 10 F
GS
[1 0 0 1 0 0] CT
-9 2.5 moveto 
1 -1 scale
(-1) t 
GR
GR
GS
[1 0 0 1 131.5 881.125] CT
0.149 GC
/Helvetica 10 F
GS
[1 0 0 1 0 0] CT
-18 2.5 moveto 
1 -1 scale
(-0.5) t 
GR
GR
GS
[1 0 0 1 131.5 840.25] CT
0.149 GC
/Helvetica 10 F
GS
[1 0 0 1 0 0] CT
-6 2.5 moveto 
1 -1 scale
(0) t 
GR
GR
GS
[1 0 0 1 131.5 799.375] CT
0.149 GC
/Helvetica 10 F
GS
[1 0 0 1 0 0] CT
-14 2.5 moveto 
1 -1 scale
(0.5) t 
GR
GR
GS
[1 0 0 1 131.5 758.5] CT
0.149 GC
/Helvetica 10 F
GS
[1 0 0 1 0 0] CT
-6 2.5 moveto 
1 -1 scale
(1) t 
GR
GR
GS
[0 -1 1 0 111 840.24994] CT
0.149 GC
/Helvetica 11 F
GS
[1 0 0 1 0 0] CT
-20 -3 moveto 
1 -1 scale
(EI*YDef) t 
GR
GR
GS
[1 0 0 1 538.75049 757.125] CT
/Helvetica-Bold 11 F
GS
[1 0 0 1 0 0] CT
-221.5 -3 moveto 
1 -1 scale
(Horizontal Deflection \(EI*Y\) of Alternating  Load: Mean Load, Fcf in Vertical Direction) t 
GR
GR
GS
0 0.447 0.741 RC
1 LJ
0.5 LW
N
135.5 840.25 M
137.804 840.25 L
140.109 840.25 L
142.413 840.25 L
144.717 840.25 L
147.022 840.25 L
149.326 840.25 L
151.631 840.25 L
153.935 840.25 L
156.239 840.25 L
158.544 840.25 L
160.848 840.25 L
163.152 840.25 L
165.457 840.25 L
167.761 840.25 L
170.065 840.25 L
172.37 840.25 L
174.674 840.25 L
176.978 840.25 L
179.283 840.25 L
181.587 840.25 L
183.892 840.25 L
186.196 840.25 L
188.5 840.25 L
190.805 840.25 L
193.109 840.25 L
195.413 840.25 L
197.718 840.25 L
200.022 840.25 L
202.326 840.25 L
204.631 840.25 L
206.935 840.25 L
209.239 840.25 L
211.544 840.25 L
213.848 840.25 L
216.153 840.25 L
218.457 840.25 L
220.761 840.25 L
223.066 840.25 L
225.37 840.25 L
227.674 840.25 L
229.979 840.25 L
232.283 840.25 L
234.587 840.25 L
236.892 840.25 L
239.196 840.25 L
241.501 840.25 L
243.805 840.25 L
246.109 840.25 L
248.414 840.25 L
S
GR
GS
0 0.447 0.741 RC
1 LJ
0.5 LW
N
246.109 840.25 M
248.414 840.25 L
250.718 840.25 L
253.022 840.25 L
255.327 840.25 L
257.631 840.25 L
259.935 840.25 L
262.24 840.25 L
264.544 840.25 L
266.848 840.25 L
269.153 840.25 L
271.457 840.25 L
273.762 840.25 L
276.066 840.25 L
278.37 840.25 L
280.675 840.25 L
282.979 840.25 L
285.283 840.25 L
287.588 840.25 L
289.892 840.25 L
292.196 840.25 L
294.501 840.25 L
296.805 840.25 L
299.109 840.25 L
301.414 840.25 L
303.718 840.25 L
306.023 840.25 L
308.327 840.25 L
310.631 840.25 L
312.936 840.25 L
315.24 840.25 L
317.544 840.25 L
319.849 840.25 L
322.153 840.25 L
324.457 840.25 L
326.762 840.25 L
329.066 840.25 L
331.371 840.25 L
333.675 840.25 L
335.979 840.25 L
338.284 840.25 L
340.588 840.25 L
342.892 840.25 L
345.197 840.25 L
347.501 840.25 L
349.805 840.25 L
352.11 840.25 L
354.414 840.25 L
356.718 840.25 L
359.023 840.25 L
361.327 840.25 L
363.632 840.25 L
S
GR
GS
0 0.447 0.741 RC
1 LJ
0.5 LW
N
361.327 840.25 M
363.632 840.25 L
365.936 840.25 L
368.24 840.25 L
370.545 840.25 L
372.849 840.25 L
375.153 840.25 L
377.458 840.25 L
379.762 840.25 L
382.066 840.25 L
384.371 840.25 L
386.675 840.25 L
388.979 840.25 L
391.284 840.25 L
393.588 840.25 L
395.893 840.25 L
398.197 840.25 L
400.501 840.25 L
402.806 840.25 L
405.11 840.25 L
407.414 840.25 L
409.719 840.25 L
412.023 840.25 L
414.327 840.25 L
416.632 840.25 L
418.936 840.25 L
421.241 840.25 L
423.545 840.25 L
425.849 840.25 L
428.154 840.25 L
430.458 840.25 L
432.762 840.25 L
435.067 840.25 L
437.371 840.25 L
439.675 840.25 L
441.98 840.25 L
444.284 840.25 L
446.588 840.25 L
448.893 840.25 L
451.197 840.25 L
453.502 840.25 L
455.806 840.25 L
458.11 840.25 L
460.415 840.25 L
462.719 840.25 L
465.023 840.25 L
467.328 840.25 L
469.632 840.25 L
471.936 840.25 L
474.241 840.25 L
476.545 840.25 L
478.849 840.25 L
S
GR
GS
0 0.447 0.741 RC
1 LJ
0.5 LW
N
476.545 840.25 M
478.849 840.25 L
481.154 840.25 L
483.458 840.25 L
485.763 840.25 L
488.067 840.25 L
490.371 840.25 L
492.676 840.25 L
494.98 840.25 L
497.284 840.25 L
499.589 840.25 L
501.893 840.25 L
504.197 840.25 L
506.502 840.25 L
508.806 840.25 L
511.111 840.25 L
513.415 840.25 L
515.719 840.25 L
518.024 840.25 L
520.328 840.25 L
522.632 840.25 L
524.937 840.25 L
527.241 840.25 L
529.545 840.25 L
531.85 840.25 L
534.154 840.25 L
536.458 840.25 L
538.763 840.25 L
541.067 840.25 L
543.372 840.25 L
545.676 840.25 L
547.98 840.25 L
550.285 840.25 L
552.589 840.25 L
554.893 840.25 L
557.198 840.25 L
559.502 840.25 L
561.806 840.25 L
564.111 840.25 L
566.415 840.25 L
568.719 840.25 L
571.024 840.25 L
573.328 840.25 L
575.633 840.25 L
577.937 840.25 L
580.241 840.25 L
582.546 840.25 L
584.85 840.25 L
587.154 840.25 L
589.459 840.25 L
591.763 840.25 L
594.067 840.25 L
S
GR
GS
0 0.447 0.741 RC
1 LJ
0.5 LW
N
591.763 840.25 M
594.067 840.25 L
596.372 840.25 L
598.676 840.25 L
600.98 840.25 L
603.285 840.25 L
605.589 840.25 L
607.894 840.25 L
610.198 840.25 L
612.502 840.25 L
614.807 840.25 L
617.111 840.25 L
619.415 840.25 L
621.72 840.25 L
624.024 840.25 L
626.328 840.25 L
628.633 840.25 L
630.937 840.25 L
633.242 840.25 L
635.546 840.25 L
637.85 840.25 L
640.155 840.25 L
642.459 840.25 L
644.763 840.25 L
647.068 840.25 L
649.372 840.25 L
651.676 840.25 L
653.981 840.25 L
656.285 840.25 L
658.589 840.25 L
660.894 840.25 L
663.198 840.25 L
665.503 840.25 L
667.807 840.25 L
670.111 840.25 L
672.416 840.25 L
674.72 840.25 L
677.024 840.25 L
679.329 840.25 L
681.633 840.25 L
683.937 840.25 L
686.242 840.25 L
688.546 840.25 L
690.851 840.25 L
693.155 840.25 L
695.459 840.25 L
697.764 840.25 L
700.068 840.25 L
702.372 840.25 L
704.677 840.25 L
706.981 840.25 L
709.285 840.25 L
S
GR
GS
0 0.447 0.741 RC
1 LJ
0.5 LW
N
706.981 840.25 M
709.285 840.25 L
711.59 840.25 L
713.894 840.25 L
716.198 840.25 L
718.503 840.25 L
720.807 840.25 L
723.112 840.25 L
725.416 840.25 L
727.72 840.25 L
730.025 840.25 L
732.329 840.25 L
734.633 840.25 L
736.938 840.25 L
739.242 840.25 L
741.546 840.25 L
743.851 840.25 L
746.155 840.25 L
748.459 840.25 L
750.764 840.25 L
753.068 840.25 L
755.373 840.25 L
757.677 840.25 L
759.981 840.25 L
762.286 840.25 L
764.59 840.25 L
766.894 840.25 L
769.199 840.25 L
771.503 840.25 L
773.807 840.25 L
776.112 840.25 L
778.416 840.25 L
780.72 840.25 L
783.025 840.25 L
785.329 840.25 L
787.634 840.25 L
789.938 840.25 L
792.242 840.25 L
794.547 840.25 L
796.851 840.25 L
799.155 840.25 L
801.46 840.25 L
803.764 840.25 L
806.068 840.25 L
808.373 840.25 L
810.677 840.25 L
812.982 840.25 L
815.286 840.25 L
817.59 840.25 L
819.895 840.25 L
822.199 840.25 L
824.503 840.25 L
S
GR
GS
0 0.447 0.741 RC
1 LJ
0.5 LW
N
822.199 840.25 M
824.503 840.25 L
826.808 840.25 L
829.112 840.25 L
831.416 840.25 L
833.721 840.25 L
836.025 840.25 L
838.329 840.25 L
840.634 840.25 L
842.938 840.25 L
845.242 840.25 L
847.547 840.25 L
849.851 840.25 L
852.156 840.25 L
854.46 840.25 L
856.764 840.25 L
859.069 840.25 L
861.373 840.25 L
S
GR
%%Trailer
%%Pages: 1
%%EOF
