%!PS-Adobe-3.0 EPSF-3.0
%%Creator: (MATLAB, The Mathworks, Inc. Version 8.6.0.267246 \(R2015b\). Operating System: Mac OS X)
%%Title: (/Users/mvanheukelom/Documents/MTE3B/mte322/projects/2/latex/MTE-322/Project 2/images/alternating_vert_dir_mean.eps)
%%CreationDate: 2017-03-16T23:04:59
%%Pages: (atend)
%%BoundingBox: 0 0 1029 1037
%%LanguageLevel: 2
%%EndComments
%%BeginProlog
%%BeginResource: procset (Apache XML Graphics Std ProcSet) 1.2 0
%%Version: 1.2 0
%%Copyright: (Copyright 2001-2003,2010 The Apache Software Foundation. License terms: http://www.apache.org/licenses/LICENSE-2.0)
/bd{bind def}bind def
/ld{load def}bd
/GR/grestore ld
/M/moveto ld
/LJ/setlinejoin ld
/C/curveto ld
/f/fill ld
/LW/setlinewidth ld
/GC/setgray ld
/t/show ld
/N/newpath ld
/CT/concat ld
/cp/closepath ld
/S/stroke ld
/L/lineto ld
/CC/setcmykcolor ld
/A/ashow ld
/GS/gsave ld
/RC/setrgbcolor ld
/RM/rmoveto ld
/ML/setmiterlimit ld
/re {4 2 roll M
1 index 0 rlineto
0 exch rlineto
neg 0 rlineto
cp } bd
/_ctm matrix def
/_tm matrix def
/BT { _ctm currentmatrix pop matrix _tm copy pop 0 0 moveto } bd
/ET { _ctm setmatrix } bd
/iTm { _ctm setmatrix _tm concat } bd
/Tm { _tm astore pop iTm 0 0 moveto } bd
/ux 0.0 def
/uy 0.0 def
/F {
  /Tp exch def
  /Tf exch def
  Tf findfont Tp scalefont setfont
  /cf Tf def  /cs Tp def
} bd
/ULS {currentpoint /uy exch def /ux exch def} bd
/ULE {
  /Tcx currentpoint pop def
  gsave
  newpath
  cf findfont cs scalefont dup
  /FontMatrix get 0 get /Ts exch def /FontInfo get dup
  /UnderlinePosition get Ts mul /To exch def
  /UnderlineThickness get Ts mul /Tt exch def
  ux uy To add moveto  Tcx uy To add lineto
  Tt setlinewidth stroke
  grestore
} bd
/OLE {
  /Tcx currentpoint pop def
  gsave
  newpath
  cf findfont cs scalefont dup
  /FontMatrix get 0 get /Ts exch def /FontInfo get dup
  /UnderlinePosition get Ts mul /To exch def
  /UnderlineThickness get Ts mul /Tt exch def
  ux uy To add cs add moveto Tcx uy To add cs add lineto
  Tt setlinewidth stroke
  grestore
} bd
/SOE {
  /Tcx currentpoint pop def
  gsave
  newpath
  cf findfont cs scalefont dup
  /FontMatrix get 0 get /Ts exch def /FontInfo get dup
  /UnderlinePosition get Ts mul /To exch def
  /UnderlineThickness get Ts mul /Tt exch def
  ux uy To add cs 10 mul 26 idiv add moveto Tcx uy To add cs 10 mul 26 idiv add lineto
  Tt setlinewidth stroke
  grestore
} bd
/QT {
/Y22 exch store
/X22 exch store
/Y21 exch store
/X21 exch store
currentpoint
/Y21 load 2 mul add 3 div exch
/X21 load 2 mul add 3 div exch
/X21 load 2 mul /X22 load add 3 div
/Y21 load 2 mul /Y22 load add 3 div
/X22 load /Y22 load curveto
} bd
/SSPD {
dup length /d exch dict def
{
/v exch def
/k exch def
currentpagedevice k known {
/cpdv currentpagedevice k get def
v cpdv ne {
/upd false def
/nullv v type /nulltype eq def
/nullcpdv cpdv type /nulltype eq def
nullv nullcpdv or
{
/upd true def
} {
/sametype v type cpdv type eq def
sametype {
v type /arraytype eq {
/vlen v length def
/cpdvlen cpdv length def
vlen cpdvlen eq {
0 1 vlen 1 sub {
/i exch def
/obj v i get def
/cpdobj cpdv i get def
obj cpdobj ne {
/upd true def
exit
} if
} for
} {
/upd true def
} ifelse
} {
v type /dicttype eq {
v {
/dv exch def
/dk exch def
/cpddv cpdv dk get def
dv cpddv ne {
/upd true def
exit
} if
} forall
} {
/upd true def
} ifelse
} ifelse
} if
} ifelse
upd true eq {
d k v put
} if
} if
} if
} forall
d length 0 gt {
d setpagedevice
} if
} bd
%%EndResource
%%BeginResource: procset (Apache XML Graphics EPS ProcSet) 1.0 0
%%Version: 1.0 0
%%Copyright: (Copyright 2002-2003 The Apache Software Foundation. License terms: http://www.apache.org/licenses/LICENSE-2.0)
/BeginEPSF { %def
/b4_Inc_state save def         % Save state for cleanup
/dict_count countdictstack def % Count objects on dict stack
/op_count count 1 sub def      % Count objects on operand stack
userdict begin                 % Push userdict on dict stack
/showpage { } def              % Redefine showpage, { } = null proc
0 setgray 0 setlinecap         % Prepare graphics state
1 setlinewidth 0 setlinejoin
10 setmiterlimit [ ] 0 setdash newpath
/languagelevel where           % If level not equal to 1 then
{pop languagelevel             % set strokeadjust and
1 ne                           % overprint to their defaults.
{false setstrokeadjust false setoverprint
} if
} if
} bd
/EndEPSF { %def
count op_count sub {pop} repeat            % Clean up stacks
countdictstack dict_count sub {end} repeat
b4_Inc_state restore
} bd
%%EndResource
%FOPBeginFontDict
%%IncludeResource: font Courier-Bold
%%IncludeResource: font Helvetica
%%IncludeResource: font Courier-BoldOblique
%%IncludeResource: font Courier-Oblique
%%IncludeResource: font Times-Roman
%%IncludeResource: font Helvetica-BoldOblique
%%IncludeResource: font Helvetica-Bold
%%IncludeResource: font Helvetica-Oblique
%%IncludeResource: font Times-BoldItalic
%%IncludeResource: font Courier
%%IncludeResource: font Times-Italic
%%IncludeResource: font Times-Bold
%%IncludeResource: font Symbol
%%IncludeResource: font ZapfDingbats
%FOPEndFontDict
%%BeginResource: encoding WinAnsiEncoding
/WinAnsiEncoding [
/.notdef /.notdef /.notdef /.notdef /.notdef
/.notdef /.notdef /.notdef /.notdef /.notdef
/.notdef /.notdef /.notdef /.notdef /.notdef
/.notdef /.notdef /.notdef /.notdef /.notdef
/.notdef /.notdef /.notdef /.notdef /.notdef
/.notdef /.notdef /.notdef /.notdef /.notdef
/.notdef /.notdef /space /exclam /quotedbl
/numbersign /dollar /percent /ampersand /quotesingle
/parenleft /parenright /asterisk /plus /comma
/hyphen /period /slash /zero /one
/two /three /four /five /six
/seven /eight /nine /colon /semicolon
/less /equal /greater /question /at
/A /B /C /D /E
/F /G /H /I /J
/K /L /M /N /O
/P /Q /R /S /T
/U /V /W /X /Y
/Z /bracketleft /backslash /bracketright /asciicircum
/underscore /quoteleft /a /b /c
/d /e /f /g /h
/i /j /k /l /m
/n /o /p /q /r
/s /t /u /v /w
/x /y /z /braceleft /bar
/braceright /asciitilde /bullet /Euro /bullet
/quotesinglbase /florin /quotedblbase /ellipsis /dagger
/daggerdbl /circumflex /perthousand /Scaron /guilsinglleft
/OE /bullet /Zcaron /bullet /bullet
/quoteleft /quoteright /quotedblleft /quotedblright /bullet
/endash /emdash /asciitilde /trademark /scaron
/guilsinglright /oe /bullet /zcaron /Ydieresis
/space /exclamdown /cent /sterling /currency
/yen /brokenbar /section /dieresis /copyright
/ordfeminine /guillemotleft /logicalnot /sfthyphen /registered
/macron /degree /plusminus /twosuperior /threesuperior
/acute /mu /paragraph /middot /cedilla
/onesuperior /ordmasculine /guillemotright /onequarter /onehalf
/threequarters /questiondown /Agrave /Aacute /Acircumflex
/Atilde /Adieresis /Aring /AE /Ccedilla
/Egrave /Eacute /Ecircumflex /Edieresis /Igrave
/Iacute /Icircumflex /Idieresis /Eth /Ntilde
/Ograve /Oacute /Ocircumflex /Otilde /Odieresis
/multiply /Oslash /Ugrave /Uacute /Ucircumflex
/Udieresis /Yacute /Thorn /germandbls /agrave
/aacute /acircumflex /atilde /adieresis /aring
/ae /ccedilla /egrave /eacute /ecircumflex
/edieresis /igrave /iacute /icircumflex /idieresis
/eth /ntilde /ograve /oacute /ocircumflex
/otilde /odieresis /divide /oslash /ugrave
/uacute /ucircumflex /udieresis /yacute /thorn
/ydieresis
] def
%%EndResource
%FOPBeginFontReencode
/Courier-Bold findfont
dup length dict begin
  {1 index /FID ne {def} {pop pop} ifelse} forall
  /Encoding WinAnsiEncoding def
  currentdict
end
/Courier-Bold exch definefont pop
/Helvetica findfont
dup length dict begin
  {1 index /FID ne {def} {pop pop} ifelse} forall
  /Encoding WinAnsiEncoding def
  currentdict
end
/Helvetica exch definefont pop
/Courier-BoldOblique findfont
dup length dict begin
  {1 index /FID ne {def} {pop pop} ifelse} forall
  /Encoding WinAnsiEncoding def
  currentdict
end
/Courier-BoldOblique exch definefont pop
/Courier-Oblique findfont
dup length dict begin
  {1 index /FID ne {def} {pop pop} ifelse} forall
  /Encoding WinAnsiEncoding def
  currentdict
end
/Courier-Oblique exch definefont pop
/Times-Roman findfont
dup length dict begin
  {1 index /FID ne {def} {pop pop} ifelse} forall
  /Encoding WinAnsiEncoding def
  currentdict
end
/Times-Roman exch definefont pop
/Helvetica-BoldOblique findfont
dup length dict begin
  {1 index /FID ne {def} {pop pop} ifelse} forall
  /Encoding WinAnsiEncoding def
  currentdict
end
/Helvetica-BoldOblique exch definefont pop
/Helvetica-Bold findfont
dup length dict begin
  {1 index /FID ne {def} {pop pop} ifelse} forall
  /Encoding WinAnsiEncoding def
  currentdict
end
/Helvetica-Bold exch definefont pop
/Helvetica-Oblique findfont
dup length dict begin
  {1 index /FID ne {def} {pop pop} ifelse} forall
  /Encoding WinAnsiEncoding def
  currentdict
end
/Helvetica-Oblique exch definefont pop
/Times-BoldItalic findfont
dup length dict begin
  {1 index /FID ne {def} {pop pop} ifelse} forall
  /Encoding WinAnsiEncoding def
  currentdict
end
/Times-BoldItalic exch definefont pop
/Courier findfont
dup length dict begin
  {1 index /FID ne {def} {pop pop} ifelse} forall
  /Encoding WinAnsiEncoding def
  currentdict
end
/Courier exch definefont pop
/Times-Italic findfont
dup length dict begin
  {1 index /FID ne {def} {pop pop} ifelse} forall
  /Encoding WinAnsiEncoding def
  currentdict
end
/Times-Italic exch definefont pop
/Times-Bold findfont
dup length dict begin
  {1 index /FID ne {def} {pop pop} ifelse} forall
  /Encoding WinAnsiEncoding def
  currentdict
end
/Times-Bold exch definefont pop
%FOPEndFontReencode
%%EndProlog
%%Page: 1 1
%%PageBoundingBox: 0 0 1029 1037
%%BeginPageSetup
[1 0 0 -1 0 1037] CT
%%EndPageSetup
GS
1 GC
N
0 0 1029 1037 re
f
GR
GS
1 GC
N
0 0 1029 1037 re
f
GR
GS
1 GC
N
134 241.5 M
931 241.5 L
931 78 L
134 78 L
cp
f
GR
GS
0.873 GC
1 LJ
0.5 LW
N
134 241.5 M
134 78 L
S
GR
GS
0.873 GC
1 LJ
0.5 LW
N
247.857 241.5 M
247.857 78 L
S
GR
GS
0.873 GC
1 LJ
0.5 LW
N
361.714 241.5 M
361.714 78 L
S
GR
GS
0.873 GC
1 LJ
0.5 LW
N
475.571 241.5 M
475.571 78 L
S
GR
GS
0.873 GC
1 LJ
0.5 LW
N
589.429 241.5 M
589.429 78 L
S
GR
GS
0.873 GC
1 LJ
0.5 LW
N
703.286 241.5 M
703.286 78 L
S
GR
GS
0.873 GC
1 LJ
0.5 LW
N
817.143 241.5 M
817.143 78 L
S
GR
GS
0.873 GC
1 LJ
0.5 LW
N
931 241.5 M
931 78 L
S
GR
GS
0.873 GC
1 LJ
0.5 LW
N
931 241.5 M
134 241.5 L
S
GR
GS
0.873 GC
1 LJ
0.5 LW
N
931 208.8 M
134 208.8 L
S
GR
GS
0.873 GC
1 LJ
0.5 LW
N
931 176.1 M
134 176.1 L
S
GR
GS
0.873 GC
1 LJ
0.5 LW
N
931 143.4 M
134 143.4 L
S
GR
GS
0.873 GC
1 LJ
0.5 LW
N
931 110.7 M
134 110.7 L
S
GR
GS
0.873 GC
1 LJ
0.5 LW
N
931 78 M
134 78 L
S
GR
GS
0.149 GC
2 setlinecap
1 LJ
0.5 LW
N
134 241.5 M
931 241.5 L
S
GR
GS
0.149 GC
2 setlinecap
1 LJ
0.5 LW
N
134 78 M
931 78 L
S
GR
GS
0.149 GC
2 setlinecap
1 LJ
0.5 LW
N
134 241.5 M
134 233.53 L
S
GR
GS
0.149 GC
2 setlinecap
1 LJ
0.5 LW
N
247.857 241.5 M
247.857 233.53 L
S
GR
GS
0.149 GC
2 setlinecap
1 LJ
0.5 LW
N
361.714 241.5 M
361.714 233.53 L
S
GR
GS
0.149 GC
2 setlinecap
1 LJ
0.5 LW
N
475.571 241.5 M
475.571 233.53 L
S
GR
GS
0.149 GC
2 setlinecap
1 LJ
0.5 LW
N
589.429 241.5 M
589.429 233.53 L
S
GR
GS
0.149 GC
2 setlinecap
1 LJ
0.5 LW
N
703.286 241.5 M
703.286 233.53 L
S
GR
GS
0.149 GC
2 setlinecap
1 LJ
0.5 LW
N
817.143 241.5 M
817.143 233.53 L
S
GR
GS
0.149 GC
2 setlinecap
1 LJ
0.5 LW
N
931 241.5 M
931 233.53 L
S
GR
GS
0.149 GC
2 setlinecap
1 LJ
0.5 LW
N
134 78 M
134 85.97 L
S
GR
GS
0.149 GC
2 setlinecap
1 LJ
0.5 LW
N
247.857 78 M
247.857 85.97 L
S
GR
GS
0.149 GC
2 setlinecap
1 LJ
0.5 LW
N
361.714 78 M
361.714 85.97 L
S
GR
GS
0.149 GC
2 setlinecap
1 LJ
0.5 LW
N
475.571 78 M
475.571 85.97 L
S
GR
GS
0.149 GC
2 setlinecap
1 LJ
0.5 LW
N
589.429 78 M
589.429 85.97 L
S
GR
GS
0.149 GC
2 setlinecap
1 LJ
0.5 LW
N
703.286 78 M
703.286 85.97 L
S
GR
GS
0.149 GC
2 setlinecap
1 LJ
0.5 LW
N
817.143 78 M
817.143 85.97 L
S
GR
GS
0.149 GC
2 setlinecap
1 LJ
0.5 LW
N
931 78 M
931 85.97 L
S
GR
GS
[1 0 0 1 134 245.5] CT
0.149 GC
/Helvetica 10 F
GS
[1 0 0 1 0 0] CT
-3 8 moveto 
1 -1 scale
(0) t 
GR
GR
GS
[1 0 0 1 247.85715 245.5] CT
0.149 GC
/Helvetica 10 F
GS
[1 0 0 1 0 0] CT
-10 8 moveto 
1 -1 scale
(0.05) t 
GR
GR
GS
[1 0 0 1 361.71429 245.5] CT
0.149 GC
/Helvetica 10 F
GS
[1 0 0 1 0 0] CT
-7 8 moveto 
1 -1 scale
(0.1) t 
GR
GR
GS
[1 0 0 1 475.57144 245.5] CT
0.149 GC
/Helvetica 10 F
GS
[1 0 0 1 0 0] CT
-10 8 moveto 
1 -1 scale
(0.15) t 
GR
GR
GS
[1 0 0 1 589.42859 245.5] CT
0.149 GC
/Helvetica 10 F
GS
[1 0 0 1 0 0] CT
-7 8 moveto 
1 -1 scale
(0.2) t 
GR
GR
GS
[1 0 0 1 703.28571 245.5] CT
0.149 GC
/Helvetica 10 F
GS
[1 0 0 1 0 0] CT
-10 8 moveto 
1 -1 scale
(0.25) t 
GR
GR
GS
[1 0 0 1 817.14288 245.5] CT
0.149 GC
/Helvetica 10 F
GS
[1 0 0 1 0 0] CT
-7 8 moveto 
1 -1 scale
(0.3) t 
GR
GR
GS
[1 0 0 1 931 245.5] CT
0.149 GC
/Helvetica 10 F
GS
[1 0 0 1 0 0] CT
-10 8 moveto 
1 -1 scale
(0.35) t 
GR
GR
GS
[1 0 0 1 532.50037 257] CT
0.149 GC
/Helvetica 11 F
GS
[1 0 0 1 0 0] CT
-27 9 moveto 
1 -1 scale
(Length \(m\)) t 
GR
GR
GS
0.149 GC
2 setlinecap
1 LJ
0.5 LW
N
134 241.5 M
134 78 L
S
GR
GS
0.149 GC
2 setlinecap
1 LJ
0.5 LW
N
931 241.5 M
931 78 L
S
GR
GS
0.149 GC
2 setlinecap
1 LJ
0.5 LW
N
134 241.5 M
141.97 241.5 L
S
GR
GS
0.149 GC
2 setlinecap
1 LJ
0.5 LW
N
134 208.8 M
141.97 208.8 L
S
GR
GS
0.149 GC
2 setlinecap
1 LJ
0.5 LW
N
134 176.1 M
141.97 176.1 L
S
GR
GS
0.149 GC
2 setlinecap
1 LJ
0.5 LW
N
134 143.4 M
141.97 143.4 L
S
GR
GS
0.149 GC
2 setlinecap
1 LJ
0.5 LW
N
134 110.7 M
141.97 110.7 L
S
GR
GS
0.149 GC
2 setlinecap
1 LJ
0.5 LW
N
134 78 M
141.97 78 L
S
GR
GS
0.149 GC
2 setlinecap
1 LJ
0.5 LW
N
931 241.5 M
923.03 241.5 L
S
GR
GS
0.149 GC
2 setlinecap
1 LJ
0.5 LW
N
931 208.8 M
923.03 208.8 L
S
GR
GS
0.149 GC
2 setlinecap
1 LJ
0.5 LW
N
931 176.1 M
923.03 176.1 L
S
GR
GS
0.149 GC
2 setlinecap
1 LJ
0.5 LW
N
931 143.4 M
923.03 143.4 L
S
GR
GS
0.149 GC
2 setlinecap
1 LJ
0.5 LW
N
931 110.7 M
923.03 110.7 L
S
GR
GS
0.149 GC
2 setlinecap
1 LJ
0.5 LW
N
931 78 M
923.03 78 L
S
GR
GS
[1 0 0 1 130 241.5] CT
0.149 GC
/Helvetica 10 F
GS
[1 0 0 1 0 0] CT
-21 2.5 moveto 
1 -1 scale
(-600) t 
GR
GR
GS
[1 0 0 1 130 208.8] CT
0.149 GC
/Helvetica 10 F
GS
[1 0 0 1 0 0] CT
-21 2.5 moveto 
1 -1 scale
(-400) t 
GR
GR
GS
[1 0 0 1 130 176.10001] CT
0.149 GC
/Helvetica 10 F
GS
[1 0 0 1 0 0] CT
-21 2.5 moveto 
1 -1 scale
(-200) t 
GR
GR
GS
[1 0 0 1 130 143.39999] CT
0.149 GC
/Helvetica 10 F
GS
[1 0 0 1 0 0] CT
-6 2.5 moveto 
1 -1 scale
(0) t 
GR
GR
GS
[1 0 0 1 130 110.7] CT
0.149 GC
/Helvetica 10 F
GS
[1 0 0 1 0 0] CT
-17 2.5 moveto 
1 -1 scale
(200) t 
GR
GR
GS
[1 0 0 1 130 78] CT
0.149 GC
/Helvetica 10 F
GS
[1 0 0 1 0 0] CT
-17 2.5 moveto 
1 -1 scale
(400) t 
GR
GR
GS
[0 -1 1 0 106.5 159.74992] CT
0.149 GC
/Helvetica 11 F
GS
[1 0 0 1 0 0] CT
-24 -3 moveto 
1 -1 scale
(Shear \(N\)) t 
GR
GR
GS
[1 0 0 1 532.50049 76.625] CT
/Helvetica-Bold 11 F
GS
[1 0 0 1 0 0] CT
-217.5 -3 moveto 
1 -1 scale
(Vertical Shear Diagram of Alternating Load: Mean Load, Fcf in Horizontal Direction.) t 
GR
GR
GS
0 0.447 0.741 RC
1 LJ
0.5 LW
N
134 143.4 M
136.277 241.5 L
138.554 241.5 L
140.832 241.5 L
143.109 241.5 L
145.386 241.5 L
147.663 241.5 L
149.941 241.5 L
152.218 241.5 L
154.495 241.5 L
156.772 241.5 L
159.049 241.5 L
161.327 241.5 L
163.604 241.5 L
165.881 241.5 L
168.158 241.5 L
170.435 241.5 L
172.713 241.5 L
174.99 241.5 L
177.267 241.5 L
179.544 241.5 L
181.822 241.5 L
184.099 241.5 L
186.376 241.5 L
188.653 241.5 L
190.93 203.475 L
193.208 203.475 L
195.485 203.475 L
197.762 203.475 L
200.039 203.475 L
202.316 203.475 L
204.594 203.475 L
206.871 203.475 L
209.148 203.475 L
211.425 203.475 L
213.703 203.475 L
215.98 203.475 L
218.257 203.475 L
220.534 203.475 L
222.811 203.475 L
225.089 203.475 L
227.366 203.475 L
229.643 203.475 L
231.92 203.475 L
234.197 203.475 L
236.475 203.475 L
238.752 203.475 L
241.029 203.475 L
243.306 203.475 L
245.584 203.475 L
S
GR
GS
0 0.447 0.741 RC
1 LJ
0.5 LW
N
243.306 203.475 M
245.584 203.475 L
247.861 203.475 L
250.138 203.475 L
252.415 203.475 L
254.692 203.475 L
256.97 203.475 L
259.247 203.475 L
261.524 203.475 L
263.801 203.475 L
266.078 203.475 L
268.356 203.475 L
270.633 203.475 L
272.91 203.475 L
275.187 203.475 L
277.465 203.475 L
279.742 203.475 L
282.019 203.475 L
284.296 203.475 L
286.573 203.475 L
288.851 203.475 L
291.128 203.475 L
293.405 203.475 L
295.682 203.475 L
297.959 203.475 L
300.237 203.475 L
302.514 203.475 L
304.791 203.475 L
307.068 203.475 L
309.346 203.475 L
311.623 203.475 L
313.9 203.475 L
316.177 203.475 L
318.454 203.475 L
320.732 203.475 L
323.009 203.475 L
325.286 203.475 L
327.563 203.475 L
329.841 203.475 L
332.118 203.475 L
334.395 203.475 L
336.672 203.475 L
338.949 203.475 L
341.227 203.475 L
343.504 203.475 L
345.781 203.475 L
348.058 203.475 L
350.335 203.475 L
352.613 203.475 L
354.89 203.475 L
357.167 203.475 L
359.444 203.475 L
S
GR
GS
0 0.447 0.741 RC
1 LJ
0.5 LW
N
357.167 203.475 M
359.444 203.475 L
361.722 203.475 L
363.999 203.475 L
366.276 203.475 L
368.553 203.475 L
370.83 203.475 L
373.108 203.475 L
375.385 203.475 L
377.662 203.475 L
379.939 203.475 L
382.216 203.475 L
384.494 203.475 L
386.771 203.475 L
389.048 203.475 L
391.325 203.475 L
393.603 203.475 L
395.88 104.104 L
398.157 104.104 L
400.434 104.104 L
402.711 104.104 L
404.989 104.104 L
407.266 104.104 L
409.543 104.104 L
411.82 104.104 L
414.097 104.104 L
416.375 104.104 L
418.652 104.104 L
420.929 104.104 L
423.206 104.104 L
425.484 104.104 L
427.761 104.104 L
430.038 104.104 L
432.315 104.104 L
434.592 104.104 L
436.87 104.104 L
439.147 104.104 L
441.424 104.104 L
443.701 104.104 L
445.978 104.104 L
448.256 104.104 L
450.533 104.104 L
452.81 104.104 L
455.087 104.104 L
457.365 104.104 L
459.642 104.104 L
461.919 104.104 L
464.196 104.104 L
466.473 104.104 L
468.751 104.104 L
471.028 104.104 L
473.305 104.104 L
S
GR
GS
0 0.447 0.741 RC
1 LJ
0.5 LW
N
471.028 104.104 M
473.305 104.104 L
475.582 104.104 L
477.859 104.104 L
480.137 104.104 L
482.414 104.104 L
484.691 104.104 L
486.968 104.104 L
489.246 104.104 L
491.523 104.104 L
493.8 104.104 L
496.077 104.104 L
498.354 104.104 L
500.632 104.104 L
502.909 104.104 L
505.186 104.104 L
507.463 104.104 L
509.741 104.104 L
512.018 104.104 L
514.295 104.104 L
516.572 104.104 L
518.849 104.104 L
521.127 104.104 L
523.404 104.104 L
525.681 104.104 L
527.958 104.104 L
530.235 104.104 L
532.513 104.104 L
534.79 104.104 L
537.067 104.104 L
539.344 104.104 L
541.622 104.104 L
543.899 104.104 L
546.176 104.104 L
548.453 104.104 L
550.73 104.104 L
553.008 104.104 L
555.285 104.104 L
557.562 104.104 L
559.839 104.104 L
562.116 104.104 L
564.394 104.104 L
566.671 104.104 L
568.948 104.104 L
571.225 104.104 L
573.503 104.104 L
575.78 104.104 L
578.057 104.104 L
580.334 104.104 L
582.611 104.104 L
584.889 104.104 L
587.166 104.104 L
S
GR
GS
0 0.447 0.741 RC
1 LJ
0.5 LW
N
584.889 104.104 M
587.166 104.104 L
589.443 104.104 L
591.72 104.104 L
593.997 104.104 L
596.275 104.104 L
598.552 104.104 L
600.829 104.104 L
603.106 104.104 L
605.384 104.104 L
607.661 104.104 L
609.938 104.104 L
612.215 104.104 L
614.492 104.104 L
616.77 104.104 L
619.047 104.104 L
621.324 104.104 L
623.601 104.104 L
625.878 104.104 L
628.156 104.104 L
630.433 104.104 L
632.71 104.104 L
634.987 104.104 L
637.265 104.104 L
639.542 104.104 L
641.819 104.104 L
644.096 104.104 L
646.373 104.104 L
648.651 104.104 L
650.928 104.104 L
653.205 104.104 L
655.482 104.104 L
657.76 104.104 L
660.037 104.104 L
662.314 104.104 L
664.591 104.104 L
666.868 104.104 L
669.146 104.104 L
671.423 104.104 L
673.7 104.104 L
675.977 104.104 L
678.254 104.104 L
680.532 104.104 L
682.809 104.104 L
685.086 104.104 L
687.363 104.104 L
689.641 104.104 L
691.918 104.104 L
694.195 104.104 L
696.472 104.104 L
698.749 104.104 L
701.027 104.104 L
S
GR
GS
0 0.447 0.741 RC
1 LJ
0.5 LW
N
698.749 104.104 M
701.027 104.104 L
703.304 104.104 L
705.581 104.104 L
707.858 104.104 L
710.135 104.104 L
712.413 104.104 L
714.69 104.104 L
716.967 104.104 L
719.244 104.104 L
721.521 104.104 L
723.799 104.104 L
726.076 104.104 L
728.353 104.104 L
730.63 104.104 L
732.908 104.104 L
735.185 104.104 L
737.462 104.104 L
739.739 104.104 L
742.016 104.104 L
744.294 104.104 L
746.571 104.104 L
748.848 104.104 L
751.125 104.104 L
753.403 104.104 L
755.68 104.104 L
757.957 104.104 L
760.234 104.104 L
762.511 104.104 L
764.789 104.104 L
767.066 104.104 L
769.343 104.104 L
771.62 104.104 L
773.897 104.104 L
776.175 104.104 L
778.452 104.104 L
780.729 104.104 L
783.006 104.104 L
785.284 104.104 L
787.561 104.104 L
789.838 104.104 L
792.115 104.104 L
794.392 104.104 L
796.67 104.104 L
798.947 104.104 L
801.224 104.104 L
803.501 104.104 L
805.779 104.104 L
808.056 104.104 L
810.333 104.104 L
812.61 104.104 L
814.887 104.104 L
S
GR
GS
0 0.447 0.741 RC
1 LJ
0.5 LW
N
812.61 104.104 M
814.887 104.104 L
817.165 104.104 L
819.442 104.104 L
821.719 104.104 L
823.996 104.104 L
826.273 104.104 L
828.551 104.104 L
830.828 104.104 L
833.105 104.104 L
835.382 104.104 L
837.659 104.104 L
839.937 104.104 L
842.214 104.104 L
844.491 104.104 L
846.768 104.104 L
849.046 104.104 L
851.323 143.4 L
S
GR
GS
1 GC
N
134 468.5 M
931 468.5 L
931 305 L
134 305 L
cp
f
GR
GS
0.873 GC
1 LJ
0.5 LW
N
134 468.5 M
134 305 L
S
GR
GS
0.873 GC
1 LJ
0.5 LW
N
247.857 468.5 M
247.857 305 L
S
GR
GS
0.873 GC
1 LJ
0.5 LW
N
361.714 468.5 M
361.714 305 L
S
GR
GS
0.873 GC
1 LJ
0.5 LW
N
475.571 468.5 M
475.571 305 L
S
GR
GS
0.873 GC
1 LJ
0.5 LW
N
589.429 468.5 M
589.429 305 L
S
GR
GS
0.873 GC
1 LJ
0.5 LW
N
703.286 468.5 M
703.286 305 L
S
GR
GS
0.873 GC
1 LJ
0.5 LW
N
817.143 468.5 M
817.143 305 L
S
GR
GS
0.873 GC
1 LJ
0.5 LW
N
931 468.5 M
931 305 L
S
GR
GS
0.873 GC
1 LJ
0.5 LW
N
931 468.5 M
134 468.5 L
S
GR
GS
0.873 GC
1 LJ
0.5 LW
N
931 441.25 M
134 441.25 L
S
GR
GS
0.873 GC
1 LJ
0.5 LW
N
931 414 M
134 414 L
S
GR
GS
0.873 GC
1 LJ
0.5 LW
N
931 386.75 M
134 386.75 L
S
GR
GS
0.873 GC
1 LJ
0.5 LW
N
931 359.5 M
134 359.5 L
S
GR
GS
0.873 GC
1 LJ
0.5 LW
N
931 332.25 M
134 332.25 L
S
GR
GS
0.873 GC
1 LJ
0.5 LW
N
931 305 M
134 305 L
S
GR
GS
0.149 GC
2 setlinecap
1 LJ
0.5 LW
N
134 468.5 M
931 468.5 L
S
GR
GS
0.149 GC
2 setlinecap
1 LJ
0.5 LW
N
134 305 M
931 305 L
S
GR
GS
0.149 GC
2 setlinecap
1 LJ
0.5 LW
N
134 468.5 M
134 460.53 L
S
GR
GS
0.149 GC
2 setlinecap
1 LJ
0.5 LW
N
247.857 468.5 M
247.857 460.53 L
S
GR
GS
0.149 GC
2 setlinecap
1 LJ
0.5 LW
N
361.714 468.5 M
361.714 460.53 L
S
GR
GS
0.149 GC
2 setlinecap
1 LJ
0.5 LW
N
475.571 468.5 M
475.571 460.53 L
S
GR
GS
0.149 GC
2 setlinecap
1 LJ
0.5 LW
N
589.429 468.5 M
589.429 460.53 L
S
GR
GS
0.149 GC
2 setlinecap
1 LJ
0.5 LW
N
703.286 468.5 M
703.286 460.53 L
S
GR
GS
0.149 GC
2 setlinecap
1 LJ
0.5 LW
N
817.143 468.5 M
817.143 460.53 L
S
GR
GS
0.149 GC
2 setlinecap
1 LJ
0.5 LW
N
931 468.5 M
931 460.53 L
S
GR
GS
0.149 GC
2 setlinecap
1 LJ
0.5 LW
N
134 305 M
134 312.97 L
S
GR
GS
0.149 GC
2 setlinecap
1 LJ
0.5 LW
N
247.857 305 M
247.857 312.97 L
S
GR
GS
0.149 GC
2 setlinecap
1 LJ
0.5 LW
N
361.714 305 M
361.714 312.97 L
S
GR
GS
0.149 GC
2 setlinecap
1 LJ
0.5 LW
N
475.571 305 M
475.571 312.97 L
S
GR
GS
0.149 GC
2 setlinecap
1 LJ
0.5 LW
N
589.429 305 M
589.429 312.97 L
S
GR
GS
0.149 GC
2 setlinecap
1 LJ
0.5 LW
N
703.286 305 M
703.286 312.97 L
S
GR
GS
0.149 GC
2 setlinecap
1 LJ
0.5 LW
N
817.143 305 M
817.143 312.97 L
S
GR
GS
0.149 GC
2 setlinecap
1 LJ
0.5 LW
N
931 305 M
931 312.97 L
S
GR
GS
[1 0 0 1 134 472.5] CT
0.149 GC
/Helvetica 10 F
GS
[1 0 0 1 0 0] CT
-3 8 moveto 
1 -1 scale
(0) t 
GR
GR
GS
[1 0 0 1 247.85715 472.5] CT
0.149 GC
/Helvetica 10 F
GS
[1 0 0 1 0 0] CT
-10 8 moveto 
1 -1 scale
(0.05) t 
GR
GR
GS
[1 0 0 1 361.71429 472.5] CT
0.149 GC
/Helvetica 10 F
GS
[1 0 0 1 0 0] CT
-7 8 moveto 
1 -1 scale
(0.1) t 
GR
GR
GS
[1 0 0 1 475.57144 472.5] CT
0.149 GC
/Helvetica 10 F
GS
[1 0 0 1 0 0] CT
-10 8 moveto 
1 -1 scale
(0.15) t 
GR
GR
GS
[1 0 0 1 589.42859 472.5] CT
0.149 GC
/Helvetica 10 F
GS
[1 0 0 1 0 0] CT
-7 8 moveto 
1 -1 scale
(0.2) t 
GR
GR
GS
[1 0 0 1 703.28571 472.5] CT
0.149 GC
/Helvetica 10 F
GS
[1 0 0 1 0 0] CT
-10 8 moveto 
1 -1 scale
(0.25) t 
GR
GR
GS
[1 0 0 1 817.14288 472.5] CT
0.149 GC
/Helvetica 10 F
GS
[1 0 0 1 0 0] CT
-7 8 moveto 
1 -1 scale
(0.3) t 
GR
GR
GS
[1 0 0 1 931 472.5] CT
0.149 GC
/Helvetica 10 F
GS
[1 0 0 1 0 0] CT
-10 8 moveto 
1 -1 scale
(0.35) t 
GR
GR
GS
[1 0 0 1 532.50037 484] CT
0.149 GC
/Helvetica 11 F
GS
[1 0 0 1 0 0] CT
-27 9 moveto 
1 -1 scale
(Length \(m\)) t 
GR
GR
GS
0.149 GC
2 setlinecap
1 LJ
0.5 LW
N
134 468.5 M
134 305 L
S
GR
GS
0.149 GC
2 setlinecap
1 LJ
0.5 LW
N
931 468.5 M
931 305 L
S
GR
GS
0.149 GC
2 setlinecap
1 LJ
0.5 LW
N
134 468.5 M
141.97 468.5 L
S
GR
GS
0.149 GC
2 setlinecap
1 LJ
0.5 LW
N
134 441.25 M
141.97 441.25 L
S
GR
GS
0.149 GC
2 setlinecap
1 LJ
0.5 LW
N
134 414 M
141.97 414 L
S
GR
GS
0.149 GC
2 setlinecap
1 LJ
0.5 LW
N
134 386.75 M
141.97 386.75 L
S
GR
GS
0.149 GC
2 setlinecap
1 LJ
0.5 LW
N
134 359.5 M
141.97 359.5 L
S
GR
GS
0.149 GC
2 setlinecap
1 LJ
0.5 LW
N
134 332.25 M
141.97 332.25 L
S
GR
GS
0.149 GC
2 setlinecap
1 LJ
0.5 LW
N
134 305 M
141.97 305 L
S
GR
GS
0.149 GC
2 setlinecap
1 LJ
0.5 LW
N
931 468.5 M
923.03 468.5 L
S
GR
GS
0.149 GC
2 setlinecap
1 LJ
0.5 LW
N
931 441.25 M
923.03 441.25 L
S
GR
GS
0.149 GC
2 setlinecap
1 LJ
0.5 LW
N
931 414 M
923.03 414 L
S
GR
GS
0.149 GC
2 setlinecap
1 LJ
0.5 LW
N
931 386.75 M
923.03 386.75 L
S
GR
GS
0.149 GC
2 setlinecap
1 LJ
0.5 LW
N
931 359.5 M
923.03 359.5 L
S
GR
GS
0.149 GC
2 setlinecap
1 LJ
0.5 LW
N
931 332.25 M
923.03 332.25 L
S
GR
GS
0.149 GC
2 setlinecap
1 LJ
0.5 LW
N
931 305 M
923.03 305 L
S
GR
GS
[1 0 0 1 130 468.5] CT
0.149 GC
/Helvetica 10 F
GS
[1 0 0 1 0 0] CT
-15 2.5 moveto 
1 -1 scale
(-50) t 
GR
GR
GS
[1 0 0 1 130 441.25] CT
0.149 GC
/Helvetica 10 F
GS
[1 0 0 1 0 0] CT
-15 2.5 moveto 
1 -1 scale
(-40) t 
GR
GR
GS
[1 0 0 1 130 414] CT
0.149 GC
/Helvetica 10 F
GS
[1 0 0 1 0 0] CT
-15 2.5 moveto 
1 -1 scale
(-30) t 
GR
GR
GS
[1 0 0 1 130 386.75] CT
0.149 GC
/Helvetica 10 F
GS
[1 0 0 1 0 0] CT
-15 2.5 moveto 
1 -1 scale
(-20) t 
GR
GR
GS
[1 0 0 1 130 359.5] CT
0.149 GC
/Helvetica 10 F
GS
[1 0 0 1 0 0] CT
-15 2.5 moveto 
1 -1 scale
(-10) t 
GR
GR
GS
[1 0 0 1 130 332.25] CT
0.149 GC
/Helvetica 10 F
GS
[1 0 0 1 0 0] CT
-6 2.5 moveto 
1 -1 scale
(0) t 
GR
GR
GS
[1 0 0 1 130 305] CT
0.149 GC
/Helvetica 10 F
GS
[1 0 0 1 0 0] CT
-12 2.5 moveto 
1 -1 scale
(10) t 
GR
GR
GS
[0 -1 1 0 112.5 386.74991] CT
0.149 GC
/Helvetica 11 F
GS
[1 0 0 1 0 0] CT
-34 -3 moveto 
1 -1 scale
(Moment \(Nm\)) t 
GR
GR
GS
[1 0 0 1 532.50049 303.625] CT
/Helvetica-Bold 11 F
GS
[1 0 0 1 0 0] CT
-223.5 -3 moveto 
1 -1 scale
(Vertical Moment Diagram of Alternating Load: Mean Load, Fcf in Horizontal Direction.) t 
GR
GR
GS
0 0.447 0.741 RC
1 LJ
0.5 LW
N
134 332.25 M
136.277 333.885 L
138.554 335.52 L
140.832 337.155 L
143.109 338.79 L
145.386 340.425 L
147.663 342.06 L
149.941 343.695 L
152.218 345.33 L
154.495 346.965 L
156.772 348.601 L
159.049 350.236 L
161.327 351.871 L
163.604 353.506 L
165.881 355.141 L
168.158 356.776 L
170.435 358.411 L
172.713 360.046 L
174.99 361.681 L
177.267 363.316 L
179.544 364.951 L
181.822 366.586 L
184.099 368.221 L
186.376 369.856 L
188.653 371.491 L
190.93 373.126 L
193.208 374.127 L
195.485 375.128 L
197.762 376.13 L
200.039 377.131 L
202.316 378.132 L
204.594 379.134 L
206.871 380.135 L
209.148 381.136 L
211.425 382.137 L
213.703 383.139 L
215.98 384.14 L
218.257 385.141 L
220.534 386.143 L
222.811 387.144 L
225.089 388.145 L
227.366 389.146 L
229.643 390.148 L
231.92 391.149 L
234.197 392.15 L
236.475 393.152 L
238.752 394.153 L
241.029 395.154 L
243.306 396.155 L
245.584 397.157 L
S
GR
GS
0 0.447 0.741 RC
1 LJ
0.5 LW
N
243.306 396.155 M
245.584 397.157 L
247.861 398.158 L
250.138 399.159 L
252.415 400.161 L
254.692 401.162 L
256.97 402.163 L
259.247 403.164 L
261.524 404.166 L
263.801 405.167 L
266.078 406.168 L
268.356 407.17 L
270.633 408.171 L
272.91 409.172 L
275.187 410.173 L
277.465 411.175 L
279.742 412.176 L
282.019 413.177 L
284.296 414.179 L
286.573 415.18 L
288.851 416.181 L
291.128 417.182 L
293.405 418.184 L
295.682 419.185 L
297.959 420.186 L
300.237 421.188 L
302.514 422.189 L
304.791 423.19 L
307.068 424.191 L
309.346 425.193 L
311.623 426.194 L
313.9 427.195 L
316.177 428.197 L
318.454 429.198 L
320.732 430.199 L
323.009 431.2 L
325.286 432.202 L
327.563 433.203 L
329.841 434.204 L
332.118 435.206 L
334.395 436.207 L
336.672 437.208 L
338.949 438.21 L
341.227 439.211 L
343.504 440.212 L
345.781 441.213 L
348.058 442.215 L
350.335 443.216 L
352.613 444.217 L
354.89 445.219 L
357.167 446.22 L
359.444 447.221 L
S
GR
GS
0 0.447 0.741 RC
1 LJ
0.5 LW
N
357.167 446.22 M
359.444 447.221 L
361.722 448.222 L
363.999 449.224 L
366.276 450.225 L
368.553 451.226 L
370.83 452.228 L
373.108 453.229 L
375.385 454.23 L
377.662 455.231 L
379.939 456.233 L
382.216 457.234 L
384.494 458.235 L
386.771 459.237 L
389.048 460.238 L
391.325 461.239 L
393.603 462.24 L
395.88 463.236 L
398.157 462.581 L
400.434 461.926 L
402.711 461.271 L
404.989 460.616 L
407.266 459.961 L
409.543 459.306 L
411.82 458.651 L
414.097 457.996 L
416.375 457.341 L
418.652 456.686 L
420.929 456.031 L
423.206 455.376 L
425.484 454.721 L
427.761 454.066 L
430.038 453.411 L
432.315 452.756 L
434.592 452.101 L
436.87 451.446 L
439.147 450.791 L
441.424 450.136 L
443.701 449.481 L
445.978 448.827 L
448.256 448.172 L
450.533 447.517 L
452.81 446.862 L
455.087 446.207 L
457.365 445.552 L
459.642 444.897 L
461.919 444.242 L
464.196 443.587 L
466.473 442.932 L
468.751 442.277 L
471.028 441.622 L
473.305 440.967 L
S
GR
GS
0 0.447 0.741 RC
1 LJ
0.5 LW
N
471.028 441.622 M
473.305 440.967 L
475.582 440.312 L
477.859 439.657 L
480.137 439.002 L
482.414 438.347 L
484.691 437.692 L
486.968 437.037 L
489.246 436.382 L
491.523 435.727 L
493.8 435.072 L
496.077 434.417 L
498.354 433.762 L
500.632 433.107 L
502.909 432.452 L
505.186 431.798 L
507.463 431.143 L
509.741 430.488 L
512.018 429.833 L
514.295 429.178 L
516.572 428.523 L
518.849 427.868 L
521.127 427.213 L
523.404 426.558 L
525.681 425.903 L
527.958 425.248 L
530.235 424.593 L
532.513 423.938 L
534.79 423.283 L
537.067 422.628 L
539.344 421.973 L
541.622 421.318 L
543.899 420.663 L
546.176 420.008 L
548.453 419.353 L
550.73 418.698 L
553.008 418.043 L
555.285 417.388 L
557.562 416.733 L
559.839 416.078 L
562.116 415.423 L
564.394 414.769 L
566.671 414.114 L
568.948 413.459 L
571.225 412.804 L
573.503 412.149 L
575.78 411.494 L
578.057 410.839 L
580.334 410.184 L
582.611 409.529 L
584.889 408.874 L
587.166 408.219 L
S
GR
GS
0 0.447 0.741 RC
1 LJ
0.5 LW
N
584.889 408.874 M
587.166 408.219 L
589.443 407.564 L
591.72 406.909 L
593.997 406.254 L
596.275 405.599 L
598.552 404.944 L
600.829 404.289 L
603.106 403.634 L
605.384 402.979 L
607.661 402.324 L
609.938 401.669 L
612.215 401.014 L
614.492 400.359 L
616.77 399.704 L
619.047 399.049 L
621.324 398.395 L
623.601 397.74 L
625.878 397.085 L
628.156 396.43 L
630.433 395.775 L
632.71 395.12 L
634.987 394.465 L
637.265 393.81 L
639.542 393.155 L
641.819 392.5 L
644.096 391.845 L
646.373 391.19 L
648.651 390.535 L
650.928 389.88 L
653.205 389.225 L
655.482 388.57 L
657.76 387.915 L
660.037 387.26 L
662.314 386.605 L
664.591 385.95 L
666.868 385.295 L
669.146 384.64 L
671.423 383.985 L
673.7 383.33 L
675.977 382.675 L
678.254 382.02 L
680.532 381.366 L
682.809 380.711 L
685.086 380.056 L
687.363 379.401 L
689.641 378.746 L
691.918 378.091 L
694.195 377.436 L
696.472 376.781 L
698.749 376.126 L
701.027 375.471 L
S
GR
GS
0 0.447 0.741 RC
1 LJ
0.5 LW
N
698.749 376.126 M
701.027 375.471 L
703.304 374.816 L
705.581 374.161 L
707.858 373.506 L
710.135 372.851 L
712.413 372.196 L
714.69 371.541 L
716.967 370.886 L
719.244 370.231 L
721.521 369.576 L
723.799 368.921 L
726.076 368.266 L
728.353 367.611 L
730.63 366.956 L
732.908 366.301 L
735.185 365.646 L
737.462 364.991 L
739.739 364.337 L
742.016 363.682 L
744.294 363.027 L
746.571 362.372 L
748.848 361.717 L
751.125 361.062 L
753.403 360.407 L
755.68 359.752 L
757.957 359.097 L
760.234 358.442 L
762.511 357.787 L
764.789 357.132 L
767.066 356.477 L
769.343 355.822 L
771.62 355.167 L
773.897 354.512 L
776.175 353.857 L
778.452 353.202 L
780.729 352.547 L
783.006 351.892 L
785.284 351.237 L
787.561 350.582 L
789.838 349.927 L
792.115 349.272 L
794.392 348.617 L
796.67 347.963 L
798.947 347.308 L
801.224 346.653 L
803.501 345.998 L
805.779 345.343 L
808.056 344.688 L
810.333 344.033 L
812.61 343.378 L
814.887 342.723 L
S
GR
GS
0 0.447 0.741 RC
1 LJ
0.5 LW
N
812.61 343.378 M
814.887 342.723 L
817.165 342.068 L
819.442 341.413 L
821.719 340.758 L
823.996 340.103 L
826.273 339.448 L
828.551 338.793 L
830.828 338.138 L
833.105 337.483 L
835.382 336.828 L
837.659 336.173 L
839.937 335.518 L
842.214 334.863 L
844.491 334.208 L
846.768 333.553 L
849.046 332.898 L
851.323 332.25 L
S
GR
GS
1 GC
N
134 695.5 M
931 695.5 L
931 532 L
134 532 L
cp
f
GR
GS
0.873 GC
1 LJ
0.5 LW
N
134 695.5 M
134 532 L
S
GR
GS
0.873 GC
1 LJ
0.5 LW
N
247.857 695.5 M
247.857 532 L
S
GR
GS
0.873 GC
1 LJ
0.5 LW
N
361.714 695.5 M
361.714 532 L
S
GR
GS
0.873 GC
1 LJ
0.5 LW
N
475.571 695.5 M
475.571 532 L
S
GR
GS
0.873 GC
1 LJ
0.5 LW
N
589.429 695.5 M
589.429 532 L
S
GR
GS
0.873 GC
1 LJ
0.5 LW
N
703.286 695.5 M
703.286 532 L
S
GR
GS
0.873 GC
1 LJ
0.5 LW
N
817.143 695.5 M
817.143 532 L
S
GR
GS
0.873 GC
1 LJ
0.5 LW
N
931 695.5 M
931 532 L
S
GR
GS
0.873 GC
1 LJ
0.5 LW
N
931 695.5 M
134 695.5 L
S
GR
GS
0.873 GC
1 LJ
0.5 LW
N
931 662.8 M
134 662.8 L
S
GR
GS
0.873 GC
1 LJ
0.5 LW
N
931 630.1 M
134 630.1 L
S
GR
GS
0.873 GC
1 LJ
0.5 LW
N
931 597.4 M
134 597.4 L
S
GR
GS
0.873 GC
1 LJ
0.5 LW
N
931 564.7 M
134 564.7 L
S
GR
GS
0.873 GC
1 LJ
0.5 LW
N
931 532 M
134 532 L
S
GR
GS
0.149 GC
2 setlinecap
1 LJ
0.5 LW
N
134 695.5 M
931 695.5 L
S
GR
GS
0.149 GC
2 setlinecap
1 LJ
0.5 LW
N
134 532 M
931 532 L
S
GR
GS
0.149 GC
2 setlinecap
1 LJ
0.5 LW
N
134 695.5 M
134 687.53 L
S
GR
GS
0.149 GC
2 setlinecap
1 LJ
0.5 LW
N
247.857 695.5 M
247.857 687.53 L
S
GR
GS
0.149 GC
2 setlinecap
1 LJ
0.5 LW
N
361.714 695.5 M
361.714 687.53 L
S
GR
GS
0.149 GC
2 setlinecap
1 LJ
0.5 LW
N
475.571 695.5 M
475.571 687.53 L
S
GR
GS
0.149 GC
2 setlinecap
1 LJ
0.5 LW
N
589.429 695.5 M
589.429 687.53 L
S
GR
GS
0.149 GC
2 setlinecap
1 LJ
0.5 LW
N
703.286 695.5 M
703.286 687.53 L
S
GR
GS
0.149 GC
2 setlinecap
1 LJ
0.5 LW
N
817.143 695.5 M
817.143 687.53 L
S
GR
GS
0.149 GC
2 setlinecap
1 LJ
0.5 LW
N
931 695.5 M
931 687.53 L
S
GR
GS
0.149 GC
2 setlinecap
1 LJ
0.5 LW
N
134 532 M
134 539.97 L
S
GR
GS
0.149 GC
2 setlinecap
1 LJ
0.5 LW
N
247.857 532 M
247.857 539.97 L
S
GR
GS
0.149 GC
2 setlinecap
1 LJ
0.5 LW
N
361.714 532 M
361.714 539.97 L
S
GR
GS
0.149 GC
2 setlinecap
1 LJ
0.5 LW
N
475.571 532 M
475.571 539.97 L
S
GR
GS
0.149 GC
2 setlinecap
1 LJ
0.5 LW
N
589.429 532 M
589.429 539.97 L
S
GR
GS
0.149 GC
2 setlinecap
1 LJ
0.5 LW
N
703.286 532 M
703.286 539.97 L
S
GR
GS
0.149 GC
2 setlinecap
1 LJ
0.5 LW
N
817.143 532 M
817.143 539.97 L
S
GR
GS
0.149 GC
2 setlinecap
1 LJ
0.5 LW
N
931 532 M
931 539.97 L
S
GR
GS
[1 0 0 1 134 699.5] CT
0.149 GC
/Helvetica 10 F
GS
[1 0 0 1 0 0] CT
-3 8 moveto 
1 -1 scale
(0) t 
GR
GR
GS
[1 0 0 1 247.85715 699.5] CT
0.149 GC
/Helvetica 10 F
GS
[1 0 0 1 0 0] CT
-10 8 moveto 
1 -1 scale
(0.05) t 
GR
GR
GS
[1 0 0 1 361.71429 699.5] CT
0.149 GC
/Helvetica 10 F
GS
[1 0 0 1 0 0] CT
-7 8 moveto 
1 -1 scale
(0.1) t 
GR
GR
GS
[1 0 0 1 475.57144 699.5] CT
0.149 GC
/Helvetica 10 F
GS
[1 0 0 1 0 0] CT
-10 8 moveto 
1 -1 scale
(0.15) t 
GR
GR
GS
[1 0 0 1 589.42859 699.5] CT
0.149 GC
/Helvetica 10 F
GS
[1 0 0 1 0 0] CT
-7 8 moveto 
1 -1 scale
(0.2) t 
GR
GR
GS
[1 0 0 1 703.28571 699.5] CT
0.149 GC
/Helvetica 10 F
GS
[1 0 0 1 0 0] CT
-10 8 moveto 
1 -1 scale
(0.25) t 
GR
GR
GS
[1 0 0 1 817.14288 699.5] CT
0.149 GC
/Helvetica 10 F
GS
[1 0 0 1 0 0] CT
-7 8 moveto 
1 -1 scale
(0.3) t 
GR
GR
GS
[1 0 0 1 931 699.5] CT
0.149 GC
/Helvetica 10 F
GS
[1 0 0 1 0 0] CT
-10 8 moveto 
1 -1 scale
(0.35) t 
GR
GR
GS
[1 0 0 1 532.50037 711] CT
0.149 GC
/Helvetica 11 F
GS
[1 0 0 1 0 0] CT
-27 9 moveto 
1 -1 scale
(Length \(m\)) t 
GR
GR
GS
0.149 GC
2 setlinecap
1 LJ
0.5 LW
N
134 695.5 M
134 532 L
S
GR
GS
0.149 GC
2 setlinecap
1 LJ
0.5 LW
N
931 695.5 M
931 532 L
S
GR
GS
0.149 GC
2 setlinecap
1 LJ
0.5 LW
N
134 695.5 M
141.97 695.5 L
S
GR
GS
0.149 GC
2 setlinecap
1 LJ
0.5 LW
N
134 662.8 M
141.97 662.8 L
S
GR
GS
0.149 GC
2 setlinecap
1 LJ
0.5 LW
N
134 630.1 M
141.97 630.1 L
S
GR
GS
0.149 GC
2 setlinecap
1 LJ
0.5 LW
N
134 597.4 M
141.97 597.4 L
S
GR
GS
0.149 GC
2 setlinecap
1 LJ
0.5 LW
N
134 564.7 M
141.97 564.7 L
S
GR
GS
0.149 GC
2 setlinecap
1 LJ
0.5 LW
N
134 532 M
141.97 532 L
S
GR
GS
0.149 GC
2 setlinecap
1 LJ
0.5 LW
N
931 695.5 M
923.03 695.5 L
S
GR
GS
0.149 GC
2 setlinecap
1 LJ
0.5 LW
N
931 662.8 M
923.03 662.8 L
S
GR
GS
0.149 GC
2 setlinecap
1 LJ
0.5 LW
N
931 630.1 M
923.03 630.1 L
S
GR
GS
0.149 GC
2 setlinecap
1 LJ
0.5 LW
N
931 597.4 M
923.03 597.4 L
S
GR
GS
0.149 GC
2 setlinecap
1 LJ
0.5 LW
N
931 564.7 M
923.03 564.7 L
S
GR
GS
0.149 GC
2 setlinecap
1 LJ
0.5 LW
N
931 532 M
923.03 532 L
S
GR
GS
[1 0 0 1 130 695.5] CT
0.149 GC
/Helvetica 10 F
GS
[1 0 0 1 0 0] CT
-9 2.5 moveto 
1 -1 scale
(-8) t 
GR
GR
GS
[1 0 0 1 130 662.79999] CT
0.149 GC
/Helvetica 10 F
GS
[1 0 0 1 0 0] CT
-9 2.5 moveto 
1 -1 scale
(-6) t 
GR
GR
GS
[1 0 0 1 130 630.09998] CT
0.149 GC
/Helvetica 10 F
GS
[1 0 0 1 0 0] CT
-9 2.5 moveto 
1 -1 scale
(-4) t 
GR
GR
GS
[1 0 0 1 130 597.40002] CT
0.149 GC
/Helvetica 10 F
GS
[1 0 0 1 0 0] CT
-9 2.5 moveto 
1 -1 scale
(-2) t 
GR
GR
GS
[1 0 0 1 130 564.70001] CT
0.149 GC
/Helvetica 10 F
GS
[1 0 0 1 0 0] CT
-6 2.5 moveto 
1 -1 scale
(0) t 
GR
GR
GS
[1 0 0 1 130 532] CT
0.149 GC
/Helvetica 10 F
GS
[1 0 0 1 0 0] CT
-6 2.5 moveto 
1 -1 scale
(2) t 
GR
GR
GS
[0 -1 1 0 115 652] CT
0.149 GC
/Helvetica 11 F
GS
[1 0 0 1 0 0] CT
0 0 moveto 
1 -1 scale
(EI*Theta \(Nm) t 
GR
GR
GS
[0 -1 1 0 110 585] CT
0.149 GC
/Helvetica 8 F
GS
[1 0 0 1 0 0] CT
0 0 moveto 
1 -1 scale
(2) t 
GR
GR
GS
[0 -1 1 0 115 580] CT
0.149 GC
/Helvetica 11 F
GS
[1 0 0 1 0 0] CT
0 0 moveto 
1 -1 scale
(\)) t 
GR
GR
GS
[1 0 0 1 532.50049 530.625] CT
/Helvetica-Bold 11 F
GS
[1 0 0 1 0 0] CT
-255 -3 moveto 
1 -1 scale
(Vertical Angular Deflection \(EI*Theta\) of Alternating Load: Mean Load, Fcf in Horizontal Direction.) t 
GR
GR
GS
0 0.447 0.741 RC
1 LJ
0.5 LW
N
134 542.487 M
136.277 542.492 L
138.554 542.506 L
140.832 542.531 L
143.109 542.565 L
145.386 542.609 L
147.663 542.663 L
149.941 542.727 L
152.218 542.801 L
154.495 542.884 L
156.772 542.977 L
159.049 543.08 L
161.327 543.193 L
163.604 543.316 L
165.881 543.448 L
168.158 543.59 L
170.435 543.742 L
172.713 543.904 L
174.99 544.076 L
177.267 544.258 L
179.544 544.449 L
181.822 544.65 L
184.099 544.861 L
186.376 545.082 L
188.653 545.312 L
190.93 545.552 L
193.208 545.801 L
195.485 546.055 L
197.762 546.315 L
200.039 546.582 L
202.316 546.854 L
204.594 547.132 L
206.871 547.417 L
209.148 547.707 L
211.425 548.003 L
213.703 548.306 L
215.98 548.614 L
218.257 548.928 L
220.534 549.249 L
222.811 549.575 L
225.089 549.907 L
227.366 550.246 L
229.643 550.59 L
231.92 550.94 L
234.197 551.297 L
236.475 551.659 L
238.752 552.028 L
241.029 552.402 L
243.306 552.783 L
245.584 553.169 L
S
GR
GS
0 0.447 0.741 RC
1 LJ
0.5 LW
N
243.306 552.783 M
245.584 553.169 L
247.861 553.562 L
250.138 553.96 L
252.415 554.365 L
254.692 554.775 L
256.97 555.191 L
259.247 555.614 L
261.524 556.042 L
263.801 556.477 L
266.078 556.917 L
268.356 557.364 L
270.633 557.817 L
272.91 558.275 L
275.187 558.74 L
277.465 559.21 L
279.742 559.687 L
282.019 560.169 L
284.296 560.658 L
286.573 561.153 L
288.851 561.653 L
291.128 562.16 L
293.405 562.672 L
295.682 563.191 L
297.959 563.716 L
300.237 564.246 L
302.514 564.783 L
304.791 565.326 L
307.068 565.874 L
309.346 566.429 L
311.623 566.99 L
313.9 567.556 L
316.177 568.129 L
318.454 568.708 L
320.732 569.292 L
323.009 569.883 L
325.286 570.48 L
327.563 571.083 L
329.841 571.691 L
332.118 572.306 L
334.395 572.927 L
336.672 573.554 L
338.949 574.186 L
341.227 574.825 L
343.504 575.47 L
345.781 576.121 L
348.058 576.777 L
350.335 577.44 L
352.613 578.109 L
354.89 578.784 L
357.167 579.465 L
359.444 580.152 L
S
GR
GS
0 0.447 0.741 RC
1 LJ
0.5 LW
N
357.167 579.465 M
359.444 580.152 L
361.722 580.844 L
363.999 581.543 L
366.276 582.248 L
368.553 582.959 L
370.83 583.676 L
373.108 584.399 L
375.385 585.128 L
377.662 585.863 L
379.939 586.604 L
382.216 587.35 L
384.494 588.103 L
386.771 588.862 L
389.048 589.627 L
391.325 590.398 L
393.603 591.175 L
395.88 591.958 L
398.157 592.742 L
400.434 593.522 L
402.711 594.298 L
404.989 595.07 L
407.266 595.839 L
409.543 596.603 L
411.82 597.363 L
414.097 598.12 L
416.375 598.872 L
418.652 599.621 L
420.929 600.366 L
423.206 601.107 L
425.484 601.843 L
427.761 602.576 L
430.038 603.305 L
432.315 604.03 L
434.592 604.751 L
436.87 605.468 L
439.147 606.182 L
441.424 606.891 L
443.701 607.596 L
445.978 608.298 L
448.256 608.995 L
450.533 609.689 L
452.81 610.379 L
455.087 611.064 L
457.365 611.746 L
459.642 612.424 L
461.919 613.098 L
464.196 613.768 L
466.473 614.434 L
468.751 615.096 L
471.028 615.754 L
473.305 616.409 L
S
GR
GS
0 0.447 0.741 RC
1 LJ
0.5 LW
N
471.028 615.754 M
473.305 616.409 L
475.582 617.059 L
477.859 617.705 L
480.137 618.348 L
482.414 618.987 L
484.691 619.621 L
486.968 620.252 L
489.246 620.879 L
491.523 621.501 L
493.8 622.12 L
496.077 622.735 L
498.354 623.346 L
500.632 623.954 L
502.909 624.557 L
505.186 625.156 L
507.463 625.751 L
509.741 626.343 L
512.018 626.93 L
514.295 627.514 L
516.572 628.093 L
518.849 628.669 L
521.127 629.241 L
523.404 629.809 L
525.681 630.373 L
527.958 630.933 L
530.235 631.489 L
532.513 632.041 L
534.79 632.589 L
537.067 633.133 L
539.344 633.673 L
541.622 634.21 L
543.899 634.742 L
546.176 635.271 L
548.453 635.795 L
550.73 636.316 L
553.008 636.833 L
555.285 637.346 L
557.562 637.855 L
559.839 638.359 L
562.116 638.861 L
564.394 639.358 L
566.671 639.851 L
568.948 640.34 L
571.225 640.825 L
573.503 641.307 L
575.78 641.784 L
578.057 642.258 L
580.334 642.727 L
582.611 643.193 L
584.889 643.655 L
587.166 644.112 L
S
GR
GS
0 0.447 0.741 RC
1 LJ
0.5 LW
N
584.889 643.655 M
587.166 644.112 L
589.443 644.566 L
591.72 645.016 L
593.997 645.462 L
596.275 645.904 L
598.552 646.342 L
600.829 646.777 L
603.106 647.207 L
605.384 647.633 L
607.661 648.056 L
609.938 648.474 L
612.215 648.889 L
614.492 649.299 L
616.77 649.706 L
619.047 650.109 L
621.324 650.508 L
623.601 650.903 L
625.878 651.294 L
628.156 651.681 L
630.433 652.064 L
632.71 652.443 L
634.987 652.818 L
637.265 653.19 L
639.542 653.557 L
641.819 653.92 L
644.096 654.28 L
646.373 654.636 L
648.651 654.987 L
650.928 655.335 L
653.205 655.679 L
655.482 656.019 L
657.76 656.355 L
660.037 656.687 L
662.314 657.015 L
664.591 657.339 L
666.868 657.659 L
669.146 657.976 L
671.423 658.288 L
673.7 658.596 L
675.977 658.901 L
678.254 659.202 L
680.532 659.498 L
682.809 659.791 L
685.086 660.08 L
687.363 660.365 L
689.641 660.646 L
691.918 660.923 L
694.195 661.196 L
696.472 661.465 L
698.749 661.73 L
701.027 661.991 L
S
GR
GS
0 0.447 0.741 RC
1 LJ
0.5 LW
N
698.749 661.73 M
701.027 661.991 L
703.304 662.249 L
705.581 662.502 L
707.858 662.752 L
710.135 662.997 L
712.413 663.239 L
714.69 663.477 L
716.967 663.711 L
719.244 663.94 L
721.521 664.166 L
723.799 664.388 L
726.076 664.606 L
728.353 664.82 L
730.63 665.031 L
732.908 665.237 L
735.185 665.439 L
737.462 665.638 L
739.739 665.832 L
742.016 666.023 L
744.294 666.209 L
746.571 666.392 L
748.848 666.571 L
751.125 666.746 L
753.403 666.917 L
755.68 667.084 L
757.957 667.247 L
760.234 667.406 L
762.511 667.561 L
764.789 667.712 L
767.066 667.86 L
769.343 668.003 L
771.62 668.142 L
773.897 668.278 L
776.175 668.41 L
778.452 668.537 L
780.729 668.661 L
783.006 668.781 L
785.284 668.897 L
787.561 669.009 L
789.838 669.117 L
792.115 669.221 L
794.392 669.321 L
796.67 669.417 L
798.947 669.51 L
801.224 669.598 L
803.501 669.682 L
805.779 669.763 L
808.056 669.84 L
810.333 669.912 L
812.61 669.981 L
814.887 670.046 L
S
GR
GS
0 0.447 0.741 RC
1 LJ
0.5 LW
N
812.61 669.981 M
814.887 670.046 L
817.165 670.107 L
819.442 670.164 L
821.719 670.217 L
823.996 670.266 L
826.273 670.311 L
828.551 670.352 L
830.828 670.389 L
833.105 670.423 L
835.382 670.452 L
837.659 670.478 L
839.937 670.499 L
842.214 670.517 L
844.491 670.531 L
846.768 670.54 L
849.046 670.546 L
851.323 670.548 L
S
GR
GS
1 GC
N
134 923 M
931 923 L
931 759.5 L
134 759.5 L
cp
f
GR
GS
0.873 GC
1 LJ
0.5 LW
N
134 923 M
134 759.5 L
S
GR
GS
0.873 GC
1 LJ
0.5 LW
N
247.857 923 M
247.857 759.5 L
S
GR
GS
0.873 GC
1 LJ
0.5 LW
N
361.714 923 M
361.714 759.5 L
S
GR
GS
0.873 GC
1 LJ
0.5 LW
N
475.571 923 M
475.571 759.5 L
S
GR
GS
0.873 GC
1 LJ
0.5 LW
N
589.429 923 M
589.429 759.5 L
S
GR
GS
0.873 GC
1 LJ
0.5 LW
N
703.286 923 M
703.286 759.5 L
S
GR
GS
0.873 GC
1 LJ
0.5 LW
N
817.143 923 M
817.143 759.5 L
S
GR
GS
0.873 GC
1 LJ
0.5 LW
N
931 923 M
931 759.5 L
S
GR
GS
0.873 GC
1 LJ
0.5 LW
N
931 923 M
134 923 L
S
GR
GS
0.873 GC
1 LJ
0.5 LW
N
931 895.75 M
134 895.75 L
S
GR
GS
0.873 GC
1 LJ
0.5 LW
N
931 868.5 M
134 868.5 L
S
GR
GS
0.873 GC
1 LJ
0.5 LW
N
931 841.25 M
134 841.25 L
S
GR
GS
0.873 GC
1 LJ
0.5 LW
N
931 814 M
134 814 L
S
GR
GS
0.873 GC
1 LJ
0.5 LW
N
931 786.75 M
134 786.75 L
S
GR
GS
0.873 GC
1 LJ
0.5 LW
N
931 759.5 M
134 759.5 L
S
GR
GS
0.149 GC
2 setlinecap
1 LJ
0.5 LW
N
134 923 M
931 923 L
S
GR
GS
0.149 GC
2 setlinecap
1 LJ
0.5 LW
N
134 759.5 M
931 759.5 L
S
GR
GS
0.149 GC
2 setlinecap
1 LJ
0.5 LW
N
134 923 M
134 915.03 L
S
GR
GS
0.149 GC
2 setlinecap
1 LJ
0.5 LW
N
247.857 923 M
247.857 915.03 L
S
GR
GS
0.149 GC
2 setlinecap
1 LJ
0.5 LW
N
361.714 923 M
361.714 915.03 L
S
GR
GS
0.149 GC
2 setlinecap
1 LJ
0.5 LW
N
475.571 923 M
475.571 915.03 L
S
GR
GS
0.149 GC
2 setlinecap
1 LJ
0.5 LW
N
589.429 923 M
589.429 915.03 L
S
GR
GS
0.149 GC
2 setlinecap
1 LJ
0.5 LW
N
703.286 923 M
703.286 915.03 L
S
GR
GS
0.149 GC
2 setlinecap
1 LJ
0.5 LW
N
817.143 923 M
817.143 915.03 L
S
GR
GS
0.149 GC
2 setlinecap
1 LJ
0.5 LW
N
931 923 M
931 915.03 L
S
GR
GS
0.149 GC
2 setlinecap
1 LJ
0.5 LW
N
134 759.5 M
134 767.47 L
S
GR
GS
0.149 GC
2 setlinecap
1 LJ
0.5 LW
N
247.857 759.5 M
247.857 767.47 L
S
GR
GS
0.149 GC
2 setlinecap
1 LJ
0.5 LW
N
361.714 759.5 M
361.714 767.47 L
S
GR
GS
0.149 GC
2 setlinecap
1 LJ
0.5 LW
N
475.571 759.5 M
475.571 767.47 L
S
GR
GS
0.149 GC
2 setlinecap
1 LJ
0.5 LW
N
589.429 759.5 M
589.429 767.47 L
S
GR
GS
0.149 GC
2 setlinecap
1 LJ
0.5 LW
N
703.286 759.5 M
703.286 767.47 L
S
GR
GS
0.149 GC
2 setlinecap
1 LJ
0.5 LW
N
817.143 759.5 M
817.143 767.47 L
S
GR
GS
0.149 GC
2 setlinecap
1 LJ
0.5 LW
N
931 759.5 M
931 767.47 L
S
GR
GS
[1 0 0 1 134 927] CT
0.149 GC
/Helvetica 10 F
GS
[1 0 0 1 0 0] CT
-3 8 moveto 
1 -1 scale
(0) t 
GR
GR
GS
[1 0 0 1 247.85715 927] CT
0.149 GC
/Helvetica 10 F
GS
[1 0 0 1 0 0] CT
-10 8 moveto 
1 -1 scale
(0.05) t 
GR
GR
GS
[1 0 0 1 361.71429 927] CT
0.149 GC
/Helvetica 10 F
GS
[1 0 0 1 0 0] CT
-7 8 moveto 
1 -1 scale
(0.1) t 
GR
GR
GS
[1 0 0 1 475.57144 927] CT
0.149 GC
/Helvetica 10 F
GS
[1 0 0 1 0 0] CT
-10 8 moveto 
1 -1 scale
(0.15) t 
GR
GR
GS
[1 0 0 1 589.42859 927] CT
0.149 GC
/Helvetica 10 F
GS
[1 0 0 1 0 0] CT
-7 8 moveto 
1 -1 scale
(0.2) t 
GR
GR
GS
[1 0 0 1 703.28571 927] CT
0.149 GC
/Helvetica 10 F
GS
[1 0 0 1 0 0] CT
-10 8 moveto 
1 -1 scale
(0.25) t 
GR
GR
GS
[1 0 0 1 817.14288 927] CT
0.149 GC
/Helvetica 10 F
GS
[1 0 0 1 0 0] CT
-7 8 moveto 
1 -1 scale
(0.3) t 
GR
GR
GS
[1 0 0 1 931 927] CT
0.149 GC
/Helvetica 10 F
GS
[1 0 0 1 0 0] CT
-10 8 moveto 
1 -1 scale
(0.35) t 
GR
GR
GS
[1 0 0 1 532.50037 938.5] CT
0.149 GC
/Helvetica 11 F
GS
[1 0 0 1 0 0] CT
-27 9 moveto 
1 -1 scale
(Length \(m\)) t 
GR
GR
GS
0.149 GC
2 setlinecap
1 LJ
0.5 LW
N
134 923 M
134 759.5 L
S
GR
GS
0.149 GC
2 setlinecap
1 LJ
0.5 LW
N
931 923 M
931 759.5 L
S
GR
GS
0.149 GC
2 setlinecap
1 LJ
0.5 LW
N
134 923 M
141.97 923 L
S
GR
GS
0.149 GC
2 setlinecap
1 LJ
0.5 LW
N
134 895.75 M
141.97 895.75 L
S
GR
GS
0.149 GC
2 setlinecap
1 LJ
0.5 LW
N
134 868.5 M
141.97 868.5 L
S
GR
GS
0.149 GC
2 setlinecap
1 LJ
0.5 LW
N
134 841.25 M
141.97 841.25 L
S
GR
GS
0.149 GC
2 setlinecap
1 LJ
0.5 LW
N
134 814 M
141.97 814 L
S
GR
GS
0.149 GC
2 setlinecap
1 LJ
0.5 LW
N
134 786.75 M
141.97 786.75 L
S
GR
GS
0.149 GC
2 setlinecap
1 LJ
0.5 LW
N
134 759.5 M
141.97 759.5 L
S
GR
GS
0.149 GC
2 setlinecap
1 LJ
0.5 LW
N
931 923 M
923.03 923 L
S
GR
GS
0.149 GC
2 setlinecap
1 LJ
0.5 LW
N
931 895.75 M
923.03 895.75 L
S
GR
GS
0.149 GC
2 setlinecap
1 LJ
0.5 LW
N
931 868.5 M
923.03 868.5 L
S
GR
GS
0.149 GC
2 setlinecap
1 LJ
0.5 LW
N
931 841.25 M
923.03 841.25 L
S
GR
GS
0.149 GC
2 setlinecap
1 LJ
0.5 LW
N
931 814 M
923.03 814 L
S
GR
GS
0.149 GC
2 setlinecap
1 LJ
0.5 LW
N
931 786.75 M
923.03 786.75 L
S
GR
GS
0.149 GC
2 setlinecap
1 LJ
0.5 LW
N
931 759.5 M
923.03 759.5 L
S
GR
GS
[1 0 0 1 130 923] CT
0.149 GC
/Helvetica 10 F
GS
[1 0 0 1 0 0] CT
-9 2.5 moveto 
1 -1 scale
(-1) t 
GR
GR
GS
[1 0 0 1 130 895.75] CT
0.149 GC
/Helvetica 10 F
GS
[1 0 0 1 0 0] CT
-18 2.5 moveto 
1 -1 scale
(-0.8) t 
GR
GR
GS
[1 0 0 1 130 868.5] CT
0.149 GC
/Helvetica 10 F
GS
[1 0 0 1 0 0] CT
-18 2.5 moveto 
1 -1 scale
(-0.6) t 
GR
GR
GS
[1 0 0 1 130 841.25] CT
0.149 GC
/Helvetica 10 F
GS
[1 0 0 1 0 0] CT
-18 2.5 moveto 
1 -1 scale
(-0.4) t 
GR
GR
GS
[1 0 0 1 130 814] CT
0.149 GC
/Helvetica 10 F
GS
[1 0 0 1 0 0] CT
-18 2.5 moveto 
1 -1 scale
(-0.2) t 
GR
GR
GS
[1 0 0 1 130 786.75] CT
0.149 GC
/Helvetica 10 F
GS
[1 0 0 1 0 0] CT
-6 2.5 moveto 
1 -1 scale
(0) t 
GR
GR
GS
[1 0 0 1 130 759.5] CT
0.149 GC
/Helvetica 10 F
GS
[1 0 0 1 0 0] CT
-14 2.5 moveto 
1 -1 scale
(0.2) t 
GR
GR
GS
[0 -1 1 0 107 890] CT
0.149 GC
/Helvetica 11 F
GS
[1 0 0 1 0 0] CT
0 0 moveto 
1 -1 scale
(EI*Deflection \(Nm) t 
GR
GR
GS
[0 -1 1 0 102 802] CT
0.149 GC
/Helvetica 8 F
GS
[1 0 0 1 0 0] CT
0 0 moveto 
1 -1 scale
(3) t 
GR
GR
GS
[0 -1 1 0 107 797] CT
0.149 GC
/Helvetica 11 F
GS
[1 0 0 1 0 0] CT
0 0 moveto 
1 -1 scale
(\)) t 
GR
GR
GS
[1 0 0 1 532.50049 758.125] CT
/Helvetica-Bold 11 F
GS
[1 0 0 1 0 0] CT
-221.5 -3 moveto 
1 -1 scale
(Vertical Deflection \(EI*Y\) of Alternating Load: Mean Load, Fcf in Horizontal Direction.) t 
GR
GR
GS
0 0.447 0.741 RC
1 LJ
0.5 LW
N
134 791.165 M
136.277 790.98 L
138.554 790.795 L
140.832 790.61 L
143.109 790.425 L
145.386 790.241 L
147.663 790.057 L
149.941 789.874 L
152.218 789.691 L
154.495 789.509 L
156.772 789.327 L
159.049 789.147 L
161.327 788.967 L
163.604 788.788 L
165.881 788.611 L
168.158 788.434 L
170.435 788.259 L
172.713 788.085 L
174.99 787.912 L
177.267 787.741 L
179.544 787.572 L
181.822 787.404 L
184.099 787.238 L
186.376 787.073 L
188.653 786.911 L
190.93 786.75 L
193.208 786.591 L
195.485 786.435 L
197.762 786.281 L
200.039 786.129 L
202.316 785.979 L
204.594 785.831 L
206.871 785.686 L
209.148 785.543 L
211.425 785.403 L
213.703 785.265 L
215.98 785.13 L
218.257 784.997 L
220.534 784.867 L
222.811 784.739 L
225.089 784.615 L
227.366 784.493 L
229.643 784.374 L
231.92 784.258 L
234.197 784.144 L
236.475 784.034 L
238.752 783.927 L
241.029 783.823 L
243.306 783.722 L
245.584 783.624 L
S
GR
GS
0 0.447 0.741 RC
1 LJ
0.5 LW
N
243.306 783.722 M
245.584 783.624 L
247.861 783.53 L
250.138 783.439 L
252.415 783.351 L
254.692 783.266 L
256.97 783.186 L
259.247 783.108 L
261.524 783.034 L
263.801 782.964 L
266.078 782.897 L
268.356 782.834 L
270.633 782.775 L
272.91 782.719 L
275.187 782.668 L
277.465 782.62 L
279.742 782.576 L
282.019 782.536 L
284.296 782.501 L
286.573 782.469 L
288.851 782.442 L
291.128 782.418 L
293.405 782.399 L
295.682 782.385 L
297.959 782.374 L
300.237 782.368 L
302.514 782.367 L
304.791 782.37 L
307.068 782.377 L
309.346 782.389 L
311.623 782.406 L
313.9 782.427 L
316.177 782.454 L
318.454 782.484 L
320.732 782.52 L
323.009 782.561 L
325.286 782.607 L
327.563 782.657 L
329.841 782.713 L
332.118 782.774 L
334.395 782.84 L
336.672 782.911 L
338.949 782.988 L
341.227 783.069 L
343.504 783.156 L
345.781 783.249 L
348.058 783.347 L
350.335 783.45 L
352.613 783.559 L
354.89 783.674 L
357.167 783.794 L
359.444 783.92 L
S
GR
GS
0 0.447 0.741 RC
1 LJ
0.5 LW
N
357.167 783.794 M
359.444 783.92 L
361.722 784.051 L
363.999 784.189 L
366.276 784.332 L
368.553 784.481 L
370.83 784.636 L
373.108 784.798 L
375.385 784.965 L
377.662 785.138 L
379.939 785.318 L
382.216 785.503 L
384.494 785.695 L
386.771 785.893 L
389.048 786.098 L
391.325 786.309 L
393.603 786.526 L
395.88 786.75 L
398.157 786.98 L
400.434 787.217 L
402.711 787.461 L
404.989 787.711 L
407.266 787.967 L
409.543 788.23 L
411.82 788.499 L
414.097 788.774 L
416.375 789.056 L
418.652 789.344 L
420.929 789.638 L
423.206 789.938 L
425.484 790.245 L
427.761 790.557 L
430.038 790.876 L
432.315 791.201 L
434.592 791.531 L
436.87 791.868 L
439.147 792.211 L
441.424 792.559 L
443.701 792.914 L
445.978 793.274 L
448.256 793.641 L
450.533 794.013 L
452.81 794.39 L
455.087 794.774 L
457.365 795.163 L
459.642 795.558 L
461.919 795.959 L
464.196 796.365 L
466.473 796.776 L
468.751 797.194 L
471.028 797.616 L
473.305 798.045 L
S
GR
GS
0 0.447 0.741 RC
1 LJ
0.5 LW
N
471.028 797.616 M
473.305 798.045 L
475.582 798.478 L
477.859 798.917 L
480.137 799.362 L
482.414 799.811 L
484.691 800.266 L
486.968 800.727 L
489.246 801.192 L
491.523 801.663 L
493.8 802.139 L
496.077 802.62 L
498.354 803.106 L
500.632 803.598 L
502.909 804.094 L
505.186 804.595 L
507.463 805.102 L
509.741 805.613 L
512.018 806.129 L
514.295 806.65 L
516.572 807.176 L
518.849 807.707 L
521.127 808.242 L
523.404 808.782 L
525.681 809.327 L
527.958 809.877 L
530.235 810.431 L
532.513 810.99 L
534.79 811.553 L
537.067 812.121 L
539.344 812.694 L
541.622 813.271 L
543.899 813.853 L
546.176 814.438 L
548.453 815.029 L
550.73 815.623 L
553.008 816.222 L
555.285 816.826 L
557.562 817.433 L
559.839 818.045 L
562.116 818.661 L
564.394 819.281 L
566.671 819.905 L
568.948 820.534 L
571.225 821.166 L
573.503 821.802 L
575.78 822.443 L
578.057 823.087 L
580.334 823.735 L
582.611 824.388 L
584.889 825.044 L
587.166 825.703 L
S
GR
GS
0 0.447 0.741 RC
1 LJ
0.5 LW
N
584.889 825.044 M
587.166 825.703 L
589.443 826.367 L
591.72 827.035 L
593.997 827.706 L
596.275 828.381 L
598.552 829.059 L
600.829 829.741 L
603.106 830.427 L
605.384 831.117 L
607.661 831.809 L
609.938 832.506 L
612.215 833.206 L
614.492 833.909 L
616.77 834.616 L
619.047 835.326 L
621.324 836.039 L
623.601 836.756 L
625.878 837.476 L
628.156 838.199 L
630.433 838.926 L
632.71 839.655 L
634.987 840.388 L
637.265 841.124 L
639.542 841.863 L
641.819 842.605 L
644.096 843.35 L
646.373 844.098 L
648.651 844.849 L
650.928 845.603 L
653.205 846.36 L
655.482 847.119 L
657.76 847.882 L
660.037 848.647 L
662.314 849.415 L
664.591 850.185 L
666.868 850.959 L
669.146 851.735 L
671.423 852.513 L
673.7 853.295 L
675.977 854.078 L
678.254 854.865 L
680.532 855.654 L
682.809 856.445 L
685.086 857.238 L
687.363 858.034 L
689.641 858.833 L
691.918 859.634 L
694.195 860.437 L
696.472 861.242 L
698.749 862.049 L
701.027 862.859 L
S
GR
GS
0 0.447 0.741 RC
1 LJ
0.5 LW
N
698.749 862.049 M
701.027 862.859 L
703.304 863.671 L
705.581 864.485 L
707.858 865.301 L
710.135 866.119 L
712.413 866.939 L
714.69 867.762 L
716.967 868.586 L
719.244 869.412 L
721.521 870.24 L
723.799 871.07 L
726.076 871.901 L
728.353 872.735 L
730.63 873.57 L
732.908 874.407 L
735.185 875.246 L
737.462 876.086 L
739.739 876.928 L
742.016 877.772 L
744.294 878.617 L
746.571 879.463 L
748.848 880.312 L
751.125 881.161 L
753.403 882.012 L
755.68 882.865 L
757.957 883.719 L
760.234 884.574 L
762.511 885.431 L
764.789 886.289 L
767.066 887.148 L
769.343 888.008 L
771.62 888.869 L
773.897 889.732 L
776.175 890.596 L
778.452 891.461 L
780.729 892.326 L
783.006 893.193 L
785.284 894.061 L
787.561 894.93 L
789.838 895.8 L
792.115 896.67 L
794.392 897.542 L
796.67 898.414 L
798.947 899.287 L
801.224 900.161 L
803.501 901.035 L
805.779 901.911 L
808.056 902.786 L
810.333 903.663 L
812.61 904.54 L
814.887 905.418 L
S
GR
GS
0 0.447 0.741 RC
1 LJ
0.5 LW
N
812.61 904.54 M
814.887 905.418 L
817.165 906.296 L
819.442 907.174 L
821.719 908.054 L
823.996 908.933 L
826.273 909.813 L
828.551 910.693 L
830.828 911.574 L
833.105 912.455 L
835.382 913.336 L
837.659 914.217 L
839.937 915.099 L
842.214 915.981 L
844.491 916.863 L
846.768 917.745 L
849.046 918.627 L
851.323 919.509 L
S
GR
%%Trailer
%%Pages: 1
%%EOF
