%!PS-Adobe-3.0 EPSF-3.0
%%Creator: (MATLAB, The Mathworks, Inc. Version 8.6.0.267246 \(R2015b\). Operating System: Mac OS X)
%%Title: (/Users/mvanheukelom/Documents/MTE3B/mte322/projects/2/latex/MTE-322/Project 2/images/alternating_vert_dir_DOWN.eps)
%%CreationDate: 2017-03-16T23:03:28
%%Pages: (atend)
%%BoundingBox: 0 0 1032 1040
%%LanguageLevel: 2
%%EndComments
%%BeginProlog
%%BeginResource: procset (Apache XML Graphics Std ProcSet) 1.2 0
%%Version: 1.2 0
%%Copyright: (Copyright 2001-2003,2010 The Apache Software Foundation. License terms: http://www.apache.org/licenses/LICENSE-2.0)
/bd{bind def}bind def
/ld{load def}bd
/GR/grestore ld
/M/moveto ld
/LJ/setlinejoin ld
/C/curveto ld
/f/fill ld
/LW/setlinewidth ld
/GC/setgray ld
/t/show ld
/N/newpath ld
/CT/concat ld
/cp/closepath ld
/S/stroke ld
/L/lineto ld
/CC/setcmykcolor ld
/A/ashow ld
/GS/gsave ld
/RC/setrgbcolor ld
/RM/rmoveto ld
/ML/setmiterlimit ld
/re {4 2 roll M
1 index 0 rlineto
0 exch rlineto
neg 0 rlineto
cp } bd
/_ctm matrix def
/_tm matrix def
/BT { _ctm currentmatrix pop matrix _tm copy pop 0 0 moveto } bd
/ET { _ctm setmatrix } bd
/iTm { _ctm setmatrix _tm concat } bd
/Tm { _tm astore pop iTm 0 0 moveto } bd
/ux 0.0 def
/uy 0.0 def
/F {
  /Tp exch def
  /Tf exch def
  Tf findfont Tp scalefont setfont
  /cf Tf def  /cs Tp def
} bd
/ULS {currentpoint /uy exch def /ux exch def} bd
/ULE {
  /Tcx currentpoint pop def
  gsave
  newpath
  cf findfont cs scalefont dup
  /FontMatrix get 0 get /Ts exch def /FontInfo get dup
  /UnderlinePosition get Ts mul /To exch def
  /UnderlineThickness get Ts mul /Tt exch def
  ux uy To add moveto  Tcx uy To add lineto
  Tt setlinewidth stroke
  grestore
} bd
/OLE {
  /Tcx currentpoint pop def
  gsave
  newpath
  cf findfont cs scalefont dup
  /FontMatrix get 0 get /Ts exch def /FontInfo get dup
  /UnderlinePosition get Ts mul /To exch def
  /UnderlineThickness get Ts mul /Tt exch def
  ux uy To add cs add moveto Tcx uy To add cs add lineto
  Tt setlinewidth stroke
  grestore
} bd
/SOE {
  /Tcx currentpoint pop def
  gsave
  newpath
  cf findfont cs scalefont dup
  /FontMatrix get 0 get /Ts exch def /FontInfo get dup
  /UnderlinePosition get Ts mul /To exch def
  /UnderlineThickness get Ts mul /Tt exch def
  ux uy To add cs 10 mul 26 idiv add moveto Tcx uy To add cs 10 mul 26 idiv add lineto
  Tt setlinewidth stroke
  grestore
} bd
/QT {
/Y22 exch store
/X22 exch store
/Y21 exch store
/X21 exch store
currentpoint
/Y21 load 2 mul add 3 div exch
/X21 load 2 mul add 3 div exch
/X21 load 2 mul /X22 load add 3 div
/Y21 load 2 mul /Y22 load add 3 div
/X22 load /Y22 load curveto
} bd
/SSPD {
dup length /d exch dict def
{
/v exch def
/k exch def
currentpagedevice k known {
/cpdv currentpagedevice k get def
v cpdv ne {
/upd false def
/nullv v type /nulltype eq def
/nullcpdv cpdv type /nulltype eq def
nullv nullcpdv or
{
/upd true def
} {
/sametype v type cpdv type eq def
sametype {
v type /arraytype eq {
/vlen v length def
/cpdvlen cpdv length def
vlen cpdvlen eq {
0 1 vlen 1 sub {
/i exch def
/obj v i get def
/cpdobj cpdv i get def
obj cpdobj ne {
/upd true def
exit
} if
} for
} {
/upd true def
} ifelse
} {
v type /dicttype eq {
v {
/dv exch def
/dk exch def
/cpddv cpdv dk get def
dv cpddv ne {
/upd true def
exit
} if
} forall
} {
/upd true def
} ifelse
} ifelse
} if
} ifelse
upd true eq {
d k v put
} if
} if
} if
} forall
d length 0 gt {
d setpagedevice
} if
} bd
%%EndResource
%%BeginResource: procset (Apache XML Graphics EPS ProcSet) 1.0 0
%%Version: 1.0 0
%%Copyright: (Copyright 2002-2003 The Apache Software Foundation. License terms: http://www.apache.org/licenses/LICENSE-2.0)
/BeginEPSF { %def
/b4_Inc_state save def         % Save state for cleanup
/dict_count countdictstack def % Count objects on dict stack
/op_count count 1 sub def      % Count objects on operand stack
userdict begin                 % Push userdict on dict stack
/showpage { } def              % Redefine showpage, { } = null proc
0 setgray 0 setlinecap         % Prepare graphics state
1 setlinewidth 0 setlinejoin
10 setmiterlimit [ ] 0 setdash newpath
/languagelevel where           % If level not equal to 1 then
{pop languagelevel             % set strokeadjust and
1 ne                           % overprint to their defaults.
{false setstrokeadjust false setoverprint
} if
} if
} bd
/EndEPSF { %def
count op_count sub {pop} repeat            % Clean up stacks
countdictstack dict_count sub {end} repeat
b4_Inc_state restore
} bd
%%EndResource
%FOPBeginFontDict
%%IncludeResource: font Courier-Bold
%%IncludeResource: font Helvetica
%%IncludeResource: font Courier-BoldOblique
%%IncludeResource: font Courier-Oblique
%%IncludeResource: font Times-Roman
%%IncludeResource: font Helvetica-BoldOblique
%%IncludeResource: font Helvetica-Bold
%%IncludeResource: font Helvetica-Oblique
%%IncludeResource: font Times-BoldItalic
%%IncludeResource: font Courier
%%IncludeResource: font Times-Italic
%%IncludeResource: font Times-Bold
%%IncludeResource: font Symbol
%%IncludeResource: font ZapfDingbats
%FOPEndFontDict
%%BeginResource: encoding WinAnsiEncoding
/WinAnsiEncoding [
/.notdef /.notdef /.notdef /.notdef /.notdef
/.notdef /.notdef /.notdef /.notdef /.notdef
/.notdef /.notdef /.notdef /.notdef /.notdef
/.notdef /.notdef /.notdef /.notdef /.notdef
/.notdef /.notdef /.notdef /.notdef /.notdef
/.notdef /.notdef /.notdef /.notdef /.notdef
/.notdef /.notdef /space /exclam /quotedbl
/numbersign /dollar /percent /ampersand /quotesingle
/parenleft /parenright /asterisk /plus /comma
/hyphen /period /slash /zero /one
/two /three /four /five /six
/seven /eight /nine /colon /semicolon
/less /equal /greater /question /at
/A /B /C /D /E
/F /G /H /I /J
/K /L /M /N /O
/P /Q /R /S /T
/U /V /W /X /Y
/Z /bracketleft /backslash /bracketright /asciicircum
/underscore /quoteleft /a /b /c
/d /e /f /g /h
/i /j /k /l /m
/n /o /p /q /r
/s /t /u /v /w
/x /y /z /braceleft /bar
/braceright /asciitilde /bullet /Euro /bullet
/quotesinglbase /florin /quotedblbase /ellipsis /dagger
/daggerdbl /circumflex /perthousand /Scaron /guilsinglleft
/OE /bullet /Zcaron /bullet /bullet
/quoteleft /quoteright /quotedblleft /quotedblright /bullet
/endash /emdash /asciitilde /trademark /scaron
/guilsinglright /oe /bullet /zcaron /Ydieresis
/space /exclamdown /cent /sterling /currency
/yen /brokenbar /section /dieresis /copyright
/ordfeminine /guillemotleft /logicalnot /sfthyphen /registered
/macron /degree /plusminus /twosuperior /threesuperior
/acute /mu /paragraph /middot /cedilla
/onesuperior /ordmasculine /guillemotright /onequarter /onehalf
/threequarters /questiondown /Agrave /Aacute /Acircumflex
/Atilde /Adieresis /Aring /AE /Ccedilla
/Egrave /Eacute /Ecircumflex /Edieresis /Igrave
/Iacute /Icircumflex /Idieresis /Eth /Ntilde
/Ograve /Oacute /Ocircumflex /Otilde /Odieresis
/multiply /Oslash /Ugrave /Uacute /Ucircumflex
/Udieresis /Yacute /Thorn /germandbls /agrave
/aacute /acircumflex /atilde /adieresis /aring
/ae /ccedilla /egrave /eacute /ecircumflex
/edieresis /igrave /iacute /icircumflex /idieresis
/eth /ntilde /ograve /oacute /ocircumflex
/otilde /odieresis /divide /oslash /ugrave
/uacute /ucircumflex /udieresis /yacute /thorn
/ydieresis
] def
%%EndResource
%FOPBeginFontReencode
/Courier-Bold findfont
dup length dict begin
  {1 index /FID ne {def} {pop pop} ifelse} forall
  /Encoding WinAnsiEncoding def
  currentdict
end
/Courier-Bold exch definefont pop
/Helvetica findfont
dup length dict begin
  {1 index /FID ne {def} {pop pop} ifelse} forall
  /Encoding WinAnsiEncoding def
  currentdict
end
/Helvetica exch definefont pop
/Courier-BoldOblique findfont
dup length dict begin
  {1 index /FID ne {def} {pop pop} ifelse} forall
  /Encoding WinAnsiEncoding def
  currentdict
end
/Courier-BoldOblique exch definefont pop
/Courier-Oblique findfont
dup length dict begin
  {1 index /FID ne {def} {pop pop} ifelse} forall
  /Encoding WinAnsiEncoding def
  currentdict
end
/Courier-Oblique exch definefont pop
/Times-Roman findfont
dup length dict begin
  {1 index /FID ne {def} {pop pop} ifelse} forall
  /Encoding WinAnsiEncoding def
  currentdict
end
/Times-Roman exch definefont pop
/Helvetica-BoldOblique findfont
dup length dict begin
  {1 index /FID ne {def} {pop pop} ifelse} forall
  /Encoding WinAnsiEncoding def
  currentdict
end
/Helvetica-BoldOblique exch definefont pop
/Helvetica-Bold findfont
dup length dict begin
  {1 index /FID ne {def} {pop pop} ifelse} forall
  /Encoding WinAnsiEncoding def
  currentdict
end
/Helvetica-Bold exch definefont pop
/Helvetica-Oblique findfont
dup length dict begin
  {1 index /FID ne {def} {pop pop} ifelse} forall
  /Encoding WinAnsiEncoding def
  currentdict
end
/Helvetica-Oblique exch definefont pop
/Times-BoldItalic findfont
dup length dict begin
  {1 index /FID ne {def} {pop pop} ifelse} forall
  /Encoding WinAnsiEncoding def
  currentdict
end
/Times-BoldItalic exch definefont pop
/Courier findfont
dup length dict begin
  {1 index /FID ne {def} {pop pop} ifelse} forall
  /Encoding WinAnsiEncoding def
  currentdict
end
/Courier exch definefont pop
/Times-Italic findfont
dup length dict begin
  {1 index /FID ne {def} {pop pop} ifelse} forall
  /Encoding WinAnsiEncoding def
  currentdict
end
/Times-Italic exch definefont pop
/Times-Bold findfont
dup length dict begin
  {1 index /FID ne {def} {pop pop} ifelse} forall
  /Encoding WinAnsiEncoding def
  currentdict
end
/Times-Bold exch definefont pop
%FOPEndFontReencode
%%EndProlog
%%Page: 1 1
%%PageBoundingBox: 0 0 1032 1040
%%BeginPageSetup
[1 0 0 -1 0 1040] CT
%%EndPageSetup
GS
1 GC
N
0 0 1032 1040 re
f
GR
GS
1 GC
N
0 0 1032 1040 re
f
GR
GS
1 GC
N
134 242 M
934 242 L
934 78 L
134 78 L
cp
f
GR
GS
0.873 GC
1 LJ
0.5 LW
N
134 242 M
134 78 L
S
GR
GS
0.873 GC
1 LJ
0.5 LW
N
248.286 242 M
248.286 78 L
S
GR
GS
0.873 GC
1 LJ
0.5 LW
N
362.571 242 M
362.571 78 L
S
GR
GS
0.873 GC
1 LJ
0.5 LW
N
476.857 242 M
476.857 78 L
S
GR
GS
0.873 GC
1 LJ
0.5 LW
N
591.143 242 M
591.143 78 L
S
GR
GS
0.873 GC
1 LJ
0.5 LW
N
705.429 242 M
705.429 78 L
S
GR
GS
0.873 GC
1 LJ
0.5 LW
N
819.714 242 M
819.714 78 L
S
GR
GS
0.873 GC
1 LJ
0.5 LW
N
934 242 M
934 78 L
S
GR
GS
0.873 GC
1 LJ
0.5 LW
N
934 242 M
134 242 L
S
GR
GS
0.873 GC
1 LJ
0.5 LW
N
934 218.571 M
134 218.571 L
S
GR
GS
0.873 GC
1 LJ
0.5 LW
N
934 195.143 M
134 195.143 L
S
GR
GS
0.873 GC
1 LJ
0.5 LW
N
934 171.714 M
134 171.714 L
S
GR
GS
0.873 GC
1 LJ
0.5 LW
N
934 148.286 M
134 148.286 L
S
GR
GS
0.873 GC
1 LJ
0.5 LW
N
934 124.857 M
134 124.857 L
S
GR
GS
0.873 GC
1 LJ
0.5 LW
N
934 101.429 M
134 101.429 L
S
GR
GS
0.873 GC
1 LJ
0.5 LW
N
934 78 M
134 78 L
S
GR
GS
0.149 GC
2 setlinecap
1 LJ
0.5 LW
N
134 242 M
934 242 L
S
GR
GS
0.149 GC
2 setlinecap
1 LJ
0.5 LW
N
134 78 M
934 78 L
S
GR
GS
0.149 GC
2 setlinecap
1 LJ
0.5 LW
N
134 242 M
134 234 L
S
GR
GS
0.149 GC
2 setlinecap
1 LJ
0.5 LW
N
248.286 242 M
248.286 234 L
S
GR
GS
0.149 GC
2 setlinecap
1 LJ
0.5 LW
N
362.571 242 M
362.571 234 L
S
GR
GS
0.149 GC
2 setlinecap
1 LJ
0.5 LW
N
476.857 242 M
476.857 234 L
S
GR
GS
0.149 GC
2 setlinecap
1 LJ
0.5 LW
N
591.143 242 M
591.143 234 L
S
GR
GS
0.149 GC
2 setlinecap
1 LJ
0.5 LW
N
705.429 242 M
705.429 234 L
S
GR
GS
0.149 GC
2 setlinecap
1 LJ
0.5 LW
N
819.714 242 M
819.714 234 L
S
GR
GS
0.149 GC
2 setlinecap
1 LJ
0.5 LW
N
934 242 M
934 234 L
S
GR
GS
0.149 GC
2 setlinecap
1 LJ
0.5 LW
N
134 78 M
134 86 L
S
GR
GS
0.149 GC
2 setlinecap
1 LJ
0.5 LW
N
248.286 78 M
248.286 86 L
S
GR
GS
0.149 GC
2 setlinecap
1 LJ
0.5 LW
N
362.571 78 M
362.571 86 L
S
GR
GS
0.149 GC
2 setlinecap
1 LJ
0.5 LW
N
476.857 78 M
476.857 86 L
S
GR
GS
0.149 GC
2 setlinecap
1 LJ
0.5 LW
N
591.143 78 M
591.143 86 L
S
GR
GS
0.149 GC
2 setlinecap
1 LJ
0.5 LW
N
705.429 78 M
705.429 86 L
S
GR
GS
0.149 GC
2 setlinecap
1 LJ
0.5 LW
N
819.714 78 M
819.714 86 L
S
GR
GS
0.149 GC
2 setlinecap
1 LJ
0.5 LW
N
934 78 M
934 86 L
S
GR
GS
[1 0 0 1 134 246] CT
0.149 GC
/Helvetica 10 F
GS
[1 0 0 1 0 0] CT
-3 8 moveto 
1 -1 scale
(0) t 
GR
GR
GS
[1 0 0 1 248.28572 246] CT
0.149 GC
/Helvetica 10 F
GS
[1 0 0 1 0 0] CT
-10 8 moveto 
1 -1 scale
(0.05) t 
GR
GR
GS
[1 0 0 1 362.57144 246] CT
0.149 GC
/Helvetica 10 F
GS
[1 0 0 1 0 0] CT
-7 8 moveto 
1 -1 scale
(0.1) t 
GR
GR
GS
[1 0 0 1 476.85715 246] CT
0.149 GC
/Helvetica 10 F
GS
[1 0 0 1 0 0] CT
-10 8 moveto 
1 -1 scale
(0.15) t 
GR
GR
GS
[1 0 0 1 591.14288 246] CT
0.149 GC
/Helvetica 10 F
GS
[1 0 0 1 0 0] CT
-7 8 moveto 
1 -1 scale
(0.2) t 
GR
GR
GS
[1 0 0 1 705.42859 246] CT
0.149 GC
/Helvetica 10 F
GS
[1 0 0 1 0 0] CT
-10 8 moveto 
1 -1 scale
(0.25) t 
GR
GR
GS
[1 0 0 1 819.71429 246] CT
0.149 GC
/Helvetica 10 F
GS
[1 0 0 1 0 0] CT
-7 8 moveto 
1 -1 scale
(0.3) t 
GR
GR
GS
[1 0 0 1 934 246] CT
0.149 GC
/Helvetica 10 F
GS
[1 0 0 1 0 0] CT
-10 8 moveto 
1 -1 scale
(0.35) t 
GR
GR
GS
[1 0 0 1 534.00037 257.5] CT
0.149 GC
/Helvetica 11 F
GS
[1 0 0 1 0 0] CT
-27 9 moveto 
1 -1 scale
(Length \(m\)) t 
GR
GR
GS
0.149 GC
2 setlinecap
1 LJ
0.5 LW
N
134 242 M
134 78 L
S
GR
GS
0.149 GC
2 setlinecap
1 LJ
0.5 LW
N
934 242 M
934 78 L
S
GR
GS
0.149 GC
2 setlinecap
1 LJ
0.5 LW
N
134 242 M
142 242 L
S
GR
GS
0.149 GC
2 setlinecap
1 LJ
0.5 LW
N
134 218.571 M
142 218.571 L
S
GR
GS
0.149 GC
2 setlinecap
1 LJ
0.5 LW
N
134 195.143 M
142 195.143 L
S
GR
GS
0.149 GC
2 setlinecap
1 LJ
0.5 LW
N
134 171.714 M
142 171.714 L
S
GR
GS
0.149 GC
2 setlinecap
1 LJ
0.5 LW
N
134 148.286 M
142 148.286 L
S
GR
GS
0.149 GC
2 setlinecap
1 LJ
0.5 LW
N
134 124.857 M
142 124.857 L
S
GR
GS
0.149 GC
2 setlinecap
1 LJ
0.5 LW
N
134 101.429 M
142 101.429 L
S
GR
GS
0.149 GC
2 setlinecap
1 LJ
0.5 LW
N
134 78 M
142 78 L
S
GR
GS
0.149 GC
2 setlinecap
1 LJ
0.5 LW
N
934 242 M
926 242 L
S
GR
GS
0.149 GC
2 setlinecap
1 LJ
0.5 LW
N
934 218.571 M
926 218.571 L
S
GR
GS
0.149 GC
2 setlinecap
1 LJ
0.5 LW
N
934 195.143 M
926 195.143 L
S
GR
GS
0.149 GC
2 setlinecap
1 LJ
0.5 LW
N
934 171.714 M
926 171.714 L
S
GR
GS
0.149 GC
2 setlinecap
1 LJ
0.5 LW
N
934 148.286 M
926 148.286 L
S
GR
GS
0.149 GC
2 setlinecap
1 LJ
0.5 LW
N
934 124.857 M
926 124.857 L
S
GR
GS
0.149 GC
2 setlinecap
1 LJ
0.5 LW
N
934 101.429 M
926 101.429 L
S
GR
GS
0.149 GC
2 setlinecap
1 LJ
0.5 LW
N
934 78 M
926 78 L
S
GR
GS
[1 0 0 1 130 242] CT
0.149 GC
/Helvetica 10 F
GS
[1 0 0 1 0 0] CT
-26 2.5 moveto 
1 -1 scale
(-2500) t 
GR
GR
GS
[1 0 0 1 130 218.57143] CT
0.149 GC
/Helvetica 10 F
GS
[1 0 0 1 0 0] CT
-26 2.5 moveto 
1 -1 scale
(-2000) t 
GR
GR
GS
[1 0 0 1 130 195.14285] CT
0.149 GC
/Helvetica 10 F
GS
[1 0 0 1 0 0] CT
-26 2.5 moveto 
1 -1 scale
(-1500) t 
GR
GR
GS
[1 0 0 1 130 171.71428] CT
0.149 GC
/Helvetica 10 F
GS
[1 0 0 1 0 0] CT
-26 2.5 moveto 
1 -1 scale
(-1000) t 
GR
GR
GS
[1 0 0 1 130 148.28572] CT
0.149 GC
/Helvetica 10 F
GS
[1 0 0 1 0 0] CT
-21 2.5 moveto 
1 -1 scale
(-500) t 
GR
GR
GS
[1 0 0 1 130 124.85714] CT
0.149 GC
/Helvetica 10 F
GS
[1 0 0 1 0 0] CT
-6 2.5 moveto 
1 -1 scale
(0) t 
GR
GR
GS
[1 0 0 1 130 101.42857] CT
0.149 GC
/Helvetica 10 F
GS
[1 0 0 1 0 0] CT
-17 2.5 moveto 
1 -1 scale
(500) t 
GR
GR
GS
[1 0 0 1 130 78] CT
0.149 GC
/Helvetica 10 F
GS
[1 0 0 1 0 0] CT
-23 2.5 moveto 
1 -1 scale
(1000) t 
GR
GR
GS
[0 -1 1 0 101 159.99992] CT
0.149 GC
/Helvetica 11 F
GS
[1 0 0 1 0 0] CT
-24 -3 moveto 
1 -1 scale
(Shear \(N\)) t 
GR
GR
GS
[1 0 0 1 534.00049 76.625] CT
/Helvetica-Bold 11 F
GS
[1 0 0 1 0 0] CT
-187 -3 moveto 
1 -1 scale
(Vertical Shear Diagram of Alternating Load: Fcf in Negative Y Direction.) t 
GR
GR
GS
0 0.447 0.741 RC
1 LJ
0.5 LW
N
134 124.857 M
136.286 152.971 L
138.572 152.971 L
140.857 152.971 L
143.143 152.971 L
145.429 152.971 L
147.715 152.971 L
150.001 152.971 L
152.286 152.971 L
154.572 152.971 L
156.858 152.971 L
159.144 152.971 L
161.429 152.971 L
163.715 152.971 L
166.001 152.971 L
168.287 152.971 L
170.573 152.971 L
172.858 152.971 L
175.144 152.971 L
177.43 152.971 L
179.716 152.971 L
182.002 152.971 L
184.287 152.971 L
186.573 152.971 L
188.859 152.971 L
191.145 219.151 L
193.43 219.151 L
195.716 219.151 L
198.002 219.151 L
200.288 219.151 L
202.574 219.151 L
204.859 219.151 L
207.145 219.151 L
209.431 219.151 L
211.717 219.151 L
214.003 219.151 L
216.288 219.151 L
218.574 219.151 L
220.86 219.151 L
223.146 219.151 L
225.431 219.151 L
227.717 219.151 L
230.003 219.151 L
232.289 219.151 L
234.575 219.151 L
236.86 219.151 L
239.146 219.151 L
241.432 219.151 L
243.718 219.151 L
246.004 219.151 L
S
GR
GS
0 0.447 0.741 RC
1 LJ
0.5 LW
N
243.718 219.151 M
246.004 219.151 L
248.289 219.151 L
250.575 219.151 L
252.861 219.151 L
255.147 219.151 L
257.432 219.151 L
259.718 219.151 L
262.004 219.151 L
264.29 219.151 L
266.576 219.151 L
268.861 219.151 L
271.147 219.151 L
273.433 219.151 L
275.719 219.151 L
278.005 219.151 L
280.29 219.151 L
282.576 219.151 L
284.862 219.151 L
287.148 219.151 L
289.434 219.151 L
291.719 219.151 L
294.005 219.151 L
296.291 219.151 L
298.577 219.151 L
300.862 219.151 L
303.148 219.151 L
305.434 219.151 L
307.72 219.151 L
310.006 219.151 L
312.291 219.151 L
314.577 219.151 L
316.863 219.151 L
319.149 219.151 L
321.435 219.151 L
323.72 219.151 L
326.006 219.151 L
328.292 219.151 L
330.578 219.151 L
332.863 219.151 L
335.149 219.151 L
337.435 219.151 L
339.721 219.151 L
342.007 219.151 L
344.292 219.151 L
346.578 219.151 L
348.864 219.151 L
351.15 219.151 L
353.436 219.151 L
355.721 219.151 L
358.007 219.151 L
360.293 219.151 L
S
GR
GS
0 0.447 0.741 RC
1 LJ
0.5 LW
N
358.007 219.151 M
360.293 219.151 L
362.579 219.151 L
364.864 219.151 L
367.15 219.151 L
369.436 219.151 L
371.722 219.151 L
374.008 219.151 L
376.293 219.151 L
378.579 219.151 L
380.865 219.151 L
383.151 219.151 L
385.437 219.151 L
387.722 219.151 L
390.008 219.151 L
392.294 219.151 L
394.58 219.151 L
396.865 78.911 L
399.151 78.911 L
401.437 78.911 L
403.723 78.911 L
406.009 78.911 L
408.294 78.911 L
410.58 78.911 L
412.866 78.911 L
415.152 78.911 L
417.438 78.911 L
419.723 78.911 L
422.009 78.911 L
424.295 78.911 L
426.581 78.911 L
428.866 78.911 L
431.152 78.911 L
433.438 78.911 L
435.724 78.911 L
438.01 78.911 L
440.295 78.911 L
442.581 78.911 L
444.867 78.911 L
447.153 78.911 L
449.439 78.911 L
451.724 78.911 L
454.01 78.911 L
456.296 78.911 L
458.582 78.911 L
460.868 78.911 L
463.153 78.911 L
465.439 78.911 L
467.725 78.911 L
470.011 78.911 L
472.296 78.911 L
474.582 78.911 L
S
GR
GS
0 0.447 0.741 RC
1 LJ
0.5 LW
N
472.296 78.911 M
474.582 78.911 L
476.868 78.911 L
479.154 78.911 L
481.44 78.911 L
483.725 78.911 L
486.011 78.911 L
488.297 78.911 L
490.583 78.911 L
492.869 78.911 L
495.154 78.911 L
497.44 78.911 L
499.726 78.911 L
502.012 78.911 L
504.297 78.911 L
506.583 78.911 L
508.869 78.911 L
511.155 78.911 L
513.441 78.911 L
515.726 78.911 L
518.012 78.911 L
520.298 78.911 L
522.584 78.911 L
524.87 78.911 L
527.155 78.911 L
529.441 78.911 L
531.727 78.911 L
534.013 78.911 L
536.298 78.911 L
538.584 78.911 L
540.87 78.911 L
543.156 78.911 L
545.442 78.911 L
547.727 78.911 L
550.013 78.911 L
552.299 78.911 L
554.585 78.911 L
556.871 78.911 L
559.156 78.911 L
561.442 78.911 L
563.728 78.911 L
566.014 78.911 L
568.299 78.911 L
570.585 78.911 L
572.871 78.911 L
575.157 78.911 L
577.443 78.911 L
579.728 78.911 L
582.014 78.911 L
584.3 78.911 L
586.586 78.911 L
588.872 78.911 L
S
GR
GS
0 0.447 0.741 RC
1 LJ
0.5 LW
N
586.586 78.911 M
588.872 78.911 L
591.157 78.911 L
593.443 78.911 L
595.729 78.911 L
598.015 78.911 L
600.301 78.911 L
602.586 78.911 L
604.872 78.911 L
607.158 78.911 L
609.444 78.911 L
611.729 78.911 L
614.015 78.911 L
616.301 78.911 L
618.587 78.911 L
620.873 78.911 L
623.158 78.911 L
625.444 78.911 L
627.73 78.911 L
630.016 78.911 L
632.302 78.911 L
634.587 78.911 L
636.873 78.911 L
639.159 78.911 L
641.445 78.911 L
643.73 78.911 L
646.016 78.911 L
648.302 78.911 L
650.588 78.911 L
652.874 78.911 L
655.159 78.911 L
657.445 78.911 L
659.731 78.911 L
662.017 78.911 L
664.303 78.911 L
666.588 78.911 L
668.874 78.911 L
671.16 78.911 L
673.446 78.911 L
675.732 78.911 L
678.017 78.911 L
680.303 78.911 L
682.589 78.911 L
684.875 78.911 L
687.16 78.911 L
689.446 78.911 L
691.732 78.911 L
694.018 78.911 L
696.304 78.911 L
698.589 78.911 L
700.875 78.911 L
703.161 78.911 L
S
GR
GS
0 0.447 0.741 RC
1 LJ
0.5 LW
N
700.875 78.911 M
703.161 78.911 L
705.447 78.911 L
707.732 78.911 L
710.018 78.911 L
712.304 78.911 L
714.59 78.911 L
716.876 78.911 L
719.161 78.911 L
721.447 78.911 L
723.733 78.911 L
726.019 78.911 L
728.305 78.911 L
730.59 78.911 L
732.876 78.911 L
735.162 78.911 L
737.448 78.911 L
739.734 78.911 L
742.019 78.911 L
744.305 78.911 L
746.591 78.911 L
748.877 78.911 L
751.162 78.911 L
753.448 78.911 L
755.734 78.911 L
758.02 78.911 L
760.306 78.911 L
762.591 78.911 L
764.877 78.911 L
767.163 78.911 L
769.449 78.911 L
771.735 78.911 L
774.02 78.911 L
776.306 78.911 L
778.592 78.911 L
780.878 78.911 L
783.163 78.911 L
785.449 78.911 L
787.735 78.911 L
790.021 78.911 L
792.307 78.911 L
794.592 78.911 L
796.878 78.911 L
799.164 78.911 L
801.45 78.911 L
803.736 78.911 L
806.021 78.911 L
808.307 78.911 L
810.593 78.911 L
812.879 78.911 L
815.164 78.911 L
817.45 78.911 L
S
GR
GS
0 0.447 0.741 RC
1 LJ
0.5 LW
N
815.164 78.911 M
817.45 78.911 L
819.736 78.911 L
822.022 78.911 L
824.308 78.911 L
826.593 78.911 L
828.879 78.911 L
831.165 78.911 L
833.451 78.911 L
835.737 78.911 L
838.022 78.911 L
840.308 78.911 L
842.594 78.911 L
844.88 78.911 L
847.165 78.911 L
849.451 78.911 L
851.737 78.911 L
854.023 124.857 L
S
GR
GS
1 GC
N
134 470 M
934 470 L
934 306 L
134 306 L
cp
f
GR
GS
0.873 GC
1 LJ
0.5 LW
N
134 470 M
134 306 L
S
GR
GS
0.873 GC
1 LJ
0.5 LW
N
248.286 470 M
248.286 306 L
S
GR
GS
0.873 GC
1 LJ
0.5 LW
N
362.571 470 M
362.571 306 L
S
GR
GS
0.873 GC
1 LJ
0.5 LW
N
476.857 470 M
476.857 306 L
S
GR
GS
0.873 GC
1 LJ
0.5 LW
N
591.143 470 M
591.143 306 L
S
GR
GS
0.873 GC
1 LJ
0.5 LW
N
705.429 470 M
705.429 306 L
S
GR
GS
0.873 GC
1 LJ
0.5 LW
N
819.714 470 M
819.714 306 L
S
GR
GS
0.873 GC
1 LJ
0.5 LW
N
934 470 M
934 306 L
S
GR
GS
0.873 GC
1 LJ
0.5 LW
N
934 470 M
134 470 L
S
GR
GS
0.873 GC
1 LJ
0.5 LW
N
934 437.2 M
134 437.2 L
S
GR
GS
0.873 GC
1 LJ
0.5 LW
N
934 404.4 M
134 404.4 L
S
GR
GS
0.873 GC
1 LJ
0.5 LW
N
934 371.6 M
134 371.6 L
S
GR
GS
0.873 GC
1 LJ
0.5 LW
N
934 338.8 M
134 338.8 L
S
GR
GS
0.873 GC
1 LJ
0.5 LW
N
934 306 M
134 306 L
S
GR
GS
0.149 GC
2 setlinecap
1 LJ
0.5 LW
N
134 470 M
934 470 L
S
GR
GS
0.149 GC
2 setlinecap
1 LJ
0.5 LW
N
134 306 M
934 306 L
S
GR
GS
0.149 GC
2 setlinecap
1 LJ
0.5 LW
N
134 470 M
134 462 L
S
GR
GS
0.149 GC
2 setlinecap
1 LJ
0.5 LW
N
248.286 470 M
248.286 462 L
S
GR
GS
0.149 GC
2 setlinecap
1 LJ
0.5 LW
N
362.571 470 M
362.571 462 L
S
GR
GS
0.149 GC
2 setlinecap
1 LJ
0.5 LW
N
476.857 470 M
476.857 462 L
S
GR
GS
0.149 GC
2 setlinecap
1 LJ
0.5 LW
N
591.143 470 M
591.143 462 L
S
GR
GS
0.149 GC
2 setlinecap
1 LJ
0.5 LW
N
705.429 470 M
705.429 462 L
S
GR
GS
0.149 GC
2 setlinecap
1 LJ
0.5 LW
N
819.714 470 M
819.714 462 L
S
GR
GS
0.149 GC
2 setlinecap
1 LJ
0.5 LW
N
934 470 M
934 462 L
S
GR
GS
0.149 GC
2 setlinecap
1 LJ
0.5 LW
N
134 306 M
134 314 L
S
GR
GS
0.149 GC
2 setlinecap
1 LJ
0.5 LW
N
248.286 306 M
248.286 314 L
S
GR
GS
0.149 GC
2 setlinecap
1 LJ
0.5 LW
N
362.571 306 M
362.571 314 L
S
GR
GS
0.149 GC
2 setlinecap
1 LJ
0.5 LW
N
476.857 306 M
476.857 314 L
S
GR
GS
0.149 GC
2 setlinecap
1 LJ
0.5 LW
N
591.143 306 M
591.143 314 L
S
GR
GS
0.149 GC
2 setlinecap
1 LJ
0.5 LW
N
705.429 306 M
705.429 314 L
S
GR
GS
0.149 GC
2 setlinecap
1 LJ
0.5 LW
N
819.714 306 M
819.714 314 L
S
GR
GS
0.149 GC
2 setlinecap
1 LJ
0.5 LW
N
934 306 M
934 314 L
S
GR
GS
[1 0 0 1 134 474] CT
0.149 GC
/Helvetica 10 F
GS
[1 0 0 1 0 0] CT
-3 8 moveto 
1 -1 scale
(0) t 
GR
GR
GS
[1 0 0 1 248.28572 474] CT
0.149 GC
/Helvetica 10 F
GS
[1 0 0 1 0 0] CT
-10 8 moveto 
1 -1 scale
(0.05) t 
GR
GR
GS
[1 0 0 1 362.57144 474] CT
0.149 GC
/Helvetica 10 F
GS
[1 0 0 1 0 0] CT
-7 8 moveto 
1 -1 scale
(0.1) t 
GR
GR
GS
[1 0 0 1 476.85715 474] CT
0.149 GC
/Helvetica 10 F
GS
[1 0 0 1 0 0] CT
-10 8 moveto 
1 -1 scale
(0.15) t 
GR
GR
GS
[1 0 0 1 591.14288 474] CT
0.149 GC
/Helvetica 10 F
GS
[1 0 0 1 0 0] CT
-7 8 moveto 
1 -1 scale
(0.2) t 
GR
GR
GS
[1 0 0 1 705.42859 474] CT
0.149 GC
/Helvetica 10 F
GS
[1 0 0 1 0 0] CT
-10 8 moveto 
1 -1 scale
(0.25) t 
GR
GR
GS
[1 0 0 1 819.71429 474] CT
0.149 GC
/Helvetica 10 F
GS
[1 0 0 1 0 0] CT
-7 8 moveto 
1 -1 scale
(0.3) t 
GR
GR
GS
[1 0 0 1 934 474] CT
0.149 GC
/Helvetica 10 F
GS
[1 0 0 1 0 0] CT
-10 8 moveto 
1 -1 scale
(0.35) t 
GR
GR
GS
[1 0 0 1 534.00037 485.5] CT
0.149 GC
/Helvetica 11 F
GS
[1 0 0 1 0 0] CT
-27 9 moveto 
1 -1 scale
(Length \(m\)) t 
GR
GR
GS
0.149 GC
2 setlinecap
1 LJ
0.5 LW
N
134 470 M
134 306 L
S
GR
GS
0.149 GC
2 setlinecap
1 LJ
0.5 LW
N
934 470 M
934 306 L
S
GR
GS
0.149 GC
2 setlinecap
1 LJ
0.5 LW
N
134 470 M
142 470 L
S
GR
GS
0.149 GC
2 setlinecap
1 LJ
0.5 LW
N
134 437.2 M
142 437.2 L
S
GR
GS
0.149 GC
2 setlinecap
1 LJ
0.5 LW
N
134 404.4 M
142 404.4 L
S
GR
GS
0.149 GC
2 setlinecap
1 LJ
0.5 LW
N
134 371.6 M
142 371.6 L
S
GR
GS
0.149 GC
2 setlinecap
1 LJ
0.5 LW
N
134 338.8 M
142 338.8 L
S
GR
GS
0.149 GC
2 setlinecap
1 LJ
0.5 LW
N
134 306 M
142 306 L
S
GR
GS
0.149 GC
2 setlinecap
1 LJ
0.5 LW
N
934 470 M
926 470 L
S
GR
GS
0.149 GC
2 setlinecap
1 LJ
0.5 LW
N
934 437.2 M
926 437.2 L
S
GR
GS
0.149 GC
2 setlinecap
1 LJ
0.5 LW
N
934 404.4 M
926 404.4 L
S
GR
GS
0.149 GC
2 setlinecap
1 LJ
0.5 LW
N
934 371.6 M
926 371.6 L
S
GR
GS
0.149 GC
2 setlinecap
1 LJ
0.5 LW
N
934 338.8 M
926 338.8 L
S
GR
GS
0.149 GC
2 setlinecap
1 LJ
0.5 LW
N
934 306 M
926 306 L
S
GR
GS
[1 0 0 1 130 470] CT
0.149 GC
/Helvetica 10 F
GS
[1 0 0 1 0 0] CT
-21 2.5 moveto 
1 -1 scale
(-200) t 
GR
GR
GS
[1 0 0 1 130 437.20001] CT
0.149 GC
/Helvetica 10 F
GS
[1 0 0 1 0 0] CT
-21 2.5 moveto 
1 -1 scale
(-150) t 
GR
GR
GS
[1 0 0 1 130 404.39999] CT
0.149 GC
/Helvetica 10 F
GS
[1 0 0 1 0 0] CT
-21 2.5 moveto 
1 -1 scale
(-100) t 
GR
GR
GS
[1 0 0 1 130 371.60001] CT
0.149 GC
/Helvetica 10 F
GS
[1 0 0 1 0 0] CT
-15 2.5 moveto 
1 -1 scale
(-50) t 
GR
GR
GS
[1 0 0 1 130 338.79999] CT
0.149 GC
/Helvetica 10 F
GS
[1 0 0 1 0 0] CT
-6 2.5 moveto 
1 -1 scale
(0) t 
GR
GR
GS
[1 0 0 1 130 306] CT
0.149 GC
/Helvetica 10 F
GS
[1 0 0 1 0 0] CT
-12 2.5 moveto 
1 -1 scale
(50) t 
GR
GR
GS
[0 -1 1 0 106.5 387.99991] CT
0.149 GC
/Helvetica 11 F
GS
[1 0 0 1 0 0] CT
-34 -3 moveto 
1 -1 scale
(Moment \(Nm\)) t 
GR
GR
GS
[1 0 0 1 534.00049 304.625] CT
/Helvetica-Bold 11 F
GS
[1 0 0 1 0 0] CT
-193 -3 moveto 
1 -1 scale
(Vertical Moment Diagram of Alternating Load: Fcf in Negative Y Direction.) t 
GR
GR
GS
0 0.447 0.741 RC
1 LJ
0.5 LW
N
134 338.8 M
136.286 339.194 L
138.572 339.587 L
140.857 339.981 L
143.143 340.374 L
145.429 340.768 L
147.715 341.162 L
150.001 341.555 L
152.286 341.949 L
154.572 342.342 L
156.858 342.736 L
159.144 343.13 L
161.429 343.523 L
163.715 343.917 L
166.001 344.311 L
168.287 344.704 L
170.573 345.098 L
172.858 345.491 L
175.144 345.885 L
177.43 346.279 L
179.716 346.672 L
182.002 347.066 L
184.287 347.459 L
186.573 347.853 L
188.859 348.247 L
191.145 348.641 L
193.43 349.961 L
195.716 351.281 L
198.002 352.602 L
200.288 353.922 L
202.574 355.242 L
204.859 356.562 L
207.145 357.882 L
209.431 359.202 L
211.717 360.522 L
214.003 361.843 L
216.288 363.163 L
218.574 364.483 L
220.86 365.803 L
223.146 367.123 L
225.431 368.443 L
227.717 369.764 L
230.003 371.084 L
232.289 372.404 L
234.575 373.724 L
236.86 375.044 L
239.146 376.364 L
241.432 377.684 L
243.718 379.005 L
246.004 380.325 L
S
GR
GS
0 0.447 0.741 RC
1 LJ
0.5 LW
N
243.718 379.005 M
246.004 380.325 L
248.289 381.645 L
250.575 382.965 L
252.861 384.285 L
255.147 385.605 L
257.432 386.926 L
259.718 388.246 L
262.004 389.566 L
264.29 390.886 L
266.576 392.206 L
268.861 393.526 L
271.147 394.846 L
273.433 396.167 L
275.719 397.487 L
278.005 398.807 L
280.29 400.127 L
282.576 401.447 L
284.862 402.767 L
287.148 404.088 L
289.434 405.408 L
291.719 406.728 L
294.005 408.048 L
296.291 409.368 L
298.577 410.688 L
300.862 412.008 L
303.148 413.329 L
305.434 414.649 L
307.72 415.969 L
310.006 417.289 L
312.291 418.609 L
314.577 419.929 L
316.863 421.25 L
319.149 422.57 L
321.435 423.89 L
323.72 425.21 L
326.006 426.53 L
328.292 427.85 L
330.578 429.171 L
332.863 430.491 L
335.149 431.811 L
337.435 433.131 L
339.721 434.451 L
342.007 435.771 L
344.292 437.091 L
346.578 438.412 L
348.864 439.732 L
351.15 441.052 L
353.436 442.372 L
355.721 443.692 L
358.007 445.012 L
360.293 446.333 L
S
GR
GS
0 0.447 0.741 RC
1 LJ
0.5 LW
N
358.007 445.012 M
360.293 446.333 L
362.579 447.653 L
364.864 448.973 L
367.15 450.293 L
369.436 451.613 L
371.722 452.933 L
374.008 454.253 L
376.293 455.574 L
378.579 456.894 L
380.865 458.214 L
383.151 459.534 L
385.437 460.854 L
387.722 462.174 L
390.008 463.495 L
392.294 464.815 L
394.58 466.135 L
396.865 467.448 L
399.151 466.805 L
401.437 466.161 L
403.723 465.518 L
406.009 464.875 L
408.294 464.231 L
410.58 463.588 L
412.866 462.945 L
415.152 462.302 L
417.438 461.658 L
419.723 461.015 L
422.009 460.372 L
424.295 459.729 L
426.581 459.085 L
428.866 458.442 L
431.152 457.799 L
433.438 457.155 L
435.724 456.512 L
438.01 455.869 L
440.295 455.226 L
442.581 454.582 L
444.867 453.939 L
447.153 453.296 L
449.439 452.653 L
451.724 452.009 L
454.01 451.366 L
456.296 450.723 L
458.582 450.079 L
460.868 449.436 L
463.153 448.793 L
465.439 448.15 L
467.725 447.506 L
470.011 446.863 L
472.296 446.22 L
474.582 445.577 L
S
GR
GS
0 0.447 0.741 RC
1 LJ
0.5 LW
N
472.296 446.22 M
474.582 445.577 L
476.868 444.933 L
479.154 444.29 L
481.44 443.647 L
483.725 443.004 L
486.011 442.36 L
488.297 441.717 L
490.583 441.074 L
492.869 440.43 L
495.154 439.787 L
497.44 439.144 L
499.726 438.501 L
502.012 437.857 L
504.297 437.214 L
506.583 436.571 L
508.869 435.928 L
511.155 435.284 L
513.441 434.641 L
515.726 433.998 L
518.012 433.354 L
520.298 432.711 L
522.584 432.068 L
524.87 431.425 L
527.155 430.781 L
529.441 430.138 L
531.727 429.495 L
534.013 428.852 L
536.298 428.208 L
538.584 427.565 L
540.87 426.922 L
543.156 426.278 L
545.442 425.635 L
547.727 424.992 L
550.013 424.349 L
552.299 423.705 L
554.585 423.062 L
556.871 422.419 L
559.156 421.776 L
561.442 421.132 L
563.728 420.489 L
566.014 419.846 L
568.299 419.202 L
570.585 418.559 L
572.871 417.916 L
575.157 417.273 L
577.443 416.629 L
579.728 415.986 L
582.014 415.343 L
584.3 414.7 L
586.586 414.056 L
588.872 413.413 L
S
GR
GS
0 0.447 0.741 RC
1 LJ
0.5 LW
N
586.586 414.056 M
588.872 413.413 L
591.157 412.77 L
593.443 412.126 L
595.729 411.483 L
598.015 410.84 L
600.301 410.197 L
602.586 409.553 L
604.872 408.91 L
607.158 408.267 L
609.444 407.624 L
611.729 406.98 L
614.015 406.337 L
616.301 405.694 L
618.587 405.051 L
620.873 404.407 L
623.158 403.764 L
625.444 403.121 L
627.73 402.477 L
630.016 401.834 L
632.302 401.191 L
634.587 400.548 L
636.873 399.904 L
639.159 399.261 L
641.445 398.618 L
643.73 397.975 L
646.016 397.331 L
648.302 396.688 L
650.588 396.045 L
652.874 395.401 L
655.159 394.758 L
657.445 394.115 L
659.731 393.472 L
662.017 392.828 L
664.303 392.185 L
666.588 391.542 L
668.874 390.899 L
671.16 390.255 L
673.446 389.612 L
675.732 388.969 L
678.017 388.325 L
680.303 387.682 L
682.589 387.039 L
684.875 386.396 L
687.16 385.752 L
689.446 385.109 L
691.732 384.466 L
694.018 383.823 L
696.304 383.179 L
698.589 382.536 L
700.875 381.893 L
703.161 381.249 L
S
GR
GS
0 0.447 0.741 RC
1 LJ
0.5 LW
N
700.875 381.893 M
703.161 381.249 L
705.447 380.606 L
707.732 379.963 L
710.018 379.32 L
712.304 378.676 L
714.59 378.033 L
716.876 377.39 L
719.161 376.747 L
721.447 376.103 L
723.733 375.46 L
726.019 374.817 L
728.305 374.173 L
730.59 373.53 L
732.876 372.887 L
735.162 372.244 L
737.448 371.6 L
739.734 370.957 L
742.019 370.314 L
744.305 369.671 L
746.591 369.027 L
748.877 368.384 L
751.162 367.741 L
753.448 367.098 L
755.734 366.454 L
758.02 365.811 L
760.306 365.168 L
762.591 364.524 L
764.877 363.881 L
767.163 363.238 L
769.449 362.595 L
771.735 361.951 L
774.02 361.308 L
776.306 360.665 L
778.592 360.022 L
780.878 359.378 L
783.163 358.735 L
785.449 358.092 L
787.735 357.448 L
790.021 356.805 L
792.307 356.162 L
794.592 355.519 L
796.878 354.875 L
799.164 354.232 L
801.45 353.589 L
803.736 352.946 L
806.021 352.302 L
808.307 351.659 L
810.593 351.016 L
812.879 350.372 L
815.164 349.729 L
817.45 349.086 L
S
GR
GS
0 0.447 0.741 RC
1 LJ
0.5 LW
N
815.164 349.729 M
817.45 349.086 L
819.736 348.443 L
822.022 347.799 L
824.308 347.156 L
826.593 346.513 L
828.879 345.87 L
831.165 345.226 L
833.451 344.583 L
835.737 343.94 L
838.022 343.296 L
840.308 342.653 L
842.594 342.01 L
844.88 341.367 L
847.165 340.723 L
849.451 340.08 L
851.737 339.437 L
854.023 338.8 L
S
GR
GS
1 GC
N
134 698 M
934 698 L
934 533.5 L
134 533.5 L
cp
f
GR
GS
0.873 GC
1 LJ
0.5 LW
N
134 698 M
134 533.5 L
S
GR
GS
0.873 GC
1 LJ
0.5 LW
N
248.286 698 M
248.286 533.5 L
S
GR
GS
0.873 GC
1 LJ
0.5 LW
N
362.571 698 M
362.571 533.5 L
S
GR
GS
0.873 GC
1 LJ
0.5 LW
N
476.857 698 M
476.857 533.5 L
S
GR
GS
0.873 GC
1 LJ
0.5 LW
N
591.143 698 M
591.143 533.5 L
S
GR
GS
0.873 GC
1 LJ
0.5 LW
N
705.429 698 M
705.429 533.5 L
S
GR
GS
0.873 GC
1 LJ
0.5 LW
N
819.714 698 M
819.714 533.5 L
S
GR
GS
0.873 GC
1 LJ
0.5 LW
N
934 698 M
934 533.5 L
S
GR
GS
0.873 GC
1 LJ
0.5 LW
N
934 698 M
134 698 L
S
GR
GS
0.873 GC
1 LJ
0.5 LW
N
934 674.5 M
134 674.5 L
S
GR
GS
0.873 GC
1 LJ
0.5 LW
N
934 651 M
134 651 L
S
GR
GS
0.873 GC
1 LJ
0.5 LW
N
934 627.5 M
134 627.5 L
S
GR
GS
0.873 GC
1 LJ
0.5 LW
N
934 604 M
134 604 L
S
GR
GS
0.873 GC
1 LJ
0.5 LW
N
934 580.5 M
134 580.5 L
S
GR
GS
0.873 GC
1 LJ
0.5 LW
N
934 557 M
134 557 L
S
GR
GS
0.873 GC
1 LJ
0.5 LW
N
934 533.5 M
134 533.5 L
S
GR
GS
0.149 GC
2 setlinecap
1 LJ
0.5 LW
N
134 698 M
934 698 L
S
GR
GS
0.149 GC
2 setlinecap
1 LJ
0.5 LW
N
134 533.5 M
934 533.5 L
S
GR
GS
0.149 GC
2 setlinecap
1 LJ
0.5 LW
N
134 698 M
134 690 L
S
GR
GS
0.149 GC
2 setlinecap
1 LJ
0.5 LW
N
248.286 698 M
248.286 690 L
S
GR
GS
0.149 GC
2 setlinecap
1 LJ
0.5 LW
N
362.571 698 M
362.571 690 L
S
GR
GS
0.149 GC
2 setlinecap
1 LJ
0.5 LW
N
476.857 698 M
476.857 690 L
S
GR
GS
0.149 GC
2 setlinecap
1 LJ
0.5 LW
N
591.143 698 M
591.143 690 L
S
GR
GS
0.149 GC
2 setlinecap
1 LJ
0.5 LW
N
705.429 698 M
705.429 690 L
S
GR
GS
0.149 GC
2 setlinecap
1 LJ
0.5 LW
N
819.714 698 M
819.714 690 L
S
GR
GS
0.149 GC
2 setlinecap
1 LJ
0.5 LW
N
934 698 M
934 690 L
S
GR
GS
0.149 GC
2 setlinecap
1 LJ
0.5 LW
N
134 533.5 M
134 541.5 L
S
GR
GS
0.149 GC
2 setlinecap
1 LJ
0.5 LW
N
248.286 533.5 M
248.286 541.5 L
S
GR
GS
0.149 GC
2 setlinecap
1 LJ
0.5 LW
N
362.571 533.5 M
362.571 541.5 L
S
GR
GS
0.149 GC
2 setlinecap
1 LJ
0.5 LW
N
476.857 533.5 M
476.857 541.5 L
S
GR
GS
0.149 GC
2 setlinecap
1 LJ
0.5 LW
N
591.143 533.5 M
591.143 541.5 L
S
GR
GS
0.149 GC
2 setlinecap
1 LJ
0.5 LW
N
705.429 533.5 M
705.429 541.5 L
S
GR
GS
0.149 GC
2 setlinecap
1 LJ
0.5 LW
N
819.714 533.5 M
819.714 541.5 L
S
GR
GS
0.149 GC
2 setlinecap
1 LJ
0.5 LW
N
934 533.5 M
934 541.5 L
S
GR
GS
[1 0 0 1 134 702] CT
0.149 GC
/Helvetica 10 F
GS
[1 0 0 1 0 0] CT
-3 8 moveto 
1 -1 scale
(0) t 
GR
GR
GS
[1 0 0 1 248.28572 702] CT
0.149 GC
/Helvetica 10 F
GS
[1 0 0 1 0 0] CT
-10 8 moveto 
1 -1 scale
(0.05) t 
GR
GR
GS
[1 0 0 1 362.57144 702] CT
0.149 GC
/Helvetica 10 F
GS
[1 0 0 1 0 0] CT
-7 8 moveto 
1 -1 scale
(0.1) t 
GR
GR
GS
[1 0 0 1 476.85715 702] CT
0.149 GC
/Helvetica 10 F
GS
[1 0 0 1 0 0] CT
-10 8 moveto 
1 -1 scale
(0.15) t 
GR
GR
GS
[1 0 0 1 591.14288 702] CT
0.149 GC
/Helvetica 10 F
GS
[1 0 0 1 0 0] CT
-7 8 moveto 
1 -1 scale
(0.2) t 
GR
GR
GS
[1 0 0 1 705.42859 702] CT
0.149 GC
/Helvetica 10 F
GS
[1 0 0 1 0 0] CT
-10 8 moveto 
1 -1 scale
(0.25) t 
GR
GR
GS
[1 0 0 1 819.71429 702] CT
0.149 GC
/Helvetica 10 F
GS
[1 0 0 1 0 0] CT
-7 8 moveto 
1 -1 scale
(0.3) t 
GR
GR
GS
[1 0 0 1 934 702] CT
0.149 GC
/Helvetica 10 F
GS
[1 0 0 1 0 0] CT
-10 8 moveto 
1 -1 scale
(0.35) t 
GR
GR
GS
[1 0 0 1 534.00037 713.5] CT
0.149 GC
/Helvetica 11 F
GS
[1 0 0 1 0 0] CT
-27 9 moveto 
1 -1 scale
(Length \(m\)) t 
GR
GR
GS
0.149 GC
2 setlinecap
1 LJ
0.5 LW
N
134 698 M
134 533.5 L
S
GR
GS
0.149 GC
2 setlinecap
1 LJ
0.5 LW
N
934 698 M
934 533.5 L
S
GR
GS
0.149 GC
2 setlinecap
1 LJ
0.5 LW
N
134 698 M
142 698 L
S
GR
GS
0.149 GC
2 setlinecap
1 LJ
0.5 LW
N
134 674.5 M
142 674.5 L
S
GR
GS
0.149 GC
2 setlinecap
1 LJ
0.5 LW
N
134 651 M
142 651 L
S
GR
GS
0.149 GC
2 setlinecap
1 LJ
0.5 LW
N
134 627.5 M
142 627.5 L
S
GR
GS
0.149 GC
2 setlinecap
1 LJ
0.5 LW
N
134 604 M
142 604 L
S
GR
GS
0.149 GC
2 setlinecap
1 LJ
0.5 LW
N
134 580.5 M
142 580.5 L
S
GR
GS
0.149 GC
2 setlinecap
1 LJ
0.5 LW
N
134 557 M
142 557 L
S
GR
GS
0.149 GC
2 setlinecap
1 LJ
0.5 LW
N
134 533.5 M
142 533.5 L
S
GR
GS
0.149 GC
2 setlinecap
1 LJ
0.5 LW
N
934 698 M
926 698 L
S
GR
GS
0.149 GC
2 setlinecap
1 LJ
0.5 LW
N
934 674.5 M
926 674.5 L
S
GR
GS
0.149 GC
2 setlinecap
1 LJ
0.5 LW
N
934 651 M
926 651 L
S
GR
GS
0.149 GC
2 setlinecap
1 LJ
0.5 LW
N
934 627.5 M
926 627.5 L
S
GR
GS
0.149 GC
2 setlinecap
1 LJ
0.5 LW
N
934 604 M
926 604 L
S
GR
GS
0.149 GC
2 setlinecap
1 LJ
0.5 LW
N
934 580.5 M
926 580.5 L
S
GR
GS
0.149 GC
2 setlinecap
1 LJ
0.5 LW
N
934 557 M
926 557 L
S
GR
GS
0.149 GC
2 setlinecap
1 LJ
0.5 LW
N
934 533.5 M
926 533.5 L
S
GR
GS
[1 0 0 1 130 698] CT
0.149 GC
/Helvetica 10 F
GS
[1 0 0 1 0 0] CT
-15 2.5 moveto 
1 -1 scale
(-30) t 
GR
GR
GS
[1 0 0 1 130 674.5] CT
0.149 GC
/Helvetica 10 F
GS
[1 0 0 1 0 0] CT
-15 2.5 moveto 
1 -1 scale
(-25) t 
GR
GR
GS
[1 0 0 1 130 651] CT
0.149 GC
/Helvetica 10 F
GS
[1 0 0 1 0 0] CT
-15 2.5 moveto 
1 -1 scale
(-20) t 
GR
GR
GS
[1 0 0 1 130 627.5] CT
0.149 GC
/Helvetica 10 F
GS
[1 0 0 1 0 0] CT
-15 2.5 moveto 
1 -1 scale
(-15) t 
GR
GR
GS
[1 0 0 1 130 604] CT
0.149 GC
/Helvetica 10 F
GS
[1 0 0 1 0 0] CT
-15 2.5 moveto 
1 -1 scale
(-10) t 
GR
GR
GS
[1 0 0 1 130 580.5] CT
0.149 GC
/Helvetica 10 F
GS
[1 0 0 1 0 0] CT
-9 2.5 moveto 
1 -1 scale
(-5) t 
GR
GR
GS
[1 0 0 1 130 557] CT
0.149 GC
/Helvetica 10 F
GS
[1 0 0 1 0 0] CT
-6 2.5 moveto 
1 -1 scale
(0) t 
GR
GR
GS
[1 0 0 1 130 533.5] CT
0.149 GC
/Helvetica 10 F
GS
[1 0 0 1 0 0] CT
-6 2.5 moveto 
1 -1 scale
(5) t 
GR
GR
GS
[0 -1 1 0 110 654] CT
0.149 GC
/Helvetica 11 F
GS
[1 0 0 1 0 0] CT
0 0 moveto 
1 -1 scale
(EI*Theta \(Nm) t 
GR
GR
GS
[0 -1 1 0 105 587] CT
0.149 GC
/Helvetica 8 F
GS
[1 0 0 1 0 0] CT
0 0 moveto 
1 -1 scale
(2) t 
GR
GR
GS
[0 -1 1 0 110 582] CT
0.149 GC
/Helvetica 11 F
GS
[1 0 0 1 0 0] CT
0 0 moveto 
1 -1 scale
(\)) t 
GR
GR
GS
[1 0 0 1 534.00049 532.125] CT
/Helvetica-Bold 11 F
GS
[1 0 0 1 0 0] CT
-224.5 -3 moveto 
1 -1 scale
(Vertical Angular Deflection \(EI*Theta\) of Alternating Load: Fcf in Negative Y Direction.) t 
GR
GR
GS
0 0.447 0.741 RC
1 LJ
0.5 LW
N
134 540.176 M
136.286 540.178 L
138.572 540.182 L
140.857 540.189 L
143.143 540.199 L
145.429 540.212 L
147.715 540.227 L
150.001 540.246 L
152.286 540.267 L
154.572 540.291 L
156.858 540.318 L
159.144 540.347 L
161.429 540.38 L
163.715 540.415 L
166.001 540.453 L
168.287 540.494 L
170.573 540.537 L
172.858 540.584 L
175.144 540.633 L
177.43 540.685 L
179.716 540.741 L
182.002 540.798 L
184.287 540.859 L
186.573 540.922 L
188.859 540.989 L
191.145 541.058 L
193.43 541.133 L
195.716 541.218 L
198.002 541.312 L
200.288 541.415 L
202.574 541.529 L
204.859 541.651 L
207.145 541.783 L
209.431 541.925 L
211.717 542.075 L
214.003 542.236 L
216.288 542.406 L
218.574 542.585 L
220.86 542.774 L
223.146 542.972 L
225.431 543.18 L
227.717 543.397 L
230.003 543.623 L
232.289 543.859 L
234.575 544.105 L
236.86 544.36 L
239.146 544.624 L
241.432 544.898 L
243.718 545.181 L
246.004 545.474 L
S
GR
GS
0 0.447 0.741 RC
1 LJ
0.5 LW
N
243.718 545.181 M
246.004 545.474 L
248.289 545.776 L
250.575 546.088 L
252.861 546.409 L
255.147 546.74 L
257.432 547.08 L
259.718 547.43 L
262.004 547.789 L
264.29 548.157 L
266.576 548.535 L
268.861 548.922 L
271.147 549.319 L
273.433 549.725 L
275.719 550.141 L
278.005 550.566 L
280.29 551.001 L
282.576 551.445 L
284.862 551.899 L
287.148 552.362 L
289.434 552.834 L
291.719 553.316 L
294.005 553.808 L
296.291 554.309 L
298.577 554.819 L
300.862 555.339 L
303.148 555.868 L
305.434 556.407 L
307.72 556.955 L
310.006 557.513 L
312.291 558.08 L
314.577 558.656 L
316.863 559.242 L
319.149 559.838 L
321.435 560.443 L
323.72 561.057 L
326.006 561.681 L
328.292 562.314 L
330.578 562.957 L
332.863 563.609 L
335.149 564.271 L
337.435 564.942 L
339.721 565.622 L
342.007 566.313 L
344.292 567.012 L
346.578 567.721 L
348.864 568.439 L
351.15 569.167 L
353.436 569.905 L
355.721 570.651 L
358.007 571.408 L
360.293 572.174 L
S
GR
GS
0 0.447 0.741 RC
1 LJ
0.5 LW
N
358.007 571.408 M
360.293 572.174 L
362.579 572.949 L
364.864 573.733 L
367.15 574.527 L
369.436 575.331 L
371.722 576.144 L
374.008 576.966 L
376.293 577.798 L
378.579 578.64 L
380.865 579.491 L
383.151 580.351 L
385.437 581.221 L
387.722 582.1 L
390.008 582.989 L
392.294 583.887 L
394.58 584.794 L
396.865 585.711 L
399.151 586.631 L
401.437 587.546 L
403.723 588.456 L
406.009 589.362 L
408.294 590.263 L
410.58 591.159 L
412.866 592.051 L
415.152 592.938 L
417.438 593.821 L
419.723 594.698 L
422.009 595.572 L
424.295 596.441 L
426.581 597.305 L
428.866 598.164 L
431.152 599.019 L
433.438 599.869 L
435.724 600.715 L
438.01 601.556 L
440.295 602.393 L
442.581 603.225 L
444.867 604.052 L
447.153 604.875 L
449.439 605.693 L
451.724 606.506 L
454.01 607.315 L
456.296 608.119 L
458.582 608.919 L
460.868 609.714 L
463.153 610.504 L
465.439 611.29 L
467.725 612.071 L
470.011 612.848 L
472.296 613.619 L
474.582 614.387 L
S
GR
GS
0 0.447 0.741 RC
1 LJ
0.5 LW
N
472.296 613.619 M
474.582 614.387 L
476.868 615.15 L
479.154 615.908 L
481.44 616.661 L
483.725 617.41 L
486.011 618.154 L
488.297 618.894 L
490.583 619.629 L
492.869 620.36 L
495.154 621.086 L
497.44 621.807 L
499.726 622.523 L
502.012 623.235 L
504.297 623.943 L
506.583 624.646 L
508.869 625.344 L
511.155 626.038 L
513.441 626.727 L
515.726 627.411 L
518.012 628.091 L
520.298 628.766 L
522.584 629.436 L
524.87 630.102 L
527.155 630.764 L
529.441 631.42 L
531.727 632.073 L
534.013 632.72 L
536.298 633.363 L
538.584 634.001 L
540.87 634.635 L
543.156 635.264 L
545.442 635.888 L
547.727 636.508 L
550.013 637.124 L
552.299 637.734 L
554.585 638.34 L
556.871 638.942 L
559.156 639.538 L
561.442 640.131 L
563.728 640.718 L
566.014 641.301 L
568.299 641.88 L
570.585 642.453 L
572.871 643.023 L
575.157 643.587 L
577.443 644.147 L
579.728 644.702 L
582.014 645.253 L
584.3 645.799 L
586.586 646.341 L
588.872 646.878 L
S
GR
GS
0 0.447 0.741 RC
1 LJ
0.5 LW
N
586.586 646.341 M
588.872 646.878 L
591.157 647.41 L
593.443 647.938 L
595.729 648.461 L
598.015 648.979 L
600.301 649.493 L
602.586 650.002 L
604.872 650.507 L
607.158 651.007 L
609.444 651.502 L
611.729 651.993 L
614.015 652.479 L
616.301 652.961 L
618.587 653.438 L
620.873 653.91 L
623.158 654.378 L
625.444 654.841 L
627.73 655.3 L
630.016 655.754 L
632.302 656.203 L
634.587 656.648 L
636.873 657.088 L
639.159 657.523 L
641.445 657.954 L
643.73 658.38 L
646.016 658.802 L
648.302 659.219 L
650.588 659.632 L
652.874 660.039 L
655.159 660.443 L
657.445 660.841 L
659.731 661.235 L
662.017 661.625 L
664.303 662.01 L
666.588 662.39 L
668.874 662.765 L
671.16 663.136 L
673.446 663.503 L
675.732 663.864 L
678.017 664.222 L
680.303 664.574 L
682.589 664.922 L
684.875 665.265 L
687.16 665.604 L
689.446 665.938 L
691.732 666.268 L
694.018 666.593 L
696.304 666.913 L
698.589 667.229 L
700.875 667.54 L
703.161 667.846 L
S
GR
GS
0 0.447 0.741 RC
1 LJ
0.5 LW
N
700.875 667.54 M
703.161 667.846 L
705.447 668.148 L
707.732 668.445 L
710.018 668.738 L
712.304 669.026 L
714.59 669.309 L
716.876 669.588 L
719.161 669.862 L
721.447 670.132 L
723.733 670.397 L
726.019 670.657 L
728.305 670.913 L
730.59 671.164 L
732.876 671.41 L
735.162 671.652 L
737.448 671.89 L
739.734 672.122 L
742.019 672.35 L
744.305 672.574 L
746.591 672.793 L
748.877 673.007 L
751.162 673.217 L
753.448 673.422 L
755.734 673.622 L
758.02 673.818 L
760.306 674.009 L
762.591 674.196 L
764.877 674.378 L
767.163 674.555 L
769.449 674.728 L
771.735 674.896 L
774.02 675.06 L
776.306 675.219 L
778.592 675.373 L
780.878 675.523 L
783.163 675.668 L
785.449 675.809 L
787.735 675.945 L
790.021 676.076 L
792.307 676.203 L
794.592 676.325 L
796.878 676.442 L
799.164 676.555 L
801.45 676.663 L
803.736 676.767 L
806.021 676.866 L
808.307 676.96 L
810.593 677.05 L
812.879 677.135 L
815.164 677.216 L
817.45 677.292 L
S
GR
GS
0 0.447 0.741 RC
1 LJ
0.5 LW
N
815.164 677.216 M
817.45 677.292 L
819.736 677.363 L
822.022 677.43 L
824.308 677.492 L
826.593 677.55 L
828.879 677.603 L
831.165 677.651 L
833.451 677.695 L
835.737 677.734 L
838.022 677.769 L
840.308 677.799 L
842.594 677.824 L
844.88 677.845 L
847.165 677.861 L
849.451 677.872 L
851.737 677.879 L
854.023 677.881 L
S
GR
GS
1 GC
N
134 925.5 M
934 925.5 L
934 761.5 L
134 761.5 L
cp
f
GR
GS
0.873 GC
1 LJ
0.5 LW
N
134 925.5 M
134 761.5 L
S
GR
GS
0.873 GC
1 LJ
0.5 LW
N
248.286 925.5 M
248.286 761.5 L
S
GR
GS
0.873 GC
1 LJ
0.5 LW
N
362.571 925.5 M
362.571 761.5 L
S
GR
GS
0.873 GC
1 LJ
0.5 LW
N
476.857 925.5 M
476.857 761.5 L
S
GR
GS
0.873 GC
1 LJ
0.5 LW
N
591.143 925.5 M
591.143 761.5 L
S
GR
GS
0.873 GC
1 LJ
0.5 LW
N
705.429 925.5 M
705.429 761.5 L
S
GR
GS
0.873 GC
1 LJ
0.5 LW
N
819.714 925.5 M
819.714 761.5 L
S
GR
GS
0.873 GC
1 LJ
0.5 LW
N
934 925.5 M
934 761.5 L
S
GR
GS
0.873 GC
1 LJ
0.5 LW
N
934 925.5 M
134 925.5 L
S
GR
GS
0.873 GC
1 LJ
0.5 LW
N
934 892.7 M
134 892.7 L
S
GR
GS
0.873 GC
1 LJ
0.5 LW
N
934 859.9 M
134 859.9 L
S
GR
GS
0.873 GC
1 LJ
0.5 LW
N
934 827.1 M
134 827.1 L
S
GR
GS
0.873 GC
1 LJ
0.5 LW
N
934 794.3 M
134 794.3 L
S
GR
GS
0.873 GC
1 LJ
0.5 LW
N
934 761.5 M
134 761.5 L
S
GR
GS
0.149 GC
2 setlinecap
1 LJ
0.5 LW
N
134 925.5 M
934 925.5 L
S
GR
GS
0.149 GC
2 setlinecap
1 LJ
0.5 LW
N
134 761.5 M
934 761.5 L
S
GR
GS
0.149 GC
2 setlinecap
1 LJ
0.5 LW
N
134 925.5 M
134 917.5 L
S
GR
GS
0.149 GC
2 setlinecap
1 LJ
0.5 LW
N
248.286 925.5 M
248.286 917.5 L
S
GR
GS
0.149 GC
2 setlinecap
1 LJ
0.5 LW
N
362.571 925.5 M
362.571 917.5 L
S
GR
GS
0.149 GC
2 setlinecap
1 LJ
0.5 LW
N
476.857 925.5 M
476.857 917.5 L
S
GR
GS
0.149 GC
2 setlinecap
1 LJ
0.5 LW
N
591.143 925.5 M
591.143 917.5 L
S
GR
GS
0.149 GC
2 setlinecap
1 LJ
0.5 LW
N
705.429 925.5 M
705.429 917.5 L
S
GR
GS
0.149 GC
2 setlinecap
1 LJ
0.5 LW
N
819.714 925.5 M
819.714 917.5 L
S
GR
GS
0.149 GC
2 setlinecap
1 LJ
0.5 LW
N
934 925.5 M
934 917.5 L
S
GR
GS
0.149 GC
2 setlinecap
1 LJ
0.5 LW
N
134 761.5 M
134 769.5 L
S
GR
GS
0.149 GC
2 setlinecap
1 LJ
0.5 LW
N
248.286 761.5 M
248.286 769.5 L
S
GR
GS
0.149 GC
2 setlinecap
1 LJ
0.5 LW
N
362.571 761.5 M
362.571 769.5 L
S
GR
GS
0.149 GC
2 setlinecap
1 LJ
0.5 LW
N
476.857 761.5 M
476.857 769.5 L
S
GR
GS
0.149 GC
2 setlinecap
1 LJ
0.5 LW
N
591.143 761.5 M
591.143 769.5 L
S
GR
GS
0.149 GC
2 setlinecap
1 LJ
0.5 LW
N
705.429 761.5 M
705.429 769.5 L
S
GR
GS
0.149 GC
2 setlinecap
1 LJ
0.5 LW
N
819.714 761.5 M
819.714 769.5 L
S
GR
GS
0.149 GC
2 setlinecap
1 LJ
0.5 LW
N
934 761.5 M
934 769.5 L
S
GR
GS
[1 0 0 1 134 929.5] CT
0.149 GC
/Helvetica 10 F
GS
[1 0 0 1 0 0] CT
-3 8 moveto 
1 -1 scale
(0) t 
GR
GR
GS
[1 0 0 1 248.28572 929.5] CT
0.149 GC
/Helvetica 10 F
GS
[1 0 0 1 0 0] CT
-10 8 moveto 
1 -1 scale
(0.05) t 
GR
GR
GS
[1 0 0 1 362.57144 929.5] CT
0.149 GC
/Helvetica 10 F
GS
[1 0 0 1 0 0] CT
-7 8 moveto 
1 -1 scale
(0.1) t 
GR
GR
GS
[1 0 0 1 476.85715 929.5] CT
0.149 GC
/Helvetica 10 F
GS
[1 0 0 1 0 0] CT
-10 8 moveto 
1 -1 scale
(0.15) t 
GR
GR
GS
[1 0 0 1 591.14288 929.5] CT
0.149 GC
/Helvetica 10 F
GS
[1 0 0 1 0 0] CT
-7 8 moveto 
1 -1 scale
(0.2) t 
GR
GR
GS
[1 0 0 1 705.42859 929.5] CT
0.149 GC
/Helvetica 10 F
GS
[1 0 0 1 0 0] CT
-10 8 moveto 
1 -1 scale
(0.25) t 
GR
GR
GS
[1 0 0 1 819.71429 929.5] CT
0.149 GC
/Helvetica 10 F
GS
[1 0 0 1 0 0] CT
-7 8 moveto 
1 -1 scale
(0.3) t 
GR
GR
GS
[1 0 0 1 934 929.5] CT
0.149 GC
/Helvetica 10 F
GS
[1 0 0 1 0 0] CT
-10 8 moveto 
1 -1 scale
(0.35) t 
GR
GR
GS
[1 0 0 1 534.00037 941] CT
0.149 GC
/Helvetica 11 F
GS
[1 0 0 1 0 0] CT
-27 9 moveto 
1 -1 scale
(Length \(m\)) t 
GR
GR
GS
0.149 GC
2 setlinecap
1 LJ
0.5 LW
N
134 925.5 M
134 761.5 L
S
GR
GS
0.149 GC
2 setlinecap
1 LJ
0.5 LW
N
934 925.5 M
934 761.5 L
S
GR
GS
0.149 GC
2 setlinecap
1 LJ
0.5 LW
N
134 925.5 M
142 925.5 L
S
GR
GS
0.149 GC
2 setlinecap
1 LJ
0.5 LW
N
134 892.7 M
142 892.7 L
S
GR
GS
0.149 GC
2 setlinecap
1 LJ
0.5 LW
N
134 859.9 M
142 859.9 L
S
GR
GS
0.149 GC
2 setlinecap
1 LJ
0.5 LW
N
134 827.1 M
142 827.1 L
S
GR
GS
0.149 GC
2 setlinecap
1 LJ
0.5 LW
N
134 794.3 M
142 794.3 L
S
GR
GS
0.149 GC
2 setlinecap
1 LJ
0.5 LW
N
134 761.5 M
142 761.5 L
S
GR
GS
0.149 GC
2 setlinecap
1 LJ
0.5 LW
N
934 925.5 M
926 925.5 L
S
GR
GS
0.149 GC
2 setlinecap
1 LJ
0.5 LW
N
934 892.7 M
926 892.7 L
S
GR
GS
0.149 GC
2 setlinecap
1 LJ
0.5 LW
N
934 859.9 M
926 859.9 L
S
GR
GS
0.149 GC
2 setlinecap
1 LJ
0.5 LW
N
934 827.1 M
926 827.1 L
S
GR
GS
0.149 GC
2 setlinecap
1 LJ
0.5 LW
N
934 794.3 M
926 794.3 L
S
GR
GS
0.149 GC
2 setlinecap
1 LJ
0.5 LW
N
934 761.5 M
926 761.5 L
S
GR
GS
[1 0 0 1 130 925.5] CT
0.149 GC
/Helvetica 10 F
GS
[1 0 0 1 0 0] CT
-9 2.5 moveto 
1 -1 scale
(-4) t 
GR
GR
GS
[1 0 0 1 130 892.70001] CT
0.149 GC
/Helvetica 10 F
GS
[1 0 0 1 0 0] CT
-9 2.5 moveto 
1 -1 scale
(-3) t 
GR
GR
GS
[1 0 0 1 130 859.90002] CT
0.149 GC
/Helvetica 10 F
GS
[1 0 0 1 0 0] CT
-9 2.5 moveto 
1 -1 scale
(-2) t 
GR
GR
GS
[1 0 0 1 130 827.09998] CT
0.149 GC
/Helvetica 10 F
GS
[1 0 0 1 0 0] CT
-9 2.5 moveto 
1 -1 scale
(-1) t 
GR
GR
GS
[1 0 0 1 130 794.29999] CT
0.149 GC
/Helvetica 10 F
GS
[1 0 0 1 0 0] CT
-6 2.5 moveto 
1 -1 scale
(0) t 
GR
GR
GS
[1 0 0 1 130 761.5] CT
0.149 GC
/Helvetica 10 F
GS
[1 0 0 1 0 0] CT
-6 2.5 moveto 
1 -1 scale
(1) t 
GR
GR
GS
[0 -1 1 0 115 892] CT
0.149 GC
/Helvetica 11 F
GS
[1 0 0 1 0 0] CT
0 0 moveto 
1 -1 scale
(EI*Deflection \(Nm) t 
GR
GR
GS
[0 -1 1 0 110 804] CT
0.149 GC
/Helvetica 8 F
GS
[1 0 0 1 0 0] CT
0 0 moveto 
1 -1 scale
(3) t 
GR
GR
GS
[0 -1 1 0 115 799] CT
0.149 GC
/Helvetica 11 F
GS
[1 0 0 1 0 0] CT
0 0 moveto 
1 -1 scale
(\)) t 
GR
GR
GS
[1 0 0 1 534.00049 760.125] CT
/Helvetica-Bold 11 F
GS
[1 0 0 1 0 0] CT
-191 -3 moveto 
1 -1 scale
(Vertical Deflection \(EI*Y\) of Alternating Load: Fcf in Negative Y Direction.) t 
GR
GR
GS
0 0.447 0.741 RC
1 LJ
0.5 LW
N
134 797.184 M
136.286 797.067 L
138.572 796.949 L
140.857 796.832 L
143.143 796.715 L
145.429 796.597 L
147.715 796.48 L
150.001 796.363 L
152.286 796.246 L
154.572 796.13 L
156.858 796.013 L
159.144 795.897 L
161.429 795.781 L
163.715 795.665 L
166.001 795.549 L
168.287 795.434 L
170.573 795.319 L
172.858 795.204 L
175.144 795.09 L
177.43 794.976 L
179.716 794.862 L
182.002 794.749 L
184.287 794.636 L
186.573 794.523 L
188.859 794.411 L
191.145 794.3 L
193.43 794.189 L
195.716 794.079 L
198.002 793.969 L
200.288 793.86 L
202.574 793.751 L
204.859 793.644 L
207.145 793.537 L
209.431 793.431 L
211.717 793.327 L
214.003 793.223 L
216.288 793.121 L
218.574 793.019 L
220.86 792.919 L
223.146 792.821 L
225.431 792.724 L
227.717 792.628 L
230.003 792.534 L
232.289 792.441 L
234.575 792.35 L
236.86 792.261 L
239.146 792.174 L
241.432 792.089 L
243.718 792.005 L
246.004 791.924 L
S
GR
GS
0 0.447 0.741 RC
1 LJ
0.5 LW
N
243.718 792.005 M
246.004 791.924 L
248.289 791.844 L
250.575 791.767 L
252.861 791.692 L
255.147 791.619 L
257.432 791.549 L
259.718 791.481 L
262.004 791.415 L
264.29 791.352 L
266.576 791.292 L
268.861 791.234 L
271.147 791.179 L
273.433 791.127 L
275.719 791.078 L
278.005 791.031 L
280.29 790.988 L
282.576 790.947 L
284.862 790.91 L
287.148 790.876 L
289.434 790.846 L
291.719 790.818 L
294.005 790.794 L
296.291 790.774 L
298.577 790.757 L
300.862 790.743 L
303.148 790.733 L
305.434 790.727 L
307.72 790.725 L
310.006 790.727 L
312.291 790.732 L
314.577 790.742 L
316.863 790.755 L
319.149 790.773 L
321.435 790.795 L
323.72 790.821 L
326.006 790.852 L
328.292 790.887 L
330.578 790.926 L
332.863 790.97 L
335.149 791.018 L
337.435 791.071 L
339.721 791.129 L
342.007 791.192 L
344.292 791.259 L
346.578 791.331 L
348.864 791.409 L
351.15 791.491 L
353.436 791.579 L
355.721 791.671 L
358.007 791.769 L
360.293 791.872 L
S
GR
GS
0 0.447 0.741 RC
1 LJ
0.5 LW
N
358.007 791.769 M
360.293 791.872 L
362.579 791.981 L
364.864 792.095 L
367.15 792.215 L
369.436 792.34 L
371.722 792.47 L
374.008 792.607 L
376.293 792.749 L
378.579 792.897 L
380.865 793.051 L
383.151 793.211 L
385.437 793.377 L
387.722 793.549 L
390.008 793.728 L
392.294 793.912 L
394.58 794.103 L
396.865 794.3 L
399.151 794.504 L
401.437 794.714 L
403.723 794.93 L
406.009 795.153 L
408.294 795.382 L
410.58 795.617 L
412.866 795.858 L
415.152 796.106 L
417.438 796.36 L
419.723 796.62 L
422.009 796.886 L
424.295 797.158 L
426.581 797.437 L
428.866 797.721 L
431.152 798.011 L
433.438 798.307 L
435.724 798.61 L
438.01 798.918 L
440.295 799.232 L
442.581 799.551 L
444.867 799.877 L
447.153 800.208 L
449.439 800.545 L
451.724 800.888 L
454.01 801.236 L
456.296 801.59 L
458.582 801.949 L
460.868 802.315 L
463.153 802.685 L
465.439 803.061 L
467.725 803.443 L
470.011 803.83 L
472.296 804.222 L
474.582 804.62 L
S
GR
GS
0 0.447 0.741 RC
1 LJ
0.5 LW
N
472.296 804.222 M
474.582 804.62 L
476.868 805.023 L
479.154 805.432 L
481.44 805.846 L
483.725 806.265 L
486.011 806.689 L
488.297 807.118 L
490.583 807.553 L
492.869 807.992 L
495.154 808.437 L
497.44 808.887 L
499.726 809.342 L
502.012 809.801 L
504.297 810.266 L
506.583 810.736 L
508.869 811.21 L
511.155 811.69 L
513.441 812.174 L
515.726 812.663 L
518.012 813.157 L
520.298 813.655 L
522.584 814.158 L
524.87 814.666 L
527.155 815.179 L
529.441 815.696 L
531.727 816.217 L
534.013 816.744 L
536.298 817.274 L
538.584 817.81 L
540.87 818.349 L
543.156 818.893 L
545.442 819.441 L
547.727 819.994 L
550.013 820.551 L
552.299 821.113 L
554.585 821.678 L
556.871 822.248 L
559.156 822.822 L
561.442 823.4 L
563.728 823.982 L
566.014 824.568 L
568.299 825.159 L
570.585 825.753 L
572.871 826.352 L
575.157 826.954 L
577.443 827.56 L
579.728 828.17 L
582.014 828.784 L
584.3 829.402 L
586.586 830.024 L
588.872 830.649 L
S
GR
GS
0 0.447 0.741 RC
1 LJ
0.5 LW
N
586.586 830.024 M
588.872 830.649 L
591.157 831.278 L
593.443 831.911 L
595.729 832.547 L
598.015 833.188 L
600.301 833.831 L
602.586 834.479 L
604.872 835.129 L
607.158 835.784 L
609.444 836.442 L
611.729 837.103 L
614.015 837.767 L
616.301 838.435 L
618.587 839.107 L
620.873 839.781 L
623.158 840.459 L
625.444 841.141 L
627.73 841.825 L
630.016 842.513 L
632.302 843.203 L
634.587 843.897 L
636.873 844.594 L
639.159 845.294 L
641.445 845.997 L
643.73 846.703 L
646.016 847.412 L
648.302 848.124 L
650.588 848.839 L
652.874 849.557 L
655.159 850.277 L
657.445 851.001 L
659.731 851.727 L
662.017 852.456 L
664.303 853.187 L
666.588 853.921 L
668.874 854.658 L
671.16 855.398 L
673.446 856.14 L
675.732 856.884 L
678.017 857.631 L
680.303 858.381 L
682.589 859.133 L
684.875 859.887 L
687.16 860.644 L
689.446 861.403 L
691.732 862.164 L
694.018 862.928 L
696.304 863.694 L
698.589 864.462 L
700.875 865.233 L
703.161 866.005 L
S
GR
GS
0 0.447 0.741 RC
1 LJ
0.5 LW
N
700.875 865.233 M
703.161 866.005 L
705.447 866.78 L
707.732 867.556 L
710.018 868.335 L
712.304 869.116 L
714.59 869.899 L
716.876 870.684 L
719.161 871.47 L
721.447 872.259 L
723.733 873.049 L
726.019 873.842 L
728.305 874.636 L
730.59 875.432 L
732.876 876.229 L
735.162 877.029 L
737.448 877.83 L
739.734 878.632 L
742.019 879.436 L
744.305 880.242 L
746.591 881.05 L
748.877 881.859 L
751.162 882.669 L
753.448 883.481 L
755.734 884.294 L
758.02 885.108 L
760.306 885.924 L
762.591 886.742 L
764.877 887.56 L
767.163 888.38 L
769.449 889.201 L
771.735 890.023 L
774.02 890.847 L
776.306 891.671 L
778.592 892.497 L
780.878 893.323 L
783.163 894.151 L
785.449 894.98 L
787.735 895.809 L
790.021 896.64 L
792.307 897.471 L
794.592 898.304 L
796.878 899.137 L
799.164 899.971 L
801.45 900.805 L
803.736 901.641 L
806.021 902.477 L
808.307 903.314 L
810.593 904.152 L
812.879 904.99 L
815.164 905.828 L
817.45 906.668 L
S
GR
GS
0 0.447 0.741 RC
1 LJ
0.5 LW
N
815.164 905.828 M
817.45 906.668 L
819.736 907.507 L
822.022 908.348 L
824.308 909.188 L
826.593 910.029 L
828.879 910.871 L
831.165 911.713 L
833.451 912.555 L
835.737 913.397 L
838.022 914.24 L
840.308 915.083 L
842.594 915.926 L
844.88 916.77 L
847.165 917.613 L
849.451 918.456 L
851.737 919.3 L
854.023 920.144 L
S
GR
%%Trailer
%%Pages: 1
%%EOF
