\relax 
\providecommand\hyper@newdestlabel[2]{}
\bibstyle{ieeetr}
\providecommand\HyperFirstAtBeginDocument{\AtBeginDocument}
\HyperFirstAtBeginDocument{\ifx\hyper@anchor\@undefined
\global\let\oldcontentsline\contentsline
\gdef\contentsline#1#2#3#4{\oldcontentsline{#1}{#2}{#3}}
\global\let\oldnewlabel\newlabel
\gdef\newlabel#1#2{\newlabelxx{#1}#2}
\gdef\newlabelxx#1#2#3#4#5#6{\oldnewlabel{#1}{{#2}{#3}}}
\AtEndDocument{\ifx\hyper@anchor\@undefined
\let\contentsline\oldcontentsline
\let\newlabel\oldnewlabel
\fi}
\fi}
\global\let\hyper@last\relax 
\gdef\HyperFirstAtBeginDocument#1{#1}
\providecommand\HyField@AuxAddToFields[1]{}
\providecommand\HyField@AuxAddToCoFields[2]{}
\select@language{english}
\@writefile{toc}{\select@language{english}}
\@writefile{lof}{\select@language{english}}
\@writefile{lot}{\select@language{english}}
\@writefile{toc}{\contentsline {section}{\numberline {1} \phantom {}System Design Overview}{1}{section.1}}
\@writefile{lof}{\contentsline {figure}{\numberline {1}{\ignorespaces Phase I software design\relax }}{2}{figure.caption.1}}
\providecommand*\caption@xref[2]{\@setref\relax\@undefined{#1}}
\newlabel{fig:phase1_diagram}{{1}{2}{Phase I software design\relax }{figure.caption.1}{}}
\@writefile{toc}{\contentsline {section}{\numberline {2} \phantom {}Hardware Design and Software Interfacing Issues}{3}{section.2}}
\@writefile{toc}{\contentsline {subsection}{\numberline {2.1} \phantom {}Hardware Design \& Interfacing}{3}{subsection.2.1}}
\@writefile{toc}{\contentsline {subsection}{\numberline {2.2} \phantom {}Design Decisions}{3}{subsection.2.2}}
\@writefile{toc}{\contentsline {subsection}{\numberline {2.3} \phantom {}Hardware \& Software Interfacing Testing and Debugging Strategy}{3}{subsection.2.3}}
\@writefile{toc}{\contentsline {section}{\numberline {3} \phantom {}Audio Playback Software Issues}{5}{section.3}}
\@writefile{toc}{\contentsline {subsection}{\numberline {3.1} \phantom {}Audio Playback Issues}{5}{subsection.3.1}}
\newlabel{sec:playback}{{3.1}{5}{}{subsection.3.1}{}}
\@writefile{toc}{\contentsline {subsubsection}{\numberline {3.1.1} \phantom {}Normal Speed}{5}{subsubsection.3.1.1}}
\@writefile{toc}{\contentsline {subsubsection}{\numberline {3.1.2} \phantom {}Double Speed}{5}{subsubsection.3.1.2}}
\@writefile{toc}{\contentsline {subsubsection}{\numberline {3.1.3} \phantom {}Half Speed}{6}{subsubsection.3.1.3}}
\@writefile{toc}{\contentsline {subsubsection}{\numberline {3.1.4} \phantom {}Delay Channel}{6}{subsubsection.3.1.4}}
\@writefile{toc}{\contentsline {subsubsection}{\numberline {3.1.5} \phantom {}Reverse Play}{7}{subsubsection.3.1.5}}
\@writefile{toc}{\contentsline {subsection}{\numberline {3.2} \phantom {}Efficient Software Issues}{7}{subsection.3.2}}
\@writefile{toc}{\contentsline {subsection}{\numberline {3.3} \phantom {}Software Design Decisions}{7}{subsection.3.3}}
\@writefile{toc}{\contentsline {subsection}{\numberline {3.4} \phantom {}Testing and Debugging of Audio Playback Software}{8}{subsection.3.4}}
\newlabel{sec:testing_debug_software}{{3.4}{8}{}{subsection.3.4}{}}
\@writefile{toc}{\contentsline {section}{\numberline {4} \phantom {}Future Extension}{10}{section.4}}
\@writefile{toc}{\contentsline {section}{\numberline {5} \phantom {}Contribution and Reflection}{11}{section.5}}
\@writefile{toc}{\contentsline {section}{\numberline {Appendix A} \phantom {Appendix }Interpolation Implementation of Half Speed Playback Mode}{12}{appendix.A}}
\newlabel{sec:half_speed}{{A}{12}{}{appendix.A}{}}
\newlabel{lst:half_speed}{{1}{12}{Interpolation for half speed playback}{lstlisting.1}{}}
\@writefile{lol}{\contentsline {lstlisting}{\numberline {1}Interpolation for half speed playback}{12}{lstlisting.1}}
