\relax 
\providecommand\hyper@newdestlabel[2]{}
\bibstyle{ieeetr}
\providecommand\HyperFirstAtBeginDocument{\AtBeginDocument}
\HyperFirstAtBeginDocument{\ifx\hyper@anchor\@undefined
\global\let\oldcontentsline\contentsline
\gdef\contentsline#1#2#3#4{\oldcontentsline{#1}{#2}{#3}}
\global\let\oldnewlabel\newlabel
\gdef\newlabel#1#2{\newlabelxx{#1}#2}
\gdef\newlabelxx#1#2#3#4#5#6{\oldnewlabel{#1}{{#2}{#3}}}
\AtEndDocument{\ifx\hyper@anchor\@undefined
\let\contentsline\oldcontentsline
\let\newlabel\oldnewlabel
\fi}
\fi}
\global\let\hyper@last\relax 
\gdef\HyperFirstAtBeginDocument#1{#1}
\providecommand\HyField@AuxAddToFields[1]{}
\providecommand\HyField@AuxAddToCoFields[2]{}
\@writefile{toc}{\contentsline {section}{\numberline {1} \phantom {}Introduction}{1}{section.1}}
\newlabel{sec:intro}{{1}{1}{}{section.1}{}}
\@writefile{lof}{\contentsline {figure}{\numberline {1}{\ignorespaces Tata Motors AirPod\relax }}{1}{figure.caption.4}}
\providecommand*\caption@xref[2]{\@setref\relax\@undefined{#1}}
\newlabel{fig:airpod}{{1}{1}{Tata Motors AirPod\relax }{figure.caption.4}{}}
\@writefile{lof}{\contentsline {figure}{\numberline {2}{\ignorespaces AirPod charging and operation schematic\relax }}{1}{figure.caption.5}}
\newlabel{fig:schematic}{{2}{1}{AirPod charging and operation schematic\relax }{figure.caption.5}{}}
\@writefile{toc}{\contentsline {section}{\numberline {2} \phantom {}Analysis}{2}{section.2}}
\newlabel{sec:analysis}{{2}{2}{}{section.2}{}}
\@writefile{toc}{\contentsline {subsection}{\numberline {2.1} \phantom {}Assumptions and Simplifications}{2}{subsection.2.1}}
\newlabel{sec:assume}{{2.1}{2}{}{subsection.2.1}{}}
\@writefile{toc}{\contentsline {subsection}{\numberline {2.2} \phantom {}Control Volumes and Calculations}{2}{subsection.2.2}}
\newlabel{sec:control_and_calc}{{2.2}{2}{}{subsection.2.2}{}}
\@writefile{toc}{\contentsline {subsubsection}{\numberline {2.2.1} \phantom {}Thermodynamic Analysis}{2}{subsubsection.2.2.1}}
\newlabel{thermo}{{2.2.1}{2}{}{subsubsection.2.2.1}{}}
\@writefile{lot}{\contentsline {table}{\numberline {1}{\ignorespaces Initial Conditions\relax }}{2}{table.caption.6}}
\newlabel{table:initial_conditions}{{1}{2}{Initial Conditions\relax }{table.caption.6}{}}
\newlabel{eq:Wcomp_specific}{{1}{3}{}{equation.2.1}{}}
\newlabel{eq:T_2}{{2}{3}{}{equation.2.2}{}}
\newlabel{eq:T_3}{{3}{3}{}{equation.2.3}{}}
\newlabel{eq:m_full}{{4}{3}{}{equation.2.4}{}}
\newlabel{eq:W_comp}{{5}{3}{}{equation.2.5}{}}
\@writefile{lof}{\contentsline {figure}{\numberline {3}{\ignorespaces Control volume of the charging processes\relax }}{4}{figure.caption.7}}
\newlabel{fig:control_vol_charge}{{3}{4}{Control volume of the charging processes\relax }{figure.caption.7}{}}
\newlabel{eq:Q_ac}{{6}{4}{}{equation.2.6}{}}
\@writefile{lot}{\contentsline {table}{\numberline {2}{\ignorespaces Specific Heat Constants of Air from Table A-2\relax }}{4}{table.caption.8}}
\newlabel{table:Cp_air}{{2}{4}{Specific Heat Constants of Air from Table A-2\relax }{table.caption.8}{}}
\newlabel{eq:Cp_T1}{{7}{4}{}{equation.2.7}{}}
\newlabel{eq:m_empty}{{8}{4}{}{equation.2.8}{}}
\newlabel{eq:H_1}{{9}{4}{}{equation.2.9}{}}
\newlabel{eq:Cv_T1}{{10}{5}{}{equation.2.10}{}}
\newlabel{eq:U1}{{11}{5}{}{equation.2.11}{}}
\newlabel{eq:Cp_T3}{{12}{5}{}{equation.2.12}{}}
\newlabel{eq:Cv_T3}{{13}{5}{}{equation.2.13}{}}
\newlabel{eq:U3}{{14}{5}{}{equation.2.14}{}}
\newlabel{eq:Q_ac_2}{{15}{5}{}{equation.2.15}{}}
\@writefile{lof}{\contentsline {figure}{\numberline {4}{\ignorespaces Control volume of the driving processes\relax }}{6}{figure.caption.9}}
\newlabel{fig:control_vol_driving}{{4}{6}{Control volume of the driving processes\relax }{figure.caption.9}{}}
\newlabel{eq:Wturb}{{16}{6}{}{equation.2.16}{}}
\newlabel{eq:mass_ratio}{{17}{6}{}{equation.2.17}{}}
\newlabel{eq:efficiency}{{18}{6}{}{equation.2.18}{}}
\@writefile{toc}{\contentsline {subsubsection}{\numberline {2.2.2} \phantom {}Mechanics Analysis}{7}{subsubsection.2.2.2}}
\newlabel{mech}{{2.2.2}{7}{}{subsubsection.2.2.2}{}}
\@writefile{lot}{\contentsline {table}{\numberline {3}{\ignorespaces Initial Conditions\relax }}{7}{table.caption.10}}
\newlabel{table:initial_conditions_mech}{{3}{7}{Initial Conditions\relax }{table.caption.10}{}}
\newlabel{eq:x_acc}{{19}{7}{}{equation.2.19}{}}
\newlabel{eq:accel}{{20}{7}{}{equation.2.20}{}}
\newlabel{eq:force_bal}{{21}{7}{}{equation.2.21}{}}
\newlabel{eq:m_total}{{22}{7}{}{equation.2.22}{}}
\@writefile{lof}{\contentsline {figure}{\numberline {5}{\ignorespaces Control volume of the driving processes\relax }}{8}{figure.caption.11}}
\newlabel{fig:force_balance}{{5}{8}{Control volume of the driving processes\relax }{figure.caption.11}{}}
\newlabel{eq:forces}{{23}{8}{}{equation.2.23}{}}
\newlabel{eq:w_acc}{{24}{8}{}{equation.2.24}{}}
\newlabel{eq:m_post_accel}{{25}{8}{}{equation.2.25}{}}
\newlabel{eq:m_total-empty}{{26}{8}{}{equation.2.26}{}}
\newlabel{eq:m_average-cv}{{27}{9}{}{equation.2.27}{}}
\newlabel{eq:x_cv}{{28}{9}{}{equation.2.28}{}}
\newlabel{eq:x_max}{{29}{9}{}{equation.2.29}{}}
\@writefile{lot}{\contentsline {table}{\numberline {4}{\ignorespaces AirCar range at initial conditions from Table\nobreakspace  {}\ref  {table:initial_conditions}\relax }}{9}{table.caption.12}}
\newlabel{table:distances}{{4}{9}{AirCar range at initial conditions from Table~\ref {table:initial_conditions}\relax }{table.caption.12}{}}
\@writefile{toc}{\contentsline {subsection}{\numberline {2.3} \phantom {}Variable Ambient Temperature}{10}{subsection.2.3}}
\@writefile{toc}{\contentsline {subsection}{\numberline {2.4} \phantom {}Variable Pressure Ratio}{10}{subsection.2.4}}
\@writefile{toc}{\contentsline {subsection}{\numberline {2.5} \phantom {}Variable Effectiveness of the Air Cooler}{10}{subsection.2.5}}
\@writefile{lot}{\contentsline {table}{\numberline {5}{\ignorespaces Effects of Varying Ambient Temperature\relax }}{11}{table.caption.16}}
\newlabel{table:summary_temp}{{5}{11}{Effects of Varying Ambient Temperature\relax }{table.caption.16}{}}
\@writefile{lot}{\contentsline {table}{\numberline {6}{\ignorespaces Effects of Varying Pressure Ratio $P_{2}/P_{1}$\relax }}{11}{table.caption.17}}
\newlabel{table:summary_pressure}{{6}{11}{Effects of Varying Pressure Ratio $P_{2}/P_{1}$\relax }{table.caption.17}{}}
\@writefile{lot}{\contentsline {table}{\numberline {7}{\ignorespaces Effects of Varying Effectiveness of the Air Cooler\relax }}{11}{table.caption.18}}
\newlabel{table:summary_effectiveness}{{7}{11}{Effects of Varying Effectiveness of the Air Cooler\relax }{table.caption.18}{}}
\@writefile{lof}{\contentsline {figure}{\numberline {6}{\ignorespaces Effects of Varying Ambient Temperature\relax }}{12}{figure.caption.13}}
\newlabel{fig:variable_temp}{{6}{12}{Effects of Varying Ambient Temperature\relax }{figure.caption.13}{}}
\@writefile{lof}{\contentsline {figure}{\numberline {7}{\ignorespaces Effects of Varying Pressure Ratio $P_{2}/P_{1}$\relax }}{13}{figure.caption.14}}
\newlabel{fig:variable_pressure}{{7}{13}{Effects of Varying Pressure Ratio $P_{2}/P_{1}$\relax }{figure.caption.14}{}}
\@writefile{lof}{\contentsline {figure}{\numberline {8}{\ignorespaces Effects of Varying Pressure Ratio $P_{2}/P_{1}$\relax }}{14}{figure.caption.15}}
\newlabel{fig:variable_effectiveness}{{8}{14}{Effects of Varying Pressure Ratio $P_{2}/P_{1}$\relax }{figure.caption.15}{}}
\@writefile{toc}{\contentsline {subsection}{\numberline {2.6} \phantom {}Discussion and Recommendations}{15}{subsection.2.6}}
